Date,High,Low,Open,Close,Volume,Adj Close
2016-01-04,26.8799991607666,26.309999465942383,26.799999237060547,26.84000015258789,1082400.0,21.836912155151367
2016-01-05,27.3700008392334,26.75,26.90999984741211,27.329999923706055,783000.0,22.235572814941406
2016-01-06,27.260000228881836,26.93000030517578,27.079999923706055,27.1200008392334,800600.0,22.064720153808594
2016-01-07,26.809999465942383,26.110000610351562,26.729999542236328,26.219999313354492,824300.0,21.33248519897461
2016-01-08,26.6200008392334,25.510000228881836,26.3799991607666,25.6200008392334,1659300.0,20.844329833984375
2016-01-11,26.040000915527344,25.440000534057617,25.709999084472656,25.90999984741211,1159900.0,21.08026885986328
2016-01-12,26.139999389648438,25.170000076293945,26.06999969482422,25.3700008392334,1076000.0,20.640926361083984
2016-01-13,25.780000686645508,25.040000915527344,25.40999984741211,25.059999465942383,938000.0,20.388713836669922
2016-01-14,25.389999389648438,24.709999084472656,25.09000015258789,25.110000610351562,1260300.0,20.42938804626465
2016-01-15,24.989999771118164,24.31999969482422,24.700000762939453,24.84000015258789,1142300.0,20.2097225189209
2016-01-19,25.149999618530273,24.540000915527344,25.110000610351562,24.829999923706055,1003000.0,20.20158576965332
2016-01-20,24.84000015258789,23.639999389648438,24.56999969482422,24.559999465942383,1475300.0,19.981910705566406
2016-01-21,25.34000015258789,24.389999389648438,24.670000076293945,24.8700008392334,1183400.0,20.234134674072266
2016-01-22,25.700000762939453,25.149999618530273,25.170000076293945,25.510000228881836,1123400.0,20.754831314086914
2016-01-25,25.489999771118164,25.15999984741211,25.479999542236328,25.270000457763672,1373200.0,20.5595645904541
2016-01-26,25.81999969482422,25.350000381469727,25.459999084472656,25.809999465942383,1949100.0,20.998910903930664
2016-01-27,26.209999084472656,25.600000381469727,25.709999084472656,25.829999923706055,1192100.0,21.015180587768555
2016-01-28,26.3799991607666,25.8700008392334,26.1299991607666,26.100000381469727,903100.0,21.23485565185547
2016-01-29,27.649999618530273,26.209999084472656,26.399999618530273,27.540000915527344,3934500.0,22.40642738342285
2016-02-01,27.40999984741211,26.920000076293945,27.239999771118164,27.079999923706055,1458600.0,22.032176971435547
2016-02-02,26.989999771118164,26.350000381469727,26.899999618530273,26.6200008392334,1161800.0,21.657922744750977
2016-02-03,27.15999984741211,26.290000915527344,26.809999465942383,27.100000381469727,1530800.0,22.048446655273438
2016-02-04,27.549999237060547,26.90999984741211,27.1299991607666,27.350000381469727,1644800.0,22.251848220825195
2016-02-05,27.149999618530273,26.719999313354492,27.020000457763672,27.0,1514700.0,21.967090606689453
2016-02-08,26.809999465942383,26.079999923706055,26.760000228881836,26.670000076293945,3336600.0,21.698604583740234
2016-02-09,26.760000228881836,26.270000457763672,26.40999984741211,26.559999465942383,3524100.0,21.60910415649414
2016-02-10,27.0,26.450000762939453,26.59000015258789,26.729999542236328,1488300.0,21.747417449951172
2016-02-11,26.75,26.15999984741211,26.239999771118164,26.610000610351562,1520500.0,21.6497859954834
2016-02-12,27.43000030517578,26.729999542236328,26.790000915527344,27.399999618530273,1066600.0,22.292526245117188
2016-02-16,28.639999389648438,27.489999771118164,27.719999313354492,28.6299991607666,1434300.0,23.293249130249023
2016-02-17,29.18000030517578,28.290000915527344,28.700000762939453,29.059999465942383,1016900.0,23.643095016479492
2016-02-18,29.469999313354492,28.670000076293945,28.860000610351562,29.270000457763672,1194700.0,23.81395149230957
2016-02-19,29.190000534057617,28.56999969482422,29.09000015258789,28.950000762939453,966100.0,23.55360221862793
2016-02-22,29.530000686645508,28.950000762939453,29.260000228881836,29.450000762939453,866400.0,23.960399627685547
2016-02-23,29.639999389648438,29.1299991607666,29.3700008392334,29.260000228881836,879800.0,23.805816650390625
2016-02-24,29.170000076293945,28.799999237060547,29.110000610351562,29.1299991607666,1180500.0,23.70004653930664
2016-02-25,29.950000762939453,28.790000915527344,29.31999969482422,29.93000030517578,1151000.0,24.350923538208008
2016-02-26,30.0,29.43000030517578,29.850000381469727,29.559999465942383,907100.0,24.049894332885742
2016-02-29,29.969999313354492,29.270000457763672,29.600000381469727,29.3799991607666,1372300.0,23.903444290161133
2016-03-01,30.030000686645508,29.510000228881836,29.520000457763672,29.969999313354492,1311700.0,24.383468627929688
2016-03-02,30.0,29.520000457763672,29.889999389648438,29.989999771118164,1238000.0,24.399738311767578
2016-03-03,30.290000915527344,29.15999984741211,29.5,30.200000762939453,1529300.0,24.974483489990234
2016-03-04,30.559999465942383,29.860000610351562,30.190000534057617,29.989999771118164,1014400.0,24.800819396972656
2016-03-07,30.84000015258789,29.690000534057617,29.770000457763672,30.829999923706055,1362900.0,25.495473861694336
2016-03-08,31.049999237060547,30.540000915527344,30.700000762939453,30.940000534057617,1572500.0,25.58643913269043
2016-03-09,31.56999969482422,30.719999313354492,31.040000915527344,31.459999084472656,1849600.0,26.016468048095703
2016-03-10,31.610000610351562,30.31999969482422,31.5,30.600000381469727,1703200.0,25.30527114868164
2016-03-11,31.829999923706055,30.670000076293945,30.93000030517578,31.790000915527344,1381400.0,26.289363861083984
2016-03-14,31.959999084472656,31.1299991607666,31.770000457763672,31.68000030517578,1003700.0,26.198396682739258
2016-03-15,31.6200008392334,31.06999969482422,31.440000534057617,31.190000534057617,875400.0,25.79318618774414
2016-03-16,31.59000015258789,30.90999984741211,31.06999969482422,31.479999542236328,1066500.0,26.033004760742188
2016-03-17,32.68000030517578,31.510000228881836,31.6200008392334,32.619998931884766,1484300.0,26.975746154785156
2016-03-18,33.16999816894531,32.380001068115234,32.65999984741211,32.779998779296875,2280900.0,27.108062744140625
2016-03-21,32.599998474121094,31.93000030517578,32.56999969482422,32.38999938964844,893200.0,26.785545349121094
2016-03-22,32.9900016784668,32.18000030517578,32.2599983215332,32.959999084472656,1208700.0,27.256916046142578
2016-03-23,32.9900016784668,32.63999938964844,32.88999938964844,32.849998474121094,1187000.0,27.165950775146484
2016-03-24,32.81999969482422,32.380001068115234,32.70000076293945,32.77000045776367,801900.0,27.09979248046875
2016-03-28,33.36000061035156,32.810001373291016,32.83000183105469,33.09000015258789,769300.0,27.36442756652832
2016-03-29,33.52000045776367,32.470001220703125,33.0,33.5,1114600.0,27.703481674194336
2016-03-30,33.849998474121094,33.400001525878906,33.59000015258789,33.61000061035156,798200.0,27.794452667236328
2016-03-31,34.150001525878906,33.5,33.58000183105469,33.90999984741211,1221100.0,28.042537689208984
2016-04-01,33.54999923706055,32.27000045776367,33.2599983215332,32.72999954223633,2170800.0,27.066713333129883
2016-04-04,32.79999923706055,32.47999954223633,32.720001220703125,32.720001220703125,1104900.0,27.058446884155273
2016-04-05,32.810001373291016,32.349998474121094,32.61000061035156,32.619998931884766,1206000.0,26.975746154785156
2016-04-06,32.59000015258789,32.119998931884766,32.59000015258789,32.5099983215332,784000.0,26.884780883789062
2016-04-07,32.540000915527344,32.209999084472656,32.38999938964844,32.279998779296875,918100.0,26.694581985473633
2016-04-08,32.849998474121094,32.459999084472656,32.5,32.68000030517578,1502900.0,27.02536392211914
2016-04-11,33.08000183105469,32.68000030517578,32.79999923706055,32.79999923706055,1188300.0,27.124603271484375
2016-04-12,33.209999084472656,32.75,32.91999816894531,33.15999984741211,1027800.0,27.422311782836914
2016-04-13,33.31999969482422,32.95000076293945,33.31999969482422,33.20000076293945,1356000.0,27.455392837524414
2016-04-14,33.279998779296875,32.91999816894531,33.099998474121094,33.27000045776367,1818200.0,27.51328468322754
2016-04-15,33.709999084472656,32.900001525878906,33.189998626708984,33.56999969482422,1689900.0,27.761371612548828
2016-04-18,35.06999969482422,33.90999984741211,34.040000915527344,34.75,2873400.0,28.737194061279297
2016-04-19,35.22999954223633,34.47999954223633,34.75,35.0099983215332,3121200.0,28.952207565307617
2016-04-20,35.47999954223633,35.02000045776367,35.099998474121094,35.04999923706055,3443700.0,28.98529052734375
2016-04-21,35.25,34.5099983215332,35.099998474121094,35.209999084472656,10341300.0,29.117605209350586
2016-04-22,35.880001068115234,35.099998474121094,35.16999816894531,35.56999969482422,3870600.0,29.415311813354492
2016-04-25,35.52000045776367,35.25,35.439998626708984,35.5,1871500.0,29.357423782348633
2016-04-26,36.0,35.52000045776367,35.68000030517578,35.970001220703125,2292900.0,29.746095657348633
2016-04-27,36.279998779296875,35.7599983215332,35.970001220703125,36.02000045776367,2289600.0,29.787443161010742
2016-04-28,36.619998931884766,35.84000015258789,35.849998474121094,36.2400016784668,2936700.0,29.969383239746094
2016-04-29,36.54999923706055,36.150001525878906,36.310001373291016,36.529998779296875,3531200.0,30.209197998046875
2016-05-02,37.61000061035156,36.5,37.36000061035156,36.599998474121094,12658100.0,30.26708221435547
2016-05-03,36.560001373291016,36.119998931884766,36.52000045776367,36.5,11558600.0,30.18439292907715
2016-05-04,37.290000915527344,36.36000061035156,36.36000061035156,37.099998474121094,3543400.0,30.680570602416992
2016-05-05,37.380001068115234,36.95000076293945,37.27000045776367,37.27000045776367,1444700.0,30.821157455444336
2016-05-06,38.08000183105469,37.119998931884766,37.189998626708984,38.0,2093000.0,31.42484474182129
2016-05-09,38.63999938964844,37.93000030517578,37.93000030517578,38.150001525878906,2755900.0,31.548892974853516
2016-05-10,38.25,37.689998626708984,38.150001525878906,38.09000015258789,2866500.0,31.49927520751953
2016-05-11,38.04999923706055,37.29999923706055,38.04999923706055,37.4900016784668,2606600.0,31.003095626831055
2016-05-12,38.209999084472656,37.5,37.5,38.08000183105469,1696500.0,31.491003036499023
2016-05-13,38.119998931884766,37.58000183105469,38.02000045776367,37.88999938964844,1296500.0,31.333877563476562
2016-05-16,38.22999954223633,37.810001373291016,37.95000076293945,38.04999923706055,1866800.0,31.466190338134766
2016-05-17,38.150001525878906,37.45000076293945,37.97999954223633,37.70000076293945,1847900.0,31.1767520904541
2016-05-18,37.58000183105469,36.2599983215332,37.560001373291016,36.599998474121094,2654500.0,30.26708221435547
2016-05-19,36.5,35.7599983215332,36.31999969482422,36.33000183105469,2543000.0,30.043806076049805
2016-05-20,36.66999816894531,36.029998779296875,36.540000915527344,36.189998626708984,1968700.0,29.928028106689453
2016-05-23,36.20000076293945,35.709999084472656,36.15999984741211,36.0,1704300.0,29.770904541015625
2016-05-24,36.72999954223633,36.099998474121094,36.220001220703125,36.619998931884766,1859100.0,30.283626556396484
2016-05-25,36.880001068115234,36.40999984741211,36.790000915527344,36.54999923706055,1198800.0,30.225744247436523
2016-05-26,37.0,36.650001525878906,36.650001525878906,36.81999969482422,1576700.0,30.449024200439453
2016-05-27,37.310001373291016,36.540000915527344,36.81999969482422,36.79999923706055,3479900.0,30.4324893951416
2016-05-31,36.88999938964844,36.349998474121094,36.79999923706055,36.7400016784668,5351900.0,30.38286781311035
2016-06-01,36.84000015258789,36.459999084472656,36.54999923706055,36.650001525878906,2354800.0,30.308443069458008
2016-06-02,36.650001525878906,36.099998474121094,36.119998931884766,36.619998931884766,2018400.0,30.68975830078125
2016-06-03,37.08000183105469,36.43000030517578,36.810001373291016,36.709999084472656,2229400.0,30.765182495117188
2016-06-06,36.900001525878906,36.400001525878906,36.779998779296875,36.43000030517578,2424200.0,30.5305233001709
2016-06-07,36.849998474121094,36.599998474121094,36.65999984741211,36.70000076293945,2020100.0,30.756803512573242
2016-06-08,37.09000015258789,36.630001068115234,36.689998626708984,37.029998779296875,2123000.0,31.033361434936523
2016-06-09,37.150001525878906,36.66999816894531,36.97999954223633,37.11000061035156,1563800.0,31.100399017333984
2016-06-10,37.27000045776367,36.720001220703125,36.880001068115234,37.189998626708984,2448300.0,31.167451858520508
2016-06-13,38.13999938964844,37.150001525878906,37.220001220703125,37.939998626708984,3079000.0,31.79599952697754
2016-06-14,38.22999954223633,37.58000183105469,37.790000915527344,38.040000915527344,2581000.0,31.87980079650879
2016-06-15,38.599998474121094,37.93000030517578,38.060001373291016,38.560001373291016,2233600.0,32.315589904785156
2016-06-16,38.470001220703125,38.040000915527344,38.36000061035156,38.349998474121094,1562800.0,32.13959884643555
2016-06-17,38.40999984741211,37.90999984741211,38.25,38.25,1810600.0,32.055789947509766
2016-06-20,38.4900016784668,38.060001373291016,38.25,38.11000061035156,1232900.0,31.938467025756836
2016-06-21,38.400001525878906,38.04999923706055,38.2599983215332,38.22999954223633,1070900.0,32.039031982421875
2016-06-22,38.40999984741211,38.16999816894531,38.20000076293945,38.27000045776367,990000.0,32.07255172729492
2016-06-23,38.7400016784668,38.45000076293945,38.54999923706055,38.599998474121094,874000.0,32.34911346435547
2016-06-24,37.939998626708984,37.36000061035156,37.36000061035156,37.72999954223633,4617100.0,31.620004653930664
2016-06-27,38.04999923706055,37.279998779296875,37.599998474121094,37.97999954223633,1735000.0,31.829513549804688
2016-06-28,38.720001220703125,38.18000030517578,38.2400016784668,38.56999969482422,1862000.0,32.323970794677734
2016-06-29,39.61000061035156,38.7599983215332,38.7599983215332,39.54999923706055,1933300.0,33.14527893066406
2016-06-30,39.84000015258789,39.34000015258789,39.54999923706055,39.83000183105469,1802300.0,33.37992858886719
2016-07-01,40.0,39.720001220703125,39.91999816894531,39.939998626708984,1795900.0,33.47210693359375
2016-07-05,40.560001373291016,39.90999984741211,39.90999984741211,40.439998626708984,1821600.0,33.891143798828125
2016-07-06,40.61000061035156,39.689998626708984,40.31999969482422,40.0,2164300.0,33.52239990234375
2016-07-07,40.06999969482422,39.22999954223633,40.02000045776367,39.279998779296875,1540600.0,32.91899490356445
2016-07-08,40.09000015258789,39.25,39.599998474121094,39.849998474121094,3934100.0,33.39668655395508
2016-07-11,40.33000183105469,39.86000061035156,40.0,40.310001373291016,1091400.0,33.78219985961914
2016-07-12,41.040000915527344,40.310001373291016,40.5,40.959999084472656,1474200.0,34.326934814453125
2016-07-13,41.18000030517578,40.369998931884766,41.08000183105469,40.52000045776367,1246800.0,33.95819091796875
2016-07-14,41.060001373291016,40.209999084472656,40.77000045776367,40.2599983215332,1123800.0,33.740291595458984
2016-07-15,40.290000915527344,39.54999923706055,40.220001220703125,39.84000015258789,1887900.0,33.38831329345703
2016-07-18,39.939998626708984,39.66999816894531,39.91999816894531,39.709999084472656,737400.0,33.279361724853516
2016-07-19,40.09000015258789,39.529998779296875,39.68000030517578,39.9900016784668,2199700.0,33.514015197753906
2016-07-20,40.189998626708984,39.959999084472656,40.029998779296875,40.189998626708984,903500.0,33.68163299560547
2016-07-21,40.279998779296875,39.9900016784668,40.09000015258789,40.27000045776367,579000.0,33.748680114746094
2016-07-22,41.18000030517578,40.25,40.33000183105469,41.060001373291016,1135300.0,34.41073989868164
2016-07-25,41.13999938964844,40.72999954223633,41.0099983215332,41.11000061035156,1288700.0,34.4526481628418
2016-07-26,41.290000915527344,40.90999984741211,41.130001068115234,41.25,1355500.0,34.569976806640625
2016-07-27,41.2400016784668,40.68000030517578,41.130001068115234,41.0,1087300.0,34.36045455932617
2016-07-28,41.29999923706055,40.5099983215332,40.869998931884766,41.2400016784668,974400.0,34.56159591674805
2016-07-29,41.439998626708984,40.9900016784668,41.150001525878906,41.209999084472656,3015900.0,34.53644561767578
2016-08-01,41.5,40.91999816894531,41.22999954223633,41.02000045776367,1267600.0,34.37722396850586
2016-08-02,41.22999954223633,40.2599983215332,40.88999938964844,40.47999954223633,1097900.0,33.92466354370117
2016-08-03,40.540000915527344,39.93000030517578,40.5,40.2400016784668,1995700.0,33.723533630371094
2016-08-04,40.33000183105469,37.7599983215332,40.209999084472656,37.95000076293945,3355700.0,31.804380416870117
2016-08-05,38.15999984741211,37.130001068115234,38.06999969482422,37.779998779296875,3741800.0,31.661903381347656
2016-08-08,37.790000915527344,36.650001525878906,37.790000915527344,36.790000915527344,2595800.0,30.832231521606445
2016-08-09,36.849998474121094,36.380001068115234,36.84000015258789,36.77000045776367,2020800.0,30.81546401977539
2016-08-10,37.2400016784668,36.540000915527344,36.86000061035156,36.70000076293945,2016900.0,30.756803512573242
2016-08-11,37.08000183105469,36.47999954223633,36.77000045776367,37.040000915527344,2335000.0,31.041738510131836
2016-08-12,37.58000183105469,37.040000915527344,37.040000915527344,37.15999984741211,1280900.0,31.142303466796875
2016-08-15,37.38999938964844,37.040000915527344,37.15999984741211,37.09000015258789,1242700.0,31.083646774291992
2016-08-16,37.130001068115234,36.81999969482422,37.060001373291016,36.869998931884766,1124600.0,30.899267196655273
2016-08-17,37.16999816894531,36.56999969482422,37.029998779296875,36.959999084472656,1485500.0,30.974693298339844
2016-08-18,37.439998626708984,36.869998931884766,36.869998931884766,37.43000030517578,1346800.0,31.36858367919922
2016-08-19,37.709999084472656,37.40999984741211,37.459999084472656,37.66999816894531,1897400.0,31.56971549987793
2016-08-22,37.959999084472656,37.27000045776367,37.689998626708984,37.939998626708984,1289100.0,31.79599952697754
2016-08-23,38.22999954223633,37.91999816894531,38.06999969482422,38.11000061035156,1313800.0,31.938467025756836
2016-08-24,38.08000183105469,37.720001220703125,38.02000045776367,38.0,1270300.0,31.846267700195312
2016-08-25,38.5099983215332,38.02000045776367,38.02000045776367,38.38999938964844,1490900.0,32.173118591308594
2016-08-26,38.959999084472656,37.9900016784668,38.43000030517578,38.25,2749400.0,32.055789947509766
2016-08-29,38.630001068115234,38.2599983215332,38.33000183105469,38.459999084472656,1121600.0,32.231788635253906
2016-08-30,38.52000045776367,38.279998779296875,38.45000076293945,38.400001525878906,1422200.0,32.18150329589844
2016-08-31,38.52000045776367,38.04999923706055,38.33000183105469,38.40999984741211,2909200.0,32.189884185791016
2016-09-01,38.709999084472656,38.29999923706055,38.47999954223633,38.54999923706055,2144400.0,32.30720901489258
2016-09-02,39.459999084472656,38.59000015258789,38.70000076293945,38.790000915527344,1247200.0,32.50834655761719
2016-09-06,39.599998474121094,38.86000061035156,38.88999938964844,39.58000183105469,1587200.0,33.17041015625
2016-09-07,39.75,39.310001373291016,39.59000015258789,39.619998931884766,1415100.0,33.20393371582031
2016-09-08,39.040000915527344,38.209999084472656,39.02000045776367,38.279998779296875,1762700.0,32.478511810302734
2016-09-09,37.88999938964844,36.40999984741211,37.880001068115234,36.40999984741211,2250200.0,30.891918182373047
2016-09-12,36.970001220703125,36.25,36.31999969482422,36.77000045776367,2048200.0,31.197364807128906
2016-09-13,36.560001373291016,35.95000076293945,36.560001373291016,36.0099983215332,1948000.0,30.55254364013672
2016-09-14,36.369998931884766,35.52000045776367,36.09000015258789,35.630001068115234,1918300.0,30.23013687133789
2016-09-15,36.20000076293945,35.41999816894531,35.560001373291016,36.04999923706055,2183100.0,30.58648109436035
2016-09-16,36.09000015258789,35.650001525878906,35.779998779296875,35.81999969482422,5534800.0,30.39133644104004
2016-09-19,36.52000045776367,35.91999816894531,36.029998779296875,36.4900016784668,1178800.0,30.95979881286621
2016-09-20,36.939998626708984,36.59000015258789,36.689998626708984,36.599998474121094,1387100.0,31.05312156677246
2016-09-21,36.97999954223633,36.04999923706055,36.68000030517578,36.91999816894531,1191600.0,31.324626922607422
2016-09-22,37.59000015258789,37.189998626708984,37.189998626708984,37.41999816894531,1227000.0,31.74884796142578
2016-09-23,37.81999969482422,37.099998474121094,37.38999938964844,37.650001525878906,989700.0,31.94399642944336
2016-09-26,38.040000915527344,37.400001525878906,37.599998474121094,37.86000061035156,1058300.0,32.12216567993164
2016-09-27,38.15999984741211,37.709999084472656,37.900001525878906,37.959999084472656,1200900.0,32.20701217651367
2016-09-28,38.470001220703125,37.779998779296875,38.06999969482422,38.439998626708984,1390900.0,32.61426544189453
2016-09-29,38.22999954223633,37.540000915527344,38.22999954223633,37.75,1148700.0,32.02884292602539
2016-09-30,38.0099983215332,37.52000045776367,37.880001068115234,37.529998779296875,1322200.0,31.84217643737793
2016-10-03,37.5099983215332,36.47999954223633,37.5099983215332,36.52000045776367,1339600.0,30.98525047302246
2016-10-04,36.5,35.130001068115234,36.47999954223633,35.38999938964844,1822200.0,30.026500701904297
2016-10-05,35.75,34.2599983215332,35.52000045776367,34.27000045776367,2230200.0,29.076242446899414
2016-10-06,34.209999084472656,33.58000183105469,34.06999969482422,33.869998931884766,2328500.0,28.736865997314453
2016-10-07,34.470001220703125,33.369998931884766,34.040000915527344,33.56999969482422,1852100.0,28.48233413696289
2016-10-10,33.95000076293945,33.560001373291016,33.63999938964844,33.90999984741211,1371700.0,28.770801544189453
2016-10-11,34.08000183105469,33.630001068115234,33.900001525878906,33.689998626708984,1817500.0,28.58414649963379
2016-10-12,34.63999938964844,33.59000015258789,33.7400016784668,34.61000061035156,2147100.0,29.364717483520508
2016-10-13,35.369998931884766,34.34000015258789,34.52000045776367,35.220001220703125,1939000.0,29.88226890563965
2016-10-14,35.290000915527344,34.380001068115234,35.220001220703125,34.38999938964844,1877700.0,29.178056716918945
2016-10-17,34.470001220703125,34.099998474121094,34.40999984741211,34.119998931884766,1449100.0,28.948978424072266
2016-10-18,34.41999816894531,33.97999954223633,34.41999816894531,34.150001525878906,1442800.0,28.97443389892578
2016-10-19,34.40999984741211,33.66999816894531,34.25,34.25,2416800.0,29.05927848815918
2016-10-20,34.34000015258789,33.779998779296875,34.279998779296875,34.04999923706055,755100.0,28.889583587646484
2016-10-21,34.16999816894531,33.70000076293945,33.790000915527344,33.970001220703125,821400.0,28.821714401245117
2016-10-24,34.310001373291016,33.849998474121094,34.08000183105469,34.22999954223633,1320100.0,29.042308807373047
2016-10-25,34.380001068115234,34.04999923706055,34.209999084472656,34.25,668800.0,29.05927848815918
2016-10-26,34.15999984741211,33.7400016784668,34.15999984741211,34.0099983215332,742000.0,28.85564613342285
2016-10-27,33.9900016784668,32.54999923706055,33.97999954223633,32.7599983215332,1918900.0,27.795093536376953
2016-10-28,33.33000183105469,32.720001220703125,32.83000183105469,32.83000183105469,1063100.0,27.854488372802734
2016-10-31,33.90999984741211,32.849998474121094,33.0,33.72999954223633,1655800.0,28.618085861206055
2016-11-01,34.650001525878906,32.880001068115234,33.290000915527344,33.16999816894531,2377800.0,28.142953872680664
2016-11-02,33.25,32.06999969482422,33.16999816894531,32.11000061035156,1892500.0,27.243602752685547
2016-11-03,32.2599983215332,31.56999969482422,32.11000061035156,32.099998474121094,1781900.0,27.23511505126953
2016-11-04,32.61000061035156,32.0099983215332,32.20000076293945,32.439998626708984,1247900.0,27.523590087890625
2016-11-07,33.31999969482422,32.75,32.869998931884766,33.290000915527344,1223100.0,28.244770050048828
2016-11-08,33.869998931884766,33.209999084472656,33.36000061035156,33.689998626708984,1273800.0,28.58414649963379
2016-11-09,33.08000183105469,32.22999954223633,32.81999969482422,32.779998779296875,2302600.0,27.812061309814453
2016-11-10,32.869998931884766,31.399999618530273,32.75,31.459999084472656,2543300.0,26.69211196899414
2016-11-11,31.860000610351562,31.229999542236328,31.469999313354492,31.540000915527344,2258700.0,26.75998878479004
2016-11-14,31.700000762939453,30.75,31.530000686645508,31.670000076293945,2351500.0,26.87028694152832
2016-11-15,32.369998931884766,31.440000534057617,31.8700008392334,31.81999969482422,1800100.0,26.99755096435547
2016-11-16,32.290000915527344,31.40999984741211,31.700000762939453,32.2400016784668,1308500.0,27.353900909423828
2016-11-17,32.33000183105469,31.829999923706055,32.150001525878906,32.0,1302100.0,27.150272369384766
2016-11-18,31.979999542236328,31.290000915527344,31.969999313354492,31.549999237060547,1780200.0,26.76847267150879
2016-11-21,32.849998474121094,31.770000457763672,31.790000915527344,32.59000015258789,1618300.0,27.65085792541504
2016-11-22,33.119998931884766,32.709999084472656,32.790000915527344,33.08000183105469,1291500.0,28.06659507751465
2016-11-23,33.25,32.72999954223633,32.779998779296875,33.099998474121094,872500.0,28.08356285095215
2016-11-25,33.869998931884766,33.13999938964844,33.13999938964844,33.65999984741211,568400.0,28.55869483947754
2016-11-28,34.0,33.25,33.63999938964844,33.279998779296875,1383300.0,28.236284255981445
2016-11-29,33.939998626708984,33.18000030517578,33.290000915527344,33.72999954223633,1837400.0,28.618085861206055
2016-11-30,33.720001220703125,32.650001525878906,33.70000076293945,33.0,2912700.0,27.998720169067383
2016-12-01,32.9900016784668,32.25,32.9900016784668,32.52000045776367,2084100.0,27.59146499633789
2016-12-02,33.79999923706055,32.599998474121094,32.599998474121094,33.720001220703125,1877400.0,28.609601974487305
2016-12-05,33.9900016784668,33.400001525878906,33.72999954223633,33.970001220703125,1561900.0,28.821714401245117
2016-12-06,34.189998626708984,33.720001220703125,34.02000045776367,33.79999923706055,995500.0,28.677474975585938
2016-12-07,34.72999954223633,33.459999084472656,33.84000015258789,34.720001220703125,2122800.0,29.458045959472656
2016-12-08,35.08000183105469,34.4900016784668,34.560001373291016,34.9900016784668,1251200.0,29.687131881713867
2016-12-09,35.08000183105469,34.560001373291016,34.95000076293945,34.650001525878906,1154700.0,29.398656845092773
2016-12-12,34.380001068115234,33.79999923706055,34.369998931884766,34.13999938964844,1814600.0,28.965946197509766
2016-12-13,33.56999969482422,33.0099983215332,33.529998779296875,33.15999984741211,1696000.0,28.595138549804688
2016-12-14,33.20000076293945,32.150001525878906,33.130001068115234,32.220001220703125,2474400.0,27.7845458984375
2016-12-15,31.950000762939453,31.389999389648438,31.940000534057617,31.75,3207100.0,27.37924575805664
2016-12-16,32.220001220703125,31.770000457763672,31.850000381469727,32.060001373291016,3761600.0,27.646570205688477
2016-12-19,32.27000045776367,31.780000686645508,31.790000915527344,31.979999542236328,1410500.0,27.57758331298828
2016-12-20,32.06999969482422,31.6299991607666,31.799999237060547,31.969999313354492,1181700.0,27.568958282470703
2016-12-21,32.61000061035156,32.02000045776367,32.099998474121094,32.2400016784668,1397100.0,27.80179214477539
2016-12-22,32.52000045776367,31.969999313354492,32.220001220703125,32.40999984741211,986800.0,27.948387145996094
2016-12-23,32.58000183105469,32.29999923706055,32.400001525878906,32.540000915527344,824100.0,28.060489654541016
2016-12-27,32.77000045776367,32.31999969482422,32.709999084472656,32.45000076293945,646200.0,27.982887268066406
2016-12-28,32.599998474121094,32.040000915527344,32.459999084472656,32.119998931884766,768800.0,27.69830894470215
2016-12-29,32.529998779296875,31.899999618530273,32.150001525878906,32.380001068115234,921800.0,27.922517776489258
2016-12-30,32.790000915527344,32.279998779296875,32.45000076293945,32.47999954223633,1995600.0,28.008750915527344
2017-01-03,33.11000061035156,32.27000045776367,32.810001373291016,33.099998474121094,1812100.0,28.543399810791016
2017-01-04,33.959999084472656,32.869998931884766,33.20000076293945,33.90999984741211,1346300.0,29.24189567565918
2017-01-05,34.06999969482422,33.599998474121094,33.720001220703125,33.97999954223633,1465300.0,29.30225944519043
2017-01-06,34.0,33.36000061035156,33.97999954223633,33.5,1102000.0,28.888338088989258
2017-01-09,33.599998474121094,33.029998779296875,33.599998474121094,33.2599983215332,1265900.0,28.681373596191406
2017-01-10,33.349998474121094,32.689998626708984,33.150001525878906,33.29999923706055,1077000.0,28.715869903564453
2017-01-11,33.540000915527344,33.060001373291016,33.34000015258789,33.189998626708984,1220500.0,28.62101173400879
2017-01-12,33.720001220703125,33.119998931884766,33.18000030517578,33.689998626708984,842300.0,29.05217933654785
2017-01-13,33.75,33.119998931884766,33.59000015258789,33.400001525878906,863700.0,28.802101135253906
2017-01-17,34.0,33.400001525878906,33.5,33.95000076293945,793600.0,29.276390075683594
2017-01-18,34.34000015258789,33.72999954223633,33.79999923706055,34.099998474121094,881000.0,29.405738830566406
2017-01-19,34.099998474121094,33.58000183105469,34.04999923706055,33.91999816894531,932000.0,29.250516891479492
2017-01-20,34.720001220703125,33.84000015258789,33.95000076293945,34.68000030517578,1610600.0,29.90589714050293
2017-01-23,35.040000915527344,34.41999816894531,34.540000915527344,34.970001220703125,1169700.0,30.155977249145508
2017-01-24,35.380001068115234,34.939998626708984,35.0,35.310001373291016,1508800.0,30.449167251586914
2017-01-25,35.38999938964844,35.060001373291016,35.36000061035156,35.310001373291016,1547100.0,30.449167251586914
2017-01-26,36.16999816894531,35.22999954223633,35.22999954223633,36.16999816894531,1561800.0,31.190776824951172
2017-01-27,36.279998779296875,35.970001220703125,36.2599983215332,36.18000030517578,1313300.0,31.19940757751465
2017-01-30,36.08000183105469,35.54999923706055,36.08000183105469,35.790000915527344,1976600.0,30.863096237182617
2017-01-31,36.08000183105469,35.720001220703125,35.81999969482422,35.79999923706055,3226400.0,30.871713638305664
2017-02-01,36.06999969482422,35.29999923706055,35.790000915527344,35.97999954223633,2156800.0,31.026935577392578
2017-02-02,36.27000045776367,35.83000183105469,35.95000076293945,36.20000076293945,935900.0,31.216655731201172
2017-02-03,36.72999954223633,36.310001373291016,36.38999938964844,36.59000015258789,1249200.0,31.552961349487305
2017-02-06,36.70000076293945,36.38999938964844,36.58000183105469,36.66999816894531,1407600.0,31.621944427490234
2017-02-07,36.88999938964844,36.61000061035156,36.689998626708984,36.709999084472656,1635400.0,31.656442642211914
2017-02-08,36.83000183105469,36.4900016784668,36.59000015258789,36.79999923706055,1239700.0,31.73405647277832
2017-02-09,37.18000030517578,36.66999816894531,36.79999923706055,37.029998779296875,1261600.0,31.932390213012695
2017-02-10,37.5,36.810001373291016,37.0,37.38999938964844,899100.0,32.24283218383789
2017-02-13,37.75,37.22999954223633,37.41999816894531,37.619998931884766,1110800.0,32.44116973876953
2017-02-14,37.619998931884766,37.02000045776367,37.5,37.04999923706055,1189900.0,31.949636459350586
2017-02-15,37.36000061035156,36.86000061035156,36.880001068115234,37.2599983215332,932400.0,32.13072967529297
2017-02-16,37.470001220703125,36.90999984741211,37.150001525878906,37.0,1776300.0,31.906522750854492
2017-02-17,37.2599983215332,36.86000061035156,36.97999954223633,37.150001525878906,1762700.0,32.0358772277832
2017-02-21,37.720001220703125,37.09000015258789,37.150001525878906,37.709999084472656,1512900.0,32.51877975463867
2017-02-22,37.70000076293945,37.040000915527344,37.630001068115234,37.13999938964844,1993800.0,32.027244567871094
2017-02-23,37.70000076293945,36.709999084472656,37.349998474121094,36.939998626708984,1906300.0,31.854780197143555
2017-02-24,37.060001373291016,36.72999954223633,36.7400016784668,36.900001525878906,1405500.0,31.820287704467773
2017-02-27,36.9900016784668,36.5099983215332,36.900001525878906,36.650001525878906,1588900.0,31.60470199584961
2017-02-28,36.720001220703125,36.33000183105469,36.560001373291016,36.349998474121094,2419100.0,31.34600067138672
2017-03-01,36.58000183105469,36.16999816894531,36.4900016784668,36.47999954223633,1443100.0,31.458106994628906
2017-03-02,36.5099983215332,36.130001068115234,36.41999816894531,36.369998931884766,1449100.0,31.363248825073242
2017-03-03,36.369998931884766,35.970001220703125,36.36000061035156,36.36000061035156,1265100.0,31.354623794555664
2017-03-06,36.29999923706055,35.95000076293945,36.25,36.119998931884766,1361700.0,31.147661209106445
2017-03-07,36.119998931884766,35.619998931884766,35.97999954223633,35.790000915527344,1065600.0,30.863096237182617
2017-03-08,35.540000915527344,34.7400016784668,35.5099983215332,34.7599983215332,1189500.0,29.97488021850586
2017-03-09,34.86000061035156,33.939998626708984,34.77000045776367,34.099998474121094,1777100.0,29.405738830566406
2017-03-10,34.54999923706055,33.619998931884766,34.099998474121094,34.2400016784668,1584600.0,29.526472091674805
2017-03-13,34.04999923706055,33.68000030517578,33.790000915527344,34.0099983215332,1287400.0,29.80691909790039
2017-03-14,34.0,33.43000030517578,33.720001220703125,33.959999084472656,1352600.0,29.76309585571289
2017-03-15,34.66999816894531,33.880001068115234,33.880001068115234,34.4900016784668,1107600.0,30.227596282958984
2017-03-16,34.70000076293945,34.290000915527344,34.5,34.56999969482422,1536000.0,30.297714233398438
2017-03-17,35.099998474121094,34.56999969482422,34.70000076293945,35.060001373291016,2214600.0,30.727163314819336
2017-03-20,35.18000030517578,34.77000045776367,35.029998779296875,34.869998931884766,1043800.0,30.560636520385742
2017-03-21,35.2400016784668,34.529998779296875,35.04999923706055,34.54999923706055,1245800.0,30.280187606811523
2017-03-22,35.25,34.439998626708984,34.63999938964844,35.02000045776367,1673900.0,30.692100524902344
2017-03-23,35.4900016784668,34.79999923706055,34.95000076293945,35.060001373291016,1352800.0,30.727163314819336
2017-03-24,35.400001525878906,34.689998626708984,35.08000183105469,34.72999954223633,1331900.0,30.43794059753418
2017-03-27,34.90999984741211,34.31999969482422,34.650001525878906,34.58000183105469,1226500.0,30.306480407714844
2017-03-28,35.130001068115234,34.47999954223633,34.599998474121094,35.099998474121094,1019700.0,30.76221466064453
2017-03-29,35.41999816894531,35.04999923706055,35.119998931884766,35.38999938964844,867000.0,31.016374588012695
2017-03-30,35.5099983215332,35.119998931884766,35.27000045776367,35.38999938964844,1078600.0,31.016374588012695
2017-03-31,35.84000015258789,35.25,35.31999969482422,35.66999816894531,1095000.0,31.261768341064453
2017-04-03,36.0,35.18000030517578,35.54999923706055,35.33000183105469,1052000.0,30.963794708251953
2017-04-04,35.27000045776367,34.880001068115234,35.27000045776367,35.099998474121094,894100.0,30.76221466064453
2017-04-05,35.400001525878906,34.900001525878906,35.20000076293945,34.939998626708984,1297500.0,30.62198829650879
2017-04-06,35.31999969482422,34.84000015258789,35.0099983215332,35.29999923706055,849400.0,30.9375
2017-04-07,35.630001068115234,35.209999084472656,35.31999969482422,35.52000045776367,1331300.0,31.130313873291016
2017-04-10,35.540000915527344,35.150001525878906,35.5099983215332,35.439998626708984,1218800.0,31.060192108154297
2017-04-11,35.630001068115234,35.31999969482422,35.5,35.5,1302100.0,31.11278533935547
2017-04-12,35.59000015258789,35.22999954223633,35.5,35.34000015258789,1088900.0,30.97255516052246
2017-04-13,35.52000045776367,35.11000061035156,35.34000015258789,35.290000915527344,1380700.0,30.928733825683594
2017-04-17,35.900001525878906,35.380001068115234,35.43000030517578,35.88999938964844,1480300.0,31.4545841217041
2017-04-18,36.70000076293945,35.77000045776367,35.849998474121094,36.540000915527344,1382500.0,32.024253845214844
2017-04-19,36.63999938964844,36.119998931884766,36.63999938964844,36.20000076293945,1163700.0,31.72627830505371
2017-04-20,36.65999984741211,36.130001068115234,36.279998779296875,36.52000045776367,822800.0,32.0067253112793
2017-04-21,36.63999938964844,36.18000030517578,36.47999954223633,36.34000015258789,1223600.0,31.848974227905273
2017-04-24,36.650001525878906,35.93000030517578,36.599998474121094,36.470001220703125,1144200.0,31.96291160583496
2017-04-25,36.599998474121094,36.33000183105469,36.54999923706055,36.540000915527344,708700.0,32.024253845214844
2017-04-26,36.5,36.099998474121094,36.470001220703125,36.099998474121094,1046500.0,31.638629913330078
2017-04-27,36.13999938964844,34.77000045776367,36.099998474121094,34.86000061035156,1553900.0,30.5518741607666
2017-04-28,34.81999969482422,34.56999969482422,34.79999923706055,34.7599983215332,1205100.0,30.464229583740234
2017-05-01,35.33000183105469,34.86000061035156,34.95000076293945,35.189998626708984,1059800.0,30.841089248657227
2017-05-02,35.599998474121094,35.2599983215332,35.2599983215332,35.33000183105469,1183800.0,30.963794708251953
2017-05-03,35.540000915527344,34.65999984741211,35.540000915527344,34.689998626708984,813400.0,30.402883529663086
2017-05-04,34.79999923706055,34.29999923706055,34.77000045776367,34.75,1215300.0,30.455469131469727
2017-05-05,35.27000045776367,34.880001068115234,34.900001525878906,35.2599983215332,773000.0,30.902442932128906
2017-05-08,35.33000183105469,34.7400016784668,35.29999923706055,34.900001525878906,797300.0,30.58692741394043
2017-05-09,35.06999969482422,34.540000915527344,34.900001525878906,34.79999923706055,836200.0,30.499292373657227
2017-05-10,35.15999984741211,34.84000015258789,34.84000015258789,35.08000183105469,763200.0,30.74468994140625
2017-05-11,35.0,34.7400016784668,34.95000076293945,34.86000061035156,641400.0,30.5518741607666
2017-05-12,34.91999816894531,34.5,34.91999816894531,34.56999969482422,851600.0,30.297714233398438
2017-05-15,35.0,34.43000030517578,34.599998474121094,34.66999816894531,1356300.0,30.385358810424805
2017-05-16,34.9900016784668,34.5099983215332,34.79999923706055,34.95000076293945,1185900.0,30.630756378173828
2017-05-17,35.40999984741211,34.84000015258789,34.84000015258789,35.2599983215332,1918500.0,30.902442932128906
2017-05-18,35.689998626708984,34.849998474121094,35.13999938964844,35.40999984741211,2426000.0,31.033903121948242
2017-05-19,35.4900016784668,34.900001525878906,35.4900016784668,34.97999954223633,1183200.0,30.65704345703125
2017-05-22,35.119998931884766,34.4900016784668,35.0,34.810001373291016,1247400.0,30.508054733276367
2017-05-23,35.0099983215332,34.66999816894531,34.880001068115234,34.720001220703125,703200.0,30.42917823791504
2017-05-24,35.16999816894531,34.599998474121094,34.810001373291016,34.79999923706055,1256000.0,30.499292373657227
2017-05-25,35.130001068115234,34.75,34.90999984741211,35.08000183105469,949900.0,30.74468994140625
2017-05-26,35.25,34.9900016784668,35.11000061035156,35.16999816894531,708900.0,30.823562622070312
2017-05-30,35.38999938964844,35.0099983215332,35.150001525878906,35.040000915527344,658100.0,30.70963478088379
2017-05-31,35.310001373291016,34.83000183105469,35.15999984741211,34.91999816894531,1590800.0,30.604461669921875
2017-06-01,35.040000915527344,34.63999938964844,34.9900016784668,34.9900016784668,1202400.0,30.665809631347656
2017-06-02,35.689998626708984,35.15999984741211,35.220001220703125,35.2599983215332,946800.0,30.902442932128906
2017-06-05,35.349998474121094,34.7599983215332,35.13999938964844,34.810001373291016,955400.0,30.508054733276367
2017-06-06,35.099998474121094,34.70000076293945,34.9900016784668,35.0,689300.0,30.674571990966797
2017-06-07,34.599998474121094,32.529998779296875,34.5,33.689998626708984,4726800.0,29.526466369628906
2017-06-08,33.689998626708984,33.060001373291016,33.689998626708984,33.45000076293945,2316900.0,29.31612777709961
2017-06-09,33.459999084472656,33.029998779296875,33.2400016784668,33.310001373291016,1414400.0,29.193431854248047
2017-06-12,34.310001373291016,33.310001373291016,33.310001373291016,34.29999923706055,1482000.0,30.06108283996582
2017-06-13,34.41999816894531,33.70000076293945,33.720001220703125,34.209999084472656,1491600.0,30.470800399780273
2017-06-14,34.650001525878906,34.08000183105469,34.5,34.189998626708984,911800.0,30.452987670898438
2017-06-15,34.790000915527344,33.93000030517578,33.939998626708984,34.619998931884766,1020000.0,30.83598518371582
2017-06-16,34.75,34.060001373291016,34.7400016784668,34.209999084472656,1900900.0,30.470800399780273
2017-06-19,34.72999954223633,34.15999984741211,34.20000076293945,34.720001220703125,742700.0,30.92506217956543
2017-06-20,34.95000076293945,34.599998474121094,34.7400016784668,34.810001373291016,1068600.0,31.005224227905273
2017-06-21,34.75,33.97999954223633,34.75,34.04999923706055,980900.0,30.328289031982422
2017-06-22,34.22999954223633,33.83000183105469,34.040000915527344,34.119998931884766,835400.0,30.390642166137695
2017-06-23,34.59000015258789,34.06999969482422,34.119998931884766,34.52000045776367,1266900.0,30.746915817260742
2017-06-26,34.849998474121094,34.56999969482422,34.59000015258789,34.75,524600.0,30.951780319213867
2017-06-27,34.9900016784668,34.22999954223633,34.560001373291016,34.27000045776367,697700.0,30.524242401123047
2017-06-28,34.97999954223633,34.29999923706055,34.5099983215332,34.720001220703125,743100.0,30.92506217956543
2017-06-29,34.790000915527344,33.880001068115234,34.54999923706055,34.189998626708984,919500.0,30.452987670898438
2017-06-30,34.5099983215332,33.91999816894531,34.209999084472656,34.36000061035156,1007500.0,30.604412078857422
2017-07-03,35.040000915527344,34.619998931884766,34.650001525878906,34.880001068115234,469000.0,31.067567825317383
2017-07-05,34.88999938964844,34.20000076293945,34.810001373291016,34.52000045776367,864700.0,30.746915817260742
2017-07-06,34.54999923706055,33.88999938964844,34.380001068115234,34.06999969482422,838400.0,30.346105575561523
2017-07-07,34.65999984741211,34.060001373291016,34.189998626708984,34.43000030517578,866300.0,30.666757583618164
2017-07-10,34.439998626708984,33.45000076293945,34.400001525878906,33.459999084472656,1358400.0,29.802778244018555
2017-07-11,33.4900016784668,32.91999816894531,33.4900016784668,33.34000015258789,1121400.0,29.695894241333008
2017-07-12,34.150001525878906,33.5,33.599998474121094,33.9900016784668,935800.0,30.274850845336914
2017-07-13,34.130001068115234,33.81999969482422,33.970001220703125,33.939998626708984,965300.0,30.23031234741211
2017-07-14,34.880001068115234,34.11000061035156,34.22999954223633,34.779998779296875,943900.0,30.97849464416504
2017-07-17,34.81999969482422,34.36000061035156,34.63999938964844,34.7400016784668,853400.0,30.942874908447266
2017-07-18,34.849998474121094,34.56999969482422,34.709999084472656,34.68000030517578,598100.0,30.889432907104492
2017-07-19,34.9900016784668,34.560001373291016,34.689998626708984,34.95000076293945,477900.0,31.129919052124023
2017-07-20,35.119998931884766,34.68000030517578,34.97999954223633,34.689998626708984,821100.0,30.89833641052246
2017-07-21,35.060001373291016,34.61000061035156,34.689998626708984,35.0,606300.0,31.174457550048828
2017-07-24,35.04999923706055,34.66999816894531,34.97999954223633,34.88999938964844,691500.0,31.076473236083984
2017-07-25,35.0,34.630001068115234,35.0,34.86000061035156,793800.0,31.04975700378418
2017-07-26,35.11000061035156,34.7599983215332,35.040000915527344,34.959999084472656,956600.0,31.138826370239258
2017-07-27,35.0099983215332,34.66999816894531,34.95000076293945,34.7599983215332,827700.0,30.960683822631836
2017-07-28,35.439998626708984,34.349998474121094,34.790000915527344,35.189998626708984,1752900.0,31.343687057495117
2017-07-31,36.720001220703125,35.189998626708984,35.189998626708984,36.43000030517578,2486700.0,32.44815444946289
2017-08-01,37.25,36.369998931884766,36.369998931884766,36.869998931884766,1540900.0,32.840057373046875
2017-08-02,37.02000045776367,36.4900016784668,36.83000183105469,36.91999816894531,1049000.0,32.88459777832031
2017-08-03,37.7599983215332,36.869998931884766,37.0,37.400001525878906,1239200.0,33.312129974365234
2017-08-04,37.56999969482422,36.77000045776367,37.349998474121094,37.0,1056700.0,32.95585250854492
2017-08-07,37.22999954223633,36.77000045776367,36.90999984741211,37.119998931884766,543700.0,33.0627326965332
2017-08-08,37.65999984741211,37.04999923706055,37.06999969482422,37.18000030517578,1014500.0,33.116172790527344
2017-08-09,38.369998931884766,37.25,37.33000183105469,38.310001373291016,1728200.0,34.1226692199707
2017-08-10,38.20000076293945,37.7400016784668,38.20000076293945,37.83000183105469,1283100.0,33.69512939453125
2017-08-11,37.7400016784668,37.09000015258789,37.709999084472656,37.130001068115234,1066500.0,33.07164001464844
2017-08-14,37.86000061035156,37.279998779296875,37.38999938964844,37.630001068115234,924400.0,33.51699447631836
2017-08-15,37.54999923706055,37.09000015258789,37.54999923706055,37.38999938964844,966400.0,33.30322265625
2017-08-16,37.63999938964844,36.97999954223633,37.5099983215332,37.4900016784668,2085100.0,33.39229965209961
2017-08-17,37.72999954223633,37.09000015258789,37.470001220703125,37.130001068115234,1332800.0,33.07164001464844
2017-08-18,37.209999084472656,36.63999938964844,37.150001525878906,36.88999938964844,835000.0,32.857872009277344
2017-08-21,37.79999923706055,36.91999816894531,36.970001220703125,37.58000183105469,838500.0,33.47245788574219
2017-08-22,37.91999816894531,37.5,37.58000183105469,37.72999954223633,849200.0,33.60606384277344
2017-08-23,38.720001220703125,37.599998474121094,37.650001525878906,38.38999938964844,1312300.0,34.19392395019531
2017-08-24,38.79999923706055,38.16999816894531,38.369998931884766,38.529998779296875,1276400.0,34.31861877441406
2017-08-25,38.779998779296875,38.470001220703125,38.72999954223633,38.470001220703125,947600.0,34.26517868041992
2017-08-28,39.279998779296875,38.34000015258789,38.470001220703125,39.060001373291016,1781200.0,34.79069519042969
2017-08-29,39.43000030517578,38.97999954223633,39.029998779296875,39.2400016784668,1368700.0,34.95101547241211
2017-08-30,39.58000183105469,38.970001220703125,39.11000061035156,39.5099983215332,1358000.0,35.19150161743164
2017-08-31,39.7400016784668,39.36000061035156,39.599998474121094,39.41999816894531,1388100.0,35.1113395690918
2017-09-01,39.560001373291016,39.290000915527344,39.439998626708984,39.439998626708984,901700.0,35.129154205322266
2017-09-05,39.9900016784668,39.400001525878906,39.529998779296875,39.560001373291016,1303200.0,35.23604202270508
2017-09-06,39.72999954223633,39.209999084472656,39.63999938964844,39.2400016784668,1210600.0,34.95101547241211
2017-09-07,39.939998626708984,39.400001525878906,39.43000030517578,39.869998931884766,905600.0,35.51215362548828
2017-09-08,40.22999954223633,39.77000045776367,39.77000045776367,40.040000915527344,1379700.0,35.66357421875
2017-09-11,40.38999938964844,40.0099983215332,40.04999923706055,40.380001068115234,937800.0,35.966407775878906
2017-09-12,40.439998626708984,40.0099983215332,40.369998931884766,40.13999938964844,1055700.0,35.75263977050781
2017-09-13,40.16999816894531,39.59000015258789,40.119998931884766,39.709999084472656,1376500.0,35.36964416503906
2017-09-14,39.25,38.54999923706055,39.15999984741211,39.150001525878906,1411500.0,35.36061096191406
2017-09-15,39.65999984741211,39.130001068115234,39.130001068115234,39.470001220703125,4769800.0,35.64963912963867
2017-09-18,39.869998931884766,39.27000045776367,39.5099983215332,39.41999816894531,1044800.0,35.60447311401367
2017-09-19,39.84000015258789,39.40999984741211,39.470001220703125,39.84000015258789,1276300.0,35.983829498291016
2017-09-20,40.099998474121094,39.41999816894531,39.90999984741211,39.720001220703125,1452200.0,35.87544250488281
2017-09-21,39.900001525878906,39.41999816894531,39.66999816894531,39.77000045776367,918700.0,35.920597076416016
2017-09-22,40.63999938964844,39.880001068115234,39.880001068115234,40.130001068115234,821400.0,36.245758056640625
2017-09-25,40.439998626708984,40.0,40.189998626708984,40.08000183105469,935900.0,36.200599670410156
2017-09-26,40.20000076293945,39.349998474121094,40.189998626708984,39.36000061035156,1038700.0,35.55028533935547
2017-09-27,39.380001068115234,38.08000183105469,39.290000915527344,38.130001068115234,1832000.0,34.4393424987793
2017-09-28,38.869998931884766,37.959999084472656,38.11000061035156,38.779998779296875,1042100.0,35.02642059326172
2017-09-29,39.099998474121094,38.599998474121094,38.72999954223633,38.900001525878906,1091300.0,35.13481140136719
2017-10-02,39.369998931884766,38.619998931884766,38.83000183105469,39.25,1018300.0,35.450931549072266
2017-10-03,39.279998779296875,38.70000076293945,39.13999938964844,38.95000076293945,809300.0,35.17997360229492
2017-10-04,39.13999938964844,38.47999954223633,38.959999084472656,39.02000045776367,1091400.0,35.243194580078125
2017-10-05,39.369998931884766,38.97999954223633,39.06999969482422,39.0099983215332,890800.0,35.234161376953125
2017-10-06,38.36000061035156,37.5099983215332,38.06999969482422,38.119998931884766,2530200.0,34.4303092956543
2017-10-09,38.619998931884766,38.130001068115234,38.130001068115234,38.31999969482422,976100.0,34.6109504699707
2017-10-10,38.84000015258789,38.41999816894531,38.41999816894531,38.79999923706055,635900.0,35.044490814208984
2017-10-11,39.279998779296875,38.709999084472656,38.869998931884766,38.939998626708984,1207500.0,35.170936584472656
2017-10-12,39.869998931884766,38.779998779296875,38.849998474121094,39.810001373291016,1329000.0,35.95673370361328
2017-10-13,40.0,39.47999954223633,40.0,39.86000061035156,889100.0,36.001895904541016
2017-10-16,39.959999084472656,39.619998931884766,39.86000061035156,39.810001373291016,651500.0,35.95673370361328
2017-10-17,40.13999938964844,39.599998474121094,39.779998779296875,40.11000061035156,998700.0,36.227691650390625
2017-10-18,41.08000183105469,40.22999954223633,40.27000045776367,40.790000915527344,2147100.0,36.84187316894531
2017-10-19,41.15999984741211,40.5099983215332,40.72999954223633,40.959999084472656,1021000.0,36.99541473388672
2017-10-20,41.16999816894531,40.790000915527344,41.04999923706055,40.91999816894531,848500.0,36.95928955078125
2017-10-23,41.0099983215332,40.0,41.0,40.060001373291016,1675500.0,36.182533264160156
2017-10-24,40.2400016784668,39.84000015258789,40.099998474121094,39.900001525878906,1692400.0,36.03801727294922
2017-10-25,40.15999984741211,39.0099983215332,39.7599983215332,39.810001373291016,1868600.0,35.95673370361328
2017-10-26,40.11000061035156,39.650001525878906,39.95000076293945,39.65999984741211,948400.0,35.821250915527344
2017-10-27,40.02000045776367,39.33000183105469,39.369998931884766,40.0,1065000.0,36.128334045410156
2017-10-30,40.13999938964844,39.7599983215332,39.91999816894531,40.11000061035156,1037200.0,36.227691650390625
2017-10-31,40.04999923706055,39.59000015258789,40.029998779296875,40.0,1151000.0,36.128334045410156
2017-11-01,40.33000183105469,39.7599983215332,40.18000030517578,39.810001373291016,827000.0,35.95673370361328
2017-11-02,40.279998779296875,39.7400016784668,39.91999816894531,39.88999938964844,913500.0,36.028987884521484
2017-11-03,40.13999938964844,39.560001373291016,39.66999816894531,40.119998931884766,593800.0,36.236717224121094
2017-11-06,40.869998931884766,40.13999938964844,40.13999938964844,40.63999938964844,928500.0,36.70639419555664
2017-11-07,40.959999084472656,40.38999938964844,40.630001068115234,40.599998474121094,1007000.0,36.670257568359375
2017-11-08,40.91999816894531,40.599998474121094,40.599998474121094,40.77000045776367,993300.0,36.82381057739258
2017-11-09,41.0,40.529998779296875,40.59000015258789,40.630001068115234,614000.0,36.697357177734375
2017-11-10,40.83000183105469,40.40999984741211,40.40999984741211,40.65999984741211,931300.0,36.724456787109375
2017-11-13,41.029998779296875,40.65999984741211,40.7400016784668,40.9900016784668,752200.0,37.022518157958984
2017-11-14,41.18000030517578,40.630001068115234,40.81999969482422,41.0,1164600.0,37.031551361083984
2017-11-15,41.0,40.5099983215332,41.0,40.529998779296875,812200.0,36.60704040527344
2017-11-16,40.9900016784668,40.0,40.59000015258789,40.81999969482422,1517600.0,36.86896514892578
2017-11-17,40.779998779296875,40.29999923706055,40.66999816894531,40.77000045776367,1352800.0,36.82381057739258
2017-11-20,40.91999816894531,40.459999084472656,40.75,40.91999816894531,765400.0,36.95928955078125
2017-11-21,41.529998779296875,40.790000915527344,41.0,41.349998474121094,1839400.0,37.34766387939453
2017-11-22,41.33000183105469,40.4900016784668,41.290000915527344,41.13999938964844,980200.0,37.157997131347656
2017-11-24,41.5099983215332,41.150001525878906,41.25,41.439998626708984,511900.0,37.42896270751953
2017-11-27,41.459999084472656,40.209999084472656,41.400001525878906,40.5,2999900.0,36.5799446105957
2017-11-28,41.06999969482422,40.54999923706055,40.599998474121094,40.68000030517578,1279900.0,36.742523193359375
2017-11-29,40.79999923706055,40.40999984741211,40.70000076293945,40.52000045776367,1191900.0,36.5980110168457
2017-11-30,40.93000030517578,40.54999923706055,40.56999969482422,40.869998931884766,1408100.0,36.91413116455078
2017-12-01,41.130001068115234,40.349998474121094,40.88999938964844,40.75,1260600.0,36.805747985839844
2017-12-04,41.06999969482422,40.5099983215332,40.90999984741211,40.529998779296875,1626000.0,36.60704040527344
2017-12-05,40.630001068115234,40.34000015258789,40.54999923706055,40.349998474121094,762000.0,36.444461822509766
2017-12-06,40.41999816894531,40.06999969482422,40.34000015258789,40.06999969482422,982600.0,36.191558837890625
2017-12-07,40.150001525878906,39.83000183105469,40.06999969482422,39.9900016784668,725000.0,36.11930465698242
2017-12-08,40.15999984741211,39.91999816894531,40.06999969482422,40.119998931884766,1050700.0,36.236717224121094
2017-12-11,40.75,40.040000915527344,40.2400016784668,40.70000076293945,801900.0,36.760581970214844
2017-12-12,39.4900016784668,37.59000015258789,38.36000061035156,37.79999923706055,8606900.0,34.14128112792969
2017-12-13,38.41999816894531,37.75,37.95000076293945,38.34000015258789,7927000.0,34.62901306152344
2017-12-14,38.849998474121094,37.90999984741211,37.93000030517578,37.959999084472656,4013300.0,34.8193473815918
2017-12-15,38.15999984741211,37.5,38.06999969482422,37.68000030517578,6050800.0,34.5625114440918
2017-12-18,38.38999938964844,37.81999969482422,37.81999969482422,37.939998626708984,2340800.0,34.80099868774414
2017-12-19,38.34000015258789,37.77000045776367,37.970001220703125,37.95000076293945,1531600.0,34.81017303466797
2017-12-20,38.08000183105469,37.16999816894531,37.93000030517578,37.18000030517578,2254400.0,34.10387420654297
2017-12-21,37.41999816894531,36.93000030517578,37.279998779296875,37.150001525878906,1488800.0,34.07636260986328
2017-12-22,37.720001220703125,37.20000076293945,37.209999084472656,37.65999984741211,2339900.0,34.544166564941406
2017-12-26,38.0,37.5,37.72999954223633,37.65999984741211,1148400.0,34.544166564941406
2017-12-27,37.95000076293945,37.31999969482422,37.77000045776367,37.45000076293945,1376300.0,34.351539611816406
2017-12-28,38.040000915527344,37.45000076293945,37.459999084472656,37.97999954223633,1186000.0,34.83768844604492
2017-12-29,38.130001068115234,37.70000076293945,38.029998779296875,37.72999954223633,1084900.0,34.608375549316406
2018-01-02,37.939998626708984,37.459999084472656,37.79999923706055,37.61000061035156,1307700.0,34.49830627441406
2018-01-03,37.689998626708984,37.0099983215332,37.59000015258789,37.099998474121094,1869700.0,34.03049850463867
2018-01-04,37.279998779296875,36.88999938964844,37.130001068115234,36.91999816894531,1827800.0,33.865386962890625
2018-01-05,37.15999984741211,36.560001373291016,37.0,36.79999923706055,1893200.0,33.75531768798828
2018-01-08,37.11000061035156,36.43000030517578,36.709999084472656,37.040000915527344,1442600.0,33.9754638671875
2018-01-09,37.279998779296875,36.81999969482422,37.08000183105469,36.83000183105469,1122500.0,33.7828369140625
2018-01-10,36.779998779296875,36.2400016784668,36.75,36.54999923706055,1358700.0,33.5260009765625
2018-01-11,36.68000030517578,36.15999984741211,36.5,36.58000183105469,1949200.0,33.55352020263672
2018-01-12,36.599998474121094,36.04999923706055,36.58000183105469,36.220001220703125,1665100.0,33.223304748535156
2018-01-16,37.11000061035156,36.20000076293945,36.36000061035156,36.22999954223633,1346000.0,33.23247528076172
2018-01-17,36.400001525878906,36.04999923706055,36.400001525878906,36.33000183105469,1874500.0,33.32420349121094
2018-01-18,36.220001220703125,35.27000045776367,36.20000076293945,35.29999923706055,2975500.0,32.379425048828125
2018-01-19,35.849998474121094,35.310001373291016,35.369998931884766,35.4900016784668,1750100.0,32.55370330810547
2018-01-22,36.2400016784668,35.59000015258789,35.599998474121094,35.810001373291016,1891500.0,32.84722900390625
2018-01-23,36.45000076293945,35.81999969482422,36.02000045776367,36.349998474121094,1691400.0,33.34254837036133
2018-01-24,36.400001525878906,35.650001525878906,36.34000015258789,35.77000045776367,1685700.0,32.8105354309082
2018-01-25,35.970001220703125,35.70000076293945,35.77000045776367,35.81999969482422,1015900.0,32.85639953613281
2018-01-26,35.9900016784668,35.33000183105469,35.9900016784668,35.7599983215332,1788800.0,32.80136489868164
2018-01-29,35.77000045776367,34.0099983215332,35.7599983215332,34.08000183105469,3653500.0,31.26036262512207
2018-01-30,34.310001373291016,33.56999969482422,34.099998474121094,33.93000030517578,2807600.0,31.122764587402344
2018-01-31,35.040000915527344,34.0099983215332,34.0099983215332,35.029998779296875,3380100.0,32.13176345825195
2018-02-01,35.11000061035156,34.540000915527344,34.939998626708984,34.619998931884766,2055300.0,31.75568199157715
2018-02-02,34.45000076293945,33.41999816894531,34.36000061035156,33.65999984741211,2364200.0,30.875110626220703
2018-02-05,34.27000045776367,32.72999954223633,33.529998779296875,32.72999954223633,2002700.0,30.022052764892578
2018-02-06,33.790000915527344,32.04999923706055,32.209999084472656,33.11000061035156,3135100.0,30.37061309814453
2018-02-07,33.93000030517578,32.709999084472656,32.95000076293945,33.18000030517578,2566700.0,30.43482208251953
2018-02-08,33.279998779296875,32.060001373291016,33.20000076293945,32.06999969482422,2103900.0,29.416658401489258
2018-02-09,33.38999938964844,31.90999984741211,32.33000183105469,33.099998474121094,2365000.0,30.361440658569336
2018-02-12,33.47999954223633,32.70000076293945,33.220001220703125,33.29999923706055,2607800.0,30.54489517211914
2018-02-13,33.790000915527344,32.939998626708984,33.25,33.540000915527344,1686900.0,30.765039443969727
2018-02-14,33.349998474121094,32.72999954223633,33.25,33.189998626708984,1441200.0,30.443994522094727
2018-02-15,33.7400016784668,33.060001373291016,33.43000030517578,33.720001220703125,2561500.0,30.930147171020508
2018-02-16,35.25,33.130001068115234,34.869998931884766,33.16999816894531,3047900.0,30.425649642944336
2018-02-20,33.150001525878906,31.889999389648438,32.75,32.119998931884766,3840300.0,29.462520599365234
2018-02-21,32.349998474121094,31.450000762939453,31.889999389648438,31.469999313354492,2912700.0,28.866302490234375
2018-02-22,32.029998779296875,31.34000015258789,31.700000762939453,31.579999923706055,2293400.0,28.967199325561523
2018-02-23,32.040000915527344,31.760000228881836,31.780000686645508,31.959999084472656,1550600.0,29.315759658813477
2018-02-26,32.29999923706055,31.809999465942383,32.08000183105469,31.950000762939453,1854100.0,29.30658531188965
2018-02-27,32.2599983215332,31.020000457763672,32.029998779296875,31.049999237060547,2316600.0,28.481050491333008
2018-02-28,31.559999465942383,30.950000762939453,31.209999084472656,31.459999084472656,2543300.0,28.857128143310547
2018-03-01,32.09000015258789,31.149999618530273,31.360000610351562,31.6299991607666,2161600.0,29.013063430786133
2018-03-02,31.59000015258789,31.100000381469727,31.479999542236328,31.549999237060547,2046600.0,28.939682006835938
2018-03-05,32.22999954223633,31.260000228881836,31.389999389648438,32.099998474121094,1724600.0,29.444175720214844
2018-03-06,32.43000030517578,31.8799991607666,32.11000061035156,32.38999938964844,1310700.0,29.71018409729004
2018-03-07,32.75,32.13999938964844,32.2400016784668,32.709999084472656,2005000.0,30.003707885742188
2018-03-08,32.88999938964844,32.52000045776367,32.79999923706055,32.709999084472656,1612400.0,30.003707885742188
2018-03-09,33.25,32.54999923706055,32.7599983215332,33.25,2629400.0,30.49903106689453
2018-03-12,33.380001068115234,32.86000061035156,33.290000915527344,33.0099983215332,2106300.0,30.278884887695312
2018-03-13,33.369998931884766,33.119998931884766,33.13999938964844,33.220001220703125,1623100.0,30.471515655517578
2018-03-14,32.9900016784668,32.54999923706055,32.709999084472656,32.97999954223633,1999100.0,30.796001434326172
2018-03-15,33.09000015258789,32.619998931884766,32.97999954223633,32.88999938964844,1758100.0,30.711959838867188
2018-03-16,32.59000015258789,31.8700008392334,32.439998626708984,32.52000045776367,5377900.0,30.36646270751953
2018-03-19,32.22999954223633,31.329999923706055,32.22999954223633,31.459999084472656,1926800.0,29.376657485961914
2018-03-20,31.739999771118164,31.3700008392334,31.469999313354492,31.729999542236328,1367900.0,29.6287784576416
2018-03-21,31.969999313354492,31.389999389648438,31.719999313354492,31.610000610351562,1446800.0,29.516725540161133
2018-03-22,32.029998779296875,31.420000076293945,31.459999084472656,31.639999389648438,2231900.0,29.544736862182617
2018-03-23,31.8700008392334,30.780000686645508,31.670000076293945,30.889999389648438,1836700.0,28.844404220581055
2018-03-26,31.350000381469727,30.950000762939453,31.1200008392334,31.270000457763672,1249100.0,29.19923973083496
2018-03-27,32.36000061035156,31.25,31.530000686645508,31.899999618530273,2202700.0,29.787521362304688
2018-03-28,33.02000045776367,32.029998779296875,32.040000915527344,32.709999084472656,1776500.0,30.543880462646484
2018-03-29,33.09000015258789,32.70000076293945,32.79999923706055,32.86000061035156,1901700.0,30.683948516845703
2018-04-02,32.95000076293945,32.33000183105469,32.869998931884766,32.369998931884766,2050600.0,30.22639274597168
2018-04-03,32.959999084472656,32.150001525878906,32.43000030517578,32.81999969482422,1569900.0,30.646595001220703
2018-04-04,33.470001220703125,32.5,32.540000915527344,33.29999923706055,1390400.0,31.094810485839844
2018-04-05,33.83000183105469,33.119998931884766,33.34000015258789,33.77000045776367,1680200.0,31.5336856842041
2018-04-06,34.310001373291016,33.470001220703125,33.77000045776367,33.529998779296875,2219900.0,31.30957794189453
2018-04-09,33.83000183105469,33.209999084472656,33.59000015258789,33.31999969482422,1183800.0,31.11348533630371
2018-04-10,33.709999084472656,33.40999984741211,33.58000183105469,33.459999084472656,1460900.0,31.244213104248047
2018-04-11,33.72999954223633,33.15999984741211,33.380001068115234,33.540000915527344,797700.0,31.318918228149414
2018-04-12,33.599998474121094,32.849998474121094,33.599998474121094,33.15999984741211,1554500.0,30.964078903198242
2018-04-13,33.380001068115234,32.95000076293945,33.349998474121094,33.349998474121094,784300.0,31.14149284362793
2018-04-16,33.9900016784668,33.31999969482422,33.4900016784668,33.61000061035156,1332900.0,31.384281158447266
2018-04-17,34.38999938964844,33.400001525878906,33.720001220703125,34.22999954223633,1193000.0,31.96322250366211
2018-04-18,34.77000045776367,34.2599983215332,34.29999923706055,34.52000045776367,1164300.0,32.23401641845703
2018-04-19,34.40999984741211,33.58000183105469,34.36000061035156,33.7599983215332,1102900.0,31.524343490600586
2018-04-20,33.880001068115234,33.209999084472656,33.86000061035156,33.34000015258789,1304300.0,31.132160186767578
2018-04-23,33.61000061035156,33.220001220703125,33.41999816894531,33.439998626708984,1173500.0,31.22553825378418
2018-04-24,33.90999984741211,33.47999954223633,33.58000183105469,33.7599983215332,1718400.0,31.524343490600586
2018-04-25,33.869998931884766,33.58000183105469,33.65999984741211,33.779998779296875,1994500.0,31.54302215576172
2018-04-26,34.61000061035156,33.65999984741211,33.970001220703125,34.33000183105469,1721500.0,32.056602478027344
2018-04-27,34.70000076293945,34.08000183105469,34.16999816894531,34.5,1551300.0,32.21533966064453
2018-04-30,34.599998474121094,33.93000030517578,34.59000015258789,33.939998626708984,1540700.0,31.692426681518555
2018-05-01,34.20000076293945,33.77000045776367,33.970001220703125,34.119998931884766,1362100.0,31.860509872436523
2018-05-02,34.189998626708984,33.709999084472656,33.95000076293945,34.0,2022500.0,31.748455047607422
2018-05-03,34.349998474121094,33.93000030517578,33.9900016784668,34.29999923706055,1165500.0,32.028587341308594
2018-05-04,34.720001220703125,34.099998474121094,34.25,34.4900016784668,1054600.0,32.20600509643555
2018-05-07,34.63999938964844,34.31999969482422,34.56999969482422,34.439998626708984,1450800.0,32.15931701660156
2018-05-08,34.52000045776367,33.400001525878906,34.43000030517578,33.4900016784668,2011200.0,31.272232055664062
2018-05-09,33.93000030517578,33.209999084472656,33.63999938964844,33.41999816894531,1632700.0,31.206859588623047
2018-05-10,33.86000061035156,33.5099983215332,33.650001525878906,33.720001220703125,1166600.0,31.486997604370117
2018-05-11,34.060001373291016,33.380001068115234,33.83000183105469,33.529998779296875,1076000.0,31.30957794189453
2018-05-14,33.790000915527344,33.22999954223633,33.529998779296875,33.5099983215332,738000.0,31.290903091430664
2018-05-15,33.31999969482422,32.529998779296875,33.27000045776367,32.75,2107200.0,30.58123207092285
2018-05-16,33.16999816894531,32.560001373291016,32.880001068115234,32.619998931884766,1199700.0,30.459836959838867
2018-05-17,32.779998779296875,31.959999084472656,32.619998931884766,32.04999923706055,1206600.0,29.927587509155273
2018-05-18,32.209999084472656,31.8700008392334,32.119998931884766,32.08000183105469,1014200.0,29.95560073852539
2018-05-21,32.7599983215332,32.04999923706055,32.209999084472656,32.68000030517578,1355100.0,30.515865325927734
2018-05-22,32.70000076293945,32.27000045776367,32.66999816894531,32.52000045776367,1260000.0,30.36646270751953
2018-05-23,32.900001525878906,32.470001220703125,32.529998779296875,32.869998931884766,900200.0,30.69328498840332
2018-05-24,33.040000915527344,32.779998779296875,32.84000015258789,32.97999954223633,1014600.0,30.796001434326172
2018-05-25,33.2400016784668,32.900001525878906,33.040000915527344,32.9900016784668,929400.0,30.805339813232422
2018-05-29,33.34000015258789,32.75,33.02000045776367,33.2599983215332,1251700.0,31.057458877563477
2018-05-30,33.77000045776367,32.61000061035156,33.2599983215332,33.5,1676400.0,31.281564712524414
2018-05-31,33.70000076293945,33.20000076293945,33.40999984741211,33.290000915527344,3084800.0,31.085474014282227
2018-06-01,34.119998931884766,33.150001525878906,33.349998474121094,33.95000076293945,1245700.0,31.701766967773438
2018-06-04,34.58000183105469,34.150001525878906,34.150001525878906,34.56999969482422,1454300.0,32.28070831298828
2018-06-05,34.68000030517578,34.36000061035156,34.619998931884766,34.43000030517578,1444300.0,32.14998245239258
2018-06-06,34.689998626708984,34.2599983215332,34.45000076293945,34.630001068115234,1216700.0,32.336734771728516
2018-06-07,34.959999084472656,34.540000915527344,34.689998626708984,34.79999923706055,2233700.0,32.495479583740234
2018-06-08,34.83000183105469,34.369998931884766,34.599998474121094,34.61000061035156,1690200.0,32.318058013916016
2018-06-11,34.720001220703125,34.45000076293945,34.61000061035156,34.63999938964844,1404900.0,32.3460693359375
2018-06-12,35.13999938964844,34.599998474121094,34.63999938964844,35.0,1897000.0,32.68223190307617
2018-06-13,35.11000061035156,34.439998626708984,35.06999969482422,34.63999938964844,2874000.0,32.3460693359375
2018-06-14,34.439998626708984,33.849998474121094,34.20000076293945,33.9900016784668,1801600.0,32.286705017089844
2018-06-15,33.810001373291016,33.25,33.59000015258789,33.2599983215332,3100100.0,31.593284606933594
2018-06-18,33.52000045776367,33.060001373291016,33.2400016784668,33.380001068115234,1680100.0,31.707271575927734
2018-06-19,34.08000183105469,33.150001525878906,33.209999084472656,33.83000183105469,2848100.0,32.134727478027344
2018-06-20,34.40999984741211,33.77000045776367,33.84000015258789,34.31999969482422,1420800.0,32.60016632080078
2018-06-21,34.790000915527344,34.31999969482422,34.369998931884766,34.70000076293945,1177900.0,32.96112823486328
2018-06-22,35.130001068115234,34.68000030517578,34.77000045776367,35.0,2155300.0,33.246089935302734
2018-06-25,35.150001525878906,34.810001373291016,35.029998779296875,34.93000030517578,1324500.0,33.17959976196289
2018-06-26,35.060001373291016,34.52000045776367,34.959999084472656,34.58000183105469,1488000.0,32.84714126586914
2018-06-27,35.0,34.400001525878906,34.68000030517578,34.400001525878906,1597800.0,32.6761589050293
2018-06-28,34.7400016784668,34.15999984741211,34.45000076293945,34.650001525878906,1232700.0,32.913631439208984
2018-06-29,35.369998931884766,34.20000076293945,34.630001068115234,35.0099983215332,2026200.0,33.25558853149414
2018-07-02,35.04999923706055,34.41999816894531,34.900001525878906,34.900001525878906,1487400.0,33.151100158691406
2018-07-03,35.720001220703125,34.7599983215332,34.81999969482422,35.560001373291016,840900.0,33.77803039550781
2018-07-05,35.7400016784668,35.119998931884766,35.650001525878906,35.68000030517578,2285200.0,33.89201354980469
2018-07-06,36.09000015258789,35.72999954223633,35.77000045776367,35.88999938964844,973800.0,34.091495513916016
2018-07-09,36.52000045776367,35.75,36.0,36.5,2012500.0,34.67092514038086
2018-07-10,36.63999938964844,36.099998474121094,36.5,36.459999084472656,1453600.0,34.63292694091797
2018-07-11,36.720001220703125,36.09000015258789,36.279998779296875,36.619998931884766,1345600.0,34.784908294677734
2018-07-12,36.810001373291016,36.47999954223633,36.72999954223633,36.7400016784668,2108200.0,34.89889907836914
2018-07-13,36.95000076293945,36.560001373291016,36.79999923706055,36.63999938964844,1437600.0,34.80390930175781
2018-07-16,36.619998931884766,36.150001525878906,36.59000015258789,36.36000061035156,1231500.0,34.53793716430664
2018-07-17,36.2599983215332,34.88999938964844,36.2599983215332,35.029998779296875,3455200.0,33.27458953857422
2018-07-18,35.11000061035156,34.439998626708984,34.90999984741211,34.70000076293945,2346600.0,32.96112823486328
2018-07-19,35.58000183105469,34.369998931884766,34.709999084472656,35.41999816894531,1761400.0,33.645042419433594
2018-07-20,35.34000015258789,34.779998779296875,35.34000015258789,34.95000076293945,1328100.0,33.1985969543457
2018-07-23,34.91999816894531,34.54999923706055,34.779998779296875,34.810001373291016,994800.0,33.06561279296875
2018-07-24,35.15999984741211,34.63999938964844,34.900001525878906,35.04999923706055,1456700.0,33.29358673095703
2018-07-25,35.41999816894531,34.970001220703125,35.20000076293945,35.349998474121094,1193600.0,33.578548431396484
2018-07-26,35.7400016784668,35.220001220703125,35.380001068115234,35.45000076293945,1496600.0,33.67354202270508
2018-07-27,36.0,33.0099983215332,36.0,34.459999084472656,4936400.0,32.733154296875
2018-07-30,35.16999816894531,34.380001068115234,34.470001220703125,34.90999984741211,3275500.0,33.16060256958008
2018-07-31,35.52000045776367,34.75,34.900001525878906,35.11000061035156,5369100.0,33.35057830810547
2018-08-01,35.33000183105469,34.41999816894531,34.849998474121094,35.29999923706055,2493500.0,33.53105926513672
2018-08-02,35.93000030517578,35.22999954223633,35.290000915527344,35.58000183105469,1323200.0,33.797027587890625
2018-08-03,36.209999084472656,35.56999969482422,35.65999984741211,35.7599983215332,1576200.0,33.9680061340332
2018-08-06,36.18000030517578,35.790000915527344,35.810001373291016,36.0099983215332,1387100.0,34.20547866821289
2018-08-07,36.08000183105469,35.779998779296875,36.029998779296875,35.93000030517578,1514400.0,34.129486083984375
2018-08-08,35.869998931884766,35.41999816894531,35.70000076293945,35.58000183105469,1200100.0,33.797027587890625
2018-08-09,35.95000076293945,35.400001525878906,35.61000061035156,35.459999084472656,1766700.0,33.68303680419922
2018-08-10,35.189998626708984,34.439998626708984,35.189998626708984,34.599998474121094,2499600.0,32.86613464355469
2018-08-13,35.25,34.0,34.04999923706055,34.83000183105469,1952800.0,33.08460998535156
2018-08-14,35.400001525878906,34.790000915527344,34.959999084472656,35.310001373291016,1303200.0,33.540557861328125
2018-08-15,35.7400016784668,35.20000076293945,35.290000915527344,35.54999923706055,1107700.0,33.768531799316406
2018-08-16,36.119998931884766,35.599998474121094,35.70000076293945,36.08000183105469,958500.0,34.27197265625
2018-08-17,36.5099983215332,36.11000061035156,36.130001068115234,36.47999954223633,1026900.0,34.65192413330078
2018-08-20,36.79999923706055,36.54999923706055,36.65999984741211,36.56999969482422,695400.0,34.73741149902344
2018-08-21,36.7599983215332,36.290000915527344,36.61000061035156,36.310001373291016,1045200.0,34.49044418334961
2018-08-22,36.41999816894531,35.95000076293945,36.33000183105469,35.97999954223633,742400.0,34.176979064941406
2018-08-23,36.099998474121094,35.86000061035156,35.9900016784668,36.08000183105469,1055300.0,34.27197265625
2018-08-24,36.25,35.810001373291016,36.099998474121094,35.900001525878906,872800.0,34.10099411010742
2018-08-27,35.93000030517578,35.43000030517578,35.900001525878906,35.7400016784668,1154800.0,33.94900894165039
2018-08-28,36.2400016784668,35.63999938964844,35.7400016784668,36.209999084472656,1370600.0,34.39545440673828
2018-08-29,36.5,36.150001525878906,36.29999923706055,36.310001373291016,939900.0,34.49044418334961
2018-08-30,36.380001068115234,35.84000015258789,36.380001068115234,35.95000076293945,1145500.0,34.14848327636719
2018-08-31,36.13999938964844,35.81999969482422,35.86000061035156,36.099998474121094,1212600.0,34.29096603393555
2018-09-04,36.65999984741211,36.099998474121094,36.119998931884766,36.349998474121094,1551000.0,34.528438568115234
2018-09-05,36.630001068115234,36.130001068115234,36.279998779296875,36.540000915527344,1226800.0,34.708919525146484
2018-09-06,36.790000915527344,36.27000045776367,36.599998474121094,36.27000045776367,1312600.0,34.452449798583984
2018-09-07,36.209999084472656,35.11000061035156,36.099998474121094,35.36000061035156,1748800.0,33.58804702758789
2018-09-10,36.119998931884766,35.599998474121094,35.619998931884766,35.91999816894531,2127600.0,34.11998748779297
2018-09-11,35.900001525878906,35.400001525878906,35.7599983215332,35.65999984741211,1225900.0,33.873016357421875
2018-09-12,36.06999969482422,35.5099983215332,35.599998474121094,36.02000045776367,1585900.0,34.2149772644043
2018-09-13,36.439998626708984,35.900001525878906,36.15999984741211,36.34000015258789,1769900.0,34.51893997192383
2018-09-14,35.79999923706055,35.380001068115234,35.79999923706055,35.650001525878906,1510500.0,34.41997528076172
2018-09-17,35.869998931884766,35.560001373291016,35.720001220703125,35.779998779296875,1337200.0,34.54549026489258
2018-09-18,35.959999084472656,35.13999938964844,35.790000915527344,35.25,1415600.0,34.03377914428711
2018-09-19,35.369998931884766,34.47999954223633,35.25,34.599998474121094,2040900.0,33.40620422363281
2018-09-20,35.61000061035156,34.5,34.79999923706055,35.529998779296875,1844900.0,34.304115295410156
2018-09-21,36.060001373291016,35.40999984741211,35.47999954223633,35.90999984741211,2845600.0,34.6710090637207
2018-09-24,35.900001525878906,35.119998931884766,35.7599983215332,35.22999954223633,1314400.0,34.014469146728516
2018-09-25,35.27000045776367,34.70000076293945,35.22999954223633,34.709999084472656,1416500.0,33.51240921020508
2018-09-26,34.88999938964844,34.29999923706055,34.77000045776367,34.310001373291016,1261300.0,33.12621307373047
2018-09-27,34.59000015258789,34.04999923706055,34.400001525878906,34.09000015258789,1188400.0,32.91380310058594
2018-09-28,34.529998779296875,33.880001068115234,34.0,34.52000045776367,1713400.0,33.32896423339844
2018-10-01,34.91999816894531,34.369998931884766,34.619998931884766,34.380001068115234,2099100.0,33.19379806518555
2018-10-02,34.5,34.040000915527344,34.400001525878906,34.04999923706055,1132300.0,32.875179290771484
2018-10-03,34.220001220703125,33.439998626708984,34.150001525878906,33.709999084472656,1487300.0,32.54690933227539
2018-10-04,33.720001220703125,33.20000076293945,33.54999923706055,33.52000045776367,1467700.0,32.363468170166016
2018-10-05,33.63999938964844,33.27000045776367,33.529998779296875,33.290000915527344,1541000.0,32.14140701293945
2018-10-08,34.150001525878906,33.33000183105469,33.45000076293945,33.90999984741211,1475400.0,32.74000930786133
2018-10-09,33.970001220703125,33.459999084472656,33.939998626708984,33.54999923706055,1325100.0,32.392433166503906
2018-10-10,33.599998474121094,32.400001525878906,33.5,32.45000076293945,2901200.0,31.330387115478516
2018-10-11,32.560001373291016,31.479999542236328,32.5,31.5,3900800.0,30.413162231445312
2018-10-12,32.0,31.360000610351562,31.950000762939453,31.59000015258789,3135200.0,30.500059127807617
2018-10-15,32.09000015258789,31.540000915527344,31.579999923706055,31.829999923706055,2365000.0,30.73177719116211
2018-10-16,32.279998779296875,31.790000915527344,32.02000045776367,32.150001525878906,2070400.0,31.040739059448242
2018-10-17,32.18000030517578,31.65999984741211,32.099998474121094,31.739999771118164,1636700.0,30.644882202148438
2018-10-18,31.989999771118164,31.639999389648438,31.700000762939453,31.799999237060547,2842700.0,30.70281219482422
2018-10-19,32.279998779296875,31.8700008392334,31.8700008392334,32.18000030517578,2484100.0,31.0697021484375
2018-10-22,32.43000030517578,31.75,32.22999954223633,31.780000686645508,1593500.0,30.683504104614258
2018-10-23,32.2400016784668,31.59000015258789,31.600000381469727,32.029998779296875,1654500.0,30.924877166748047
2018-10-24,32.79999923706055,32.060001373291016,32.11000061035156,32.25,2170400.0,31.137285232543945
2018-10-25,33.400001525878906,32.11000061035156,32.58000183105469,32.70000076293945,4212200.0,31.571760177612305
2018-10-26,32.33000183105469,30.219999313354492,32.29999923706055,30.479999542236328,5514300.0,29.428354263305664
2018-10-29,31.690000534057617,30.6299991607666,30.6299991607666,31.3700008392334,3100200.0,30.287649154663086
2018-10-30,31.979999542236328,31.149999618530273,31.459999084472656,31.610000610351562,2293700.0,30.51936912536621
2018-10-31,31.780000686645508,30.59000015258789,31.68000030517578,30.610000610351562,2844200.0,29.55387306213379
2018-11-01,31.59000015258789,30.5,30.729999542236328,31.59000015258789,1964000.0,30.500059127807617
2018-11-02,31.81999969482422,30.690000534057617,31.700000762939453,31.18000030517578,1910600.0,30.104206085205078
2018-11-05,31.770000457763672,31.219999313354492,31.34000015258789,31.6299991607666,1223100.0,30.538679122924805
2018-11-06,31.889999389648438,31.520000457763672,31.700000762939453,31.739999771118164,1358000.0,30.644882202148438
2018-11-07,32.15999984741211,31.530000686645508,31.950000762939453,32.130001068115234,1183400.0,31.021427154541016
2018-11-08,32.29999923706055,31.860000610351562,32.060001373291016,32.290000915527344,1228600.0,31.175907135009766
2018-11-09,32.939998626708984,32.2400016784668,32.279998779296875,32.77000045776367,1762700.0,31.639345169067383
2018-11-12,33.0099983215332,32.630001068115234,32.689998626708984,32.66999816894531,1628500.0,31.54279136657715
2018-11-13,33.0,32.56999969482422,32.779998779296875,32.869998931884766,1453800.0,31.73589324951172
2018-11-14,33.130001068115234,32.65999984741211,33.0,32.83000183105469,2448000.0,31.697277069091797
2018-11-15,33.09000015258789,31.950000762939453,32.709999084472656,33.040000915527344,2204700.0,31.9000301361084
2018-11-16,34.08000183105469,32.93000030517578,32.93000030517578,33.86000061035156,2995500.0,32.69173812866211
2018-11-19,34.099998474121094,33.279998779296875,33.91999816894531,33.459999084472656,1595000.0,32.305538177490234
2018-11-20,34.08000183105469,33.099998474121094,33.439998626708984,33.11000061035156,2065700.0,31.967613220214844
2018-11-21,33.20000076293945,32.5099983215332,32.95000076293945,32.56999969482422,1898800.0,31.446243286132812
2018-11-23,32.72999954223633,32.119998931884766,32.560001373291016,32.41999816894531,794700.0,31.30141830444336
2018-11-26,33.27000045776367,32.58000183105469,32.619998931884766,33.27000045776367,2045400.0,32.12209701538086
2018-11-27,33.4900016784668,33.099998474121094,33.29999923706055,33.439998626708984,1187100.0,32.28622817993164
2018-11-28,34.04999923706055,33.400001525878906,33.41999816894531,33.7599983215332,1207000.0,32.595184326171875
2018-11-29,34.060001373291016,33.540000915527344,33.709999084472656,33.75,1354100.0,32.585533142089844
2018-11-30,34.0,33.689998626708984,33.88999938964844,33.970001220703125,2087200.0,32.797943115234375
2018-12-03,34.150001525878906,33.380001068115234,34.13999938964844,33.900001525878906,2082400.0,32.7303581237793
2018-12-04,34.540000915527344,33.81999969482422,33.900001525878906,33.91999816894531,1976600.0,32.749664306640625
2018-12-06,34.43000030517578,33.09000015258789,33.81999969482422,34.38999938964844,2542500.0,33.20344924926758
2018-12-07,34.34000015258789,33.84000015258789,34.33000183105469,34.04999923706055,1600000.0,32.875179290771484
2018-12-10,34.25,33.4900016784668,34.18000030517578,33.97999954223633,1394000.0,32.807594299316406
2018-12-11,34.70000076293945,34.15999984741211,34.15999984741211,34.459999084472656,1792700.0,33.27103805541992
2018-12-12,34.83000183105469,34.060001373291016,34.68000030517578,34.06999969482422,1786800.0,32.894493103027344
2018-12-13,35.0,34.130001068115234,34.2599983215332,34.95000076293945,2455600.0,33.7441291809082
2018-12-14,35.029998779296875,34.25,34.38999938964844,35.02000045776367,2563400.0,34.413330078125
2018-12-17,35.18000030517578,33.2400016784668,35.02000045776367,33.369998931884766,2751300.0,32.79191207885742
2018-12-18,34.349998474121094,33.45000076293945,33.68000030517578,33.90999984741211,2887100.0,33.32255935668945
2018-12-19,34.15999984741211,33.20000076293945,33.900001525878906,33.27000045776367,2155000.0,32.69364929199219
2018-12-20,33.349998474121094,31.979999542236328,33.33000183105469,32.41999816894531,2849200.0,31.858369827270508
2018-12-21,33.4900016784668,32.08000183105469,32.5099983215332,32.130001068115234,3856900.0,31.573396682739258
2018-12-24,32.31999969482422,30.610000610351562,32.060001373291016,30.639999389648438,1484700.0,30.109207153320312
2018-12-26,32.119998931884766,30.559999465942383,30.760000228881836,32.06999969482422,2226700.0,31.514434814453125
2018-12-27,32.15999984741211,31.010000228881836,31.899999618530273,32.15999984741211,1890200.0,31.602876663208008
2018-12-28,32.849998474121094,32.04999923706055,32.38999938964844,32.38999938964844,1794100.0,31.82889175415039
2018-12-31,32.52000045776367,31.8700008392334,32.38999938964844,32.40999984741211,1380900.0,31.84854507446289
