Date,High,Low,Open,Close,Volume,Adj Close
2016-01-04,27.43000030517578,26.829999923706055,27.190000534057617,27.40999984741211,5232900.0,25.724504470825195
2016-01-05,27.729999542236328,27.209999084472656,27.56999969482422,27.549999237060547,7589100.0,25.85589599609375
2016-01-06,27.139999389648438,26.610000610351562,27.110000610351562,26.780000686645508,4873400.0,25.13324737548828
2016-01-07,26.809999465942383,25.979999542236328,26.360000610351562,26.09000015258789,6599500.0,24.485673904418945
2016-01-08,26.299999237060547,25.670000076293945,26.25,25.719999313354492,4727600.0,24.138427734375
2016-01-11,26.139999389648438,25.6200008392334,25.90999984741211,26.010000228881836,3737200.0,24.41059112548828
2016-01-12,26.34000015258789,25.690000534057617,26.290000915527344,26.25,4664700.0,24.63583755493164
2016-01-13,26.510000228881836,25.510000228881836,26.329999923706055,25.65999984741211,4563800.0,24.082117080688477
2016-01-14,26.3700008392334,25.440000534057617,25.68000030517578,26.15999984741211,5008700.0,24.55137062072754
2016-01-15,25.860000610351562,25.389999389648438,25.540000915527344,25.739999771118164,7168000.0,24.157196044921875
2016-01-19,25.829999923706055,25.350000381469727,25.709999084472656,25.739999771118164,5902400.0,24.157196044921875
2016-01-20,25.940000534057617,25.030000686645508,25.260000228881836,25.59000015258789,12489800.0,24.016420364379883
2016-01-21,26.15999984741211,25.56999969482422,25.81999969482422,25.639999389648438,8806300.0,24.063350677490234
2016-01-22,26.170000076293945,25.940000534057617,26.049999237060547,26.1200008392334,5151500.0,24.513830184936523
2016-01-25,26.219999313354492,25.860000610351562,26.110000610351562,26.190000534057617,5316500.0,24.57952880859375
2016-01-26,26.75,26.209999084472656,26.209999084472656,26.649999618530273,5426900.0,25.01123809814453
2016-01-27,26.670000076293945,26.239999771118164,26.5,26.540000915527344,6362600.0,24.908004760742188
2016-01-28,24.0,21.950000762939453,23.760000228881836,22.459999084472656,28937300.0,21.078889846801758
2016-01-29,23.600000381469727,22.799999237060547,22.950000762939453,23.600000381469727,16576600.0,22.14879608154297
2016-02-01,24.350000381469727,23.15999984741211,23.309999465942383,24.329999923706055,15483000.0,22.83390235900879
2016-02-02,24.229999542236328,23.809999465942383,24.030000686645508,24.0,15723400.0,22.52419662475586
2016-02-03,24.139999389648438,23.700000762939453,24.079999923706055,23.920000076293945,11297200.0,22.44911003112793
2016-02-04,24.059999465942383,23.600000381469727,23.899999618530273,23.729999542236328,8236200.0,22.270797729492188
2016-02-05,23.799999237060547,22.8799991607666,23.6299991607666,22.899999618530273,7415000.0,21.491830825805664
2016-02-08,22.649999618530273,21.6200008392334,22.540000915527344,21.969999313354492,9357800.0,20.6190185546875
2016-02-09,22.440000534057617,21.690000534057617,21.770000457763672,21.989999771118164,4580900.0,20.63779067993164
2016-02-10,22.3799991607666,21.600000381469727,22.190000534057617,21.6200008392334,6360100.0,20.290544509887695
2016-02-11,22.059999465942383,21.489999771118164,21.489999771118164,21.700000762939453,6186400.0,20.365625381469727
2016-02-12,22.010000228881836,21.56999969482422,21.989999771118164,21.84000015258789,6965300.0,20.49701499938965
2016-02-16,23.25,22.010000228881836,22.010000228881836,23.209999084472656,7593900.0,21.78276824951172
2016-02-17,23.600000381469727,23.299999237060547,23.350000381469727,23.56999969482422,3620600.0,22.120635986328125
2016-02-18,24.100000381469727,23.670000076293945,23.739999771118164,24.0,4865400.0,22.52419662475586
2016-02-19,24.649999618530273,23.940000534057617,24.0,24.56999969482422,8364000.0,23.05914306640625
2016-02-22,25.0,24.6200008392334,24.670000076293945,24.780000686645508,4667500.0,23.256229400634766
2016-02-23,25.0,24.389999389648438,24.709999084472656,24.559999465942383,4781500.0,23.04975700378418
2016-02-24,24.8700008392334,24.079999923706055,24.170000076293945,24.84000015258789,5493700.0,23.312541961669922
2016-02-25,25.1299991607666,24.770000457763672,24.90999984741211,24.959999084472656,4891400.0,23.425161361694336
2016-02-26,25.040000915527344,24.420000076293945,24.90999984741211,24.600000381469727,5660700.0,23.180166244506836
2016-02-29,25.100000381469727,24.479999542236328,24.59000015258789,24.700000762939453,3986900.0,23.274396896362305
2016-03-01,25.0,24.520000457763672,24.75,24.93000030517578,4448600.0,23.491121292114258
2016-03-02,25.0,24.719999313354492,24.829999923706055,24.940000534057617,3154600.0,23.50054168701172
2016-03-03,24.93000030517578,24.5,24.649999618530273,24.899999618530273,3317200.0,23.46285629272461
2016-03-04,25.25,24.700000762939453,24.989999771118164,25.25,4916800.0,23.792652130126953
2016-03-07,25.360000610351562,24.959999084472656,25.020000457763672,25.190000534057617,3356000.0,23.736114501953125
2016-03-08,25.3700008392334,24.799999237060547,25.049999237060547,25.030000686645508,4425700.0,23.585350036621094
2016-03-09,25.5,24.81999969482422,25.190000534057617,25.229999542236328,4476800.0,23.773807525634766
2016-03-10,25.719999313354492,25.15999984741211,25.270000457763672,25.309999465942383,8859200.0,23.84918785095215
2016-03-11,26.239999771118164,25.479999542236328,25.510000228881836,26.209999084472656,7205800.0,24.697240829467773
2016-03-14,26.100000381469727,25.700000762939453,25.940000534057617,25.899999618530273,4992000.0,24.405134201049805
2016-03-15,25.860000610351562,25.440000534057617,25.799999237060547,25.709999084472656,4930700.0,24.22610092163086
2016-03-16,25.760000228881836,24.760000228881836,24.770000457763672,25.700000762939453,6861700.0,24.2166805267334
2016-03-17,26.489999771118164,25.709999084472656,25.75,26.329999923706055,6302900.0,24.810317993164062
2016-03-18,26.459999084472656,26.030000686645508,26.360000610351562,26.389999389648438,6280400.0,24.866853713989258
2016-03-21,26.270000457763672,25.700000762939453,25.850000381469727,25.799999237060547,10657900.0,24.3109073638916
2016-03-22,26.100000381469727,25.639999389648438,25.670000076293945,25.93000030517578,7245400.0,24.433401107788086
2016-03-23,26.020000457763672,25.6200008392334,25.959999084472656,25.639999389648438,6846900.0,24.160140991210938
2016-03-24,25.549999237060547,24.959999084472656,25.520000457763672,25.360000610351562,5852200.0,23.896303176879883
2016-03-28,25.540000915527344,25.260000228881836,25.469999313354492,25.450000762939453,4982300.0,23.981107711791992
2016-03-29,25.809999465942383,25.3799991607666,25.520000457763672,25.65999984741211,4533800.0,24.178987503051758
2016-03-30,26.020000457763672,25.469999313354492,25.850000381469727,25.510000228881836,4297800.0,24.037649154663086
2016-03-31,25.709999084472656,25.420000076293945,25.520000457763672,25.510000228881836,4690500.0,24.037649154663086
2016-04-01,25.690000534057617,25.360000610351562,25.399999618530273,25.559999465942383,3898600.0,24.084758758544922
2016-04-04,25.510000228881836,24.920000076293945,25.450000762939453,25.190000534057617,4532900.0,23.736114501953125
2016-04-05,25.3799991607666,24.969999313354492,25.049999237060547,25.229999542236328,5625500.0,23.773807525634766
2016-04-06,25.559999465942383,25.15999984741211,25.280000686645508,25.489999771118164,3713600.0,24.018802642822266
2016-04-07,25.399999618530273,24.8700008392334,25.290000915527344,24.940000534057617,3443900.0,23.50054168701172
2016-04-08,25.280000686645508,24.8700008392334,25.239999771118164,24.93000030517578,2060100.0,23.491121292114258
2016-04-11,25.360000610351562,24.799999237060547,24.899999618530273,24.889999389648438,4639900.0,23.453432083129883
2016-04-12,23.209999084472656,22.399999618530273,23.1299991607666,23.059999465942383,23660700.0,21.729049682617188
2016-04-13,23.8799991607666,23.1200008392334,23.149999618530273,23.81999969482422,9238100.0,22.445186614990234
2016-04-14,23.920000076293945,23.559999465942383,23.889999389648438,23.56999969482422,6851800.0,22.209613800048828
2016-04-15,23.969999313354492,23.510000228881836,23.639999389648438,23.639999389648438,5789000.0,22.275571823120117
2016-04-18,23.8700008392334,23.420000076293945,23.520000457763672,23.600000381469727,4184700.0,22.237886428833008
2016-04-19,23.670000076293945,23.329999923706055,23.59000015258789,23.469999313354492,6962700.0,22.11538314819336
2016-04-20,23.549999237060547,22.8700008392334,23.18000030517578,23.260000228881836,11790700.0,21.917510986328125
2016-04-21,23.56999969482422,23.200000762939453,23.200000762939453,23.3799991607666,6434300.0,22.030580520629883
2016-04-22,23.8700008392334,23.170000076293945,23.350000381469727,23.75,6464100.0,22.37922477722168
2016-04-25,23.8700008392334,23.440000534057617,23.690000534057617,23.540000915527344,2838000.0,22.181344985961914
2016-04-26,23.760000228881836,23.450000762939453,23.559999465942383,23.549999237060547,5314800.0,22.190767288208008
2016-04-27,23.860000610351562,23.360000610351562,23.5,23.809999465942383,4432800.0,22.435760498046875
2016-04-28,23.959999084472656,23.34000015258789,23.520000457763672,23.40999984741211,6411600.0,22.05885124206543
2016-04-29,24.25,23.260000228881836,23.959999084472656,23.399999618530273,7655900.0,22.04943084716797
2016-05-02,23.479999542236328,23.059999465942383,23.329999923706055,23.350000381469727,3675100.0,22.0023136138916
2016-05-03,23.280000686645508,22.649999618530273,23.110000610351562,22.709999084472656,5084800.0,21.399250030517578
2016-05-04,22.719999313354492,22.479999542236328,22.530000686645508,22.520000457763672,5472300.0,21.220216751098633
2016-05-05,22.639999389648438,22.309999465942383,22.600000381469727,22.34000015258789,4560800.0,21.05060386657715
2016-05-06,22.829999923706055,22.229999542236328,22.34000015258789,22.670000076293945,5585300.0,21.361560821533203
2016-05-09,22.860000610351562,22.579999923706055,22.709999084472656,22.709999084472656,4201000.0,21.399250030517578
2016-05-10,23.15999984741211,22.739999771118164,22.739999771118164,23.149999618530273,3478600.0,21.81385612487793
2016-05-11,23.190000534057617,22.84000015258789,23.030000686645508,22.850000381469727,3650600.0,21.531173706054688
2016-05-12,23.110000610351562,22.579999923706055,22.920000076293945,22.75,3224400.0,21.436941146850586
2016-05-13,23.059999465942383,22.709999084472656,22.729999542236328,22.75,2792000.0,21.436941146850586
2016-05-16,23.100000381469727,22.739999771118164,22.739999771118164,23.010000228881836,4471800.0,21.681934356689453
2016-05-17,23.09000015258789,22.5,22.920000076293945,22.600000381469727,4998300.0,21.29559898376465
2016-05-18,22.809999465942383,22.329999923706055,22.610000610351562,22.489999771118164,4621600.0,21.191953659057617
2016-05-19,22.709999084472656,22.18000030517578,22.559999465942383,22.3700008392334,4415900.0,21.078876495361328
2016-05-20,22.829999923706055,22.440000534057617,22.520000457763672,22.729999542236328,3449800.0,21.41809844970703
2016-05-23,22.780000686645508,22.360000610351562,22.459999084472656,22.489999771118164,2752800.0,21.191953659057617
2016-05-24,22.950000762939453,22.549999237060547,22.639999389648438,22.899999618530273,2425400.0,21.57828712463379
2016-05-25,23.190000534057617,22.81999969482422,22.90999984741211,23.059999465942383,2267400.0,21.729049682617188
2016-05-26,23.100000381469727,22.8799991607666,23.010000228881836,22.989999771118164,1540400.0,21.663089752197266
2016-05-27,23.110000610351562,22.670000076293945,22.729999542236328,23.030000686645508,1489100.0,21.795589447021484
2016-05-31,23.440000534057617,22.93000030517578,22.979999542236328,23.40999984741211,4140700.0,22.15522003173828
2016-06-01,23.440000534057617,23.139999389648438,23.40999984741211,23.229999542236328,2168800.0,21.9848690032959
2016-06-02,23.469999313354492,23.260000228881836,23.34000015258789,23.459999084472656,2243100.0,22.202539443969727
2016-06-03,23.420000076293945,23.200000762939453,23.3700008392334,23.34000015258789,2134100.0,22.088972091674805
2016-06-06,23.520000457763672,23.239999771118164,23.360000610351562,23.31999969482422,2859900.0,22.070043563842773
2016-06-07,23.540000915527344,23.290000915527344,23.290000915527344,23.469999313354492,2899200.0,22.211997985839844
2016-06-08,23.65999984741211,23.399999618530273,23.399999618530273,23.56999969482422,2261700.0,22.306640625
2016-06-09,23.59000015258789,23.34000015258789,23.489999771118164,23.450000762939453,2374900.0,22.19307518005371
2016-06-10,23.299999237060547,22.889999389648438,23.239999771118164,22.950000762939453,2362400.0,21.71987533569336
2016-06-13,23.40999984741211,22.799999237060547,22.899999618530273,23.020000457763672,4295300.0,21.7861270904541
2016-06-14,23.100000381469727,22.780000686645508,22.920000076293945,22.940000534057617,2664000.0,21.71040916442871
2016-06-15,23.1299991607666,22.829999923706055,22.969999313354492,22.940000534057617,2794400.0,21.71040916442871
2016-06-16,23.010000228881836,22.610000610351562,22.799999237060547,22.969999313354492,2299900.0,21.738800048828125
2016-06-17,23.239999771118164,22.889999389648438,23.0,23.190000534057617,4962800.0,21.9470157623291
2016-06-20,23.549999237060547,23.200000762939453,23.440000534057617,23.219999313354492,2037400.0,21.97540283203125
2016-06-21,23.280000686645508,22.700000762939453,22.799999237060547,23.219999313354492,4366700.0,21.97540283203125
2016-06-22,23.3799991607666,22.989999771118164,23.239999771118164,23.010000228881836,2297500.0,21.776657104492188
2016-06-23,24.049999237060547,23.139999389648438,23.219999313354492,24.040000915527344,3302600.0,22.751449584960938
2016-06-24,23.329999923706055,22.440000534057617,23.190000534057617,22.450000762939453,5230300.0,21.246671676635742
2016-06-27,22.209999084472656,21.18000030517578,22.170000076293945,21.239999771118164,4392000.0,20.10152816772461
2016-06-28,21.649999618530273,21.329999923706055,21.440000534057617,21.510000228881836,2735900.0,20.357059478759766
2016-06-29,22.06999969482422,21.6299991607666,21.690000534057617,22.06999969482422,2766800.0,20.88704490661621
2016-06-30,22.520000457763672,21.920000076293945,22.219999313354492,22.489999771118164,2784400.0,21.284534454345703
2016-07-01,22.709999084472656,22.209999084472656,22.479999542236328,22.350000381469727,2528800.0,21.15203285217285
2016-07-05,22.290000915527344,21.979999542236328,22.25,22.06999969482422,1858400.0,20.88704490661621
2016-07-06,21.969999313354492,21.18000030517578,21.6200008392334,21.920000076293945,3816200.0,20.745084762573242
2016-07-07,22.170000076293945,21.65999984741211,21.860000610351562,21.950000762939453,3549600.0,20.773475646972656
2016-07-08,22.68000030517578,22.149999618530273,22.149999618530273,22.65999984741211,3597600.0,21.44542121887207
2016-07-11,22.940000534057617,22.670000076293945,22.709999084472656,22.860000610351562,1917900.0,21.634702682495117
2016-07-12,23.290000915527344,22.969999313354492,23.049999237060547,23.100000381469727,3031400.0,21.861835479736328
2016-07-13,23.309999465942383,22.950000762939453,23.309999465942383,23.049999237060547,2106300.0,21.81451416015625
2016-07-14,23.360000610351562,23.030000686645508,23.329999923706055,23.09000015258789,1934300.0,21.852373123168945
2016-07-15,23.200000762939453,22.920000076293945,23.18000030517578,23.079999923706055,2050600.0,21.842906951904297
2016-07-18,23.3700008392334,23.06999969482422,23.139999389648438,23.149999618530273,1826100.0,21.909154891967773
2016-07-19,23.43000030517578,23.040000915527344,23.09000015258789,23.399999618530273,3177000.0,22.1457576751709
2016-07-20,23.6200008392334,23.329999923706055,23.530000686645508,23.510000228881836,2910800.0,22.249858856201172
2016-07-21,23.649999618530273,23.360000610351562,23.530000686645508,23.399999618530273,1897500.0,22.1457576751709
2016-07-22,23.920000076293945,23.34000015258789,23.510000228881836,23.770000457763672,2120800.0,22.49592399597168
2016-07-25,24.110000610351562,23.649999618530273,23.719999313354492,24.059999465942383,3536800.0,22.770376205444336
2016-07-26,24.450000762939453,23.959999084472656,24.110000610351562,24.219999313354492,5257500.0,22.921804428100586
2016-07-27,23.770000457763672,22.5,23.690000534057617,22.56999969482422,9023100.0,21.360240936279297
2016-07-28,22.709999084472656,22.459999084472656,22.459999084472656,22.6200008392334,3971500.0,21.407564163208008
2016-07-29,22.719999313354492,22.309999465942383,22.610000610351562,22.690000534057617,4177100.0,21.47381591796875
2016-08-01,22.760000228881836,22.420000076293945,22.690000534057617,22.600000381469727,2918700.0,21.388633728027344
2016-08-02,22.579999923706055,22.1299991607666,22.520000457763672,22.229999542236328,3333400.0,21.038467407226562
2016-08-03,22.649999618530273,22.1200008392334,22.18000030517578,22.600000381469727,2487900.0,21.388633728027344
2016-08-04,22.729999542236328,22.479999542236328,22.56999969482422,22.549999237060547,3204000.0,21.3413143157959
2016-08-05,23.149999618530273,22.559999465942383,22.600000381469727,23.049999237060547,3103600.0,21.81451416015625
2016-08-08,23.25,23.030000686645508,23.06999969482422,23.190000534057617,2748600.0,21.9470157623291
2016-08-09,23.31999969482422,23.010000228881836,23.1200008392334,23.079999923706055,3955000.0,21.842906951904297
2016-08-10,23.219999313354492,22.989999771118164,23.09000015258789,23.010000228881836,2155100.0,21.776657104492188
2016-08-11,23.34000015258789,22.959999084472656,23.059999465942383,23.299999237060547,3381900.0,22.051116943359375
2016-08-12,23.309999465942383,22.979999542236328,23.18000030517578,23.270000457763672,2318200.0,22.022720336914062
2016-08-15,24.170000076293945,23.360000610351562,23.399999618530273,23.969999313354492,4975000.0,22.685203552246094
2016-08-16,23.8799991607666,23.350000381469727,23.860000610351562,23.360000610351562,3746200.0,22.10790252685547
2016-08-17,23.440000534057617,22.950000762939453,23.360000610351562,23.110000610351562,4717300.0,21.871294021606445
2016-08-18,23.219999313354492,22.979999542236328,23.079999923706055,23.110000610351562,3903800.0,21.871294021606445
2016-08-19,23.40999984741211,22.979999542236328,23.010000228881836,23.3700008392334,4104000.0,22.117361068725586
2016-08-22,23.469999313354492,23.170000076293945,23.389999389648438,23.270000457763672,3442800.0,22.022720336914062
2016-08-23,23.68000030517578,23.389999389648438,23.450000762939453,23.450000762939453,3234000.0,22.19307518005371
2016-08-24,23.65999984741211,23.31999969482422,23.469999313354492,23.3700008392334,1909200.0,22.117361068725586
2016-08-25,23.540000915527344,23.260000228881836,23.299999237060547,23.399999618530273,1914200.0,22.1457576751709
2016-08-26,23.6200008392334,23.139999389648438,23.420000076293945,23.280000686645508,2648700.0,22.032188415527344
2016-08-29,23.479999542236328,23.170000076293945,23.329999923706055,23.18000030517578,2699600.0,21.937545776367188
2016-08-30,23.350000381469727,23.0,23.079999923706055,23.229999542236328,1546700.0,22.080121994018555
2016-08-31,23.270000457763672,22.959999084472656,23.1299991607666,23.079999923706055,3341500.0,21.93754768371582
2016-09-01,23.360000610351562,23.040000915527344,23.139999389648438,23.309999465942383,2431100.0,22.156158447265625
2016-09-02,23.5,23.239999771118164,23.399999618530273,23.40999984741211,2266800.0,22.25121307373047
2016-09-06,23.56999969482422,23.299999237060547,23.399999618530273,23.440000534057617,2229100.0,22.279727935791016
2016-09-07,23.579999923706055,23.309999465942383,23.420000076293945,23.40999984741211,2161000.0,22.25121307373047
2016-09-08,23.540000915527344,23.260000228881836,23.329999923706055,23.479999542236328,2592100.0,22.3177433013916
2016-09-09,23.739999771118164,23.1200008392334,23.360000610351562,23.15999984741211,5759600.0,22.013586044311523
2016-09-12,23.43000030517578,22.700000762939453,22.940000534057617,23.389999389648438,4388200.0,22.232202529907227
2016-09-13,23.420000076293945,22.420000076293945,23.190000534057617,22.610000610351562,5297000.0,21.49081039428711
2016-09-14,22.780000686645508,22.440000534057617,22.600000381469727,22.65999984741211,3160600.0,21.538339614868164
2016-09-15,23.020000457763672,22.600000381469727,22.600000381469727,23.010000228881836,2907600.0,21.871009826660156
2016-09-16,22.989999771118164,22.399999618530273,22.84000015258789,22.469999313354492,7961500.0,21.357742309570312
2016-09-19,23.049999237060547,22.56999969482422,22.56999969482422,22.75,3112900.0,21.62388038635254
2016-09-20,22.959999084472656,22.43000030517578,22.8799991607666,22.450000762939453,2642200.0,21.338729858398438
2016-09-21,23.790000915527344,22.579999923706055,22.600000381469727,23.6299991607666,8520700.0,22.460317611694336
2016-09-22,23.969999313354492,23.530000686645508,23.59000015258789,23.860000610351562,3792500.0,22.678939819335938
2016-09-23,23.889999389648438,23.649999618530273,23.860000610351562,23.790000915527344,3820400.0,22.612403869628906
2016-09-26,23.81999969482422,23.56999969482422,23.649999618530273,23.65999984741211,3238100.0,22.488840103149414
2016-09-27,24.100000381469727,23.530000686645508,23.600000381469727,24.040000915527344,3281000.0,22.850027084350586
2016-09-28,24.219999313354492,23.84000015258789,24.020000457763672,23.93000030517578,4957300.0,22.745471954345703
2016-09-29,24.0,23.610000610351562,23.8799991607666,23.709999084472656,2456600.0,22.53636360168457
2016-09-30,24.15999984741211,23.780000686645508,23.850000381469727,24.059999465942383,2680900.0,22.869035720825195
2016-10-03,24.079999923706055,23.829999923706055,23.93000030517578,24.06999969482422,3219100.0,22.878541946411133
2016-10-04,24.520000457763672,23.979999542236328,24.049999237060547,24.25,3949900.0,23.04962730407715
2016-10-05,24.989999771118164,24.329999923706055,24.329999923706055,24.84000015258789,4370600.0,23.610427856445312
2016-10-06,24.790000915527344,24.440000534057617,24.68000030517578,24.520000457763672,3199700.0,23.30626678466797
2016-10-07,24.979999542236328,24.450000762939453,24.579999923706055,24.809999465942383,6485600.0,23.5819091796875
2016-10-10,25.110000610351562,24.559999465942383,24.899999618530273,24.56999969482422,2816700.0,23.353792190551758
2016-10-11,24.59000015258789,23.850000381469727,24.59000015258789,23.940000534057617,2715900.0,22.75497817993164
2016-10-12,23.6299991607666,23.270000457763672,23.399999618530273,23.479999542236328,3143500.0,22.3177433013916
2016-10-13,23.389999389648438,22.950000762939453,23.260000228881836,23.209999084472656,2533000.0,22.06110954284668
2016-10-14,23.520000457763672,22.729999542236328,23.350000381469727,22.75,5591800.0,21.62388038635254
2016-10-17,22.829999923706055,22.40999984741211,22.799999237060547,22.43000030517578,4001500.0,21.319721221923828
2016-10-18,23.139999389648438,22.510000228881836,22.65999984741211,22.850000381469727,4965300.0,21.718935012817383
2016-10-19,23.049999237060547,22.700000762939453,22.84000015258789,22.950000762939453,2561500.0,21.813982009887695
2016-10-20,22.829999923706055,22.6200008392334,22.700000762939453,22.75,2896500.0,21.62388038635254
2016-10-21,23.149999618530273,22.459999084472656,22.639999389648438,23.1299991607666,4736400.0,21.985071182250977
2016-10-24,23.68000030517578,23.200000762939453,23.309999465942383,23.65999984741211,5380300.0,22.488840103149414
2016-10-25,23.760000228881836,23.139999389648438,23.65999984741211,23.719999313354492,7827200.0,22.545867919921875
2016-10-26,26.84000015258789,25.399999618530273,25.59000015258789,26.149999618530273,17773500.0,24.855579376220703
2016-10-27,26.559999465942383,25.8799991607666,26.329999923706055,26.190000534057617,9176700.0,24.893606185913086
2016-10-28,26.579999923706055,26.079999923706055,26.270000457763672,26.200000762939453,6218900.0,24.903108596801758
2016-10-31,26.420000076293945,26.149999618530273,26.200000762939453,26.34000015258789,7351500.0,25.036176681518555
2016-11-01,25.969999313354492,25.520000457763672,25.799999237060547,25.850000381469727,7902000.0,24.5704345703125
2016-11-02,25.979999542236328,25.09000015258789,25.850000381469727,25.149999618530273,6628600.0,23.90508270263672
2016-11-03,25.209999084472656,24.889999389648438,25.18000030517578,24.90999984741211,4714900.0,23.67696189880371
2016-11-04,25.309999465942383,24.889999389648438,25.0,24.899999618530273,5134500.0,23.667461395263672
2016-11-07,25.600000381469727,25.360000610351562,25.459999084472656,25.489999771118164,3929300.0,24.228254318237305
2016-11-08,25.65999984741211,25.200000762939453,25.540000915527344,25.489999771118164,3183500.0,24.228254318237305
2016-11-09,25.540000915527344,24.739999771118164,24.969999313354492,25.280000686645508,5942900.0,24.028648376464844
2016-11-10,25.81999969482422,24.969999313354492,25.40999984741211,25.190000534057617,6144800.0,23.943103790283203
2016-11-11,25.6299991607666,25.049999237060547,25.09000015258789,25.40999984741211,9045100.0,24.1522159576416
2016-11-14,26.200000762939453,25.579999923706055,25.579999923706055,25.959999084472656,5983300.0,24.674985885620117
2016-11-15,26.18000030517578,25.799999237060547,26.040000915527344,26.100000381469727,3762000.0,24.808055877685547
2016-11-16,26.6299991607666,26.0,26.399999618530273,26.239999771118164,3550400.0,24.94112777709961
2016-11-17,26.290000915527344,25.860000610351562,26.09000015258789,26.239999771118164,4379900.0,24.94112777709961
2016-11-18,26.5,26.079999923706055,26.280000686645508,26.350000381469727,3112500.0,25.045682907104492
2016-11-21,26.600000381469727,26.09000015258789,26.5,26.360000610351562,2862100.0,25.055187225341797
2016-11-22,26.440000534057617,26.1200008392334,26.420000076293945,26.34000015258789,2907500.0,25.036176681518555
2016-11-23,26.579999923706055,26.190000534057617,26.329999923706055,26.389999389648438,2390400.0,25.083703994750977
2016-11-25,26.610000610351562,26.239999771118164,26.34000015258789,26.510000228881836,1055500.0,25.197763442993164
2016-11-28,26.729999542236328,26.280000686645508,26.510000228881836,26.479999542236328,3613600.0,25.169246673583984
2016-11-29,26.979999542236328,26.31999969482422,26.440000534057617,26.780000686645508,4695700.0,25.550893783569336
2016-11-30,27.649999618530273,26.75,26.780000686645508,27.540000915527344,11126500.0,26.27600860595703
2016-12-01,27.670000076293945,26.829999923706055,27.600000381469727,26.979999542236328,5802100.0,25.741710662841797
2016-12-02,26.90999984741211,26.510000228881836,26.8700008392334,26.829999923706055,3788700.0,25.59859275817871
2016-12-05,27.290000915527344,26.719999313354492,26.950000762939453,26.93000030517578,5105700.0,25.694005966186523
2016-12-06,26.989999771118164,26.610000610351562,26.889999389648438,26.93000030517578,3413800.0,25.694005966186523
2016-12-07,27.760000228881836,27.309999465942383,27.510000228881836,27.75,4537000.0,26.476367950439453
2016-12-08,29.209999084472656,28.280000686645508,28.43000030517578,28.65999984741211,7608300.0,27.3446044921875
2016-12-09,28.860000610351562,28.190000534057617,28.81999969482422,28.459999084472656,3259400.0,27.15378189086914
2016-12-12,28.3700008392334,27.780000686645508,28.309999465942383,28.010000228881836,2927700.0,26.724435806274414
2016-12-13,28.790000915527344,28.079999923706055,28.219999313354492,28.610000610351562,4932500.0,27.296897888183594
2016-12-14,28.709999084472656,28.309999465942383,28.510000228881836,28.360000610351562,4419600.0,27.058374404907227
2016-12-15,28.700000762939453,28.270000457763672,28.3799991607666,28.56999969482422,3613300.0,27.258731842041016
2016-12-16,28.690000534057617,28.200000762939453,28.56999969482422,28.329999923706055,5543900.0,27.029748916625977
2016-12-19,28.579999923706055,28.329999923706055,28.43000030517578,28.540000915527344,2125900.0,27.230112075805664
2016-12-20,28.799999237060547,28.40999984741211,28.56999969482422,28.5,1415700.0,27.191946029663086
2016-12-21,28.600000381469727,28.3799991607666,28.469999313354492,28.459999084472656,1754700.0,27.15378189086914
2016-12-22,28.520000457763672,28.100000381469727,28.520000457763672,28.260000228881836,1729900.0,26.962963104248047
2016-12-23,28.479999542236328,28.270000457763672,28.299999237060547,28.459999084472656,1313200.0,27.15378189086914
2016-12-27,28.739999771118164,28.459999084472656,28.5,28.68000030517578,1318500.0,27.363685607910156
2016-12-28,28.700000762939453,28.299999237060547,28.610000610351562,28.43000030517578,1780900.0,27.125158309936523
2016-12-29,28.579999923706055,28.170000076293945,28.43000030517578,28.3700008392334,1590800.0,27.06791114807129
2016-12-30,28.450000762939453,28.110000610351562,28.450000762939453,28.260000228881836,1699100.0,26.962963104248047
2017-01-03,28.989999771118164,28.399999618530273,28.479999542236328,28.600000381469727,5170200.0,27.2873592376709
2017-01-04,28.979999542236328,28.309999465942383,28.450000762939453,28.899999618530273,2778200.0,27.57358741760254
2017-01-05,29.100000381469727,28.6200008392334,28.8799991607666,28.84000015258789,2136700.0,27.516342163085938
2017-01-06,28.90999984741211,28.610000610351562,28.8700008392334,28.860000610351562,1394200.0,27.535423278808594
2017-01-09,28.700000762939453,28.260000228881836,28.6200008392334,28.389999389648438,2217500.0,27.086994171142578
2017-01-10,28.540000915527344,28.219999313354492,28.3799991607666,28.399999618530273,2206900.0,27.096534729003906
2017-01-11,27.940000534057617,27.31999969482422,27.5,27.850000381469727,4790000.0,26.5717830657959
2017-01-12,27.940000534057617,27.399999618530273,27.8700008392334,27.799999237060547,2502700.0,26.524072647094727
2017-01-13,27.979999542236328,27.760000228881836,27.829999923706055,27.8700008392334,1503300.0,26.590862274169922
2017-01-17,27.799999237060547,27.290000915527344,27.700000762939453,27.40999984741211,2508800.0,26.151975631713867
2017-01-18,27.649999618530273,27.329999923706055,27.549999237060547,27.34000015258789,3229700.0,26.085187911987305
2017-01-19,27.610000610351562,27.219999313354492,27.40999984741211,27.420000076293945,2972300.0,26.161518096923828
2017-01-20,27.610000610351562,27.110000610351562,27.469999313354492,27.43000030517578,3054800.0,26.17105484008789
2017-01-23,27.56999969482422,27.299999237060547,27.3700008392334,27.5,3083300.0,26.237842559814453
2017-01-24,27.959999084472656,27.43000030517578,27.530000686645508,27.84000015258789,2293600.0,26.562238693237305
2017-01-25,28.34000015258789,27.90999984741211,28.0,28.139999389648438,3302600.0,26.848468780517578
2017-01-26,28.299999237060547,27.559999465942383,28.239999771118164,27.719999313354492,6920300.0,26.44774627685547
2017-01-27,27.040000915527344,24.899999618530273,25.100000381469727,26.670000076293945,18320400.0,25.44593620300293
2017-01-30,26.600000381469727,26.200000762939453,26.59000015258789,26.450000762939453,5402200.0,25.236034393310547
2017-01-31,26.790000915527344,26.350000381469727,26.450000762939453,26.780000686645508,6013400.0,25.550893783569336
2017-02-01,26.889999389648438,26.56999969482422,26.739999771118164,26.809999465942383,5880100.0,25.579513549804688
2017-02-02,27.270000457763672,26.56999969482422,26.690000534057617,27.239999771118164,6030100.0,25.989778518676758
2017-02-03,27.459999084472656,27.200000762939453,27.399999618530273,27.350000381469727,3521800.0,26.094730377197266
2017-02-06,27.360000610351562,27.100000381469727,27.219999313354492,27.280000686645508,3873700.0,26.027942657470703
2017-02-07,27.239999771118164,26.979999542236328,27.219999313354492,27.200000762939453,5245900.0,25.95161247253418
2017-02-08,27.270000457763672,27.020000457763672,27.200000762939453,27.239999771118164,3036700.0,25.989778518676758
2017-02-09,27.6200008392334,27.239999771118164,27.239999771118164,27.399999618530273,2945900.0,26.14243507385254
2017-02-10,27.729999542236328,27.3799991607666,27.43000030517578,27.639999389648438,2316400.0,26.371417999267578
2017-02-13,28.030000686645508,27.700000762939453,27.700000762939453,27.93000030517578,3700300.0,26.64810562133789
2017-02-14,27.969999313354492,27.75,27.84000015258789,27.8799991607666,3576400.0,26.60040283203125
2017-02-15,28.040000915527344,27.809999465942383,27.8799991607666,27.959999084472656,2805600.0,26.67673110961914
2017-02-16,28.200000762939453,27.860000610351562,27.950000762939453,28.09000015258789,3301900.0,26.800765991210938
2017-02-17,28.43000030517578,27.979999542236328,28.059999465942383,28.389999389648438,3280600.0,27.086994171142578
2017-02-21,28.770000457763672,28.260000228881836,28.290000915527344,28.690000534057617,2933200.0,27.373228073120117
2017-02-22,28.700000762939453,28.3799991607666,28.59000015258789,28.530000686645508,2817500.0,27.220571517944336
2017-02-23,28.719999313354492,28.31999969482422,28.549999237060547,28.43000030517578,2329500.0,27.125158309936523
2017-02-24,28.420000076293945,28.049999237060547,28.15999984741211,28.420000076293945,1800500.0,27.115619659423828
2017-02-27,28.510000228881836,28.200000762939453,28.3700008392334,28.329999923706055,1489600.0,27.125192642211914
2017-02-28,28.290000915527344,27.889999389648438,28.260000228881836,28.0,3944900.0,26.809228897094727
2017-03-01,28.3700008392334,28.149999618530273,28.200000762939453,28.25,2760400.0,27.048593521118164
2017-03-02,28.280000686645508,27.989999771118164,28.1299991607666,28.260000228881836,3700300.0,27.058170318603516
2017-03-03,28.329999923706055,28.049999237060547,28.290000915527344,28.290000915527344,2446400.0,27.08689308166504
2017-03-06,28.25,28.010000228881836,28.15999984741211,28.15999984741211,3428600.0,26.962421417236328
2017-03-07,28.229999542236328,27.989999771118164,28.100000381469727,28.149999618530273,2645000.0,26.952848434448242
2017-03-08,28.030000686645508,27.440000534057617,28.030000686645508,27.700000762939453,6221600.0,26.52198600769043
2017-03-09,27.959999084472656,27.649999618530273,27.739999771118164,27.809999465942383,2385400.0,26.62730598449707
2017-03-10,28.09000015258789,27.84000015258789,27.889999389648438,28.010000228881836,4548800.0,26.818801879882812
2017-03-13,28.1299991607666,27.829999923706055,28.020000457763672,27.969999313354492,3630400.0,26.780502319335938
2017-03-14,28.15999984741211,27.829999923706055,27.959999084472656,28.139999389648438,2708500.0,26.94327163696289
2017-03-15,28.399999618530273,28.020000457763672,28.219999313354492,28.299999237060547,2887000.0,27.09646987915039
2017-03-16,28.559999465942383,28.260000228881836,28.420000076293945,28.520000457763672,3494800.0,27.307113647460938
2017-03-17,28.81999969482422,28.520000457763672,28.639999389648438,28.68000030517578,4417900.0,27.460308074951172
2017-03-20,28.399999618530273,28.06999969482422,28.280000686645508,28.18000030517578,4389100.0,26.981571197509766
2017-03-21,28.190000534057617,27.729999542236328,28.010000228881836,27.809999465942383,7346400.0,26.62730598449707
2017-03-22,28.149999618530273,27.700000762939453,27.809999465942383,28.010000228881836,2778800.0,26.818801879882812
2017-03-23,28.18000030517578,27.770000457763672,28.0,27.84000015258789,2707200.0,26.65603256225586
2017-03-24,28.100000381469727,27.719999313354492,27.93000030517578,27.81999969482422,2656100.0,26.63688087463379
2017-03-27,27.81999969482422,27.520000457763672,27.639999389648438,27.75,2724000.0,26.56985855102539
2017-03-28,28.0,27.639999389648438,27.75,27.790000915527344,2277700.0,26.608158111572266
2017-03-29,27.850000381469727,27.56999969482422,27.760000228881836,27.649999618530273,3905100.0,26.474109649658203
2017-03-30,27.81999969482422,27.639999389648438,27.690000534057617,27.700000762939453,4283600.0,26.52198600769043
2017-03-31,27.889999389648438,27.6299991607666,27.68000030517578,27.829999923706055,5097700.0,26.646455764770508
2017-04-03,27.93000030517578,27.420000076293945,27.860000610351562,27.719999313354492,2512400.0,26.541135787963867
2017-04-04,28.200000762939453,27.719999313354492,27.729999542236328,27.959999084472656,4391600.0,26.77092933654785
2017-04-05,28.209999084472656,27.790000915527344,28.049999237060547,27.81999969482422,3312400.0,26.63688087463379
2017-04-06,28.020000457763672,27.719999313354492,27.829999923706055,27.809999465942383,2468700.0,26.62730598449707
2017-04-07,28.059999465942383,27.760000228881836,27.809999465942383,27.8700008392334,3500100.0,26.684757232666016
2017-04-10,28.020000457763672,27.799999237060547,27.950000762939453,27.8799991607666,2347900.0,26.6943302154541
2017-04-11,27.860000610351562,27.6200008392334,27.84000015258789,27.790000915527344,3215400.0,26.608158111572266
2017-04-12,27.829999923706055,27.5,27.829999923706055,27.6299991607666,2944500.0,26.45496368408203
2017-04-13,27.850000381469727,27.549999237060547,27.700000762939453,27.559999465942383,3459300.0,26.387937545776367
2017-04-17,27.760000228881836,27.579999923706055,27.600000381469727,27.709999084472656,1992500.0,26.531558990478516
2017-04-18,27.889999389648438,27.6200008392334,27.6200008392334,27.700000762939453,6493600.0,26.52198600769043
2017-04-19,27.8799991607666,27.709999084472656,27.780000686645508,27.729999542236328,9401100.0,26.550708770751953
2017-04-20,28.0,27.709999084472656,27.8700008392334,27.799999237060547,5844300.0,26.61773109436035
2017-04-21,27.950000762939453,27.760000228881836,27.770000457763672,27.780000686645508,3359900.0,26.598583221435547
2017-04-24,28.40999984741211,28.040000915527344,28.139999389648438,28.270000457763672,5327400.0,27.067745208740234
2017-04-25,28.420000076293945,27.770000457763672,28.309999465942383,27.780000686645508,13535400.0,26.598583221435547
2017-04-26,30.0,27.920000076293945,28.469999313354492,29.459999084472656,25291300.0,28.207134246826172
2017-04-27,29.989999771118164,29.40999984741211,29.59000015258789,29.989999771118164,11311900.0,28.714597702026367
2017-04-28,30.309999465942383,29.6299991607666,29.649999618530273,30.06999969482422,9751500.0,28.791196823120117
2017-05-01,30.670000076293945,30.049999237060547,30.139999389648438,30.600000381469727,7849000.0,29.298654556274414
2017-05-02,30.959999084472656,30.549999237060547,30.610000610351562,30.889999389648438,5698700.0,29.576324462890625
2017-05-03,30.889999389648438,30.290000915527344,30.790000915527344,30.299999237060547,6722300.0,29.01141357421875
2017-05-04,30.600000381469727,30.31999969482422,30.420000076293945,30.5,8795500.0,29.20290756225586
2017-05-05,30.719999313354492,30.329999923706055,30.6299991607666,30.549999237060547,5655600.0,29.25078010559082
2017-05-08,30.6299991607666,30.43000030517578,30.489999771118164,30.489999771118164,7182100.0,29.19333267211914
2017-05-09,30.739999771118164,30.469999313354492,30.5,30.68000030517578,5084700.0,29.37525177001953
2017-05-10,30.899999618530273,30.559999465942383,30.739999771118164,30.850000381469727,3839000.0,29.538021087646484
2017-05-11,30.860000610351562,30.540000915527344,30.81999969482422,30.559999465942383,6463500.0,29.260356903076172
2017-05-12,30.690000534057617,30.459999084472656,30.549999237060547,30.59000015258789,7067100.0,29.289081573486328
2017-05-15,30.68000030517578,30.5,30.6299991607666,30.610000610351562,7148100.0,29.308231353759766
2017-05-16,30.68000030517578,30.440000534057617,30.68000030517578,30.59000015258789,6337900.0,29.289081573486328
2017-05-17,30.59000015258789,29.760000228881836,30.59000015258789,29.760000228881836,5059300.0,28.4943790435791
2017-05-18,29.889999389648438,29.170000076293945,29.510000228881836,29.59000015258789,7004700.0,28.33160972595215
2017-05-19,29.940000534057617,29.5,29.670000076293945,29.530000686645508,3285100.0,28.274160385131836
2017-05-22,29.739999771118164,29.469999313354492,29.469999313354492,29.6299991607666,4905800.0,28.369905471801758
2017-05-23,29.8799991607666,29.3700008392334,29.780000686645508,29.450000762939453,4162800.0,28.19756507873535
2017-05-24,29.459999084472656,29.18000030517578,29.420000076293945,29.34000015258789,3357000.0,28.092243194580078
2017-05-25,29.56999969482422,29.360000610351562,29.469999313354492,29.440000534057617,8431400.0,28.187986373901367
2017-05-26,29.559999465942383,29.290000915527344,29.559999465942383,29.31999969482422,2904300.0,28.073089599609375
2017-05-30,29.43000030517578,29.100000381469727,29.149999618530273,29.299999237060547,3073200.0,28.14995002746582
2017-05-31,29.440000534057617,29.139999389648438,29.350000381469727,29.329999923706055,4841000.0,28.178773880004883
2017-06-01,30.139999389648438,29.579999923706055,29.649999618530273,30.079999923706055,5158700.0,28.899333953857422
2017-06-02,30.229999542236328,29.770000457763672,30.190000534057617,30.030000686645508,3344700.0,28.851301193237305
2017-06-05,30.200000762939453,29.860000610351562,29.959999084472656,30.15999984741211,6384300.0,28.9761962890625
2017-06-06,30.440000534057617,30.0,30.110000610351562,30.059999465942383,4675600.0,28.880117416381836
2017-06-07,30.110000610351562,29.010000228881836,30.010000228881836,29.190000534057617,6957500.0,28.044273376464844
2017-06-08,29.6299991607666,29.100000381469727,29.190000534057617,29.489999771118164,6477800.0,28.332494735717773
2017-06-09,29.600000381469727,28.110000610351562,29.459999084472656,28.610000610351562,5710300.0,27.487035751342773
2017-06-12,28.860000610351562,28.010000228881836,28.389999389648438,28.860000610351562,9244500.0,27.72722053527832
2017-06-13,29.25,28.799999237060547,28.959999084472656,29.200000762939453,4420500.0,28.053876876831055
2017-06-14,29.290000915527344,28.469999313354492,29.25,28.709999084472656,6204000.0,27.583105087280273
2017-06-15,28.989999771118164,28.440000534057617,28.489999771118164,28.860000610351562,4906000.0,27.72722053527832
2017-06-16,28.950000762939453,28.530000686645508,28.8700008392334,28.670000076293945,4716800.0,27.544675827026367
2017-06-19,29.190000534057617,28.719999313354492,28.799999237060547,29.190000534057617,2991200.0,28.044273376464844
2017-06-20,29.25,28.729999542236328,29.149999618530273,28.770000457763672,5154000.0,27.64075469970703
2017-06-21,28.860000610351562,28.350000381469727,28.399999618530273,28.860000610351562,5115500.0,27.72722053527832
2017-06-22,28.899999618530273,28.139999389648438,28.850000381469727,28.360000610351562,6640100.0,27.24684715270996
2017-06-23,28.43000030517578,28.229999542236328,28.399999618530273,28.290000915527344,16676800.0,27.179594039916992
2017-06-26,28.360000610351562,27.959999084472656,28.299999237060547,28.110000610351562,8257800.0,27.00665855407715
2017-06-27,28.3799991607666,27.770000457763672,27.969999313354492,27.940000534057617,18018900.0,26.843334197998047
2017-06-28,28.309999465942383,28.020000457763672,28.170000076293945,28.170000076293945,3990900.0,27.06430435180664
2017-06-29,28.170000076293945,27.6200008392334,28.09000015258789,27.81999969482422,5513300.0,26.728042602539062
2017-06-30,28.040000915527344,27.760000228881836,27.860000610351562,27.8799991607666,6127900.0,26.785686492919922
2017-07-03,28.149999618530273,27.719999313354492,28.049999237060547,27.739999771118164,1818500.0,26.65118408203125
2017-07-05,28.239999771118164,27.760000228881836,27.860000610351562,28.18000030517578,3979100.0,27.073911666870117
2017-07-06,28.1299991607666,27.75,28.010000228881836,27.790000915527344,4180900.0,26.69921875
2017-07-07,28.489999771118164,27.860000610351562,27.860000610351562,28.450000762939453,3434300.0,27.333316802978516
2017-07-10,29.280000686645508,28.780000686645508,28.899999618530273,29.200000762939453,10964600.0,28.053876876831055
2017-07-11,29.270000457763672,28.90999984741211,29.200000762939453,29.110000610351562,3341000.0,27.967409133911133
2017-07-12,29.360000610351562,28.979999542236328,29.270000457763672,29.170000076293945,4221300.0,28.025054931640625
2017-07-13,29.299999237060547,29.06999969482422,29.239999771118164,29.09000015258789,2771100.0,27.948192596435547
2017-07-14,29.139999389648438,28.8799991607666,29.110000610351562,29.010000228881836,2615700.0,27.871335983276367
2017-07-17,29.15999984741211,28.93000030517578,29.0,29.1299991607666,3705000.0,27.986621856689453
2017-07-18,29.110000610351562,28.6200008392334,28.940000534057617,28.860000610351562,3199400.0,27.72722053527832
2017-07-19,29.450000762939453,28.899999618530273,29.0,29.3700008392334,6228700.0,28.217205047607422
2017-07-20,29.479999542236328,29.010000228881836,29.3799991607666,29.219999313354492,3361700.0,28.073089599609375
2017-07-21,29.649999618530273,29.25,29.59000015258789,29.43000030517578,4103300.0,28.27484703063965
2017-07-24,29.56999969482422,29.260000228881836,29.3799991607666,29.459999084472656,4279000.0,28.303667068481445
2017-07-25,30.290000915527344,29.5,29.520000457763672,29.959999084472656,8213400.0,28.78404426574707
2017-07-26,29.059999465942383,27.770000457763672,28.209999084472656,28.059999465942383,13815300.0,26.958621978759766
2017-07-27,28.190000534057617,27.540000915527344,28.149999618530273,27.809999465942383,8122200.0,26.718433380126953
2017-07-28,27.8799991607666,27.65999984741211,27.670000076293945,27.770000457763672,4950200.0,26.680004119873047
2017-07-31,28.030000686645508,27.809999465942383,27.8700008392334,27.950000762939453,5388200.0,26.85293960571289
2017-08-01,28.290000915527344,27.850000381469727,28.020000457763672,28.270000457763672,4641900.0,27.16037940979004
2017-08-02,28.40999984741211,27.969999313354492,28.290000915527344,28.219999313354492,4711100.0,27.112342834472656
2017-08-03,28.459999084472656,28.170000076293945,28.260000228881836,28.34000015258789,4061100.0,27.227630615234375
2017-08-04,28.459999084472656,28.020000457763672,28.440000534057617,28.139999389648438,4398700.0,27.035480499267578
2017-08-07,28.350000381469727,28.09000015258789,28.18000030517578,28.290000915527344,3775600.0,27.179594039916992
2017-08-08,28.469999313354492,28.229999542236328,28.260000228881836,28.25,3203400.0,27.141162872314453
2017-08-09,28.450000762939453,28.030000686645508,28.079999923706055,28.329999923706055,4806900.0,27.2180233001709
2017-08-10,28.31999969482422,27.399999618530273,28.15999984741211,27.440000534057617,8143500.0,26.362957000732422
2017-08-11,27.729999542236328,27.3799991607666,27.440000534057617,27.40999984741211,5516100.0,26.334135055541992
2017-08-14,27.959999084472656,27.709999084472656,27.709999084472656,27.920000076293945,2825100.0,26.82411766052246
2017-08-15,28.059999465942383,27.440000534057617,28.020000457763672,27.530000686645508,5624000.0,26.449426651000977
2017-08-16,27.780000686645508,27.559999465942383,27.600000381469727,27.75,2437100.0,26.66078758239746
2017-08-17,27.719999313354492,27.1299991607666,27.59000015258789,27.15999984741211,3039300.0,26.093948364257812
2017-08-18,27.3799991607666,27.079999923706055,27.110000610351562,27.15999984741211,2880400.0,26.093948364257812
2017-08-21,27.229999542236328,26.920000076293945,27.1299991607666,27.139999389648438,2460300.0,26.07473373413086
2017-08-22,27.610000610351562,27.270000457763672,27.299999237060547,27.56999969482422,2082600.0,26.48785400390625
2017-08-23,27.5,27.280000686645508,27.420000076293945,27.329999923706055,1511100.0,26.257274627685547
2017-08-24,27.5,27.34000015258789,27.440000534057617,27.440000534057617,1932300.0,26.362957000732422
2017-08-25,27.790000915527344,27.530000686645508,27.610000610351562,27.540000915527344,1317200.0,26.459033966064453
2017-08-28,27.690000534057617,27.420000076293945,27.600000381469727,27.530000686645508,1082500.0,26.449426651000977
2017-08-29,27.450000762939453,27.229999542236328,27.309999465942383,27.43000030517578,1461700.0,26.353349685668945
2017-08-30,27.649999618530273,27.260000228881836,27.420000076293945,27.639999389648438,2508700.0,26.652271270751953
2017-08-31,27.780000686645508,27.510000228881836,27.6200008392334,27.729999542236328,2990500.0,26.739055633544922
2017-09-01,27.8700008392334,27.639999389648438,27.850000381469727,27.68000030517578,1497900.0,26.69084358215332
2017-09-05,27.6200008392334,27.010000228881836,27.530000686645508,27.170000076293945,3617100.0,26.199066162109375
2017-09-06,27.559999465942383,27.040000915527344,27.260000228881836,27.5,3309400.0,26.517274856567383
2017-09-07,27.450000762939453,26.899999618530273,27.40999984741211,27.020000457763672,3473900.0,26.054428100585938
2017-09-08,27.040000915527344,26.5,26.969999313354492,26.6200008392334,4357800.0,25.66872215270996
2017-09-11,27.15999984741211,26.780000686645508,26.84000015258789,26.979999542236328,4321400.0,26.015859603881836
2017-09-12,27.6200008392334,26.989999771118164,27.040000915527344,27.530000686645508,4870000.0,26.546205520629883
2017-09-13,27.610000610351562,27.299999237060547,27.399999618530273,27.600000381469727,2635000.0,26.61370277404785
2017-09-14,27.56999969482422,27.290000915527344,27.43000030517578,27.559999465942383,2883400.0,26.575130462646484
2017-09-15,27.809999465942383,27.459999084472656,27.610000610351562,27.799999237060547,7151600.0,26.80655288696289
2017-09-18,27.84000015258789,27.579999923706055,27.760000228881836,27.709999084472656,2824400.0,26.719768524169922
2017-09-19,27.809999465942383,27.459999084472656,27.809999465942383,27.6200008392334,2220000.0,26.63298797607422
2017-09-20,27.84000015258789,27.520000457763672,27.719999313354492,27.690000534057617,2177100.0,26.70048713684082
2017-09-21,27.81999969482422,27.440000534057617,27.809999465942383,27.709999084472656,3730300.0,26.719768524169922
2017-09-22,28.09000015258789,27.690000534057617,27.739999771118164,27.989999771118164,2306700.0,26.989763259887695
2017-09-25,28.209999084472656,27.780000686645508,28.100000381469727,27.860000610351562,3466000.0,26.864410400390625
2017-09-26,28.09000015258789,27.799999237060547,27.989999771118164,27.84000015258789,1982900.0,26.845125198364258
2017-09-27,28.229999542236328,27.8799991607666,27.950000762939453,28.110000610351562,2643400.0,27.10547637939453
2017-09-28,28.09000015258789,27.709999084472656,27.959999084472656,27.709999084472656,3032700.0,26.719768524169922
2017-09-29,27.860000610351562,27.5,27.850000381469727,27.829999923706055,2129200.0,26.835481643676758
2017-10-02,28.389999389648438,27.780000686645508,27.940000534057617,28.3799991607666,2946200.0,27.365827560424805
2017-10-03,28.549999237060547,28.1299991607666,28.3700008392334,28.540000915527344,3125300.0,27.520111083984375
2017-10-04,28.770000457763672,28.34000015258789,28.540000915527344,28.690000534057617,5707900.0,27.664749145507812
2017-10-05,28.809999465942383,28.3700008392334,28.700000762939453,28.450000762939453,4444500.0,27.43332862854004
2017-10-06,28.6299991607666,28.360000610351562,28.420000076293945,28.43000030517578,5952100.0,27.41404151916504
2017-10-09,28.360000610351562,27.200000762939453,28.360000610351562,27.31999969482422,8478800.0,26.34370994567871
2017-10-10,27.610000610351562,27.239999771118164,27.399999618530273,27.309999465942383,4844200.0,26.334064483642578
2017-10-11,27.0,26.260000228881836,27.0,26.860000610351562,11180700.0,25.900146484375
2017-10-12,26.700000762939453,25.079999923706055,25.719999313354492,25.469999313354492,19830800.0,24.5598201751709
2017-10-13,25.920000076293945,25.190000534057617,25.43000030517578,25.81999969482422,7988800.0,24.897310256958008
2017-10-16,26.200000762939453,25.75,25.75,26.040000915527344,6057700.0,25.10944938659668
2017-10-17,26.1200008392334,25.93000030517578,26.0,26.110000610351562,4045700.0,25.17694854736328
2017-10-18,26.239999771118164,26.040000915527344,26.1200008392334,26.079999923706055,3580100.0,25.14801788330078
2017-10-19,26.09000015258789,25.790000915527344,25.93000030517578,25.81999969482422,3198400.0,24.897310256958008
2017-10-20,26.200000762939453,26.0,26.059999465942383,26.030000686645508,3499000.0,25.099809646606445
2017-10-23,26.15999984741211,25.75,26.1200008392334,25.760000228881836,4954600.0,24.83945655822754
2017-10-24,26.229999542236328,25.790000915527344,25.809999465942383,26.15999984741211,5946000.0,25.225160598754883
2017-10-25,25.100000381469727,23.8700008392334,24.06999969482422,24.559999465942383,14040900.0,23.682336807250977
2017-10-26,24.93000030517578,24.5,24.559999465942383,24.860000610351562,9890300.0,23.971616744995117
2017-10-27,25.280000686645508,24.780000686645508,24.940000534057617,25.200000762939453,7826100.0,24.299468994140625
2017-10-30,25.229999542236328,24.729999542236328,25.209999084472656,24.920000076293945,7205300.0,24.02947235107422
2017-10-31,25.18000030517578,24.799999237060547,24.920000076293945,24.829999923706055,6696900.0,23.94268798828125
2017-11-01,25.0,24.510000228881836,25.0,24.860000610351562,6596400.0,23.971616744995117
2017-11-02,24.81999969482422,24.3700008392334,24.790000915527344,24.399999618530273,5532300.0,23.52805519104004
2017-11-03,24.68000030517578,24.34000015258789,24.5,24.549999237060547,4562500.0,23.672693252563477
2017-11-06,24.860000610351562,24.420000076293945,24.469999313354492,24.739999771118164,4572200.0,23.855905532836914
2017-11-07,24.81999969482422,24.459999084472656,24.729999542236328,24.5,5097100.0,23.624481201171875
2017-11-08,24.860000610351562,24.329999923706055,24.479999542236328,24.790000915527344,5457900.0,23.90411949157715
2017-11-09,25.469999313354492,24.549999237060547,24.59000015258789,25.350000381469727,13396800.0,24.444107055664062
2017-11-10,25.18000030517578,24.739999771118164,25.100000381469727,25.0,7274400.0,24.106613159179688
2017-11-13,25.5,24.8700008392334,24.889999389648438,25.360000610351562,6157100.0,24.453750610351562
2017-11-14,26.670000076293945,25.329999923706055,25.350000381469727,26.43000030517578,12605000.0,25.485511779785156
2017-11-15,26.90999984741211,25.899999618530273,26.260000228881836,25.950000762939453,8717900.0,25.022666931152344
2017-11-16,26.459999084472656,26.049999237060547,26.1299991607666,26.190000534057617,5920500.0,25.254091262817383
2017-11-17,26.420000076293945,26.0,26.1299991607666,26.299999237060547,4505600.0,25.36015510559082
2017-11-20,27.09000015258789,26.010000228881836,26.049999237060547,26.969999313354492,6867800.0,26.006214141845703
2017-11-21,27.280000686645508,26.790000915527344,27.200000762939453,26.979999542236328,5201700.0,26.015859603881836
2017-11-22,27.40999984741211,26.969999313354492,27.100000381469727,27.010000228881836,4819500.0,26.044784545898438
2017-11-24,27.440000534057617,26.90999984741211,27.010000228881836,27.34000015258789,2490000.0,26.362995147705078
2017-11-27,27.6299991607666,27.100000381469727,27.459999084472656,27.3799991607666,6885700.0,26.401561737060547
2017-11-28,28.290000915527344,27.350000381469727,27.399999618530273,28.190000534057617,9066100.0,27.1826171875
2017-11-29,29.950000762939453,28.200000762939453,28.25,29.610000610351562,28435400.0,28.551876068115234
2017-11-30,28.729999542236328,27.049999237060547,27.049999237060547,27.760000228881836,33462100.0,26.858692169189453
2017-12-01,29.0,27.56999969482422,27.770000457763672,28.3799991607666,12056000.0,27.45856285095215
2017-12-04,28.469999313354492,27.889999389648438,28.469999313354492,27.959999084472656,7976200.0,27.052200317382812
2017-12-05,28.270000457763672,27.59000015258789,28.149999618530273,27.610000610351562,7139200.0,26.713563919067383
2017-12-06,28.1200008392334,27.6299991607666,27.68000030517578,27.959999084472656,4316000.0,27.052200317382812
2017-12-07,28.469999313354492,27.969999313354492,28.0,28.420000076293945,4306800.0,27.497264862060547
2017-12-08,28.549999237060547,28.18000030517578,28.40999984741211,28.3799991607666,3218300.0,27.45856285095215
2017-12-11,28.549999237060547,28.290000915527344,28.459999084472656,28.389999389648438,3382500.0,27.468236923217773
2017-12-12,29.56999969482422,28.350000381469727,28.43000030517578,28.920000076293945,6974600.0,27.98103141784668
2017-12-13,29.260000228881836,28.309999465942383,29.0,29.110000610351562,4061900.0,28.16486167907715
2017-12-14,29.100000381469727,28.790000915527344,28.989999771118164,28.799999237060547,3182900.0,27.864925384521484
2017-12-15,28.979999542236328,28.350000381469727,28.940000534057617,28.399999618530273,8804900.0,27.47791290283203
2017-12-18,29.06999969482422,28.5,28.540000915527344,28.600000381469727,4946900.0,27.67142105102539
2017-12-19,28.729999542236328,28.239999771118164,28.489999771118164,28.440000534057617,4122000.0,27.516616821289062
2017-12-20,28.610000610351562,28.18000030517578,28.25,28.5,2304000.0,27.57466697692871
2017-12-21,28.93000030517578,28.5,28.579999923706055,28.68000030517578,2341200.0,27.748821258544922
2017-12-22,28.90999984741211,28.6299991607666,28.700000762939453,28.860000610351562,1904000.0,27.922977447509766
2017-12-26,29.09000015258789,28.780000686645508,28.780000686645508,28.860000610351562,2329700.0,27.922977447509766
2017-12-27,28.989999771118164,28.68000030517578,28.799999237060547,28.8799991607666,1326200.0,27.94232749938965
2017-12-28,29.280000686645508,28.739999771118164,29.079999923706055,28.8700008392334,1676000.0,27.932653427124023
2017-12-29,28.920000076293945,28.489999771118164,28.799999237060547,28.5,1765600.0,27.57466697692871
2018-01-02,28.93000030517578,28.610000610351562,28.729999542236328,28.700000762939453,1903400.0,27.76817512512207
2018-01-03,28.899999618530273,28.6299991607666,28.790000915527344,28.809999465942383,2168500.0,27.874603271484375
2018-01-04,29.149999618530273,28.65999984741211,28.940000534057617,28.790000915527344,3015000.0,27.855253219604492
2018-01-05,28.93000030517578,28.3799991607666,28.899999618530273,28.510000228881836,4774000.0,27.584339141845703
2018-01-08,28.850000381469727,28.059999465942383,28.5,28.780000686645508,4717300.0,27.8455753326416
2018-01-09,28.93000030517578,28.59000015258789,28.920000076293945,28.6299991607666,2696400.0,27.7004451751709
2018-01-10,28.65999984741211,28.25,28.40999984741211,28.399999618530273,3166900.0,27.47791290283203
2018-01-11,28.770000457763672,28.31999969482422,28.3799991607666,28.760000228881836,2632800.0,27.82622718811035
2018-01-12,28.940000534057617,28.56999969482422,28.860000610351562,28.889999389648438,3057700.0,27.952003479003906
2018-01-16,29.200000762939453,28.510000228881836,28.979999542236328,28.610000610351562,2870900.0,27.681095123291016
2018-01-17,28.739999771118164,27.780000686645508,27.799999237060547,28.670000076293945,3245700.0,27.739145278930664
2018-01-18,28.469999313354492,27.540000915527344,28.459999084472656,27.65999984741211,5759800.0,26.761940002441406
2018-01-19,28.040000915527344,27.700000762939453,27.729999542236328,27.850000381469727,3952600.0,26.945772171020508
2018-01-22,28.600000381469727,27.81999969482422,28.59000015258789,28.360000610351562,5711300.0,27.439212799072266
2018-01-23,28.459999084472656,27.969999313354492,28.450000762939453,28.1299991607666,4127100.0,27.216676712036133
2018-01-24,28.450000762939453,27.940000534057617,28.299999237060547,27.969999313354492,3763100.0,27.061872482299805
2018-01-25,28.15999984741211,27.56999969482422,28.1200008392334,27.670000076293945,2899700.0,26.771615982055664
2018-01-26,28.209999084472656,27.59000015258789,27.979999542236328,28.190000534057617,3097200.0,27.274730682373047
2018-01-29,28.670000076293945,28.049999237060547,28.049999237060547,28.479999542236328,4454500.0,27.555316925048828
2018-01-30,28.549999237060547,28.170000076293945,28.299999237060547,28.31999969482422,5281200.0,27.400510787963867
2018-01-31,26.309999465942383,25.049999237060547,25.829999923706055,26.149999618530273,16168400.0,25.30096435546875
2018-02-01,26.579999923706055,25.799999237060547,25.959999084472656,26.549999237060547,4949300.0,25.687978744506836
2018-02-02,26.75,26.239999771118164,26.40999984741211,26.260000228881836,5380600.0,25.407392501831055
2018-02-05,26.270000457763672,25.190000534057617,26.010000228881836,25.200000762939453,3866500.0,24.381811141967773
2018-02-06,25.639999389648438,24.559999465942383,25.010000228881836,25.540000915527344,4795800.0,24.710773468017578
2018-02-07,25.729999542236328,25.260000228881836,25.510000228881836,25.389999389648438,3196100.0,24.565641403198242
2018-02-08,25.540000915527344,24.649999618530273,25.420000076293945,24.65999984741211,4350500.0,23.859342575073242
2018-02-09,25.670000076293945,24.559999465942383,24.920000076293945,25.440000534057617,6416000.0,24.6140193939209
2018-02-12,25.889999389648438,25.209999084472656,25.610000610351562,25.799999237060547,3977800.0,24.962329864501953
2018-02-13,26.25,25.649999618530273,25.649999618530273,26.190000534057617,3846200.0,25.33966827392578
2018-02-14,26.360000610351562,25.959999084472656,25.969999313354492,26.170000076293945,6977400.0,25.320316314697266
2018-02-15,27.1299991607666,26.309999465942383,26.440000534057617,26.90999984741211,6866400.0,26.036291122436523
2018-02-16,27.299999237060547,26.350000381469727,26.899999618530273,26.350000381469727,5780300.0,25.494474411010742
2018-02-20,26.690000534057617,26.049999237060547,26.059999465942383,26.229999542236328,5335700.0,25.37837028503418
2018-02-21,26.399999618530273,25.809999465942383,26.290000915527344,25.889999389648438,4678500.0,25.049406051635742
2018-02-22,26.31999969482422,25.850000381469727,25.8799991607666,26.030000686645508,4485400.0,25.184865951538086
2018-02-23,26.290000915527344,25.690000534057617,26.209999084472656,26.1200008392334,4455700.0,25.27193832397461
2018-02-26,26.469999313354492,26.09000015258789,26.190000534057617,26.190000534057617,4033800.0,25.33966827392578
2018-02-27,26.700000762939453,26.020000457763672,26.190000534057617,26.100000381469727,3630500.0,25.252588272094727
2018-02-28,26.09000015258789,25.520000457763672,25.979999542236328,25.65999984741211,6124900.0,24.999282836914062
2018-03-01,25.8799991607666,25.09000015258789,25.649999618530273,25.170000076293945,4299200.0,24.521902084350586
2018-03-02,25.6299991607666,25.040000915527344,25.1200008392334,25.600000381469727,3572800.0,24.94083023071289
2018-03-05,26.15999984741211,25.440000534057617,25.510000228881836,25.84000015258789,6480200.0,25.174650192260742
2018-03-06,26.049999237060547,25.68000030517578,26.010000228881836,25.940000534057617,3265600.0,25.27207374572754
2018-03-07,26.010000228881836,25.690000534057617,25.809999465942383,25.8700008392334,3382400.0,25.20387840270996
2018-03-08,26.059999465942383,25.760000228881836,25.90999984741211,26.040000915527344,4063600.0,25.36949920654297
2018-03-09,26.440000534057617,26.030000686645508,26.149999618530273,26.43000030517578,2088700.0,25.74945640563965
2018-03-12,26.6200008392334,26.209999084472656,26.5,26.34000015258789,2886400.0,25.661775588989258
2018-03-13,26.649999618530273,26.299999237060547,26.420000076293945,26.40999984741211,3278100.0,25.72997283935547
2018-03-14,26.610000610351562,26.079999923706055,26.610000610351562,26.200000762939453,3526000.0,25.525379180908203
2018-03-15,26.40999984741211,26.100000381469727,26.200000762939453,26.229999542236328,3976400.0,25.554607391357422
2018-03-16,26.5,26.200000762939453,26.270000457763672,26.290000915527344,9799300.0,25.61306381225586
2018-03-19,25.90999984741211,25.079999923706055,25.540000915527344,25.260000228881836,8215000.0,24.60958480834961
2018-03-20,25.56999969482422,25.329999923706055,25.350000381469727,25.420000076293945,3109200.0,24.765464782714844
2018-03-21,25.600000381469727,25.110000610351562,25.190000534057617,25.299999237060547,4872100.0,24.6485538482666
2018-03-22,25.389999389648438,24.780000686645508,25.020000457763672,24.790000915527344,5122200.0,24.151687622070312
2018-03-23,24.8799991607666,24.1200008392334,24.850000381469727,24.1200008392334,4879300.0,23.498937606811523
2018-03-26,24.639999389648438,24.100000381469727,24.40999984741211,24.600000381469727,3821300.0,23.966577529907227
2018-03-27,24.81999969482422,24.110000610351562,24.6299991607666,24.25,4261400.0,23.62558937072754
2018-03-28,24.290000915527344,23.850000381469727,24.219999313354492,24.049999237060547,4782200.0,23.43073844909668
2018-03-29,24.3700008392334,23.979999542236328,24.149999618530273,24.329999923706055,4093700.0,23.703529357910156
2018-04-02,24.309999465942383,23.889999389648438,24.309999465942383,24.06999969482422,3822200.0,23.450223922729492
2018-04-03,24.239999771118164,23.81999969482422,24.200000762939453,24.100000381469727,4452000.0,23.479454040527344
2018-04-04,24.219999313354492,23.68000030517578,23.68000030517578,24.149999618530273,5330600.0,23.528165817260742
2018-04-05,24.579999923706055,24.229999542236328,24.389999389648438,24.350000381469727,3092600.0,23.72301483154297
2018-04-06,24.420000076293945,23.8700008392334,24.239999771118164,24.09000015258789,3949200.0,23.469709396362305
2018-04-09,24.399999618530273,24.09000015258789,24.25,24.100000381469727,3308800.0,23.479454040527344
2018-04-10,24.760000228881836,24.399999618530273,24.440000534057617,24.65999984741211,3079700.0,24.02503204345703
2018-04-11,24.81999969482422,24.540000915527344,24.559999465942383,24.690000534057617,2100900.0,24.054264068603516
2018-04-12,24.969999313354492,24.729999542236328,24.8700008392334,24.850000381469727,2733000.0,24.210142135620117
2018-04-13,25.1299991607666,24.65999984741211,24.940000534057617,24.850000381469727,3950300.0,24.210142135620117
2018-04-16,25.15999984741211,24.850000381469727,24.979999542236328,24.989999771118164,4306300.0,24.34653663635254
2018-04-17,25.489999771118164,25.010000228881836,25.139999389648438,25.40999984741211,4495300.0,24.755722045898438
2018-04-18,24.510000228881836,23.610000610351562,23.889999389648438,24.3799991607666,10875800.0,23.752241134643555
2018-04-19,24.75,24.360000610351562,24.360000610351562,24.440000534057617,4514800.0,23.810697555541992
2018-04-20,24.530000686645508,24.170000076293945,24.489999771118164,24.350000381469727,3424700.0,23.72301483154297
2018-04-23,24.600000381469727,24.25,24.3799991607666,24.329999923706055,3645000.0,23.703529357910156
2018-04-24,24.600000381469727,24.09000015258789,24.31999969482422,24.290000915527344,3562200.0,23.664560317993164
2018-04-25,24.399999618530273,24.040000915527344,24.31999969482422,24.290000915527344,2788600.0,23.664560317993164
2018-04-26,24.59000015258789,24.239999771118164,24.350000381469727,24.479999542236328,2891600.0,23.849668502807617
2018-04-27,24.8799991607666,24.489999771118164,24.489999771118164,24.6200008392334,4936400.0,23.98606300354004
2018-04-30,24.760000228881836,24.469999313354492,24.690000534057617,24.59000015258789,5907700.0,23.956832885742188
2018-05-01,24.940000534057617,24.260000228881836,24.3799991607666,24.739999771118164,6080500.0,24.10297393798828
2018-05-02,26.950000762939453,24.350000381469727,26.899999618530273,24.920000076293945,13921300.0,24.278339385986328
2018-05-03,25.239999771118164,24.799999237060547,24.8799991607666,25.15999984741211,7724800.0,24.512157440185547
2018-05-04,25.700000762939453,24.899999618530273,24.90999984741211,25.65999984741211,7564600.0,24.999282836914062
2018-05-07,26.079999923706055,25.540000915527344,25.68000030517578,25.93000030517578,6567500.0,25.262331008911133
2018-05-08,26.06999969482422,25.780000686645508,26.0,25.93000030517578,6089500.0,25.262331008911133
2018-05-09,26.209999084472656,25.899999618530273,25.940000534057617,26.170000076293945,3708000.0,25.496152877807617
2018-05-10,26.56999969482422,25.920000076293945,25.969999313354492,26.34000015258789,6905500.0,25.661775588989258
2018-05-11,26.56999969482422,26.209999084472656,26.350000381469727,26.520000457763672,5431400.0,25.837139129638672
2018-05-14,26.93000030517578,26.530000686645508,26.68000030517578,26.75,8595300.0,26.06121826171875
2018-05-15,26.889999389648438,26.25,26.479999542236328,26.829999923706055,8370300.0,26.139158248901367
2018-05-16,26.959999084472656,26.690000534057617,26.790000915527344,26.860000610351562,7105600.0,26.168386459350586
2018-05-17,26.989999771118164,26.43000030517578,26.43000030517578,26.719999313354492,6381800.0,26.031991958618164
2018-05-18,26.780000686645508,26.600000381469727,26.670000076293945,26.65999984741211,3647400.0,25.973533630371094
2018-05-21,27.0,26.709999084472656,26.809999465942383,26.969999313354492,4103400.0,26.27555274963379
2018-05-22,27.389999389648438,26.940000534057617,27.0,27.200000762939453,11548200.0,26.499631881713867
2018-05-23,27.239999771118164,26.790000915527344,27.06999969482422,27.209999084472656,5207600.0,26.50937271118164
2018-05-24,27.290000915527344,26.950000762939453,27.200000762939453,27.010000228881836,5169000.0,26.31452178955078
2018-05-25,27.469999313354492,26.920000076293945,26.950000762939453,27.229999542236328,4359700.0,26.52885627746582
2018-05-29,27.280000686645508,26.969999313354492,27.040000915527344,27.1200008392334,7757200.0,26.42169189453125
2018-05-30,27.239999771118164,26.84000015258789,27.209999084472656,27.0,3749400.0,26.304779052734375
2018-05-31,27.15999984741211,26.549999237060547,26.8700008392334,26.639999389648438,7085100.0,26.128236770629883
2018-06-01,26.979999542236328,26.709999084472656,26.84000015258789,26.799999237060547,4176400.0,26.28516387939453
2018-06-04,27.010000228881836,26.75,26.889999389648438,26.959999084472656,6850500.0,26.44209098815918
2018-06-05,27.329999923706055,27.030000686645508,27.030000686645508,27.309999465942383,4721700.0,26.785367965698242
2018-06-06,27.540000915527344,27.1200008392334,27.389999389648438,27.43000030517578,4348600.0,26.903060913085938
2018-06-07,27.719999313354492,27.34000015258789,27.530000686645508,27.43000030517578,4162000.0,26.903060913085938
2018-06-08,27.979999542236328,27.299999237060547,27.350000381469727,27.920000076293945,8029400.0,27.383649826049805
2018-06-11,28.15999984741211,27.639999389648438,27.920000076293945,27.780000686645508,6533100.0,27.246339797973633
2018-06-12,28.1299991607666,27.729999542236328,27.8700008392334,27.8700008392334,5151400.0,27.334609985351562
2018-06-13,28.34000015258789,27.809999465942383,27.969999313354492,27.920000076293945,7003100.0,27.383649826049805
2018-06-14,28.280000686645508,27.670000076293945,28.040000915527344,27.81999969482422,7509000.0,27.28557014465332
2018-06-15,27.799999237060547,27.170000076293945,27.790000915527344,27.290000915527344,11996200.0,26.7657527923584
2018-06-18,27.170000076293945,26.729999542236328,26.920000076293945,27.06999969482422,7840200.0,26.549978256225586
2018-06-19,27.1200008392334,26.670000076293945,26.90999984741211,26.81999969482422,4511900.0,26.304779052734375
2018-06-20,27.190000534057617,26.84000015258789,26.950000762939453,26.940000534057617,4228700.0,26.42247772216797
2018-06-21,27.1200008392334,26.729999542236328,27.0,26.920000076293945,4989300.0,26.402860641479492
2018-06-22,26.989999771118164,26.510000228881836,26.920000076293945,26.709999084472656,6912600.0,26.1968936920166
2018-06-25,26.600000381469727,26.110000610351562,26.540000915527344,26.31999969482422,6356600.0,25.81438446044922
2018-06-26,26.75,26.420000076293945,26.459999084472656,26.56999969482422,2968700.0,26.059581756591797
2018-06-27,27.270000457763672,26.600000381469727,26.719999313354492,26.739999771118164,4341400.0,26.226316452026367
2018-06-28,27.350000381469727,26.649999618530273,26.68000030517578,27.260000228881836,4486200.0,26.736328125
2018-06-29,27.65999984741211,27.299999237060547,27.329999923706055,27.420000076293945,3867700.0,26.89325523376465
2018-07-02,27.799999237060547,27.190000534057617,27.219999313354492,27.75,5329200.0,27.2169132232666
2018-07-03,27.65999984741211,26.920000076293945,27.600000381469727,27.229999542236328,3884500.0,26.7069034576416
2018-07-05,27.84000015258789,27.229999542236328,27.360000610351562,27.809999465942383,3898300.0,27.275760650634766
2018-07-06,28.040000915527344,27.639999389648438,27.760000228881836,27.959999084472656,3458100.0,27.422880172729492
2018-07-09,28.459999084472656,28.110000610351562,28.200000762939453,28.440000534057617,3858500.0,27.893661499023438
2018-07-10,28.690000534057617,28.1200008392334,28.5,28.299999237060547,5989900.0,27.75634765625
2018-07-11,28.290000915527344,27.899999618530273,28.200000762939453,28.1299991607666,3737300.0,27.58961296081543
2018-07-12,28.510000228881836,28.270000457763672,28.270000457763672,28.510000228881836,2225600.0,27.96231460571289
2018-07-13,28.549999237060547,27.399999618530273,28.479999542236328,27.860000610351562,6988700.0,27.32480239868164
2018-07-16,28.06999969482422,27.760000228881836,27.860000610351562,27.860000610351562,4116000.0,27.32480239868164
2018-07-17,28.020000457763672,27.709999084472656,27.760000228881836,27.93000030517578,3323000.0,27.393457412719727
2018-07-18,28.299999237060547,27.969999313354492,28.049999237060547,28.270000457763672,3157800.0,27.726926803588867
2018-07-19,28.350000381469727,28.010000228881836,28.239999771118164,28.059999465942383,3010000.0,27.520959854125977
2018-07-20,28.170000076293945,27.920000076293945,28.010000228881836,27.969999313354492,3068500.0,27.432687759399414
2018-07-23,28.190000534057617,27.739999771118164,28.049999237060547,28.079999923706055,3627900.0,27.54057502746582
2018-07-24,28.299999237060547,27.860000610351562,28.190000534057617,27.950000762939453,4589300.0,27.413074493408203
2018-07-25,28.239999771118164,27.899999618530273,27.940000534057617,28.200000762939453,2896900.0,27.65827178955078
2018-07-26,28.549999237060547,28.139999389648438,28.139999389648438,28.25,4373900.0,27.70730972290039
2018-07-27,26.18000030517578,25.0,25.770000457763672,26.18000030517578,17091200.0,25.67707633972168
2018-07-30,26.790000915527344,26.190000534057617,26.760000228881836,26.299999237060547,6489200.0,25.794769287109375
2018-07-31,26.540000915527344,26.18000030517578,26.350000381469727,26.34000015258789,4980700.0,25.834001541137695
2018-08-01,26.43000030517578,25.780000686645508,26.329999923706055,25.93000030517578,4294300.0,25.43187713623047
2018-08-02,26.329999923706055,25.520000457763672,25.68000030517578,26.18000030517578,3610100.0,25.67707633972168
2018-08-03,26.399999618530273,26.100000381469727,26.1299991607666,26.34000015258789,2619100.0,25.834001541137695
2018-08-06,26.420000076293945,26.219999313354492,26.290000915527344,26.270000457763672,2506800.0,25.76534652709961
2018-08-07,26.68000030517578,26.110000610351562,26.25,26.649999618530273,3705500.0,26.138046264648438
2018-08-08,26.790000915527344,26.40999984741211,26.670000076293945,26.75,2309300.0,26.236125946044922
2018-08-09,27.0,26.690000534057617,26.770000457763672,26.940000534057617,2298500.0,26.42247772216797
2018-08-10,27.09000015258789,26.780000686645508,26.84000015258789,26.889999389648438,2539700.0,26.37343406677246
2018-08-13,27.170000076293945,26.850000381469727,26.93000030517578,26.940000534057617,5841000.0,26.42247772216797
2018-08-14,27.139999389648438,26.8700008392334,26.950000762939453,26.899999618530273,2815000.0,26.383243560791016
2018-08-15,26.8700008392334,26.59000015258789,26.81999969482422,26.84000015258789,2836200.0,26.32439613342285
2018-08-16,27.350000381469727,26.899999618530273,27.0,27.299999237060547,3417200.0,26.77556037902832
2018-08-17,27.780000686645508,27.059999465942383,27.25,27.739999771118164,2992400.0,27.207107543945312
2018-08-20,28.18000030517578,27.790000915527344,27.790000915527344,28.18000030517578,4936100.0,27.638654708862305
2018-08-21,28.329999923706055,27.81999969482422,28.1200008392334,28.309999465942383,3329700.0,27.766155242919922
2018-08-22,28.299999237060547,28.09000015258789,28.229999542236328,28.260000228881836,2533000.0,27.717119216918945
2018-08-23,28.43000030517578,28.239999771118164,28.290000915527344,28.34000015258789,1930800.0,27.79557991027832
2018-08-24,28.739999771118164,28.399999618530273,28.479999542236328,28.579999923706055,3225200.0,28.03097152709961
2018-08-27,28.780000686645508,28.540000915527344,28.65999984741211,28.549999237060547,2144400.0,28.001544952392578
2018-08-28,29.010000228881836,28.549999237060547,28.700000762939453,28.93000030517578,4537300.0,28.37424659729004
2018-08-29,28.979999542236328,28.81999969482422,28.950000762939453,28.84000015258789,2393900.0,28.28597640991211
2018-08-30,28.940000534057617,28.68000030517578,28.90999984741211,28.68000030517578,3370700.0,28.12904930114746
2018-08-31,28.600000381469727,28.1299991607666,28.3799991607666,28.43000030517578,5852900.0,28.059961318969727
2018-09-04,28.420000076293945,28.079999923706055,28.34000015258789,28.389999389648438,3701900.0,28.020479202270508
2018-09-05,28.350000381469727,27.959999084472656,28.299999237060547,27.989999771118164,4787700.0,27.625686645507812
2018-09-06,28.270000457763672,27.540000915527344,28.139999389648438,27.700000762939453,3868600.0,27.339462280273438
2018-09-07,27.709999084472656,27.40999984741211,27.709999084472656,27.510000228881836,5019800.0,27.151935577392578
2018-09-10,27.700000762939453,27.420000076293945,27.56999969482422,27.6299991607666,3849200.0,27.27037239074707
2018-09-11,27.690000534057617,27.360000610351562,27.530000686645508,27.5,2204100.0,27.142065048217773
2018-09-12,27.68000030517578,27.420000076293945,27.479999542236328,27.549999237060547,4118200.0,27.1914119720459
2018-09-13,28.0,27.510000228881836,27.610000610351562,27.81999969482422,4703400.0,27.45789909362793
2018-09-14,28.329999923706055,27.670000076293945,27.920000076293945,27.8700008392334,6024000.0,27.50724983215332
2018-09-17,28.31999969482422,27.860000610351562,27.950000762939453,28.0,9021600.0,27.635557174682617
2018-09-18,28.65999984741211,27.959999084472656,28.079999923706055,28.59000015258789,5983300.0,28.217878341674805
2018-09-19,29.479999542236328,28.93000030517578,29.440000534057617,29.200000762939453,6632700.0,28.81993865966797
2018-09-20,29.670000076293945,29.34000015258789,29.34000015258789,29.559999465942383,3282900.0,29.17525291442871
2018-09-21,29.920000076293945,29.510000228881836,29.56999969482422,29.770000457763672,6409100.0,29.38252067565918
2018-09-24,29.950000762939453,29.459999084472656,29.700000762939453,29.670000076293945,8967700.0,29.28382110595703
2018-09-25,29.969999313354492,29.600000381469727,29.670000076293945,29.790000915527344,3675000.0,29.402257919311523
2018-09-26,29.90999984741211,29.56999969482422,29.809999465942383,29.59000015258789,2822000.0,29.204862594604492
2018-09-27,29.860000610351562,29.489999771118164,29.549999237060547,29.700000762939453,2191100.0,29.313430786132812
2018-09-28,30.190000534057617,29.579999923706055,29.690000534057617,29.969999313354492,3327600.0,29.57991600036621
2018-10-01,30.229999542236328,29.81999969482422,30.040000915527344,29.920000076293945,4378100.0,29.530567169189453
2018-10-02,30.010000228881836,29.670000076293945,29.8700008392334,29.829999923706055,4428100.0,29.44173812866211
2018-10-03,30.030000686645508,29.690000534057617,30.030000686645508,29.75,2977200.0,29.36277961730957
2018-10-04,29.700000762939453,29.239999771118164,29.700000762939453,29.3700008392334,3011200.0,28.98772621154785
2018-10-05,29.43000030517578,28.950000762939453,29.329999923706055,29.139999389648438,1986700.0,28.760717391967773
2018-10-08,29.15999984741211,28.719999313354492,29.030000686645508,28.809999465942383,2198900.0,28.435014724731445
2018-10-09,28.90999984741211,28.6200008392334,28.6200008392334,28.760000228881836,2314100.0,28.385665893554688
2018-10-10,28.6200008392334,27.579999923706055,28.549999237060547,27.610000610351562,3629100.0,27.250633239746094
2018-10-11,27.6299991607666,26.760000228881836,27.440000534057617,26.780000686645508,5040200.0,26.431438446044922
2018-10-12,27.389999389648438,26.780000686645508,27.270000457763672,27.31999969482422,3542500.0,26.964406967163086
2018-10-15,27.90999984741211,27.270000457763672,27.31999969482422,27.770000457763672,4989300.0,27.408550262451172
2018-10-16,28.59000015258789,27.799999237060547,27.899999618530273,28.559999465942383,3684000.0,28.18826675415039
2018-10-17,28.950000762939453,28.389999389648438,28.540000915527344,28.8700008392334,3851000.0,28.494232177734375
2018-10-18,29.219999313354492,28.389999389648438,28.8700008392334,28.6200008392334,4522500.0,28.247488021850586
2018-10-19,28.889999389648438,28.3700008392334,28.670000076293945,28.40999984741211,3664500.0,28.040220260620117
2018-10-22,28.719999313354492,28.1299991607666,28.65999984741211,28.479999542236328,4454500.0,28.109310150146484
2018-10-23,28.1299991607666,27.100000381469727,27.8799991607666,27.579999923706055,11621100.0,27.221023559570312
2018-10-24,29.020000457763672,27.59000015258789,27.6200008392334,28.65999984741211,11653000.0,28.28696632385254
2018-10-25,28.950000762939453,28.520000457763672,28.90999984741211,28.6299991607666,5279600.0,28.257356643676758
2018-10-26,28.559999465942383,27.790000915527344,28.229999542236328,28.139999389648438,5012700.0,27.773733139038086
2018-10-29,28.68000030517578,27.729999542236328,28.510000228881836,28.049999237060547,3785600.0,27.684906005859375
2018-10-30,28.809999465942383,28.06999969482422,28.219999313354492,28.780000686645508,4956800.0,28.405405044555664
2018-10-31,29.6200008392334,28.969999313354492,29.049999237060547,29.270000457763672,4956700.0,28.889026641845703
2018-11-01,29.68000030517578,29.15999984741211,29.399999618530273,29.639999389648438,3224000.0,29.254209518432617
2018-11-02,30.06999969482422,29.510000228881836,29.809999465942383,29.770000457763672,4541700.0,29.38252067565918
2018-11-05,30.149999618530273,29.700000762939453,29.81999969482422,29.81999969482422,3731200.0,29.431867599487305
2018-11-06,30.149999618530273,29.84000015258789,29.8799991607666,30.149999618530273,3076700.0,29.7575740814209
2018-11-07,30.649999618530273,30.040000915527344,30.25,30.440000534057617,5338100.0,30.043798446655273
2018-11-08,30.799999237060547,30.270000457763672,30.420000076293945,30.670000076293945,5315100.0,30.27080535888672
2018-11-09,30.68000030517578,29.100000381469727,30.579999923706055,29.1200008392334,9818300.0,28.74098014831543
2018-11-12,29.299999237060547,28.3700008392334,28.8799991607666,28.389999389648438,5044300.0,28.020479202270508
2018-11-13,28.739999771118164,28.170000076293945,28.549999237060547,28.299999237060547,3968700.0,27.931650161743164
2018-11-14,28.700000762939453,28.06999969482422,28.56999969482422,28.139999389648438,4930600.0,27.773733139038086
2018-11-15,28.360000610351562,27.950000762939453,28.15999984741211,28.31999969482422,5087400.0,27.951391220092773
2018-11-16,28.729999542236328,28.100000381469727,28.209999084472656,28.59000015258789,3443900.0,28.217878341674805
2018-11-19,28.559999465942383,27.979999542236328,28.559999465942383,28.059999465942383,3324600.0,27.69477653503418
2018-11-20,27.809999465942383,27.110000610351562,27.530000686645508,27.270000457763672,3232100.0,26.915058135986328
2018-11-21,27.739999771118164,27.190000534057617,27.43000030517578,27.559999465942383,3490400.0,27.201282501220703
2018-11-23,27.729999542236328,27.309999465942383,27.309999465942383,27.520000457763672,856100.0,27.161806106567383
2018-11-26,27.84000015258789,27.489999771118164,27.75,27.68000030517578,2361500.0,27.31972312927246
2018-11-27,28.059999465942383,27.360000610351562,27.610000610351562,27.989999771118164,3859700.0,27.625686645507812
2018-11-28,29.469999313354492,28.0,28.059999465942383,29.440000534057617,8317600.0,29.056814193725586
2018-11-29,29.329999923706055,28.559999465942383,29.219999313354492,28.59000015258789,3906800.0,28.217878341674805
2018-11-30,28.770000457763672,28.40999984741211,28.450000762939453,28.709999084472656,4532900.0,28.336313247680664
2018-12-03,29.31999969482422,29.020000457763672,29.200000762939453,29.31999969482422,2452400.0,28.93837547302246
2018-12-04,29.290000915527344,28.299999237060547,29.110000610351562,28.3799991607666,2832900.0,28.18363380432129
2018-12-06,28.43000030517578,27.670000076293945,27.969999313354492,28.40999984741211,3275200.0,28.21342658996582
2018-12-07,28.56999969482422,27.399999618530273,28.399999618530273,27.65999984741211,3075500.0,27.468616485595703
2018-12-10,27.8799991607666,27.209999084472656,27.649999618530273,27.610000610351562,4219800.0,27.418962478637695
2018-12-11,28.399999618530273,27.59000015258789,28.110000610351562,27.829999923706055,4557500.0,27.637439727783203
2018-12-12,28.649999618530273,28.270000457763672,28.329999923706055,28.459999084472656,4978500.0,28.263080596923828
2018-12-13,28.649999618530273,27.510000228881836,28.6200008392334,28.100000381469727,6126100.0,27.90557289123535
2018-12-14,27.860000610351562,27.459999084472656,27.639999389648438,27.770000457763672,3099600.0,27.577856063842773
2018-12-17,27.81999969482422,27.309999465942383,27.59000015258789,27.3799991607666,7004100.0,27.190553665161133
2018-12-18,28.200000762939453,27.360000610351562,27.520000457763672,27.770000457763672,4915700.0,27.577856063842773
2018-12-19,27.959999084472656,26.799999237060547,27.760000228881836,26.959999084472656,4395800.0,26.77345848083496
2018-12-20,27.110000610351562,26.459999084472656,26.84000015258789,26.940000534057617,5877200.0,26.753599166870117
2018-12-21,27.25,26.1299991607666,27.06999969482422,26.229999542236328,7242400.0,26.04850959777832
2018-12-24,26.31999969482422,25.559999465942383,26.110000610351562,25.559999465942383,2061500.0,25.383146286010742
2018-12-26,26.600000381469727,25.299999237060547,25.65999984741211,26.600000381469727,4847500.0,26.415950775146484
2018-12-27,26.799999237060547,25.84000015258789,26.219999313354492,26.799999237060547,2878300.0,26.614566802978516
2018-12-28,27.110000610351562,26.56999969482422,26.959999084472656,26.75,2210800.0,26.564912796020508
2018-12-31,26.969999313354492,26.6200008392334,26.899999618530273,26.90999984741211,2160700.0,26.723806381225586
