Date,High,Low,Open,Close,Volume,Adj Close
2016-01-04,744.0599975585938,731.2579956054688,743.0,741.8400268554688,3272800,741.8400268554688
2016-01-05,752.0,738.6400146484375,746.4500122070312,742.5800170898438,1950700,742.5800170898438
2016-01-06,747.1799926757812,728.9199829101562,730.0,743.6199951171875,1947000,743.6199951171875
2016-01-07,738.5,719.0599975585938,730.3099975585938,726.3900146484375,2963700,726.3900146484375
2016-01-08,733.22998046875,713.0,731.4500122070312,714.469970703125,2450900,714.469970703125
2016-01-11,718.85498046875,703.5399780273438,716.6099853515625,716.030029296875,2089300,716.030029296875
2016-01-12,728.75,717.3170166015625,721.6799926757812,726.0700073242188,2024500,726.0700073242188
2016-01-13,734.739990234375,698.6099853515625,730.8499755859375,700.5599975585938,2501700,700.5599975585938
2016-01-14,721.9249877929688,689.0999755859375,705.3800048828125,714.719970703125,2225800,714.719970703125
2016-01-15,706.739990234375,685.3699951171875,692.2899780273438,694.4500122070312,3608100,694.4500122070312
2016-01-19,709.97998046875,693.4099731445312,703.2999877929688,701.7899780273438,2268100,701.7899780273438
2016-01-20,706.8499755859375,673.260009765625,688.6099853515625,698.4500122070312,3445000,698.4500122070312
2016-01-21,719.1900024414062,694.4600219726562,702.1799926757812,706.5900268554688,2412200,706.5900268554688
2016-01-22,728.1300048828125,720.1209716796875,723.5999755859375,725.25,2011800,725.25
2016-01-25,729.6799926757812,710.010009765625,723.5800170898438,711.6699829101562,1711700,711.6699829101562
2016-01-26,718.280029296875,706.47998046875,713.8499755859375,713.0399780273438,1324300,713.0399780273438
2016-01-27,718.2349853515625,694.3900146484375,713.6699829101562,699.989990234375,2194200,699.989990234375
2016-01-28,733.6900024414062,712.3499755859375,722.219970703125,730.9600219726562,2676400,730.9600219726562
2016-01-29,744.989990234375,726.7999877929688,731.530029296875,742.9500122070312,3474300,742.9500122070312
2016-02-01,757.8599853515625,743.27001953125,750.4600219726562,752.0,5139200,752.0
2016-02-02,789.8699951171875,764.6500244140625,784.5,764.6500244140625,6348100,764.6500244140625
2016-02-03,774.5,720.5,770.219970703125,726.9500122070312,6171000,726.9500122070312
2016-02-04,727.0,701.8599853515625,722.8099975585938,708.010009765625,5145900,708.010009765625
2016-02-05,703.989990234375,680.1500244140625,703.8699951171875,683.5700073242188,5105700,683.5700073242188
2016-02-08,684.030029296875,663.0599975585938,667.8499755859375,682.739990234375,4247400,682.739990234375
2016-02-09,699.9000244140625,668.77001953125,672.3200073242188,678.1099853515625,3604300,678.1099853515625
2016-02-10,701.3099975585938,682.1300048828125,686.8599853515625,684.1199951171875,2638000,684.1199951171875
2016-02-11,689.3499755859375,668.8679809570312,675.0,683.1099853515625,3024000,683.1099853515625
2016-02-12,693.75,678.5999755859375,690.260009765625,682.4000244140625,2141400,682.4000244140625
2016-02-16,698.0,685.0499877929688,692.97998046875,691.0,2520000,691.0
2016-02-17,709.75,691.3800048828125,698.0900268554688,708.4000244140625,2492600,708.4000244140625
2016-02-18,712.3499755859375,696.030029296875,710.0,697.3499755859375,1883200,697.3499755859375
2016-02-19,703.0809936523438,694.0499877929688,695.030029296875,700.9099731445312,1589300,700.9099731445312
2016-02-22,713.239990234375,702.510009765625,707.4500122070312,706.4600219726562,1949800,706.4600219726562
2016-02-23,708.4000244140625,693.5800170898438,701.4500122070312,695.8499755859375,2009300,695.8499755859375
2016-02-24,700.0,680.780029296875,688.9199829101562,699.5599975585938,1963600,699.5599975585938
2016-02-25,705.97998046875,690.5850219726562,700.010009765625,705.75,1631900,705.75
2016-02-26,713.4299926757812,700.8599853515625,708.5800170898438,705.0700073242188,2243500,705.0700073242188
2016-02-29,710.8900146484375,697.6799926757812,700.3200073242188,697.77001953125,2481100,697.77001953125
2016-03-01,718.8099975585938,699.77001953125,703.6199951171875,718.8099975585938,2151400,718.8099975585938
2016-03-02,720.0,712.0,719.0,718.8499755859375,1629000,718.8499755859375
2016-03-03,719.4500122070312,706.02001953125,718.6799926757812,712.4199829101562,1956800,712.4199829101562
2016-03-04,716.489990234375,706.02001953125,714.989990234375,710.8900146484375,1972100,710.8900146484375
2016-03-07,708.0910034179688,686.9000244140625,706.9000244140625,695.1599731445312,2985100,695.1599731445312
2016-03-08,703.7899780273438,685.3400268554688,688.5900268554688,693.969970703125,2076300,693.969970703125
2016-03-09,705.6799926757812,694.0,698.469970703125,705.239990234375,1421500,705.239990234375
2016-03-10,716.4400024414062,703.3599853515625,708.1199951171875,712.8200073242188,2829400,712.8200073242188
2016-03-11,726.9199829101562,717.125,720.0,726.8200073242188,1970800,726.8200073242188
2016-03-14,735.5,725.1500244140625,726.8099975585938,730.489990234375,1718300,730.489990234375
2016-03-15,732.2899780273438,724.77001953125,726.9199829101562,728.3300170898438,1721000,728.3300170898438
2016-03-16,737.469970703125,724.510009765625,726.3699951171875,736.0900268554688,1624400,736.0900268554688
2016-03-17,743.0700073242188,736.0,736.4500122070312,737.780029296875,1860800,737.780029296875
2016-03-18,742.0,731.8300170898438,741.8599853515625,737.5999755859375,2980700,737.5999755859375
2016-03-21,742.5,733.5159912109375,736.5,742.0900268554688,1836500,742.0900268554688
2016-03-22,745.0,737.4600219726562,737.4600219726562,740.75,1269700,740.75
2016-03-23,745.719970703125,736.1500244140625,742.3599853515625,738.0599975585938,1432100,738.0599975585938
2016-03-24,737.7470092773438,731.0,732.010009765625,735.2999877929688,1594900,735.2999877929688
2016-03-28,738.989990234375,732.5,736.7899780273438,733.530029296875,1301300,733.530029296875
2016-03-29,747.25,728.760009765625,734.5900268554688,744.77001953125,1902100,744.77001953125
2016-03-30,757.8800048828125,748.739990234375,750.0999755859375,750.530029296875,1782400,750.530029296875
2016-03-31,750.8499755859375,740.9400024414062,749.25,744.9500122070312,1718800,744.9500122070312
2016-04-01,750.3400268554688,737.0,738.5999755859375,749.9099731445312,1576700,749.9099731445312
2016-04-04,752.7999877929688,742.4299926757812,750.0599975585938,745.2899780273438,1134200,745.2899780273438
2016-04-05,742.7999877929688,735.3699951171875,738.0,737.7999877929688,1132300,737.7999877929688
2016-04-06,746.239990234375,735.5599975585938,735.77001953125,745.6900024414062,1050200,745.6900024414062
2016-04-07,747.0,736.280029296875,745.3699951171875,740.280029296875,1453200,740.280029296875
2016-04-08,745.4500122070312,735.5499877929688,743.969970703125,739.1500244140625,1290800,739.1500244140625
2016-04-11,745.0,736.0499877929688,743.02001953125,736.0999755859375,1220100,736.0999755859375
2016-04-12,743.8300170898438,731.010009765625,738.0,743.0900268554688,1349700,743.0900268554688
2016-04-13,754.3800048828125,744.260986328125,749.1599731445312,751.719970703125,1707100,751.719970703125
2016-04-14,757.3099975585938,752.7050170898438,754.010009765625,753.2000122070312,1131000,753.2000122070312
2016-04-15,761.0,752.6939697265625,753.97998046875,759.0,1809300,759.0
2016-04-18,768.0499877929688,757.2999877929688,760.4600219726562,766.6099853515625,1556000,766.6099853515625
2016-04-19,769.9000244140625,749.3300170898438,769.510009765625,753.9299926757812,2030500,753.9299926757812
2016-04-20,758.1320190429688,750.010009765625,758.0,752.6699829101562,1529200,752.6699829101562
2016-04-21,760.4500122070312,749.5499877929688,755.3800048828125,759.1400146484375,3060500,759.1400146484375
2016-04-22,736.1199951171875,713.6099853515625,726.2999877929688,718.77001953125,5951900,718.77001953125
2016-04-25,723.9299926757812,715.5900268554688,716.0999755859375,723.1500244140625,1959200,723.1500244140625
2016-04-26,725.7659912109375,703.0260009765625,725.4199829101562,708.1400146484375,2744600,708.1400146484375
2016-04-27,708.97998046875,692.364990234375,707.2899780273438,705.8400268554688,3098600,705.8400268554688
2016-04-28,714.1699829101562,689.5499877929688,708.260009765625,691.02001953125,2867300,691.02001953125
2016-04-29,697.6199951171875,689.0,690.7000122070312,693.010009765625,2487700,693.010009765625
2016-05-02,700.6400146484375,691.0,697.6300048828125,698.2100219726562,1645300,698.2100219726562
2016-05-03,697.8400268554688,692.0,696.8699951171875,692.3599853515625,1543800,692.3599853515625
2016-05-04,699.75,689.010009765625,690.489990234375,695.7000122070312,1688600,695.7000122070312
2016-05-05,702.3200073242188,695.719970703125,697.7000122070312,701.4299926757812,1683500,701.4299926757812
2016-05-06,711.8599853515625,698.1069946289062,698.3800048828125,711.1199951171875,1829300,711.1199951171875
2016-05-09,718.7100219726562,710.0,712.0,712.9000244140625,1510300,712.9000244140625
2016-05-10,723.5,715.719970703125,716.75,723.1799926757812,1563100,723.1799926757812
2016-05-11,724.47998046875,712.7999877929688,723.4099731445312,715.2899780273438,1692100,715.2899780273438
2016-05-12,719.25,709.0,717.0599975585938,713.3099975585938,1360700,713.3099975585938
2016-05-13,716.6619873046875,709.260009765625,711.9299926757812,710.8300170898438,1314500,710.8300170898438
2016-05-16,718.47998046875,705.6500244140625,709.1300048828125,716.489990234375,1317100,716.489990234375
2016-05-17,721.52001953125,704.1099853515625,715.989990234375,706.22998046875,2001200,706.22998046875
2016-05-18,711.5999755859375,700.6300048828125,703.6699829101562,706.6300048828125,1766800,706.6300048828125
2016-05-19,706.0,696.7999877929688,702.3599853515625,700.3200073242188,1670200,700.3200073242188
2016-05-20,714.5800170898438,700.52001953125,701.6199951171875,709.739990234375,1828400,709.739990234375
2016-05-23,711.47802734375,704.1799926757812,706.530029296875,704.239990234375,1320900,704.239990234375
2016-05-24,720.969970703125,706.8599853515625,706.8599853515625,720.0900268554688,1929500,720.0900268554688
2016-05-25,727.510009765625,719.7050170898438,720.760009765625,725.27001953125,1629200,725.27001953125
2016-05-26,728.3300170898438,720.280029296875,722.8699951171875,724.1199951171875,1542900,724.1199951171875
2016-05-27,733.9359741210938,724.0,724.010009765625,732.6599731445312,1975000,732.6599731445312
2016-05-31,739.72998046875,731.260009765625,731.739990234375,735.719970703125,2129500,735.719970703125
2016-06-01,737.2100219726562,730.6599731445312,734.530029296875,734.1500244140625,1253600,734.1500244140625
2016-06-02,733.02001953125,724.1699829101562,732.5,730.4000244140625,1337600,730.4000244140625
2016-06-03,729.489990234375,720.5599975585938,729.27001953125,722.3400268554688,1226300,722.3400268554688
2016-06-06,724.9099731445312,714.6099853515625,724.9099731445312,716.5499877929688,1565300,716.5499877929688
2016-06-07,721.97998046875,716.5499877929688,719.8400268554688,716.6500244140625,1336200,716.6500244140625
2016-06-08,728.5700073242188,720.5800170898438,723.9600219726562,728.280029296875,1583700,728.280029296875
2016-06-09,729.5399780273438,722.3359985351562,722.8699951171875,728.5800170898438,988900,728.5800170898438
2016-06-10,725.8900146484375,716.4299926757812,719.469970703125,719.4099731445312,1216400,719.4099731445312
2016-06-13,725.4400024414062,716.510009765625,716.510009765625,718.3599853515625,1258900,718.3599853515625
2016-06-14,722.469970703125,713.1199951171875,716.47998046875,718.27001953125,1306100,718.27001953125
2016-06-15,722.97998046875,717.3099975585938,719.0,718.9199829101562,1214500,718.9199829101562
2016-06-16,716.6500244140625,703.260009765625,714.9099731445312,710.3599853515625,1982500,710.3599853515625
2016-06-17,708.8200073242188,688.4520263671875,708.6500244140625,691.719970703125,3402400,691.719970703125
2016-06-20,702.47998046875,693.4099731445312,698.77001953125,693.7100219726562,2082500,693.7100219726562
2016-06-21,702.77001953125,692.010009765625,698.4000244140625,695.9400024414062,1465600,695.9400024414062
2016-06-22,700.8599853515625,693.0819702148438,699.0599975585938,697.4600219726562,1184300,697.4600219726562
2016-06-23,701.9500122070312,687.0,697.4500122070312,701.8699951171875,2171400,701.8699951171875
2016-06-24,689.4000244140625,673.4500122070312,675.1699829101562,675.219970703125,4449000,675.219970703125
2016-06-27,672.2999877929688,663.2839965820312,671.0,668.260009765625,2629000,668.260009765625
2016-06-28,680.3300170898438,673.0,678.969970703125,680.0399780273438,2173800,680.0399780273438
2016-06-29,687.4290161132812,681.4099731445312,683.0,684.1099853515625,1932600,684.1099853515625
2016-06-30,692.3200073242188,683.6500244140625,685.469970703125,692.0999755859375,1597700,692.0999755859375
2016-07-01,700.6500244140625,692.1300048828125,692.2000122070312,699.2100219726562,1344700,699.2100219726562
2016-07-05,696.9400024414062,688.8800048828125,696.0599975585938,694.9500122070312,1462600,694.9500122070312
2016-07-06,701.6799926757812,689.0900268554688,689.97998046875,697.77001953125,1411900,697.77001953125
2016-07-07,698.2000122070312,688.2150268554688,698.0800170898438,695.3599853515625,1303100,695.3599853515625
2016-07-08,705.7100219726562,696.4349975585938,699.5,705.6300048828125,1575200,705.6300048828125
2016-07-11,716.510009765625,707.239990234375,708.0499877929688,715.0900268554688,1111800,715.0900268554688
2016-07-12,722.9400024414062,715.9099731445312,719.1199951171875,720.6400146484375,1336900,720.6400146484375
2016-07-13,724.0,716.8499755859375,723.6199951171875,716.97998046875,935900,716.97998046875
2016-07-14,722.2100219726562,718.030029296875,721.5800170898438,720.9500122070312,950200,720.9500122070312
2016-07-15,725.739990234375,719.0549926757812,725.72998046875,719.8499755859375,1279300,719.8499755859375
2016-07-18,736.1300048828125,721.1900024414062,722.7100219726562,733.780029296875,1295500,733.780029296875
2016-07-19,736.989990234375,729.0,729.8900146484375,736.9600219726562,1227500,736.9600219726562
2016-07-20,742.1300048828125,737.0999755859375,737.3300170898438,741.1900024414062,1289700,741.1900024414062
2016-07-21,741.6900024414062,735.8309936523438,740.3599853515625,738.6300048828125,1026300,738.6300048828125
2016-07-22,743.239990234375,736.5599975585938,741.8599853515625,742.739990234375,1259800,742.739990234375
2016-07-25,742.6099853515625,737.5,740.6699829101562,739.77001953125,1032400,739.77001953125
2016-07-26,741.6900024414062,734.27001953125,739.0399780273438,738.4199829101562,1186700,738.4199829101562
2016-07-27,744.4600219726562,737.0,738.280029296875,741.77001953125,1497100,741.77001953125
2016-07-28,748.6500244140625,739.2999877929688,747.0399780273438,745.9099731445312,3530200,745.9099731445312
2016-07-29,778.5499877929688,766.77001953125,772.7100219726562,768.7899780273438,3841500,768.7899780273438
2016-08-01,780.4299926757812,761.0900268554688,761.0900268554688,772.8800048828125,2700500,772.8800048828125
2016-08-02,775.8400268554688,767.8499755859375,768.6900024414062,771.0700073242188,1784500,771.0700073242188
2016-08-03,773.2100219726562,766.8200073242188,767.1799926757812,773.1799926757812,1287400,773.1799926757812
2016-08-04,774.0700073242188,768.7949829101562,772.219970703125,771.6099853515625,1139400,771.6099853515625
2016-08-05,783.0399780273438,772.3400268554688,773.780029296875,782.219970703125,1801200,782.219970703125
2016-08-08,782.6300048828125,778.0910034179688,782.0,781.760009765625,1107900,781.760009765625
2016-08-09,788.9400024414062,780.5700073242188,781.0999755859375,784.260009765625,1318900,784.260009765625
2016-08-10,786.81201171875,782.7780151367188,783.75,784.6799926757812,786400,784.6799926757812
2016-08-11,789.75,782.969970703125,785.0,784.8499755859375,971100,784.8499755859375
2016-08-12,783.39501953125,780.4000244140625,781.5,783.219970703125,740500,783.219970703125
2016-08-15,787.489990234375,780.1099853515625,783.75,782.4400024414062,938200,782.4400024414062
2016-08-16,780.97998046875,773.4439697265625,780.2999877929688,777.1400146484375,1028000,777.1400146484375
2016-08-17,780.8099975585938,773.530029296875,777.3200073242188,779.9099731445312,924200,779.9099731445312
2016-08-18,782.8599853515625,777.0,780.010009765625,777.5,719400,777.5
2016-08-19,777.0999755859375,773.1300048828125,775.0,775.4199829101562,861500,775.4199829101562
2016-08-22,774.5399780273438,770.0499877929688,773.27001953125,772.1500244140625,951400,772.1500244140625
2016-08-23,776.4400024414062,771.7849731445312,775.47998046875,772.0800170898438,928200,772.0800170898438
2016-08-24,774.5,767.0700073242188,770.5800170898438,769.6400146484375,1072000,769.6400146484375
2016-08-25,771.8900146484375,763.1849975585938,767.0,769.4099731445312,926900,769.4099731445312
2016-08-26,776.0800170898438,765.8499755859375,769.0,769.5399780273438,1166700,769.5399780273438
2016-08-29,774.989990234375,766.614990234375,768.739990234375,772.1500244140625,841000,772.1500244140625
2016-08-30,774.4660034179688,766.8400268554688,769.3300170898438,769.0900268554688,1130000,769.0900268554688
2016-08-31,769.0900268554688,765.3800048828125,767.010009765625,767.0499877929688,1248600,767.0499877929688
2016-09-01,771.02001953125,764.2999877929688,769.25,768.780029296875,925100,768.780029296875
2016-09-02,773.9199829101562,768.4099731445312,773.010009765625,771.4600219726562,1072700,771.4600219726562
2016-09-06,782.0,771.0,773.4500122070312,780.0800170898438,1442800,780.0800170898438
2016-09-07,782.72998046875,776.2000122070312,780.0,780.3499755859375,893700,780.3499755859375
2016-09-08,780.3499755859375,773.5800170898438,778.5900268554688,775.3200073242188,1260600,775.3200073242188
2016-09-09,773.2449951171875,759.6599731445312,770.0999755859375,759.6599731445312,1885500,759.6599731445312
2016-09-12,770.2899780273438,754.0,755.1300048828125,769.02001953125,1311000,769.02001953125
2016-09-13,766.219970703125,755.7999877929688,764.47998046875,759.6900024414062,1395000,759.6900024414062
2016-09-14,767.6799926757812,759.1099853515625,759.6099853515625,762.489990234375,1087400,762.489990234375
2016-09-15,773.7999877929688,759.9600219726562,762.8900146484375,771.760009765625,1305100,771.760009765625
2016-09-16,769.75,764.6599731445312,769.75,768.8800048828125,2049300,768.8800048828125
2016-09-19,774.0,764.4409790039062,772.4199829101562,765.7000122070312,1171100,765.7000122070312
2016-09-20,773.3300170898438,768.530029296875,769.0,771.4099731445312,978600,771.4099731445312
2016-09-21,777.1599731445312,768.301025390625,772.6599731445312,776.219970703125,1167800,776.219970703125
2016-09-22,789.8499755859375,778.4400024414062,780.0,787.2100219726562,1486200,787.2100219726562
2016-09-23,788.9299926757812,784.1500244140625,786.5900268554688,786.9000244140625,1411900,786.9000244140625
2016-09-26,782.739990234375,773.0700073242188,782.739990234375,774.2100219726562,1533200,774.2100219726562
2016-09-27,785.989990234375,774.3079833984375,775.5,783.010009765625,1153200,783.010009765625
2016-09-28,781.8099975585938,774.969970703125,777.8499755859375,781.5599975585938,1109800,781.5599975585938
2016-09-29,785.7999877929688,774.2319946289062,781.4400024414062,775.010009765625,1314700,775.010009765625
2016-09-30,780.9400024414062,774.0900268554688,776.3300170898438,777.2899780273438,1585300,777.2899780273438
2016-10-03,776.0650024414062,769.5,774.25,772.5599975585938,1278800,772.5599975585938
2016-10-04,778.7100219726562,772.8900146484375,776.030029296875,776.4299926757812,1201400,776.4299926757812
2016-10-05,782.0700073242188,775.6500244140625,779.3099975585938,776.469970703125,1461200,776.469970703125
2016-10-06,780.47998046875,775.5399780273438,779.0,776.8599853515625,1070700,776.8599853515625
2016-10-07,779.6599731445312,770.75,779.6599731445312,775.0800170898438,933200,775.0800170898438
2016-10-10,789.3800048828125,775.8699951171875,777.7100219726562,785.9400024414062,1161400,785.9400024414062
2016-10-11,792.280029296875,780.5800170898438,786.6599731445312,783.0700073242188,1372500,783.0700073242188
2016-10-12,788.1300048828125,782.0599975585938,783.760009765625,786.1400146484375,937400,786.1400146484375
2016-10-13,781.219970703125,773.0,781.219970703125,778.1900024414062,1365300,778.1900024414062
2016-10-14,783.9500122070312,776.0,781.6500244140625,778.530029296875,852500,778.530029296875
2016-10-17,785.8499755859375,777.5,779.7999877929688,779.9600219726562,1093000,779.9600219726562
2016-10-18,801.6099853515625,785.5650024414062,787.8499755859375,795.260009765625,1995600,795.260009765625
2016-10-19,804.5999755859375,798.030029296875,798.239990234375,801.5,1766800,801.5
2016-10-20,803.969970703125,796.030029296875,803.2999877929688,796.969970703125,1757500,796.969970703125
2016-10-21,799.5,794.0,795.0,799.3699951171875,1266200,799.3699951171875
2016-10-24,815.1799926757812,804.8200073242188,804.9000244140625,813.1099853515625,1697500,813.1099853515625
2016-10-25,816.6799926757812,805.1400146484375,816.6799926757812,807.6699829101562,1576400,807.6699829101562
2016-10-26,806.97998046875,796.3200073242188,806.3400268554688,799.0700073242188,1647700,799.0700073242188
2016-10-27,803.489990234375,791.5,801.0,795.3499755859375,2749200,795.3499755859375
2016-10-28,815.489990234375,793.5900268554688,808.3499755859375,795.3699951171875,4269900,795.3699951171875
2016-10-31,796.8599853515625,784.0,795.469970703125,784.5399780273438,2427300,784.5399780273438
2016-11-01,789.489990234375,775.5399780273438,782.8900146484375,783.6099853515625,2406400,783.6099853515625
2016-11-02,781.6500244140625,763.4500122070312,778.2000122070312,768.7000122070312,1872400,768.7000122070312
2016-11-03,769.9500122070312,759.030029296875,767.25,762.1300048828125,1943200,762.1300048828125
2016-11-04,770.3599853515625,750.5609741210938,750.6599731445312,762.02001953125,2134800,762.02001953125
2016-11-07,785.1900024414062,772.5499877929688,774.5,782.52001953125,1585100,782.52001953125
2016-11-08,795.6329956054688,780.1900024414062,783.4000244140625,790.510009765625,1350800,790.510009765625
2016-11-09,791.2269897460938,771.6699829101562,779.9400024414062,785.3099975585938,2607100,785.3099975585938
2016-11-10,791.1699829101562,752.1799926757812,791.1699829101562,762.5599975585938,4745200,762.5599975585938
2016-11-11,760.780029296875,750.3800048828125,756.5399780273438,754.02001953125,2431800,754.02001953125
2016-11-14,757.8499755859375,727.5399780273438,755.5999755859375,736.0800170898438,3631700,736.0800170898438
2016-11-15,764.416015625,746.969970703125,746.969970703125,758.489990234375,2384000,758.489990234375
2016-11-16,766.3599853515625,750.510009765625,755.2000122070312,764.47998046875,1465200,764.47998046875
2016-11-17,772.7000122070312,764.22998046875,766.9199829101562,771.22998046875,1304000,771.22998046875
2016-11-18,775.0,760.0,771.3699951171875,760.5399780273438,1547100,760.5399780273438
2016-11-21,769.7000122070312,760.5999755859375,762.6099853515625,769.2000122070312,1330600,769.2000122070312
2016-11-22,776.9600219726562,767.0,772.6300048828125,768.27001953125,1593100,768.27001953125
2016-11-23,768.2830200195312,755.25,767.72998046875,760.989990234375,1477400,760.989990234375
2016-11-25,765.0,760.52001953125,764.260009765625,761.6799926757812,587400,761.6799926757812
2016-11-28,779.530029296875,759.7999877929688,760.0,768.239990234375,2188200,768.239990234375
2016-11-29,778.5,768.239990234375,771.530029296875,770.8400268554688,1616600,770.8400268554688
2016-11-30,772.989990234375,754.8300170898438,770.0700073242188,758.0399780273438,2392900,758.0399780273438
2016-12-01,759.8499755859375,737.0250244140625,757.4400024414062,747.9199829101562,3017900,747.9199829101562
2016-12-02,754.0,743.0999755859375,744.5900268554688,750.5,1452500,750.5
2016-12-05,763.9000244140625,752.9000244140625,757.7100219726562,762.52001953125,1394200,762.52001953125
2016-12-06,768.8300170898438,757.3400268554688,764.72998046875,759.1099853515625,1690700,759.1099853515625
2016-12-07,771.3599853515625,755.7999877929688,761.0,771.1900024414062,1761000,771.1900024414062
2016-12-08,778.1799926757812,767.22998046875,772.47998046875,776.4199829101562,1488100,776.4199829101562
2016-12-09,789.4299926757812,779.02099609375,780.0,789.2899780273438,1821900,789.2899780273438
2016-12-12,791.25,784.35498046875,785.0399780273438,789.27001953125,2104100,789.27001953125
2016-12-13,804.3800048828125,793.3400268554688,793.9000244140625,796.0999755859375,2145200,796.0999755859375
2016-12-14,804.0,794.010009765625,797.4000244140625,797.0700073242188,1704200,797.0700073242188
2016-12-15,803.0,792.9199829101562,797.3400268554688,797.8499755859375,1626500,797.8499755859375
2016-12-16,800.8560180664062,790.2899780273438,800.4000244140625,790.7999877929688,2428300,790.7999877929688
2016-12-19,797.6599731445312,786.27001953125,790.219970703125,794.2000122070312,1232100,794.2000122070312
2016-12-20,798.6500244140625,793.27001953125,796.760009765625,796.4199829101562,951000,796.4199829101562
2016-12-21,796.676025390625,787.0999755859375,795.8400268554688,794.5599975585938,1211300,794.5599975585938
2016-12-22,793.3200073242188,788.5800170898438,792.3599853515625,791.260009765625,972200,791.260009765625
2016-12-23,792.739990234375,787.280029296875,790.9000244140625,789.9099731445312,623400,789.9099731445312
2016-12-27,797.8599853515625,787.656982421875,790.6799926757812,791.5499877929688,789100,791.5499877929688
2016-12-28,794.22998046875,783.2000122070312,793.7000122070312,785.0499877929688,1153800,785.0499877929688
2016-12-29,785.9299926757812,778.9199829101562,783.3300170898438,782.7899780273438,742200,782.7899780273438
2016-12-30,782.780029296875,770.4099731445312,782.75,771.8200073242188,1770000,771.8200073242188
2017-01-03,789.6300048828125,775.7999877929688,778.8099975585938,786.1400146484375,1657300,786.1400146484375
2017-01-04,791.3400268554688,783.1599731445312,788.3599853515625,786.9000244140625,1073000,786.9000244140625
2017-01-05,794.47998046875,785.02001953125,786.0800170898438,794.02001953125,1335200,794.02001953125
2017-01-06,807.9000244140625,792.2039794921875,795.260009765625,806.1500244140625,1640200,806.1500244140625
2017-01-09,809.9660034179688,802.8300170898438,806.4000244140625,806.6500244140625,1272400,806.6500244140625
2017-01-10,809.1300048828125,803.510009765625,807.8599853515625,804.7899780273438,1176800,804.7899780273438
2017-01-11,808.1500244140625,801.3699951171875,805.0,807.9099731445312,1065900,807.9099731445312
2017-01-12,807.3900146484375,799.1699829101562,807.1400146484375,806.3599853515625,1353100,806.3599853515625
2017-01-13,811.2239990234375,806.6900024414062,807.47998046875,807.8800048828125,1099200,807.8800048828125
2017-01-17,807.1400146484375,800.3699951171875,807.0800170898438,804.6099853515625,1355800,804.6099853515625
2017-01-18,806.2050170898438,800.989990234375,805.8099975585938,806.0700073242188,1294400,806.0700073242188
2017-01-19,809.47998046875,801.7999877929688,805.1199951171875,802.1749877929688,919300,802.1749877929688
2017-01-20,806.9099731445312,801.6900024414062,806.9099731445312,805.02001953125,1670000,805.02001953125
2017-01-23,820.8699951171875,803.739990234375,807.25,819.3099975585938,1963600,819.3099975585938
2017-01-24,825.9000244140625,817.8209838867188,822.2999877929688,823.8699951171875,1474000,823.8699951171875
2017-01-25,835.77001953125,825.0599975585938,829.6199951171875,835.6699829101562,1494500,835.6699829101562
2017-01-26,838.0,827.010009765625,837.8099975585938,832.1500244140625,2973900,832.1500244140625
2017-01-27,841.9500122070312,820.4400024414062,834.7100219726562,823.3099975585938,2965800,823.3099975585938
2017-01-30,815.8400268554688,799.7999877929688,814.6599731445312,802.3200073242188,3246600,802.3200073242188
2017-01-31,801.25,790.52001953125,796.8599853515625,796.7899780273438,2160600,796.7899780273438
2017-02-01,801.1900024414062,791.1900024414062,799.6799926757812,795.6950073242188,2029700,795.6950073242188
2017-02-02,802.7000122070312,792.0,793.7999877929688,798.530029296875,1532100,798.530029296875
2017-02-03,806.0,800.3699951171875,802.989990234375,801.489990234375,1463400,801.489990234375
2017-02-06,801.6699829101562,795.25,799.7000122070312,801.3400268554688,1184500,801.3400268554688
2017-02-07,810.5,801.780029296875,803.989990234375,806.969970703125,1241200,806.969970703125
2017-02-08,811.8400268554688,803.1900024414062,807.0,808.3800048828125,1155300,808.3800048828125
2017-02-09,810.6599731445312,804.5399780273438,809.510009765625,809.5599975585938,989700,809.5599975585938
2017-02-10,815.25,809.780029296875,811.7000122070312,813.6699829101562,1135000,813.6699829101562
2017-02-13,820.958984375,815.489990234375,816.0,819.239990234375,1213300,819.239990234375
2017-02-14,823.0,816.0,819.0,820.4500122070312,1053600,820.4500122070312
2017-02-15,823.0,818.469970703125,819.3599853515625,818.97998046875,1313600,818.97998046875
2017-02-16,824.4000244140625,818.97998046875,819.9299926757812,824.1599731445312,1287600,824.1599731445312
2017-02-17,828.0700073242188,821.655029296875,823.02001953125,828.0700073242188,1611000,828.0700073242188
2017-02-21,833.4500122070312,828.3499755859375,828.6599731445312,831.6599731445312,1262300,831.6599731445312
2017-02-22,833.25,828.6400146484375,828.6599731445312,830.760009765625,982900,830.760009765625
2017-02-23,832.4600219726562,822.8800048828125,830.1199951171875,831.3300170898438,1472800,831.3300170898438
2017-02-24,829.0,824.2000122070312,827.72998046875,828.6400146484375,1392200,828.6400146484375
2017-02-27,830.5,824.0,824.5499877929688,829.280029296875,1101500,829.280029296875
2017-02-28,828.5399780273438,820.2000122070312,825.6099853515625,823.2100219726562,2260800,823.2100219726562
2017-03-01,836.2550048828125,827.260009765625,828.8499755859375,835.239990234375,1496500,835.239990234375
2017-03-02,834.510009765625,829.6400146484375,833.8499755859375,830.6300048828125,942500,830.6300048828125
2017-03-03,831.3599853515625,825.7509765625,830.5599975585938,829.0800170898438,896400,829.0800170898438
2017-03-06,828.8800048828125,822.4000244140625,826.9500122070312,827.780029296875,1109000,827.780029296875
2017-03-07,833.4099731445312,826.52001953125,827.4000244140625,831.9099731445312,1037600,831.9099731445312
2017-03-08,838.1500244140625,831.7899780273438,833.510009765625,835.3699951171875,989800,835.3699951171875
2017-03-09,842.0,834.2100219726562,836.0,838.6799926757812,1261500,838.6799926757812
2017-03-10,844.9099731445312,839.5,843.280029296875,843.25,1704000,843.25
2017-03-13,848.6849975585938,843.25,844.0,845.5399780273438,1223600,845.5399780273438
2017-03-14,847.239990234375,840.7999877929688,843.6400146484375,845.6199951171875,779900,845.6199951171875
2017-03-15,848.6300048828125,840.77001953125,847.5900268554688,847.2000122070312,1381500,847.2000122070312
2017-03-16,850.8499755859375,846.1300048828125,849.030029296875,848.780029296875,977600,848.780029296875
2017-03-17,853.4000244140625,847.1099853515625,851.6099853515625,852.1199951171875,1712300,852.1199951171875
2017-03-20,850.219970703125,845.1500244140625,850.010009765625,848.4000244140625,1231500,848.4000244140625
2017-03-21,853.5,829.02001953125,851.4000244140625,830.4600219726562,2463500,830.4600219726562
2017-03-22,835.5499877929688,827.1799926757812,831.9099731445312,829.5900268554688,1401500,829.5900268554688
2017-03-23,822.5700073242188,812.2570190429688,821.0,817.5800170898438,3487100,817.5800170898438
2017-03-24,821.9299926757812,808.8900146484375,820.0800170898438,814.4299926757812,1981000,814.4299926757812
2017-03-27,821.6300048828125,803.3699951171875,806.9500122070312,819.510009765625,1894300,819.510009765625
2017-03-28,825.989990234375,814.0269775390625,820.4099731445312,820.9199829101562,1620500,820.9199829101562
2017-03-29,832.7650146484375,822.3800048828125,825.0,831.4099731445312,1786300,831.4099731445312
2017-03-30,833.6799926757812,829.0,833.5,831.5,1055300,831.5
2017-03-31,831.6400146484375,827.3900146484375,828.969970703125,829.5599975585938,1401900,829.5599975585938
2017-04-03,840.8499755859375,829.219970703125,829.219970703125,838.5499877929688,1671500,838.5499877929688
2017-04-04,835.1799926757812,829.0360107421875,831.3599853515625,834.5700073242188,1045400,834.5700073242188
2017-04-05,842.4500122070312,830.719970703125,835.510009765625,831.4099731445312,1555300,831.4099731445312
2017-04-06,836.3900146484375,826.4600219726562,832.4000244140625,827.8800048828125,1254400,827.8800048828125
2017-04-07,828.4849853515625,820.5130004882812,827.9600219726562,824.6699829101562,1057300,824.6699829101562
2017-04-10,829.3499755859375,823.77001953125,825.3900146484375,824.72998046875,978900,824.72998046875
2017-04-11,827.427001953125,817.02001953125,824.7100219726562,823.3499755859375,1079700,823.3499755859375
2017-04-12,826.6599731445312,821.02001953125,821.9299926757812,824.3200073242188,900500,824.3200073242188
2017-04-13,826.3800048828125,821.4400024414062,822.1400146484375,823.5599975585938,1122400,823.5599975585938
2017-04-17,837.75,824.469970703125,825.010009765625,837.1699829101562,895000,837.1699829101562
2017-04-18,838.9299926757812,832.7100219726562,834.219970703125,836.8200073242188,836700,836.8200073242188
2017-04-19,842.219970703125,836.2899780273438,839.7899780273438,838.2100219726562,954200,838.2100219726562
2017-04-20,845.2000122070312,839.3200073242188,841.4400024414062,841.6500244140625,959000,841.6500244140625
2017-04-21,843.8800048828125,840.5999755859375,842.8800048828125,843.1900024414062,1323600,843.1900024414062
2017-04-24,863.4500122070312,849.8599853515625,851.2000122070312,862.760009765625,1372500,862.760009765625
2017-04-25,875.0,862.8099975585938,865.0,872.2999877929688,1672000,872.2999877929688
2017-04-26,876.0499877929688,867.7479858398438,874.22998046875,871.72998046875,1237200,871.72998046875
2017-04-27,875.4000244140625,870.3800048828125,873.5999755859375,874.25,2026800,874.25
2017-04-28,916.8499755859375,905.77001953125,910.6599731445312,905.9600219726562,3219500,905.9600219726562
2017-05-01,915.6799926757812,901.4500122070312,901.9400024414062,912.5700073242188,2116000,912.5700073242188
2017-05-02,920.77001953125,909.4530029296875,909.6199951171875,916.4400024414062,1587200,916.4400024414062
2017-05-03,928.0999755859375,912.5430297851562,914.8599853515625,927.0399780273438,1499500,927.0399780273438
2017-05-04,935.9299926757812,924.5900268554688,926.0700073242188,931.6599731445312,1422100,931.6599731445312
2017-05-05,934.9000244140625,925.2000122070312,933.5399780273438,927.1300048828125,1911300,927.1300048828125
2017-05-08,936.9249877929688,925.260009765625,926.1199951171875,934.2999877929688,1329800,934.2999877929688
2017-05-09,937.5,929.530029296875,936.9500122070312,932.1699829101562,1581800,932.1699829101562
2017-05-10,932.0,925.1599731445312,931.97998046875,928.780029296875,1173900,928.780029296875
2017-05-11,932.530029296875,923.030029296875,925.3200073242188,930.5999755859375,835000,930.5999755859375
2017-05-12,933.4400024414062,927.8499755859375,931.530029296875,932.219970703125,1050600,932.219970703125
2017-05-15,938.25,929.3400268554688,932.9500122070312,937.0800170898438,1108100,937.0800170898438
2017-05-16,943.1099853515625,937.5800170898438,940.0,943.0,969500,943.0
2017-05-17,939.3330078125,918.1400146484375,935.6699829101562,919.6199951171875,2362100,919.6199951171875
2017-05-18,933.1699829101562,918.75,921.0,930.239990234375,1596900,930.239990234375
2017-05-19,937.7550048828125,931.0,931.469970703125,934.010009765625,1393000,934.010009765625
2017-05-22,941.8829956054688,935.0,935.0,941.8599853515625,1120400,941.8599853515625
2017-05-23,951.4669799804688,942.5750122070312,947.9199829101562,948.8200073242188,1270800,948.8200073242188
2017-05-24,955.0900268554688,949.5,952.97998046875,954.9600219726562,1024800,954.9600219726562
2017-05-25,972.6290283203125,955.469970703125,957.3300170898438,969.5399780273438,1660500,969.5399780273438
2017-05-26,974.97998046875,965.030029296875,969.7000122070312,971.469970703125,1252000,971.469970703125
2017-05-30,976.2000122070312,969.489990234375,970.3099975585938,975.8800048828125,1466700,975.8800048828125
2017-05-31,979.27001953125,960.1799926757812,975.02001953125,964.8599853515625,2448100,964.8599853515625
2017-06-01,971.5,960.010009765625,968.9500122070312,966.9500122070312,1410500,966.9500122070312
2017-06-02,975.8800048828125,966.0,969.4600219726562,975.5999755859375,1751000,975.5999755859375
2017-06-05,986.9099731445312,975.0999755859375,976.5499877929688,983.6799926757812,1252100,983.6799926757812
2017-06-06,988.25,975.1400146484375,983.1599731445312,976.5700073242188,1814600,976.5700073242188
2017-06-07,983.97998046875,975.9400024414062,980.0,980.9400024414062,1453900,980.9400024414062
2017-06-08,984.5700073242188,977.2000122070312,982.3499755859375,983.4099731445312,1471500,983.4099731445312
2017-06-09,984.5,935.6300048828125,984.5,949.8300170898438,3309400,949.8300170898438
2017-06-12,949.35498046875,915.2329711914062,939.5599975585938,942.9000244140625,3763500,942.9000244140625
2017-06-13,959.97998046875,944.0900268554688,951.9099731445312,953.4000244140625,2013300,953.4000244140625
2017-06-14,961.1500244140625,942.25,959.9199829101562,950.760009765625,1489700,950.760009765625
2017-06-15,943.3389892578125,924.4400024414062,933.969970703125,942.3099975585938,2133100,942.3099975585938
2017-06-16,942.0399780273438,931.594970703125,940.0,939.780029296875,3094700,939.780029296875
2017-06-19,959.989990234375,949.0499877929688,949.9600219726562,957.3699951171875,1533300,957.3699951171875
2017-06-20,961.6199951171875,950.010009765625,957.52001953125,950.6300048828125,1126000,950.6300048828125
2017-06-21,960.0999755859375,950.760009765625,953.6400146484375,959.4500122070312,1202200,959.4500122070312
2017-06-22,960.719970703125,954.5499877929688,958.7000122070312,957.0900268554688,941400,957.0900268554688
2017-06-23,966.0,954.2000122070312,956.8300170898438,965.5900268554688,1527900,965.5900268554688
2017-06-26,973.3099975585938,950.7899780273438,969.9000244140625,952.27001953125,1598400,952.27001953125
2017-06-27,948.2899780273438,926.8499755859375,942.4600219726562,927.3300170898438,2579900,927.3300170898438
2017-06-28,942.75,916.0,929.0,940.489990234375,2721400,940.489990234375
2017-06-29,931.260009765625,910.6199951171875,929.9199829101562,917.7899780273438,3299200,917.7899780273438
2017-06-30,926.0499877929688,908.3099975585938,926.0499877929688,908.72998046875,2090200,908.72998046875
2017-07-03,913.9400024414062,894.7899780273438,912.1799926757812,898.7000122070312,1709800,898.7000122070312
2017-07-05,914.510009765625,898.5,901.760009765625,911.7100219726562,1813900,911.7100219726562
2017-07-06,914.9439697265625,899.7000122070312,904.1199951171875,906.6900024414062,1424500,906.6900024414062
2017-07-07,921.5399780273438,908.8499755859375,908.8499755859375,918.5900268554688,1637800,918.5900268554688
2017-07-10,930.3800048828125,919.5900268554688,921.77001953125,928.7999877929688,1192800,928.7999877929688
2017-07-11,931.4299926757812,922.0,929.5399780273438,930.0900268554688,1113200,930.0900268554688
2017-07-12,946.2999877929688,934.469970703125,938.6799926757812,943.8300170898438,1532100,943.8300170898438
2017-07-13,954.4500122070312,943.010009765625,946.2899780273438,947.1599731445312,1294700,947.1599731445312
2017-07-14,956.9099731445312,948.0050048828125,952.0,955.989990234375,1053800,955.989990234375
2017-07-17,960.739990234375,949.2410278320312,957.0,953.4199829101562,1165500,953.4199829101562
2017-07-18,968.0399780273438,950.5999755859375,953.0,965.4000244140625,1154000,965.4000244140625
2017-07-19,973.0399780273438,964.030029296875,967.8400268554688,970.8900146484375,1224500,970.8900146484375
2017-07-20,975.9000244140625,961.510009765625,975.0,968.1500244140625,1624500,968.1500244140625
2017-07-21,973.22998046875,960.1500244140625,962.25,972.9199829101562,1711000,972.9199829101562
2017-07-24,986.2000122070312,970.77001953125,972.219970703125,980.3400268554688,3248300,980.3400268554688
2017-07-25,959.7000122070312,945.4000244140625,953.8099975585938,950.7000122070312,4661000,950.7000122070312
2017-07-26,955.0,942.2789916992188,954.6799926757812,947.7999877929688,2088300,947.7999877929688
2017-07-27,951.780029296875,920.0,951.780029296875,934.0900268554688,3213000,934.0900268554688
2017-07-28,943.8300170898438,927.5,929.4000244140625,941.530029296875,1846400,941.530029296875
2017-07-31,943.5900268554688,926.0399780273438,941.8900146484375,930.5,1970100,930.5
2017-08-01,937.447021484375,929.260009765625,932.3800048828125,930.8300170898438,1277700,930.8300170898438
2017-08-02,932.5999755859375,916.6799926757812,928.6099853515625,930.3900146484375,1824400,930.3900146484375
2017-08-03,932.239990234375,922.239990234375,930.3400268554688,923.6500244140625,1202500,923.6500244140625
2017-08-04,930.3070068359375,923.030029296875,926.75,927.9600219726562,1082300,927.9600219726562
2017-08-07,931.7000122070312,926.5,929.0599975585938,929.3599853515625,1032200,929.3599853515625
2017-08-08,935.8140258789062,925.6099853515625,927.0900268554688,926.7899780273438,1061600,926.7899780273438
2017-08-09,925.97998046875,917.25,920.6099853515625,922.9000244140625,1192100,922.9000244140625
2017-08-10,919.260009765625,906.1300048828125,917.5499877929688,907.239990234375,1824000,907.239990234375
2017-08-11,917.780029296875,905.5800170898438,907.969970703125,914.3900146484375,1206800,914.3900146484375
2017-08-14,924.6680297851562,918.1900024414062,922.530029296875,922.6699829101562,1064500,922.6699829101562
2017-08-15,926.5499877929688,919.8200073242188,924.22998046875,922.219970703125,883400,922.219970703125
2017-08-16,932.7000122070312,923.4450073242188,925.2899780273438,926.9600219726562,1006700,926.9600219726562
2017-08-17,926.8599853515625,910.97998046875,925.780029296875,910.97998046875,1277200,910.97998046875
2017-08-18,915.2750244140625,907.1539916992188,910.3099975585938,910.6699829101562,1342700,910.6699829101562
2017-08-21,913.0,903.4000244140625,910.0,906.6599731445312,943400,906.6599731445312
2017-08-22,925.8599853515625,911.4749755859375,912.719970703125,924.6900024414062,1166700,924.6900024414062
2017-08-23,929.9299926757812,919.3599853515625,921.9299926757812,927.0,1090200,927.0
2017-08-24,930.8400268554688,915.5,928.6599731445312,921.280029296875,1270300,921.280029296875
2017-08-25,925.5549926757812,915.5,923.489990234375,915.8900146484375,1053400,915.8900146484375
2017-08-28,919.2449951171875,911.8699951171875,916.0,913.8099975585938,1086500,913.8099975585938
2017-08-29,923.3300170898438,905.0,905.0999755859375,921.2899780273438,1185600,921.2899780273438
2017-08-30,930.8189697265625,919.6500244140625,920.0499877929688,929.5700073242188,1301200,929.5700073242188
2017-08-31,941.97998046875,931.760009765625,931.760009765625,939.3300170898438,1582600,939.3300170898438
2017-09-01,942.47998046875,935.1500244140625,941.1300048828125,937.3400268554688,947400,937.3400268554688
2017-09-05,937.0,921.9600219726562,933.0800170898438,928.4500122070312,1326400,928.4500122070312
2017-09-06,930.9149780273438,919.27001953125,930.1500244140625,927.8099975585938,1527700,927.8099975585938
2017-09-07,936.4099731445312,923.6199951171875,931.72998046875,935.9500122070312,1212700,935.9500122070312
2017-09-08,936.989990234375,924.8800048828125,936.489990234375,926.5,1011500,926.5
2017-09-11,938.3800048828125,926.9199829101562,934.25,929.0800170898438,1267000,929.0800170898438
2017-09-12,933.47998046875,923.8610229492188,932.5900268554688,932.0700073242188,1134400,932.0700073242188
2017-09-13,937.25,929.8599853515625,930.6599731445312,935.0900268554688,1102600,935.0900268554688
2017-09-14,932.77001953125,924.0,931.25,925.1099853515625,1397600,925.1099853515625
2017-09-15,926.489990234375,916.3599853515625,924.6599731445312,920.2899780273438,2505400,920.2899780273438
2017-09-18,922.0800170898438,910.5999755859375,920.010009765625,915.0,1306900,915.0
2017-09-19,922.4199829101562,912.5499877929688,917.4199829101562,921.8099975585938,936700,921.8099975585938
2017-09-20,933.8800048828125,922.0,922.97998046875,931.5800170898438,1669800,931.5800170898438
2017-09-21,936.530029296875,923.8300170898438,933.0,932.4500122070312,1290600,932.4500122070312
2017-09-22,934.72998046875,926.47998046875,927.75,928.530029296875,1052700,928.530029296875
2017-09-25,926.4000244140625,909.7000122070312,925.4500122070312,920.969970703125,1856800,920.969970703125
2017-09-26,930.8200073242188,921.1400146484375,923.719970703125,924.8599853515625,1666900,924.8599853515625
2017-09-27,949.9000244140625,927.739990234375,927.739990234375,944.489990234375,2239400,944.489990234375
2017-09-28,950.6900024414062,940.5499877929688,941.3599853515625,949.5,1020300,949.5
2017-09-29,959.7860107421875,951.510009765625,952.0,959.1099853515625,1581000,959.1099853515625
2017-10-02,962.5399780273438,947.8400268554688,959.97998046875,953.27001953125,1283400,953.27001953125
2017-10-03,958.0,949.1400146484375,954.0,957.7899780273438,888300,957.7899780273438
2017-10-04,960.3900146484375,950.6900024414062,957.0,951.6799926757812,952400,951.6799926757812
2017-10-05,970.9099731445312,955.1799926757812,955.489990234375,969.9600219726562,1213800,969.9600219726562
2017-10-06,979.4600219726562,963.3599853515625,966.7000122070312,978.8900146484375,1173900,978.8900146484375
2017-10-09,985.4249877929688,976.1099853515625,980.0,977.0,891400,977.0
2017-10-10,981.5700073242188,966.0800170898438,980.0,972.5999755859375,968400,972.5999755859375
2017-10-11,990.7100219726562,972.25,973.719970703125,989.25,1693300,989.25
2017-10-12,994.1199951171875,985.0,987.4500122070312,987.8300170898438,1262400,987.8300170898438
2017-10-13,997.2100219726562,989.0,992.0,989.6799926757812,1169800,989.6799926757812
2017-10-16,993.906982421875,984.0,992.0999755859375,992.0,910500,992.0
2017-10-17,996.4400024414062,988.5900268554688,990.2899780273438,992.1799926757812,1290200,992.1799926757812
2017-10-18,996.719970703125,986.9749755859375,991.77001953125,992.8099975585938,1057600,992.8099975585938
2017-10-19,988.8800048828125,978.3900146484375,986.0,984.4500122070312,1313600,984.4500122070312
2017-10-20,991.0,984.5800170898438,989.4400024414062,988.2000122070312,1183200,988.2000122070312
2017-10-23,989.52001953125,966.1199951171875,989.52001953125,968.4500122070312,1478400,968.4500122070312
2017-10-24,972.22998046875,961.0,970.0,970.5399780273438,1212200,970.5399780273438
2017-10-25,976.0900268554688,960.52001953125,968.3699951171875,973.3300170898438,1211300,973.3300170898438
2017-10-26,987.5999755859375,972.2000122070312,980.0,972.5599975585938,2042100,972.5599975585938
2017-10-27,1048.3900146484375,1008.2000122070312,1009.1900024414062,1019.27001953125,5167700,1019.27001953125
2017-10-30,1024.969970703125,1007.5,1014.0,1017.1099853515625,2085100,1017.1099853515625
2017-10-31,1024.0,1010.4199829101562,1015.219970703125,1016.6400146484375,1330700,1016.6400146484375
2017-11-01,1029.6700439453125,1016.9500122070312,1017.2100219726562,1025.5,1373400,1025.5
2017-11-02,1028.0899658203125,1013.010009765625,1021.760009765625,1025.5799560546875,1049000,1025.5799560546875
2017-11-03,1032.6500244140625,1020.3099975585938,1022.1099853515625,1032.47998046875,1076400,1032.47998046875
2017-11-06,1034.8699951171875,1025.0,1028.989990234375,1025.9000244140625,1123500,1025.9000244140625
2017-11-07,1033.969970703125,1025.1300048828125,1027.27001953125,1033.3299560546875,1112300,1033.3299560546875
2017-11-08,1043.52197265625,1028.449951171875,1030.52001953125,1039.8499755859375,1088700,1039.8499755859375
2017-11-09,1033.989990234375,1019.666015625,1033.989990234375,1031.260009765625,1245200,1031.260009765625
2017-11-10,1030.760009765625,1025.280029296875,1026.4599609375,1028.0699462890625,720000,1028.0699462890625
2017-11-13,1031.5799560546875,1022.5700073242188,1023.4199829101562,1025.75,885800,1025.75
2017-11-14,1026.81005859375,1014.1500244140625,1022.5900268554688,1026.0,959200,1026.0
2017-11-15,1024.0899658203125,1015.4199829101562,1019.2100219726562,1020.9099731445312,854000,1020.9099731445312
2017-11-16,1035.9200439453125,1022.52001953125,1022.52001953125,1032.5,1129700,1032.5
2017-11-17,1034.4200439453125,1017.75,1034.010009765625,1019.0900268554688,1397100,1019.0900268554688
2017-11-20,1022.6099853515625,1017.5,1020.260009765625,1018.3800048828125,953500,1018.3800048828125
2017-11-21,1035.1099853515625,1022.655029296875,1023.3099975585938,1034.489990234375,1097000,1034.489990234375
2017-11-22,1039.7060546875,1031.4300537109375,1035.0,1035.9599609375,746300,1035.9599609375
2017-11-24,1043.177978515625,1035.0,1035.8699951171875,1040.6099853515625,537000,1040.6099853515625
2017-11-27,1055.4599609375,1038.43994140625,1040.0,1054.2099609375,1307900,1054.2099609375
2017-11-28,1062.375,1040.0,1055.0899658203125,1047.4100341796875,1424400,1047.4100341796875
2017-11-29,1044.0799560546875,1015.6500244140625,1042.6800537109375,1021.6599731445312,2459400,1021.6599731445312
2017-11-30,1028.489990234375,1015.0,1022.3699951171875,1021.4099731445312,1724000,1021.4099731445312
2017-12-01,1022.489990234375,1002.02001953125,1015.7999877929688,1010.1699829101562,1909600,1010.1699829101562
2017-12-04,1016.0999755859375,995.5700073242188,1012.6599731445312,998.6799926757812,1906400,998.6799926757812
2017-12-05,1020.6099853515625,988.280029296875,995.9400024414062,1005.1500244140625,2067300,1005.1500244140625
2017-12-06,1024.969970703125,1001.1400146484375,1001.5,1018.3800048828125,1272000,1018.3800048828125
2017-12-07,1034.239990234375,1018.0709838867188,1020.4299926757812,1030.9300537109375,1458200,1030.9300537109375
2017-12-08,1042.050048828125,1032.52197265625,1037.489990234375,1037.050048828125,1290800,1037.050048828125
2017-12-11,1043.800048828125,1032.050048828125,1035.5,1041.0999755859375,1192800,1041.0999755859375
2017-12-12,1050.31005859375,1033.68994140625,1039.6300048828125,1040.47998046875,1279500,1040.47998046875
2017-12-13,1046.6650390625,1038.3800048828125,1046.1199951171875,1040.6099853515625,1282700,1040.6099853515625
2017-12-14,1058.5,1043.1099853515625,1045.0,1049.1500244140625,1558700,1049.1500244140625
2017-12-15,1067.6199951171875,1049.5,1054.6099853515625,1064.18994140625,3275900,1064.18994140625
2017-12-18,1078.489990234375,1062.0,1066.0799560546875,1077.1400146484375,1554600,1077.1400146484375
2017-12-19,1076.8399658203125,1063.550048828125,1075.199951171875,1070.6800537109375,1338700,1070.6800537109375
2017-12-20,1073.3800048828125,1061.52001953125,1071.780029296875,1064.949951171875,1268600,1064.949951171875
2017-12-21,1069.3299560546875,1061.7939453125,1064.949951171875,1063.6300048828125,995700,1063.6300048828125
2017-12-22,1064.199951171875,1059.43994140625,1061.1099853515625,1060.1199951171875,755100,1060.1199951171875
2017-12-26,1060.1199951171875,1050.199951171875,1058.0699462890625,1056.739990234375,760600,1056.739990234375
2017-12-27,1058.3699951171875,1048.050048828125,1057.3900146484375,1049.3699951171875,1271900,1049.3699951171875
2017-12-28,1054.75,1044.77001953125,1051.5999755859375,1048.1400146484375,837100,1048.1400146484375
2017-12-29,1049.699951171875,1044.9000244140625,1046.719970703125,1046.4000244140625,887500,1046.4000244140625
2018-01-02,1066.93994140625,1045.22998046875,1048.3399658203125,1065.0,1237600,1065.0
2018-01-03,1086.2900390625,1063.2099609375,1064.31005859375,1082.47998046875,1430200,1082.47998046875
2018-01-04,1093.5699462890625,1084.001953125,1088.0,1086.4000244140625,1004600,1086.4000244140625
2018-01-05,1104.25,1092.0,1094.0,1102.22998046875,1279100,1102.22998046875
2018-01-08,1111.27001953125,1101.6199951171875,1102.22998046875,1106.93994140625,1047600,1106.93994140625
2018-01-09,1110.5699462890625,1101.23095703125,1109.4000244140625,1106.260009765625,902500,1106.260009765625
2018-01-10,1104.5999755859375,1096.1099853515625,1097.0999755859375,1102.6099853515625,1042800,1102.6099853515625
2018-01-11,1106.5250244140625,1099.5899658203125,1106.300048828125,1105.52001953125,978300,1105.52001953125
2018-01-12,1124.2900390625,1101.1500244140625,1102.4100341796875,1122.260009765625,1720500,1122.260009765625
2018-01-16,1139.9100341796875,1117.83203125,1132.510009765625,1121.760009765625,1575300,1121.760009765625
2018-01-17,1132.5999755859375,1117.010009765625,1126.219970703125,1131.97998046875,1198700,1131.97998046875
2018-01-18,1132.510009765625,1117.5,1131.4100341796875,1129.7900390625,1198200,1129.7900390625
2018-01-19,1137.8599853515625,1128.300048828125,1131.8299560546875,1137.510009765625,1778200,1137.510009765625
2018-01-22,1159.8800048828125,1135.1099853515625,1137.489990234375,1155.81005859375,1618000,1155.81005859375
2018-01-23,1171.626953125,1158.75,1159.8499755859375,1169.969970703125,1333100,1169.969970703125
2018-01-24,1179.8599853515625,1161.050048828125,1177.3299560546875,1164.239990234375,1416600,1164.239990234375
2018-01-25,1175.93994140625,1162.760009765625,1172.530029296875,1170.3699951171875,1480500,1170.3699951171875
2018-01-26,1175.8399658203125,1158.1099853515625,1175.0799560546875,1175.8399658203125,2018800,1175.8399658203125
2018-01-29,1186.8900146484375,1171.97998046875,1176.47998046875,1175.5799560546875,1378900,1175.5799560546875
2018-01-30,1176.52001953125,1163.52001953125,1167.8299560546875,1163.68994140625,1556300,1163.68994140625
2018-01-31,1173.0,1159.1300048828125,1170.5699462890625,1169.93994140625,1538700,1169.93994140625
2018-02-01,1174.0,1157.52001953125,1162.6099853515625,1167.699951171875,2412100,1167.699951171875
2018-02-02,1123.0699462890625,1107.2779541015625,1122.0,1111.9000244140625,4857900,1111.9000244140625
2018-02-05,1110.0,1052.030029296875,1090.5999755859375,1055.800048828125,3798300,1055.800048828125
2018-02-06,1081.7099609375,1023.1370239257812,1027.1800537109375,1080.5999755859375,3448000,1080.5999755859375
2018-02-07,1081.780029296875,1048.260009765625,1081.5400390625,1048.5799560546875,2369200,1048.5799560546875
2018-02-08,1058.6199951171875,1000.6599731445312,1055.4100341796875,1001.52001953125,2859100,1001.52001953125
2018-02-09,1043.969970703125,992.5599975585938,1017.25,1037.780029296875,3505900,1037.780029296875
2018-02-12,1061.5,1040.927978515625,1048.0,1051.93994140625,2057700,1051.93994140625
2018-02-13,1058.3699951171875,1044.0870361328125,1045.0,1052.0999755859375,1265100,1052.0999755859375
2018-02-14,1071.719970703125,1046.75,1048.949951171875,1069.699951171875,1555800,1069.699951171875
2018-02-15,1091.47900390625,1064.3399658203125,1079.0699462890625,1089.52001953125,1843400,1089.52001953125
2018-02-16,1104.6700439453125,1088.31298828125,1088.4100341796875,1094.800048828125,1681600,1094.800048828125
2018-02-20,1113.949951171875,1088.52001953125,1090.5699462890625,1102.4599609375,1423100,1102.4599609375
2018-02-21,1133.969970703125,1106.3299560546875,1106.469970703125,1111.3399658203125,1512900,1111.3399658203125
2018-02-22,1122.8199462890625,1102.5899658203125,1116.18994140625,1106.6300048828125,1317200,1106.6300048828125
2018-02-23,1127.280029296875,1104.7139892578125,1112.6400146484375,1126.7900390625,1261000,1126.7900390625
2018-02-26,1143.9599609375,1126.6949462890625,1127.800048828125,1143.75,1559100,1143.75
2018-02-27,1144.0400390625,1118.0,1141.239990234375,1118.2900390625,1774100,1118.2900390625
2018-02-28,1127.530029296875,1103.239990234375,1123.030029296875,1104.72998046875,1882600,1104.72998046875
2018-03-01,1110.1199951171875,1067.0009765625,1107.8699951171875,1069.52001953125,2515900,1069.52001953125
2018-03-02,1081.9990234375,1048.114990234375,1053.0799560546875,1078.9200439453125,2271600,1078.9200439453125
2018-03-05,1097.0999755859375,1069.0,1075.1400146484375,1090.9300537109375,1202200,1090.9300537109375
2018-03-06,1101.8499755859375,1089.7750244140625,1099.219970703125,1095.06005859375,1532800,1095.06005859375
2018-03-07,1112.219970703125,1085.4820556640625,1089.18994140625,1109.6400146484375,1292500,1109.6400146484375
2018-03-08,1127.5999755859375,1112.800048828125,1115.3199462890625,1126.0,1355100,1126.0
2018-03-09,1160.800048828125,1132.4610595703125,1136.0,1160.0400390625,2128000,1160.0400390625
2018-03-12,1177.050048828125,1157.4200439453125,1163.8499755859375,1164.5,2172300,1164.5
2018-03-13,1176.760009765625,1133.3299560546875,1170.0,1138.1700439453125,1907200,1138.1700439453125
2018-03-14,1158.5899658203125,1141.43994140625,1145.2099609375,1149.489990234375,1291400,1149.489990234375
2018-03-15,1161.0799560546875,1134.5400390625,1149.9599609375,1149.5799560546875,1395400,1149.5799560546875
2018-03-16,1155.8800048828125,1131.9599609375,1154.1400146484375,1135.72998046875,3092000,1135.72998046875
2018-03-19,1121.989990234375,1089.010009765625,1120.010009765625,1099.8199462890625,2805900,1099.8199462890625
2018-03-20,1105.199951171875,1083.4599609375,1099.0,1097.7099609375,1831900,1097.7099609375
2018-03-21,1106.300048828125,1085.1500244140625,1092.739990234375,1090.8800048828125,1878900,1090.8800048828125
2018-03-22,1082.9000244140625,1045.9100341796875,1081.8800048828125,1049.0799560546875,2667000,1049.0799560546875
2018-03-23,1063.3599853515625,1021.219970703125,1047.030029296875,1021.5700073242188,2156700,1021.5700073242188
2018-03-26,1055.6300048828125,1008.4000244140625,1046.0,1053.2099609375,2665100,1053.2099609375
2018-03-27,1064.8389892578125,996.9199829101562,1063.0,1005.0999755859375,3095300,1005.0999755859375
2018-03-28,1024.22998046875,980.6400146484375,998.0,1004.5599975585938,3369300,1004.5599975585938
2018-03-29,1043.0,1002.9000244140625,1011.6300048828125,1031.7900390625,2726800,1031.7900390625
2018-04-02,1034.800048828125,990.3699951171875,1022.8200073242188,1006.469970703125,2680400,1006.469970703125
2018-04-03,1020.989990234375,994.0700073242188,1013.9099731445312,1013.4099731445312,2275100,1013.4099731445312
2018-04-04,1028.718017578125,993.0,993.4099731445312,1025.1400146484375,2484700,1025.1400146484375
2018-04-05,1042.7900390625,1020.1309814453125,1041.3299560546875,1027.81005859375,1363000,1027.81005859375
2018-04-06,1031.4200439453125,1003.030029296875,1020.0,1007.0399780273438,1746400,1007.0399780273438
2018-04-09,1039.5999755859375,1014.0800170898438,1016.7999877929688,1015.4500122070312,1751600,1015.4500122070312
2018-04-10,1036.280029296875,1011.3400268554688,1026.43994140625,1031.6400146484375,1974500,1031.6400146484375
2018-04-11,1031.364013671875,1015.8699951171875,1027.989990234375,1019.969970703125,1483900,1019.969970703125
2018-04-12,1040.68994140625,1021.4349975585938,1025.0400390625,1032.510009765625,1357000,1032.510009765625
2018-04-13,1046.4200439453125,1022.97998046875,1040.8800048828125,1029.27001953125,1223000,1029.27001953125
2018-04-16,1043.239990234375,1026.739990234375,1037.0,1037.97998046875,1211200,1037.97998046875
2018-04-17,1077.8800048828125,1048.260009765625,1051.3699951171875,1074.1600341796875,2320300,1074.1600341796875
2018-04-18,1077.4300537109375,1066.2249755859375,1077.4300537109375,1072.0799560546875,1344100,1072.0799560546875
2018-04-19,1094.1650390625,1068.1800537109375,1069.4000244140625,1087.699951171875,1747700,1087.699951171875
2018-04-20,1092.3499755859375,1069.5699462890625,1082.0,1072.9599609375,1889700,1072.9599609375
2018-04-23,1082.719970703125,1060.699951171875,1077.8599853515625,1067.449951171875,2341300,1067.449951171875
2018-04-24,1057.0,1010.5900268554688,1052.0,1019.97998046875,4760300,1019.97998046875
2018-04-25,1032.489990234375,1015.3099975585938,1025.52001953125,1021.1799926757812,2391100,1021.1799926757812
2018-04-26,1047.97998046875,1018.1900024414062,1029.510009765625,1040.0400390625,2079500,1040.0400390625
2018-04-27,1049.5,1025.5899658203125,1046.0,1030.050048828125,1619800,1030.050048828125
2018-04-30,1037.0,1016.8499755859375,1030.010009765625,1017.3300170898438,1671300,1017.3300170898438
2018-05-01,1038.469970703125,1008.2100219726562,1013.6599731445312,1037.31005859375,1427900,1037.31005859375
2018-05-02,1040.3890380859375,1022.8699951171875,1028.0999755859375,1024.3800048828125,1603100,1024.3800048828125
2018-05-03,1029.675048828125,1006.2899780273438,1019.0,1023.719970703125,1815100,1023.719970703125
2018-05-04,1048.510009765625,1016.9000244140625,1016.9000244140625,1048.2099609375,1938700,1048.2099609375
2018-05-07,1061.6800537109375,1047.0999755859375,1049.22998046875,1054.7900390625,1466100,1054.7900390625
2018-05-08,1060.550048828125,1047.14501953125,1058.5400390625,1053.9100341796875,1217700,1053.9100341796875
2018-05-09,1085.43994140625,1056.364990234375,1058.0999755859375,1082.760009765625,2032800,1082.760009765625
2018-05-10,1100.43994140625,1085.6400146484375,1086.030029296875,1097.5699462890625,1443000,1097.5699462890625
2018-05-11,1101.3299560546875,1090.9100341796875,1093.5999755859375,1098.260009765625,1253700,1098.260009765625
2018-05-14,1110.75,1099.1099853515625,1100.0,1100.199951171875,1518100,1100.199951171875
2018-05-15,1090.050048828125,1073.469970703125,1090.0,1079.22998046875,1494900,1079.22998046875
2018-05-16,1089.27001953125,1076.260009765625,1077.31005859375,1081.77001953125,1097300,1081.77001953125
2018-05-17,1086.8699951171875,1073.5,1079.8900146484375,1078.5899658203125,1043800,1078.5899658203125
2018-05-18,1069.93994140625,1060.6800537109375,1061.8599853515625,1066.3599853515625,1565200,1066.3599853515625
2018-05-21,1088.0,1073.6500244140625,1074.06005859375,1079.5799560546875,1023200,1079.5799560546875
2018-05-22,1086.5899658203125,1066.68994140625,1083.56005859375,1069.72998046875,1090000,1069.72998046875
2018-05-23,1080.780029296875,1061.7099609375,1065.1300048828125,1079.68994140625,1030000,1079.68994140625
2018-05-24,1080.469970703125,1066.1500244140625,1079.0,1079.239990234375,766800,1079.239990234375
2018-05-25,1082.56005859375,1073.7750244140625,1079.02001953125,1075.6600341796875,899400,1075.6600341796875
2018-05-29,1073.3699951171875,1055.219970703125,1064.8900146484375,1060.3199462890625,1865100,1060.3199462890625
2018-05-30,1069.2099609375,1056.8299560546875,1063.030029296875,1067.800048828125,1138500,1067.800048828125
2018-05-31,1097.18994140625,1067.56005859375,1067.56005859375,1084.989990234375,3088300,1084.989990234375
2018-06-01,1120.0,1098.5,1099.3499755859375,1119.5,2421600,1119.5
2018-06-04,1141.8900146484375,1122.0050048828125,1122.3299560546875,1139.2900390625,1889600,1139.2900390625
2018-06-05,1145.738037109375,1133.18994140625,1140.989990234375,1139.6600341796875,1678000,1139.6600341796875
2018-06-06,1143.0,1125.7430419921875,1142.1700439453125,1136.8800048828125,1698200,1136.8800048828125
2018-06-07,1135.8199462890625,1116.52001953125,1131.3199462890625,1123.8599853515625,1520000,1123.8599853515625
2018-06-08,1126.6700439453125,1112.1500244140625,1118.1800537109375,1120.8699951171875,1290800,1120.8699951171875
2018-06-11,1137.260009765625,1118.5999755859375,1118.5999755859375,1129.989990234375,1079300,1129.989990234375
2018-06-12,1139.7900390625,1130.7349853515625,1131.0699462890625,1139.3199462890625,912000,1139.3199462890625
2018-06-13,1146.5,1133.3800048828125,1141.1199951171875,1134.7900390625,1506400,1134.7900390625
2018-06-14,1155.469970703125,1140.6400146484375,1143.8499755859375,1152.1199951171875,1343400,1152.1199951171875
2018-06-15,1153.4200439453125,1143.4849853515625,1148.8599853515625,1152.260009765625,2122500,1152.260009765625
2018-06-18,1174.31005859375,1143.5899658203125,1143.6500244140625,1173.4599609375,1413700,1173.4599609375
2018-06-19,1171.27001953125,1154.010009765625,1158.5,1168.06005859375,1621000,1168.06005859375
2018-06-20,1186.2860107421875,1169.1600341796875,1175.31005859375,1169.8399658203125,1648500,1169.8399658203125
2018-06-21,1177.2950439453125,1152.2320556640625,1174.8499755859375,1157.6600341796875,1238100,1157.6600341796875
2018-06-22,1162.4969482421875,1147.260009765625,1159.1400146484375,1155.47998046875,1311000,1155.47998046875
2018-06-25,1143.9100341796875,1112.780029296875,1143.5999755859375,1124.81005859375,2157300,1124.81005859375
2018-06-26,1133.2099609375,1116.6590576171875,1128.0,1118.4599609375,1563200,1118.4599609375
2018-06-27,1131.8360595703125,1103.6199951171875,1121.3399658203125,1103.97998046875,1293900,1103.97998046875
2018-06-28,1122.31005859375,1096.010009765625,1102.0899658203125,1114.219970703125,1072400,1114.219970703125
2018-06-29,1128.22705078125,1115.0,1120.0,1115.6500244140625,1315100,1115.6500244140625
2018-07-02,1128.0,1093.800048828125,1099.0,1127.4599609375,1217300,1127.4599609375
2018-07-03,1135.8199462890625,1100.02001953125,1135.8199462890625,1102.8900146484375,679000,1102.8900146484375
2018-07-05,1127.5,1108.47998046875,1110.530029296875,1124.27001953125,1066700,1124.27001953125
2018-07-06,1140.9300537109375,1120.737060546875,1123.5799560546875,1140.1700439453125,996100,1140.1700439453125
2018-07-09,1154.6700439453125,1143.4200439453125,1148.47998046875,1154.050048828125,909000,1154.050048828125
2018-07-10,1159.5899658203125,1149.5899658203125,1156.97998046875,1152.8399658203125,798400,1152.8399658203125
2018-07-11,1164.2900390625,1141.0,1144.5899658203125,1153.9000244140625,1120000,1153.9000244140625
2018-07-12,1184.4100341796875,1155.93505859375,1159.8900146484375,1183.47998046875,1251900,1183.47998046875
2018-07-13,1195.4169921875,1180.0,1185.0,1188.8199462890625,1221900,1188.8199462890625
2018-07-16,1191.0,1179.280029296875,1189.3900146484375,1183.8599853515625,1055700,1183.8599853515625
2018-07-17,1203.0400390625,1170.5999755859375,1172.219970703125,1198.800048828125,1610400,1198.800048828125
2018-07-18,1204.5,1190.3399658203125,1196.56005859375,1195.8800048828125,1393600,1195.8800048828125
2018-07-19,1200.0,1183.3199462890625,1191.0,1186.9599609375,1276700,1186.9599609375
2018-07-20,1196.8599853515625,1184.219970703125,1186.9599609375,1184.9100341796875,1247400,1184.9100341796875
2018-07-23,1206.489990234375,1181.0,1181.010009765625,1205.5,2619200,1205.5
2018-07-24,1266.0,1235.56005859375,1262.5899658203125,1248.0799560546875,3318200,1248.0799560546875
2018-07-25,1265.8599853515625,1239.1300048828125,1239.1300048828125,1263.699951171875,2127800,1263.699951171875
2018-07-26,1269.77099609375,1249.02001953125,1251.0,1268.3299560546875,2405600,1268.3299560546875
2018-07-27,1273.8900146484375,1231.0,1271.0,1238.5,2130600,1238.5
2018-07-30,1234.916015625,1211.469970703125,1228.010009765625,1219.739990234375,1849900,1219.739990234375
2018-07-31,1227.5880126953125,1205.5999755859375,1220.010009765625,1217.260009765625,1644700,1217.260009765625
2018-08-01,1233.469970703125,1210.2099609375,1228.0,1220.010009765625,1567200,1220.010009765625
2018-08-02,1229.8800048828125,1204.7900390625,1205.9000244140625,1226.1500244140625,1531300,1226.1500244140625
2018-08-03,1230.0,1215.06005859375,1229.6199951171875,1223.7099609375,1089600,1223.7099609375
2018-08-06,1226.0880126953125,1215.7969970703125,1225.0,1224.77001953125,1081700,1224.77001953125
2018-08-07,1251.1700439453125,1236.1700439453125,1237.0,1242.219970703125,1494000,1242.219970703125
2018-08-08,1256.5,1238.008056640625,1240.469970703125,1245.6099853515625,1370300,1245.6099853515625
2018-08-09,1255.5419921875,1246.010009765625,1249.9000244140625,1249.0999755859375,841800,1249.0999755859375
2018-08-10,1245.6949462890625,1232.0,1243.0,1237.6099853515625,1108700,1237.6099853515625
2018-08-13,1249.27294921875,1233.6409912109375,1236.97998046875,1235.010009765625,958100,1235.010009765625
2018-08-14,1245.8699951171875,1225.1099853515625,1235.18994140625,1242.0999755859375,1348100,1242.0999755859375
2018-08-15,1235.239990234375,1209.510009765625,1229.260009765625,1214.3800048828125,1828800,1214.3800048828125
2018-08-16,1226.0,1202.550048828125,1224.72998046875,1206.489990234375,1343200,1206.489990234375
2018-08-17,1209.02001953125,1188.239990234375,1202.030029296875,1200.9599609375,1389600,1200.9599609375
2018-08-20,1211.0,1194.6259765625,1205.02001953125,1207.77001953125,870800,1207.77001953125
2018-08-21,1217.260009765625,1200.35400390625,1208.0,1201.6199951171875,1205600,1201.6199951171875
2018-08-22,1211.8399658203125,1199.0,1200.0,1207.3299560546875,887400,1207.3299560546875
2018-08-23,1221.280029296875,1204.239990234375,1207.1400146484375,1205.3800048828125,992600,1205.3800048828125
2018-08-24,1221.6500244140625,1206.3590087890625,1208.8199462890625,1220.6500244140625,946600,1220.6500244140625
2018-08-27,1243.0899658203125,1225.7159423828125,1227.5999755859375,1241.8199462890625,1156300,1241.8199462890625
2018-08-28,1242.5450439453125,1228.68994140625,1241.2900390625,1231.1500244140625,1304000,1231.1500244140625
2018-08-29,1250.6600341796875,1236.3590087890625,1237.449951171875,1249.300048828125,1298900,1249.300048828125
2018-08-30,1253.635009765625,1232.5899658203125,1244.22998046875,1239.1199951171875,1331400,1239.1199951171875
2018-08-31,1238.6600341796875,1211.2850341796875,1234.97998046875,1218.18994140625,1816400,1218.18994140625
2018-09-04,1212.989990234375,1192.5,1204.27001953125,1197.0,1831000,1197.0
2018-09-05,1199.010009765625,1162.0,1193.800048828125,1186.47998046875,2061300,1186.47998046875
2018-09-06,1186.300048828125,1152.0,1186.300048828125,1171.43994140625,1888500,1171.43994140625
2018-09-07,1175.260009765625,1157.2149658203125,1158.6700439453125,1164.8299560546875,1401300,1164.8299560546875
2018-09-10,1174.5400390625,1160.1099853515625,1172.18994140625,1164.6400146484375,1115400,1164.6400146484375
2018-09-11,1178.6800537109375,1156.239990234375,1161.6300048828125,1177.3599853515625,1209300,1177.3599853515625
2018-09-12,1178.6099853515625,1158.3599853515625,1172.719970703125,1162.8199462890625,1295500,1162.8199462890625
2018-09-13,1178.6099853515625,1162.8499755859375,1170.739990234375,1175.3299560546875,1431200,1175.3299560546875
2018-09-14,1180.425048828125,1168.3299560546875,1179.0999755859375,1172.530029296875,944000,1172.530029296875
2018-09-17,1177.239990234375,1154.030029296875,1170.1400146484375,1156.050048828125,1306500,1156.050048828125
2018-09-18,1176.0799560546875,1157.0899658203125,1157.0899658203125,1161.219970703125,1203600,1161.219970703125
2018-09-19,1173.2099609375,1154.5799560546875,1164.97998046875,1171.0899658203125,1191400,1171.0899658203125
2018-09-20,1189.8900146484375,1173.3599853515625,1179.989990234375,1186.8699951171875,1210000,1186.8699951171875
2018-09-21,1192.2099609375,1166.0400390625,1192.0,1166.0899658203125,4405600,1166.0899658203125
2018-09-24,1178.0,1146.9100341796875,1157.1700439453125,1173.3699951171875,1271000,1173.3699951171875
2018-09-25,1186.8800048828125,1168.0,1176.1500244140625,1184.6500244140625,977700,1184.6500244140625
2018-09-26,1194.22998046875,1174.7650146484375,1185.1500244140625,1180.489990234375,1462300,1180.489990234375
2018-09-27,1202.0999755859375,1183.6300048828125,1186.72998046875,1194.6400146484375,1260800,1194.6400146484375
2018-09-28,1195.4100341796875,1184.5,1191.8699951171875,1193.469970703125,1380600,1193.469970703125
2018-10-01,1209.9000244140625,1190.300048828125,1199.8900146484375,1195.31005859375,1357600,1195.31005859375
2018-10-02,1209.9599609375,1186.6300048828125,1190.9599609375,1200.1099853515625,1687900,1200.1099853515625
2018-10-03,1206.4100341796875,1193.8299560546875,1205.0,1202.949951171875,1256200,1202.949951171875
2018-10-04,1197.510009765625,1155.5760498046875,1195.3299560546875,1168.18994140625,2209500,1168.18994140625
2018-10-05,1173.5,1145.1199951171875,1167.5,1157.3499755859375,1184300,1157.3499755859375
2018-10-08,1168.0,1127.364013671875,1150.1099853515625,1148.969970703125,1932400,1148.969970703125
2018-10-09,1154.3499755859375,1137.572021484375,1146.1500244140625,1138.8199462890625,1308700,1138.8199462890625
2018-10-10,1132.1700439453125,1081.1300048828125,1131.0799560546875,1081.219970703125,2675700,1081.219970703125
2018-10-11,1106.4000244140625,1068.27001953125,1072.93994140625,1079.3199462890625,2949000,1079.3199462890625
2018-10-12,1115.0,1086.4019775390625,1108.0,1110.0799560546875,2101300,1110.0799560546875
2018-10-15,1113.446044921875,1089.0,1108.9100341796875,1092.25,1372400,1092.25
2018-10-16,1124.219970703125,1102.5,1104.5899658203125,1121.280029296875,1928500,1121.280029296875
2018-10-17,1128.989990234375,1102.18994140625,1126.4599609375,1115.68994140625,1467200,1115.68994140625
2018-10-18,1121.8399658203125,1077.0899658203125,1121.8399658203125,1087.969970703125,2094500,1087.969970703125
2018-10-19,1110.3599853515625,1087.75,1093.3699951171875,1096.4599609375,1267600,1096.4599609375
2018-10-22,1112.22998046875,1091.0,1103.06005859375,1101.1600341796875,1514200,1101.1600341796875
2018-10-23,1107.8900146484375,1070.0,1080.8900146484375,1103.68994140625,1848700,1103.68994140625
2018-10-24,1106.1199951171875,1048.739990234375,1104.25,1050.7099609375,1982400,1050.7099609375
2018-10-25,1110.97998046875,1069.550048828125,1071.7900390625,1095.5699462890625,2545800,1095.5699462890625
2018-10-26,1106.530029296875,1034.0899658203125,1037.030029296875,1071.469970703125,4187600,1071.469970703125
2018-10-29,1097.0400390625,995.8300170898438,1082.469970703125,1020.0800170898438,3880700,1020.0800170898438
2018-10-30,1037.489990234375,1000.75,1008.4600219726562,1036.2099609375,3212700,1036.2099609375
2018-10-31,1091.93994140625,1057.0,1059.81005859375,1076.77001953125,2529800,1076.77001953125
2018-11-01,1083.9749755859375,1062.4599609375,1075.800048828125,1070.0,1482000,1070.0
2018-11-02,1082.9749755859375,1054.6099853515625,1073.72998046875,1057.7900390625,1839000,1057.7900390625
2018-11-05,1058.469970703125,1021.239990234375,1055.0,1040.0899658203125,2441400,1040.0899658203125
2018-11-06,1064.344970703125,1038.0699462890625,1039.47998046875,1055.81005859375,1233300,1055.81005859375
2018-11-07,1095.4599609375,1065.9000244140625,1069.0,1093.3900146484375,2058400,1093.3900146484375
2018-11-08,1093.27001953125,1072.2049560546875,1091.3800048828125,1082.4000244140625,1488200,1082.4000244140625
2018-11-09,1075.56005859375,1053.1099853515625,1073.989990234375,1066.1500244140625,1343200,1066.1500244140625
2018-11-12,1062.1199951171875,1031.0,1061.3900146484375,1038.6300048828125,1471800,1038.6300048828125
2018-11-13,1056.60498046875,1031.1500244140625,1043.2900390625,1036.050048828125,1513700,1036.050048828125
2018-11-14,1054.56396484375,1031.0,1050.0,1043.6600341796875,1565900,1043.6600341796875
2018-11-15,1071.8499755859375,1031.780029296875,1044.7099609375,1064.7099609375,1836100,1064.7099609375
2018-11-16,1067.0,1048.97998046875,1059.4100341796875,1061.489990234375,1658100,1061.489990234375
2018-11-19,1060.7900390625,1016.260009765625,1057.199951171875,1020.0,1858600,1020.0
2018-11-20,1031.739990234375,996.02001953125,1000.0,1025.760009765625,2449100,1025.760009765625
2018-11-21,1048.56005859375,1033.469970703125,1036.760009765625,1037.6099853515625,1534300,1037.6099853515625
2018-11-23,1037.5899658203125,1022.3989868164062,1030.0,1023.8800048828125,691500,1023.8800048828125
2018-11-26,1049.31005859375,1033.9100341796875,1038.3499755859375,1048.6199951171875,1942800,1048.6199951171875
2018-11-27,1057.5799560546875,1038.489990234375,1041.0,1044.4100341796875,1803200,1044.4100341796875
2018-11-28,1086.8399658203125,1035.760009765625,1048.760009765625,1086.22998046875,2475400,1086.22998046875
2018-11-29,1094.2449951171875,1076.0,1076.0799560546875,1088.300048828125,1468900,1088.300048828125
2018-11-30,1095.5699462890625,1077.8800048828125,1089.0699462890625,1094.4300537109375,2580200,1094.4300537109375
2018-12-03,1124.6500244140625,1103.6650390625,1123.1400146484375,1106.4300537109375,1991200,1106.4300537109375
2018-12-04,1104.4200439453125,1049.97998046875,1103.1199951171875,1050.8199462890625,2345200,1050.8199462890625
2018-12-06,1071.199951171875,1030.77001953125,1034.260009765625,1068.72998046875,2769200,1068.72998046875
2018-12-07,1075.260009765625,1028.5,1060.010009765625,1036.5799560546875,2101200,1036.5799560546875
2018-12-10,1048.449951171875,1023.2899780273438,1035.050048828125,1039.550048828125,1807700,1039.550048828125
2018-12-11,1060.5999755859375,1039.8399658203125,1056.489990234375,1051.75,1394700,1051.75
2018-12-12,1081.6500244140625,1062.7900390625,1068.0,1063.6800537109375,1523800,1063.6800537109375
2018-12-13,1079.760009765625,1053.9300537109375,1068.0699462890625,1061.9000244140625,1329800,1061.9000244140625
2018-12-14,1062.5999755859375,1040.7900390625,1049.97998046875,1042.0999755859375,1686600,1042.0999755859375
2018-12-17,1053.1500244140625,1007.9000244140625,1037.510009765625,1016.530029296875,2385400,1016.530029296875
2018-12-18,1049.47998046875,1021.4400024414062,1026.0899658203125,1028.7099609375,2192500,1028.7099609375
2018-12-19,1062.0,1008.0499877929688,1033.989990234375,1023.010009765625,2479300,1023.010009765625
2018-12-20,1034.219970703125,996.3599853515625,1018.1300048828125,1009.4099731445312,2673500,1009.4099731445312
2018-12-21,1024.02001953125,973.6900024414062,1015.2999877929688,979.5399780273438,4596000,979.5399780273438
2018-12-24,1003.5399780273438,970.1099853515625,973.9000244140625,976.219970703125,1590300,976.219970703125
2018-12-26,1040.0,983.0,989.010009765625,1039.4599609375,2373300,1039.4599609375
2018-12-27,1043.8900146484375,997.0,1017.1500244140625,1043.8800048828125,2109800,1043.8800048828125
2018-12-28,1055.56005859375,1033.0999755859375,1049.6199951171875,1037.0799560546875,1414800,1037.0799560546875
2018-12-31,1052.699951171875,1023.5900268554688,1050.9599609375,1035.6099853515625,1493300,1035.6099853515625
