Date,High,Low,Open,Close,Volume,Adj Close
2016-01-04,37.66999816894531,36.86000061035156,37.15999984741211,37.66999816894531,4115100.0,33.21140670776367
2016-01-05,38.0,37.41999816894531,37.790000915527344,37.9900016784668,3313900.0,33.49353790283203
2016-01-06,37.58000183105469,37.119998931884766,37.470001220703125,37.38999938964844,3536800.0,32.96456527709961
2016-01-07,37.220001220703125,36.18000030517578,36.790000915527344,36.290000915527344,4851900.0,31.994752883911133
2016-01-08,36.779998779296875,35.779998779296875,36.29999923706055,35.900001525878906,4781000.0,31.650911331176758
2016-01-11,36.540000915527344,35.95000076293945,36.18000030517578,36.400001525878906,5870700.0,32.091739654541016
2016-01-12,36.880001068115234,35.95000076293945,36.720001220703125,36.349998474121094,3960200.0,32.047645568847656
2016-01-13,37.04999923706055,35.97999954223633,36.54999923706055,36.04999923706055,3962300.0,31.78315544128418
2016-01-14,36.790000915527344,35.689998626708984,36.16999816894531,36.540000915527344,4106100.0,32.21516418457031
2016-01-15,36.79999923706055,35.4900016784668,35.4900016784668,36.41999816894531,5079700.0,32.10935974121094
2016-01-19,36.83000183105469,35.02000045776367,36.7599983215332,35.63999938964844,4418100.0,31.421689987182617
2016-01-20,35.61000061035156,34.029998779296875,35.06999969482422,35.290000915527344,4650400.0,31.11310386657715
2016-01-21,35.9900016784668,34.939998626708984,35.45000076293945,35.459999084472656,3355600.0,31.262985229492188
2016-01-22,36.79999923706055,36.029998779296875,36.029998779296875,36.45000076293945,3713800.0,32.13581466674805
2016-01-25,35.0099983215332,32.5,34.97999954223633,32.58000183105469,14645200.0,28.72386360168457
2016-01-26,33.290000915527344,32.58000183105469,32.810001373291016,32.869998931884766,8396000.0,28.979537963867188
2016-01-27,33.66999816894531,32.529998779296875,32.77000045776367,32.90999984741211,6765000.0,29.014801025390625
2016-01-28,33.2400016784668,32.560001373291016,33.099998474121094,32.650001525878906,4276100.0,28.785581588745117
2016-01-29,34.220001220703125,32.83000183105469,32.880001068115234,34.209999084472656,6266000.0,30.160940170288086
2016-02-01,34.33000183105469,33.5099983215332,34.029998779296875,34.09000015258789,5573900.0,30.055147171020508
2016-02-02,34.09000015258789,33.47999954223633,34.08000183105469,33.86000061035156,5374200.0,29.85236167907715
2016-02-03,35.47999954223633,33.060001373291016,34.70000076293945,34.16999816894531,8870700.0,30.125669479370117
2016-02-04,35.38999938964844,33.900001525878906,34.22999954223633,35.06999969482422,6467000.0,30.91915512084961
2016-02-05,35.36000061035156,34.810001373291016,35.060001373291016,34.970001220703125,6531400.0,30.830984115600586
2016-02-08,34.61000061035156,33.720001220703125,34.5,34.36000061035156,4257100.0,30.293188095092773
2016-02-09,35.20000076293945,33.75,34.0099983215332,35.130001068115234,5786200.0,30.9720516204834
2016-02-10,36.119998931884766,34.70000076293945,35.27000045776367,34.779998779296875,7779000.0,30.66347312927246
2016-02-11,34.130001068115234,32.86000061035156,33.849998474121094,33.119998931884766,5885500.0,29.574087142944336
2016-02-12,35.150001525878906,33.52000045776367,33.56999969482422,34.15999984741211,6366300.0,30.502744674682617
2016-02-16,35.13999938964844,34.220001220703125,34.54999923706055,35.099998474121094,3650200.0,31.34210968017578
2016-02-17,36.16999816894531,35.2599983215332,35.29999923706055,35.58000183105469,4470500.0,31.77071762084961
2016-02-18,35.61000061035156,35.029998779296875,35.540000915527344,35.31999969482422,3011400.0,31.538549423217773
2016-02-19,34.810001373291016,33.43000030517578,34.810001373291016,34.0099983215332,5877700.0,30.368799209594727
2016-02-22,34.5,34.08000183105469,34.43000030517578,34.349998474121094,4029000.0,30.672401428222656
2016-02-23,34.310001373291016,33.7599983215332,34.18000030517578,34.189998626708984,3758500.0,30.5295352935791
2016-02-24,34.86000061035156,33.79999923706055,33.9900016784668,34.709999084472656,3644700.0,30.99385643005371
2016-02-25,34.95000076293945,34.310001373291016,34.779998779296875,34.790000915527344,3083900.0,31.065292358398438
2016-02-26,35.5,34.970001220703125,35.0,35.2400016784668,3335400.0,31.467119216918945
2016-02-29,36.20000076293945,35.15999984741211,35.20000076293945,35.70000076293945,4316000.0,31.87786865234375
2016-03-01,36.90999984741211,35.93000030517578,36.02000045776367,36.63999938964844,3975400.0,32.71723175048828
2016-03-02,37.04999923706055,36.41999816894531,36.45000076293945,36.779998779296875,3277600.0,32.84223556518555
2016-03-03,38.369998931884766,36.779998779296875,36.79999923706055,38.310001373291016,5129500.0,34.208431243896484
2016-03-04,39.16999816894531,38.130001068115234,38.22999954223633,38.72999954223633,4729900.0,34.583473205566406
2016-03-07,39.09000015258789,38.54999923706055,38.650001525878906,38.91999816894531,2844200.0,34.75312805175781
2016-03-08,38.900001525878906,37.77000045776367,38.7400016784668,37.83000183105469,3498600.0,33.77983093261719
2016-03-09,38.619998931884766,37.880001068115234,38.09000015258789,38.54999923706055,3928100.0,34.42274475097656
2016-03-10,39.36000061035156,38.459999084472656,38.779998779296875,39.25,5242900.0,35.047794342041016
2016-03-11,40.04999923706055,39.709999084472656,39.79999923706055,39.900001525878906,4195700.0,35.62820053100586
2016-03-14,40.43000030517578,39.86000061035156,39.97999954223633,40.0099983215332,5566200.0,35.7264289855957
2016-03-15,39.939998626708984,39.130001068115234,39.81999969482422,39.470001220703125,4937000.0,35.24424743652344
2016-03-16,40.56999969482422,39.290000915527344,39.349998474121094,40.38999938964844,5840200.0,36.065738677978516
2016-03-17,41.70000076293945,40.2400016784668,40.310001373291016,41.27000045776367,5021500.0,36.85152816772461
2016-03-18,41.90999984741211,40.5099983215332,41.90999984741211,40.939998626708984,9941600.0,36.556854248046875
2016-03-21,42.09000015258789,40.95000076293945,40.95000076293945,41.459999084472656,4513800.0,37.02118682861328
2016-03-22,41.79999923706055,40.959999084472656,41.220001220703125,41.279998779296875,3441500.0,36.86045455932617
2016-03-23,41.380001068115234,40.650001525878906,41.18000030517578,40.709999084472656,2641300.0,36.35149383544922
2016-03-24,40.81999969482422,40.220001220703125,40.5,40.790000915527344,2746500.0,36.42292404174805
2016-03-28,41.0099983215332,40.540000915527344,40.900001525878906,40.86000061035156,2159200.0,36.48542785644531
2016-03-29,41.36000061035156,40.34000015258789,40.77000045776367,41.34000015258789,2966000.0,36.91403579711914
2016-03-30,41.54999923706055,40.869998931884766,41.45000076293945,41.0,2995400.0,36.610435485839844
2016-03-31,41.15999984741211,40.61000061035156,41.0,41.040000915527344,4323400.0,36.64616012573242
2016-04-01,41.02000045776367,40.380001068115234,40.75,40.970001220703125,3987900.0,36.58365249633789
2016-04-04,41.119998931884766,40.5,41.02000045776367,40.560001373291016,3065000.0,36.21754455566406
2016-04-05,40.33000183105469,39.630001068115234,40.09000015258789,39.869998931884766,4843200.0,35.601417541503906
2016-04-06,40.2400016784668,39.349998474121094,39.79999923706055,40.20000076293945,2991600.0,35.89609146118164
2016-04-07,40.150001525878906,39.369998931884766,39.849998474121094,39.599998474121094,2434400.0,35.36032485961914
2016-04-08,40.470001220703125,39.900001525878906,39.93000030517578,40.220001220703125,2487400.0,35.91394805908203
2016-04-11,40.70000076293945,40.11000061035156,40.40999984741211,40.18000030517578,2747400.0,35.87822723388672
2016-04-12,40.599998474121094,39.9900016784668,40.349998474121094,40.52000045776367,2391200.0,36.181827545166016
2016-04-13,41.369998931884766,40.79999923706055,40.86000061035156,41.31999969482422,2609000.0,36.896175384521484
2016-04-14,41.45000076293945,40.720001220703125,41.400001525878906,40.9900016784668,2289000.0,36.60151290893555
2016-04-15,41.790000915527344,40.86000061035156,40.900001525878906,41.720001220703125,2982300.0,37.25335693359375
2016-04-18,42.09000015258789,41.400001525878906,41.540000915527344,42.02000045776367,2372600.0,37.5212287902832
2016-04-19,43.459999084472656,42.04999923706055,42.08000183105469,42.91999816894531,4797400.0,38.32487869262695
2016-04-20,43.09000015258789,42.5099983215332,42.959999084472656,42.54999923706055,2425800.0,37.9944953918457
2016-04-21,43.5,42.52000045776367,42.91999816894531,42.56999969482422,3472000.0,38.012351989746094
2016-04-22,43.4900016784668,42.70000076293945,42.72999954223633,43.36000061035156,2953200.0,38.71776580810547
2016-04-25,43.040000915527344,42.349998474121094,42.86000061035156,42.849998474121094,3445900.0,38.26237106323242
2016-04-26,43.47999954223633,42.93000030517578,42.95000076293945,43.369998931884766,2996700.0,38.7266960144043
2016-04-27,44.599998474121094,43.56999969482422,44.060001373291016,44.18000030517578,4052400.0,39.449974060058594
2016-04-28,44.2599983215332,43.11000061035156,43.650001525878906,43.56999969482422,2612600.0,38.9052848815918
2016-04-29,43.75,43.0,43.5,43.27000045776367,3242800.0,38.63740158081055
2016-05-02,43.689998626708984,42.880001068115234,43.279998779296875,43.459999084472656,3963400.0,38.80706024169922
2016-05-03,42.81999969482422,41.619998931884766,42.720001220703125,42.18000030517578,4441900.0,37.66410827636719
2016-05-04,42.2400016784668,41.52000045776367,42.0,41.77000045776367,2556100.0,37.29799270629883
2016-05-05,42.09000015258789,41.470001220703125,41.95000076293945,41.5,2732600.0,37.056907653808594
2016-05-06,42.369998931884766,41.279998779296875,41.459999084472656,42.099998474121094,2958200.0,37.5926628112793
2016-05-09,42.779998779296875,42.029998779296875,42.189998626708984,42.52000045776367,3110700.0,37.96770477294922
2016-05-10,43.209999084472656,42.58000183105469,42.619998931884766,43.09000015258789,2349900.0,38.47667694091797
2016-05-11,43.33000183105469,42.810001373291016,43.08000183105469,42.810001373291016,1944500.0,38.22665023803711
2016-05-12,43.439998626708984,42.400001525878906,43.310001373291016,42.599998474121094,2154300.0,38.03913497924805
2016-05-13,42.650001525878906,41.88999938964844,42.5099983215332,41.970001220703125,2710700.0,37.476593017578125
2016-05-16,42.400001525878906,41.68000030517578,42.0099983215332,42.209999084472656,2984400.0,37.69089126586914
2016-05-17,41.7599983215332,40.79999923706055,41.75,41.189998626708984,5944100.0,36.780086517333984
2016-05-18,41.31999969482422,40.18000030517578,41.08000183105469,40.290000915527344,4547400.0,35.97645568847656
2016-05-19,40.29999923706055,39.52000045776367,40.20000076293945,40.2599983215332,3753900.0,35.94966506958008
2016-05-20,40.630001068115234,40.22999954223633,40.5,40.43000030517578,2620200.0,36.10146713256836
2016-05-23,41.52000045776367,40.4900016784668,40.529998779296875,40.93000030517578,3211100.0,36.547935485839844
2016-05-24,41.540000915527344,41.13999938964844,41.2400016784668,41.41999816894531,2987700.0,36.9854736328125
2016-05-25,42.41999816894531,41.18000030517578,41.18000030517578,42.130001068115234,4884300.0,38.02337646484375
2016-05-26,42.2599983215332,41.709999084472656,42.11000061035156,41.84000015258789,2451800.0,37.76164627075195
2016-05-27,42.220001220703125,41.79999923706055,41.91999816894531,42.09000015258789,1625100.0,37.987274169921875
2016-05-31,42.5,41.790000915527344,42.29999923706055,42.15999984741211,2822000.0,38.05044937133789
2016-06-01,42.119998931884766,41.70000076293945,41.95000076293945,42.11000061035156,1967900.0,38.00532150268555
2016-06-02,43.09000015258789,42.06999969482422,42.150001525878906,42.900001525878906,3067300.0,38.718318939208984
2016-06-03,42.97999954223633,42.400001525878906,42.900001525878906,42.93000030517578,2868400.0,38.74539566040039
2016-06-06,43.25,42.93000030517578,43.0,43.119998931884766,1945800.0,38.916873931884766
2016-06-07,44.11000061035156,43.20000076293945,43.290000915527344,43.90999984741211,3864500.0,39.62986755371094
2016-06-08,44.18000030517578,43.869998931884766,44.119998931884766,44.11000061035156,2899800.0,39.81037139892578
2016-06-09,43.9900016784668,43.36000061035156,43.900001525878906,43.59000015258789,1661100.0,39.34105682373047
2016-06-10,43.38999938964844,42.900001525878906,43.349998474121094,43.18000030517578,2337200.0,38.97102355957031
2016-06-13,43.040000915527344,41.93000030517578,42.91999816894531,41.97999954223633,3483500.0,37.887996673583984
2016-06-14,41.939998626708984,41.310001373291016,41.779998779296875,41.72999954223633,3014400.0,37.6623649597168
2016-06-15,42.2599983215332,41.54999923706055,42.0,41.59000015258789,2386000.0,37.5360107421875
2016-06-16,41.7599983215332,40.88999938964844,41.369998931884766,41.72999954223633,2799700.0,37.6623649597168
2016-06-17,42.040000915527344,41.45000076293945,41.720001220703125,41.959999084472656,2809500.0,37.86994552612305
2016-06-20,43.11000061035156,42.41999816894531,42.45000076293945,42.68000030517578,2188300.0,38.51976013183594
2016-06-21,42.869998931884766,42.43000030517578,42.849998474121094,42.45000076293945,1729200.0,38.312171936035156
2016-06-22,42.689998626708984,42.369998931884766,42.529998779296875,42.369998931884766,1579100.0,38.23997497558594
2016-06-23,43.290000915527344,42.880001068115234,43.02000045776367,43.290000915527344,1582600.0,39.07030487060547
2016-06-24,42.380001068115234,41.25,41.52000045776367,41.369998931884766,9585800.0,37.33745574951172
2016-06-27,41.06999969482422,39.2400016784668,41.0,39.63999938964844,4015400.0,35.77609634399414
2016-06-28,40.27000045776367,39.5099983215332,40.0,40.2599983215332,2858200.0,36.335655212402344
2016-06-29,41.34000015258789,40.630001068115234,40.83000183105469,41.16999816894531,2300700.0,37.15694808959961
2016-06-30,42.380001068115234,41.0,41.310001373291016,42.380001068115234,3105000.0,38.24900817871094
2016-07-01,42.81999969482422,42.189998626708984,42.70000076293945,42.709999084472656,1943800.0,38.546836853027344
2016-07-05,42.41999816894531,41.529998779296875,42.29999923706055,41.7599983215332,1822800.0,37.6894416809082
2016-07-06,42.0,41.08000183105469,41.689998626708984,41.959999084472656,3467400.0,37.86994552612305
2016-07-07,42.47999954223633,41.66999816894531,41.95000076293945,41.900001525878906,2315800.0,37.8157958984375
2016-07-08,42.86000061035156,42.20000076293945,42.27000045776367,42.75,2274500.0,38.582942962646484
2016-07-11,43.11000061035156,42.47999954223633,42.720001220703125,43.029998779296875,1988600.0,38.83564376831055
2016-07-12,44.220001220703125,43.279998779296875,43.31999969482422,44.16999816894531,2839600.0,39.86452102661133
2016-07-13,44.400001525878906,43.849998474121094,44.189998626708984,44.2400016784668,2818100.0,39.92770767211914
2016-07-14,44.68000030517578,43.97999954223633,44.5,44.04999923706055,3046000.0,39.756221771240234
2016-07-15,45.970001220703125,44.40999984741211,44.40999984741211,45.470001220703125,5390300.0,41.037811279296875
2016-07-18,45.630001068115234,45.11000061035156,45.470001220703125,45.529998779296875,2118800.0,41.091957092285156
2016-07-19,45.650001525878906,44.810001373291016,45.439998626708984,44.970001220703125,2908300.0,40.5865478515625
2016-07-20,45.470001220703125,44.88999938964844,45.0099983215332,45.0099983215332,2414700.0,40.622642517089844
2016-07-21,45.31999969482422,44.72999954223633,45.06999969482422,44.880001068115234,1802500.0,40.50532150268555
2016-07-22,45.220001220703125,44.75,44.939998626708984,45.119998931884766,1591500.0,40.72191619873047
2016-07-25,45.130001068115234,44.70000076293945,45.040000915527344,45.119998931884766,1402700.0,40.72191619873047
2016-07-26,45.709999084472656,45.04999923706055,45.189998626708984,45.68000030517578,1600200.0,41.227333068847656
2016-07-27,45.86000061035156,45.099998474121094,45.68000030517578,45.59000015258789,2900300.0,41.14611053466797
2016-07-28,46.279998779296875,44.93000030517578,45.5,45.72999954223633,3215700.0,41.272464752197266
2016-07-29,45.88999938964844,45.279998779296875,45.56999969482422,45.810001373291016,2319700.0,41.34467315673828
2016-08-01,45.880001068115234,45.16999816894531,45.7599983215332,45.5,2063200.0,41.06488037109375
2016-08-02,45.650001525878906,45.220001220703125,45.38999938964844,45.38999938964844,2004000.0,40.96560287475586
2016-08-03,45.81999969482422,45.16999816894531,45.380001068115234,45.7400016784668,1425800.0,41.281490325927734
2016-08-04,46.380001068115234,45.72999954223633,45.849998474121094,45.81999969482422,2058800.0,41.35369110107422
2016-08-05,46.470001220703125,45.88999938964844,46.11000061035156,45.97999954223633,1748900.0,41.49809646606445
2016-08-08,46.34000015258789,45.84000015258789,45.93000030517578,46.18000030517578,2112900.0,41.678611755371094
2016-08-09,46.5,46.02000045776367,46.20000076293945,46.060001373291016,1175100.0,41.57029724121094
2016-08-10,47.38999938964844,46.06999969482422,46.06999969482422,46.790000915527344,4054400.0,42.22913360595703
2016-08-11,47.02000045776367,46.459999084472656,46.459999084472656,46.93000030517578,2682400.0,42.75757598876953
2016-08-12,47.02000045776367,46.29999923706055,46.84000015258789,46.5,2170100.0,42.36579513549805
2016-08-15,46.880001068115234,46.31999969482422,46.5,46.31999969482422,2086300.0,42.201805114746094
2016-08-16,47.47999954223633,46.43000030517578,46.45000076293945,46.65999984741211,2900600.0,42.51157760620117
2016-08-17,47.33000183105469,46.720001220703125,46.7599983215332,47.310001373291016,2454400.0,43.10379409790039
2016-08-18,47.70000076293945,47.25,47.290000915527344,47.61000061035156,2252300.0,43.377113342285156
2016-08-19,47.58000183105469,46.86000061035156,47.33000183105469,47.459999084472656,1750100.0,43.240447998046875
2016-08-22,47.13999938964844,46.08000183105469,47.13999938964844,46.560001373291016,3461400.0,42.420475006103516
2016-08-23,47.22999954223633,46.70000076293945,46.97999954223633,46.959999084472656,1837900.0,42.78490447998047
2016-08-24,47.0,46.47999954223633,47.0,46.560001373291016,1478500.0,42.420475006103516
2016-08-25,48.709999084472656,46.349998474121094,46.540000915527344,48.38999938964844,6974500.0,44.087764739990234
2016-08-26,49.70000076293945,48.54999923706055,48.63999938964844,48.88999938964844,5442800.0,44.543312072753906
2016-08-29,49.43000030517578,48.77000045776367,48.79999923706055,48.900001525878906,2732700.0,44.552425384521484
2016-08-30,49.33000183105469,48.79999923706055,48.900001525878906,48.9900016784668,2473500.0,44.63442611694336
2016-08-31,48.88999938964844,48.16999816894531,48.79999923706055,48.4900016784668,2229200.0,44.17887878417969
2016-09-01,48.9900016784668,48.29999923706055,48.59000015258789,48.709999084472656,2112700.0,44.37931442260742
2016-09-02,49.22999954223633,48.77000045776367,49.0,49.119998931884766,1657000.0,44.752864837646484
2016-09-06,49.47999954223633,48.91999816894531,49.25,49.349998474121094,2544200.0,44.96241760253906
2016-09-07,49.630001068115234,49.04999923706055,49.150001525878906,49.47999954223633,2037500.0,45.08085632324219
2016-09-08,49.459999084472656,48.959999084472656,49.2599983215332,49.06999969482422,2248400.0,44.707305908203125
2016-09-09,48.880001068115234,47.650001525878906,48.77000045776367,47.709999084472656,2476100.0,43.46821975708008
2016-09-12,48.439998626708984,47.16999816894531,47.29999923706055,48.209999084472656,2940600.0,43.923770904541016
2016-09-13,48.38999938964844,47.38999938964844,47.880001068115234,47.72999954223633,2342500.0,43.48644256591797
2016-09-14,47.959999084472656,47.29999923706055,47.56999969482422,47.529998779296875,1707600.0,43.304222106933594
2016-09-15,48.40999984741211,47.439998626708984,47.52000045776367,48.25,2450200.0,43.96021270751953
2016-09-16,49.86000061035156,48.709999084472656,49.040000915527344,49.189998626708984,5135200.0,44.81663131713867
2016-09-19,49.900001525878906,48.9900016784668,49.310001373291016,48.9900016784668,2610600.0,44.63442611694336
2016-09-20,49.470001220703125,48.02000045776367,49.18000030517578,48.02000045776367,3893700.0,43.75066375732422
2016-09-21,48.72999954223633,47.88999938964844,48.310001373291016,48.4900016784668,3215100.0,44.17887878417969
2016-09-22,49.040000915527344,47.720001220703125,48.77000045776367,47.90999984741211,3790800.0,43.650447845458984
2016-09-23,48.709999084472656,47.939998626708984,47.97999954223633,48.40999984741211,3683700.0,44.10599136352539
2016-09-26,48.29999923706055,47.31999969482422,48.25,47.36000061035156,3238900.0,43.14934539794922
2016-09-27,47.689998626708984,47.08000183105469,47.36000061035156,47.5,2658100.0,43.276893615722656
2016-09-28,48.13999938964844,47.29999923706055,47.630001068115234,48.11000061035156,2782800.0,43.83266830444336
2016-09-29,48.09000015258789,47.08000183105469,48.0,47.31999969482422,2543200.0,43.11289978027344
2016-09-30,48.25,47.31999969482422,47.5,47.97999954223633,4253100.0,43.71421813964844
2016-10-03,48.2400016784668,47.619998931884766,47.97999954223633,47.79999923706055,2346000.0,43.55022048950195
2016-10-04,48.15999984741211,46.869998931884766,47.88999938964844,47.09000015258789,2621400.0,42.90334701538086
2016-10-05,47.470001220703125,45.7599983215332,47.380001068115234,46.709999084472656,5612000.0,42.557125091552734
2016-10-06,47.959999084472656,46.790000915527344,46.81999969482422,47.29999923706055,3443600.0,43.09467697143555
2016-10-07,47.68000030517578,46.52000045776367,47.4900016784668,46.81999969482422,3792800.0,42.657352447509766
2016-10-10,47.34000015258789,46.310001373291016,47.13999938964844,46.779998779296875,3148000.0,42.62090301513672
2016-10-11,46.560001373291016,45.400001525878906,46.560001373291016,45.720001220703125,2908200.0,41.6551513671875
2016-10-12,46.52000045776367,45.95000076293945,45.95000076293945,46.38999938964844,3471600.0,42.26557922363281
2016-10-13,46.06999969482422,45.25,45.95000076293945,45.81999969482422,2548600.0,41.74626159667969
2016-10-14,47.029998779296875,46.130001068115234,46.13999938964844,46.72999954223633,3486900.0,42.575355529785156
2016-10-17,47.83000183105469,46.93000030517578,46.959999084472656,47.20000076293945,2397500.0,43.003570556640625
2016-10-18,47.349998474121094,46.720001220703125,46.720001220703125,47.029998779296875,2622000.0,42.84868240356445
2016-10-19,48.5,47.029998779296875,47.2400016784668,48.279998779296875,3521000.0,43.987545013427734
2016-10-20,48.0,46.61000061035156,47.9900016784668,47.18000030517578,2937200.0,42.98534393310547
2016-10-21,47.439998626708984,46.459999084472656,46.79999923706055,47.0,2205800.0,42.821353912353516
2016-10-24,48.08000183105469,46.540000915527344,47.4900016784668,46.709999084472656,3544700.0,42.557125091552734
2016-10-25,46.72999954223633,46.08000183105469,46.63999938964844,46.599998474121094,2743600.0,42.456912994384766
2016-10-26,46.720001220703125,46.0,46.290000915527344,46.15999984741211,2737500.0,42.056034088134766
2016-10-27,46.0,44.65999984741211,45.83000183105469,45.13999938964844,4070100.0,41.126712799072266
2016-10-28,45.52000045776367,44.709999084472656,45.189998626708984,45.0099983215332,2374500.0,41.008270263671875
2016-10-31,45.38999938964844,44.869998931884766,44.880001068115234,45.029998779296875,2317100.0,41.026493072509766
2016-11-01,45.220001220703125,43.7599983215332,45.150001525878906,44.220001220703125,3086100.0,40.288509368896484
2016-11-02,44.45000076293945,43.900001525878906,44.060001373291016,44.18000030517578,2687300.0,40.2520637512207
2016-11-03,44.41999816894531,43.54999923706055,44.2599983215332,43.599998474121094,2464500.0,39.723636627197266
2016-11-04,44.470001220703125,43.619998931884766,43.72999954223633,43.97999954223633,2268300.0,40.069847106933594
2016-11-07,44.970001220703125,44.0,44.54999923706055,44.470001220703125,3036300.0,40.516292572021484
2016-11-08,44.83000183105469,44.029998779296875,44.36000061035156,44.75,2283500.0,40.771392822265625
2016-11-09,45.900001525878906,43.7599983215332,43.97999954223633,45.650001525878906,3703800.0,41.591373443603516
2016-11-10,46.290000915527344,45.36000061035156,45.41999816894531,45.810001373291016,3842900.0,42.164798736572266
2016-11-11,45.9900016784668,45.189998626708984,45.720001220703125,45.65999984741211,2100000.0,42.02674102783203
2016-11-14,47.279998779296875,45.939998626708984,45.95000076293945,47.209999084472656,3602700.0,43.45340347290039
2016-11-15,47.79999923706055,46.52000045776367,47.20000076293945,47.75,3877000.0,43.950435638427734
2016-11-16,49.08000183105469,47.810001373291016,48.099998474121094,47.939998626708984,4935300.0,44.125308990478516
2016-11-17,49.06999969482422,47.720001220703125,48.040000915527344,48.31999969482422,3450600.0,44.47507095336914
2016-11-18,48.52000045776367,48.02000045776367,48.279998779296875,48.45000076293945,2305200.0,44.59473419189453
2016-11-21,48.41999816894531,47.849998474121094,47.97999954223633,48.310001373291016,2503900.0,44.46587371826172
2016-11-22,48.84000015258789,48.33000183105469,48.540000915527344,48.58000183105469,2661000.0,44.714385986328125
2016-11-23,48.959999084472656,48.540000915527344,48.59000015258789,48.720001220703125,1635600.0,44.84324645996094
2016-11-25,48.88999938964844,48.54999923706055,48.79999923706055,48.849998474121094,814400.0,44.96289825439453
2016-11-28,48.939998626708984,48.5099983215332,48.65999984741211,48.689998626708984,1887800.0,44.81563186645508
2016-11-29,49.099998474121094,48.630001068115234,48.72999954223633,48.84000015258789,2110800.0,44.95369338989258
2016-11-30,48.959999084472656,48.4900016784668,48.959999084472656,48.720001220703125,2552300.0,44.84324645996094
2016-12-01,49.75,48.900001525878906,48.939998626708984,49.72999954223633,3518600.0,45.77288055419922
2016-12-02,50.470001220703125,49.369998931884766,49.7400016784668,50.459999084472656,3453200.0,46.44478988647461
2016-12-05,51.459999084472656,50.75,50.959999084472656,51.40999984741211,3838300.0,47.319190979003906
2016-12-06,51.79999923706055,51.0,51.25,51.77000045776367,2463300.0,47.650543212890625
2016-12-07,53.34000015258789,51.869998931884766,51.869998931884766,53.29999923706055,3504700.0,49.058799743652344
2016-12-08,54.06999969482422,53.11000061035156,53.45000076293945,53.65999984741211,2482600.0,49.39015197753906
2016-12-09,54.119998931884766,53.38999938964844,53.540000915527344,53.83000183105469,2826600.0,49.546630859375
2016-12-12,54.34000015258789,53.54999923706055,53.900001525878906,53.599998474121094,2611800.0,49.33493423461914
2016-12-13,53.83000183105469,52.83000183105469,53.4900016784668,53.290000915527344,2826400.0,49.049598693847656
2016-12-14,53.75,52.81999969482422,53.380001068115234,52.91999816894531,3218300.0,48.70904541015625
2016-12-15,53.97999954223633,52.939998626708984,53.09000015258789,53.599998474121094,3096100.0,49.33493423461914
2016-12-16,54.11000061035156,53.5099983215332,53.63999938964844,53.75,4413200.0,49.472999572753906
2016-12-19,53.790000915527344,53.40999984741211,53.5099983215332,53.68000030517578,2787700.0,49.4085693359375
2016-12-20,54.150001525878906,53.68000030517578,53.75,53.9900016784668,1846700.0,49.693904876708984
2016-12-21,54.310001373291016,53.810001373291016,54.0,53.95000076293945,1991200.0,49.65708541870117
2016-12-22,54.09000015258789,53.41999816894531,53.95000076293945,53.790000915527344,2422600.0,49.50981903076172
2016-12-23,54.060001373291016,53.650001525878906,53.7400016784668,54.029998779296875,1211900.0,49.73072052001953
2016-12-27,54.45000076293945,54.18000030517578,54.25,54.279998779296875,1535400.0,49.96082305908203
2016-12-28,54.68000030517578,53.209999084472656,54.599998474121094,53.380001068115234,2901100.0,49.132442474365234
2016-12-29,53.650001525878906,53.119998931884766,53.290000915527344,53.369998931884766,1380600.0,49.12323760986328
2016-12-30,53.5,52.66999816894531,53.439998626708984,53.060001373291016,2018100.0,48.83790969848633
2017-01-03,53.849998474121094,52.959999084472656,53.11000061035156,53.38999938964844,1927000.0,49.141639709472656
2017-01-04,54.16999816894531,53.5,53.63999938964844,54.04999923706055,2331000.0,49.74912643432617
2017-01-05,54.2599983215332,53.33000183105469,53.900001525878906,53.61000061035156,2081100.0,49.344146728515625
2017-01-06,53.93000030517578,53.2599983215332,53.560001373291016,53.720001220703125,1253500.0,49.44538497924805
2017-01-09,54.16999816894531,53.41999816894531,53.70000076293945,53.619998931884766,2987000.0,49.35334396362305
2017-01-10,54.220001220703125,53.45000076293945,53.70000076293945,53.779998779296875,2748600.0,49.5006103515625
2017-01-11,54.20000076293945,53.45000076293945,53.58000183105469,54.13999938964844,1966400.0,49.831966400146484
2017-01-12,54.08000183105469,53.040000915527344,53.84000015258789,53.66999816894531,1915800.0,49.399356842041016
2017-01-13,54.08000183105469,53.439998626708984,53.68000030517578,53.54999923706055,1694500.0,49.288909912109375
2017-01-17,53.5,52.77000045776367,53.349998474121094,52.9900016784668,1799000.0,48.77347183227539
2017-01-18,53.20000076293945,52.65999984741211,53.150001525878906,53.029998779296875,2223600.0,48.81028366088867
2017-01-19,53.150001525878906,52.40999984741211,53.13999938964844,52.68000030517578,1934700.0,48.48814010620117
2017-01-20,53.959999084472656,53.130001068115234,53.75,53.689998626708984,3085300.0,49.41777038574219
2017-01-23,54.36000061035156,53.650001525878906,53.77000045776367,54.310001373291016,2406600.0,49.988441467285156
2017-01-24,56.0099983215332,54.47999954223633,54.5099983215332,55.900001525878906,3820500.0,51.4519157409668
2017-01-25,58.2599983215332,56.459999084472656,56.47999954223633,57.9900016784668,5188000.0,53.3756103515625
2017-01-26,58.86000061035156,57.369998931884766,58.61000061035156,57.5099983215332,3650500.0,52.93381118774414
2017-01-27,57.84000015258789,57.189998626708984,57.72999954223633,57.34000015258789,2044300.0,52.77733612060547
2017-01-30,57.02000045776367,56.310001373291016,57.02000045776367,56.88999938964844,2272300.0,52.36314392089844
2017-01-31,57.36000061035156,56.209999084472656,56.83000183105469,56.599998474121094,3747000.0,52.096214294433594
2017-02-01,57.119998931884766,56.0099983215332,56.72999954223633,56.5,2990600.0,52.004173278808594
2017-02-02,55.779998779296875,52.29999923706055,55.47999954223633,53.349998474121094,8057300.0,49.10482406616211
2017-02-03,53.66999816894531,52.220001220703125,53.54999923706055,53.0099983215332,5844200.0,48.79187774658203
2017-02-06,52.33000183105469,50.599998474121094,52.33000183105469,51.599998474121094,6180300.0,47.49407196044922
2017-02-07,52.65999984741211,51.68000030517578,51.90999984741211,52.130001068115234,4606200.0,47.98190689086914
2017-02-08,53.959999084472656,51.66999816894531,52.02000045776367,53.099998474121094,7574600.0,48.874717712402344
2017-02-09,53.099998474121094,52.04999923706055,53.099998474121094,52.15999984741211,4471000.0,48.009525299072266
2017-02-10,53.029998779296875,51.90999984741211,52.380001068115234,52.88999938964844,3815300.0,48.68143081665039
2017-02-13,53.470001220703125,52.349998474121094,52.5,52.68000030517578,3833700.0,48.91588592529297
2017-02-14,52.91999816894531,52.33000183105469,52.4900016784668,52.880001068115234,2880200.0,49.101600646972656
2017-02-15,53.400001525878906,52.70000076293945,52.90999984741211,52.7599983215332,4414300.0,48.99016571044922
2017-02-16,53.5,52.72999954223633,52.86000061035156,53.380001068115234,2920700.0,49.565879821777344
2017-02-17,53.36000061035156,51.93000030517578,53.20000076293945,52.150001525878906,3944400.0,48.42375946044922
2017-02-21,52.849998474121094,52.150001525878906,52.25,52.7599983215332,2517800.0,48.99016571044922
2017-02-22,52.380001068115234,51.459999084472656,52.33000183105469,52.029998779296875,2966900.0,48.31233596801758
2017-02-23,52.88999938964844,51.93000030517578,52.2599983215332,52.220001220703125,3615700.0,48.48875427246094
2017-02-24,52.66999816894531,51.900001525878906,52.0,52.619998931884766,2336200.0,48.86016845703125
2017-02-27,53.06999969482422,52.40999984741211,52.40999984741211,52.88999938964844,3016600.0,49.11088180541992
2017-02-28,53.0,52.540000915527344,52.72999954223633,52.70000076293945,3452900.0,48.93445587158203
2017-03-01,53.869998931884766,53.209999084472656,53.22999954223633,53.66999816894531,3096400.0,49.835147857666016
2017-03-02,54.11000061035156,53.38999938964844,53.5,53.720001220703125,3817400.0,49.88157653808594
2017-03-03,54.25,53.650001525878906,53.72999954223633,54.0,2942800.0,50.141571044921875
2017-03-06,53.880001068115234,52.130001068115234,53.63999938964844,52.33000183105469,3231400.0,48.59089660644531
2017-03-07,52.310001373291016,51.45000076293945,52.150001525878906,51.47999954223633,2761200.0,47.801631927490234
2017-03-08,51.939998626708984,51.40999984741211,51.720001220703125,51.540000915527344,2268100.0,47.85734176635742
2017-03-09,51.54999923706055,50.47999954223633,51.529998779296875,50.72999954223633,3135500.0,47.1052131652832
2017-03-10,51.5,50.41999816894531,50.93000030517578,50.70000076293945,3967800.0,47.07736587524414
2017-03-13,51.119998931884766,50.58000183105469,50.84000015258789,50.689998626708984,4170200.0,47.06807327270508
2017-03-14,50.79999923706055,50.279998779296875,50.56999969482422,50.68000030517578,1859600.0,47.05879592895508
2017-03-15,51.61000061035156,50.72999954223633,50.95000076293945,51.36000061035156,2744500.0,47.69020462036133
2017-03-16,51.810001373291016,51.22999954223633,51.630001068115234,51.459999084472656,2712500.0,47.783058166503906
2017-03-17,51.790000915527344,51.2400016784668,51.66999816894531,51.36000061035156,3770900.0,47.69020462036133
2017-03-20,52.27000045776367,51.060001373291016,51.47999954223633,52.220001220703125,2233100.0,48.48875427246094
2017-03-21,52.470001220703125,50.77000045776367,52.369998931884766,50.91999816894531,3247400.0,47.281639099121094
2017-03-22,51.41999816894531,50.59000015258789,51.029998779296875,51.16999816894531,1567300.0,47.51377868652344
2017-03-23,51.88999938964844,51.04999923706055,51.20000076293945,51.310001373291016,2098800.0,47.64377975463867
2017-03-24,51.47999954223633,50.560001373291016,51.400001525878906,50.810001373291016,2071800.0,47.179500579833984
2017-03-27,50.400001525878906,49.619998931884766,50.209999084472656,50.27000045776367,2153500.0,46.67808532714844
2017-03-28,51.08000183105469,50.13999938964844,50.189998626708984,50.93000030517578,1906000.0,47.29092788696289
2017-03-29,51.06999969482422,50.619998931884766,50.720001220703125,50.7400016784668,1698200.0,47.114505767822266
2017-03-30,51.15999984741211,50.560001373291016,50.63999938964844,51.13999938964844,2109300.0,47.48591995239258
2017-03-31,51.25,50.720001220703125,50.900001525878906,50.779998779296875,3210800.0,47.15164566040039
2017-04-03,51.13999938964844,49.86000061035156,50.88999938964844,50.189998626708984,2701500.0,46.60379409790039
2017-04-04,50.81999969482422,49.9900016784668,50.220001220703125,50.70000076293945,2369600.0,47.07736587524414
2017-04-05,51.29999923706055,50.52000045776367,50.849998474121094,50.58000183105469,1524600.0,46.965938568115234
2017-04-06,51.27000045776367,50.45000076293945,50.529998779296875,50.95000076293945,1221200.0,47.309505462646484
2017-04-07,51.11000061035156,50.439998626708984,50.77000045776367,50.5099983215332,1434400.0,46.90093994140625
2017-04-10,50.84000015258789,50.220001220703125,50.66999816894531,50.45000076293945,1661900.0,46.84523010253906
2017-04-11,50.459999084472656,49.90999984741211,50.29999923706055,50.2599983215332,1666700.0,46.668800354003906
2017-04-12,50.31999969482422,49.599998474121094,50.15999984741211,50.040000915527344,3454600.0,46.46451950073242
2017-04-13,50.0099983215332,49.619998931884766,49.90999984741211,49.63999938964844,1973500.0,46.093101501464844
2017-04-17,50.47999954223633,49.93000030517578,49.95000076293945,50.470001220703125,1797200.0,46.863792419433594
2017-04-18,51.9900016784668,50.869998931884766,50.869998931884766,51.45000076293945,3130100.0,47.773780822753906
2017-04-19,52.720001220703125,51.970001220703125,52.029998779296875,52.33000183105469,3047200.0,48.59089660644531
2017-04-20,53.29999923706055,52.36000061035156,52.540000915527344,53.02000045776367,3996000.0,49.23160171508789
2017-04-21,53.029998779296875,52.560001373291016,53.0,52.779998779296875,2368200.0,49.00874328613281
2017-04-24,53.68000030517578,53.20000076293945,53.599998474121094,53.209999084472656,3156700.0,49.408016204833984
2017-04-25,53.970001220703125,53.529998779296875,53.599998474121094,53.689998626708984,2661300.0,49.85371780395508
2017-04-26,54.22999954223633,53.630001068115234,53.7400016784668,54.06999969482422,1907800.0,50.20656204223633
2017-04-27,55.540000915527344,53.189998626708984,54.0,54.91999816894531,3098000.0,50.99583053588867
2017-04-28,54.869998931884766,53.849998474121094,54.630001068115234,53.970001220703125,2686600.0,50.113712310791016
2017-05-01,54.20000076293945,53.65999984741211,54.09000015258789,53.779998779296875,2490100.0,49.937286376953125
2017-05-02,53.970001220703125,53.40999984741211,53.7599983215332,53.689998626708984,1916800.0,49.85371780395508
2017-05-03,53.560001373291016,53.09000015258789,53.38999938964844,53.279998779296875,2238600.0,49.47301483154297
2017-05-04,53.5,52.970001220703125,53.2599983215332,53.150001525878906,2393900.0,49.3523063659668
2017-05-05,53.52000045776367,52.900001525878906,53.380001068115234,53.439998626708984,2254200.0,49.62158203125
2017-05-08,53.599998474121094,52.880001068115234,53.380001068115234,52.939998626708984,2050600.0,49.15730667114258
2017-05-09,53.209999084472656,52.52000045776367,53.02000045776367,52.540000915527344,1979700.0,48.785888671875
2017-05-10,53.2599983215332,52.40999984741211,52.5,53.06999969482422,2117100.0,49.278018951416016
2017-05-11,53.11000061035156,52.31999969482422,52.810001373291016,52.54999923706055,2119800.0,48.7951774597168
2017-05-12,52.52000045776367,52.040000915527344,52.459999084472656,52.290000915527344,1799600.0,48.55375671386719
2017-05-15,53.209999084472656,52.25,52.439998626708984,53.060001373291016,2053500.0,49.26873779296875
2017-05-16,53.13999938964844,52.25,53.09000015258789,52.880001068115234,1837100.0,49.101600646972656
2017-05-17,52.880001068115234,51.61000061035156,52.880001068115234,51.65999984741211,2268500.0,47.96876525878906
2017-05-18,51.560001373291016,50.65999984741211,51.4900016784668,50.81999969482422,2737400.0,47.188785552978516
2017-05-19,51.470001220703125,50.84000015258789,51.040000915527344,51.11000061035156,2062200.0,47.45806884765625
2017-05-22,51.779998779296875,51.22999954223633,51.33000183105469,51.66999816894531,2055000.0,47.97805404663086
2017-05-23,52.150001525878906,51.689998626708984,51.790000915527344,51.970001220703125,1862200.0,48.256614685058594
2017-05-24,52.45000076293945,51.72999954223633,51.7599983215332,52.16999816894531,1947800.0,48.87730407714844
2017-05-25,52.40999984741211,51.970001220703125,52.279998779296875,52.15999984741211,1577100.0,48.86793899536133
2017-05-26,52.56999969482422,51.86000061035156,52.099998474121094,52.41999816894531,1274300.0,49.11152648925781
2017-05-30,53.7400016784668,52.72999954223633,53.04999923706055,53.279998779296875,2876500.0,49.9172477722168
2017-05-31,53.40999984741211,52.59000015258789,53.33000183105469,52.880001068115234,3189400.0,49.54249954223633
2017-06-01,53.95000076293945,52.81999969482422,53.0,53.880001068115234,3351500.0,50.4793815612793
2017-06-02,54.619998931884766,53.81999969482422,53.849998474121094,54.38999938964844,2458100.0,50.957191467285156
2017-06-05,54.439998626708984,54.0,54.29999923706055,54.13999938964844,2844600.0,50.72296905517578
2017-06-06,54.09000015258789,53.47999954223633,53.939998626708984,53.849998474121094,2596400.0,50.45127487182617
2017-06-07,54.43000030517578,53.790000915527344,54.18000030517578,54.0,1529400.0,50.59181213378906
2017-06-08,54.0,53.439998626708984,54.0,53.66999816894531,1895400.0,50.282630920410156
2017-06-09,54.900001525878906,53.81999969482422,53.88999938964844,54.88999938964844,2316400.0,51.42563247680664
2017-06-12,55.34000015258789,54.790000915527344,54.88999938964844,55.09000015258789,3429200.0,51.613014221191406
2017-06-13,55.970001220703125,54.959999084472656,55.0,55.86000061035156,2726400.0,52.334415435791016
2017-06-14,56.25,55.560001373291016,55.59000015258789,55.88999938964844,2124900.0,52.362518310546875
2017-06-15,56.2400016784668,55.5,55.7599983215332,55.810001373291016,1751600.0,52.28757095336914
2017-06-16,56.599998474121094,55.619998931884766,55.880001068115234,56.5099983215332,3984400.0,52.94338607788086
2017-06-19,57.09000015258789,56.560001373291016,56.95000076293945,56.939998626708984,1980100.0,53.34624481201172
2017-06-20,57.0,56.630001068115234,56.849998474121094,56.689998626708984,1736500.0,53.11202621459961
2017-06-21,56.869998931884766,56.029998779296875,56.7599983215332,56.209999084472656,2009300.0,52.662322998046875
2017-06-22,56.54999923706055,55.900001525878906,56.25,56.439998626708984,2375700.0,52.8778076171875
2017-06-23,57.130001068115234,56.25,56.5,56.849998474121094,9019100.0,53.26192855834961
2017-06-26,57.0,56.349998474121094,56.849998474121094,56.72999954223633,1927700.0,53.149497985839844
2017-06-27,57.2400016784668,56.18000030517578,56.869998931884766,56.18000030517578,1238800.0,52.63422393798828
2017-06-28,56.5,55.40999984741211,56.11000061035156,55.97999954223633,2913600.0,52.446842193603516
2017-06-29,56.15999984741211,55.459999084472656,56.040000915527344,55.68000030517578,1796800.0,52.165775299072266
2017-06-30,56.88999938964844,55.88999938964844,55.90999984741211,56.61000061035156,1629100.0,53.037078857421875
2017-07-03,57.20000076293945,56.779998779296875,56.88999938964844,56.97999954223633,875800.0,53.383724212646484
2017-07-05,57.13999938964844,56.470001220703125,56.939998626708984,56.75,1460900.0,53.16823959350586
2017-07-06,56.63999938964844,56.04999923706055,56.54999923706055,56.130001068115234,1475000.0,52.587371826171875
2017-07-07,56.63999938964844,56.029998779296875,56.189998626708984,56.369998931884766,1159700.0,52.81222152709961
2017-07-10,57.52000045776367,56.11000061035156,56.2599983215332,57.2400016784668,1907400.0,53.627315521240234
2017-07-11,57.439998626708984,56.880001068115234,57.31999969482422,57.040000915527344,1183900.0,53.43993377685547
2017-07-12,57.459999084472656,57.09000015258789,57.29999923706055,57.209999084472656,1429400.0,53.59920883178711
2017-07-13,58.95000076293945,57.689998626708984,57.79999923706055,58.150001525878906,3013700.0,54.479881286621094
2017-07-14,58.349998474121094,57.959999084472656,58.119998931884766,58.150001525878906,1092400.0,54.479881286621094
2017-07-17,58.470001220703125,57.810001373291016,58.0,58.16999816894531,1618100.0,54.49861145019531
2017-07-18,57.880001068115234,57.38999938964844,57.619998931884766,57.630001068115234,1458400.0,53.99270248413086
2017-07-19,57.90999984741211,57.470001220703125,57.65999984741211,57.5099983215332,1734800.0,53.88027572631836
2017-07-20,57.66999816894531,56.63999938964844,57.5,56.91999816894531,2003300.0,53.327510833740234
2017-07-21,56.939998626708984,56.43000030517578,56.810001373291016,56.63999938964844,2529800.0,53.06517791748047
2017-07-24,56.95000076293945,56.43000030517578,56.630001068115234,56.75,1233000.0,53.16823959350586
2017-07-25,57.349998474121094,56.63999938964844,57.29999923706055,56.900001525878906,1554500.0,53.30877685546875
2017-07-26,56.959999084472656,56.279998779296875,56.959999084472656,56.38999938964844,1817400.0,52.830955505371094
2017-07-27,57.52000045776367,54.95000076293945,55.88999938964844,57.4900016784668,2731100.0,53.86153793334961
2017-07-28,57.560001373291016,54.22999954223633,57.439998626708984,54.7400016784668,6280600.0,51.285099029541016
2017-07-31,55.18000030517578,54.43000030517578,54.66999816894531,54.97999954223633,3013500.0,51.50994873046875
2017-08-01,55.560001373291016,54.81999969482422,55.36000061035156,55.33000183105469,2652600.0,51.837867736816406
2017-08-02,55.290000915527344,54.15999984741211,55.15999984741211,54.529998779296875,2003200.0,51.08835220336914
2017-08-03,54.88999938964844,53.4900016784668,54.5,53.65999984741211,3034400.0,50.27326583862305
2017-08-04,54.31999969482422,53.7400016784668,53.91999816894531,53.93000030517578,1647900.0,50.526222229003906
2017-08-07,54.5099983215332,53.79999923706055,54.02000045776367,54.29999923706055,1494700.0,50.87287139892578
2017-08-08,54.369998931884766,53.91999816894531,54.29999923706055,53.9900016784668,1569200.0,50.58243942260742
2017-08-09,54.0,53.06999969482422,53.75,53.40999984741211,1850900.0,50.039039611816406
2017-08-10,53.40999984741211,52.20000076293945,53.310001373291016,52.209999084472656,2426700.0,48.91477966308594
2017-08-11,52.720001220703125,51.279998779296875,51.689998626708984,52.59000015258789,2091500.0,49.71116256713867
2017-08-14,53.900001525878906,53.099998474121094,53.29999923706055,53.63999938964844,2076900.0,50.703678131103516
2017-08-15,53.959999084472656,53.41999816894531,53.65999984741211,53.43000030517578,2119900.0,50.50518035888672
2017-08-16,54.779998779296875,53.91999816894531,53.91999816894531,54.400001525878906,2204300.0,51.42207717895508
2017-08-17,54.77000045776367,53.90999984741211,54.2599983215332,53.939998626708984,2117800.0,50.98726272583008
2017-08-18,54.540000915527344,53.63999938964844,53.849998474121094,54.290000915527344,2141800.0,51.31809997558594
2017-08-21,54.2599983215332,52.83000183105469,54.20000076293945,53.18000030517578,2274000.0,50.26886749267578
2017-08-22,53.7599983215332,53.189998626708984,53.33000183105469,53.75,1153400.0,50.80766296386719
2017-08-23,54.060001373291016,53.36000061035156,53.47999954223633,53.66999816894531,1322200.0,50.73203659057617
2017-08-24,53.95000076293945,53.310001373291016,53.59000015258789,53.88999938964844,1635200.0,50.939998626708984
2017-08-25,54.88999938964844,53.880001068115234,54.130001068115234,54.59000015258789,2015700.0,51.60167694091797
2017-08-28,54.68000030517578,53.560001373291016,54.68000030517578,53.86000061035156,1377900.0,50.91164016723633
2017-08-29,53.689998626708984,53.099998474121094,53.54999923706055,53.20000076293945,1882700.0,50.28776931762695
2017-08-30,53.91999816894531,53.0099983215332,53.290000915527344,53.86000061035156,1149100.0,50.91164016723633
2017-08-31,54.27000045776367,53.790000915527344,54.04999923706055,53.869998931884766,1795200.0,50.92108917236328
2017-09-01,55.0,54.08000183105469,54.150001525878906,54.90999984741211,1612700.0,51.90415573120117
2017-09-05,55.099998474121094,54.36000061035156,54.650001525878906,54.790000915527344,2146500.0,51.790733337402344
2017-09-06,55.22999954223633,54.439998626708984,54.959999084472656,54.880001068115234,1277800.0,51.87580490112305
2017-09-07,55.029998779296875,54.400001525878906,54.97999954223633,54.689998626708984,1129500.0,51.69620132446289
2017-09-08,55.04999923706055,54.5,54.66999816894531,54.779998779296875,1449700.0,51.78127670288086
2017-09-11,56.349998474121094,54.7400016784668,55.099998474121094,56.099998474121094,3453600.0,53.02901840209961
2017-09-12,57.150001525878906,55.88999938964844,56.560001373291016,56.02000045776367,1948700.0,52.953399658203125
2017-09-13,56.400001525878906,55.2400016784668,55.9900016784668,56.150001525878906,1965100.0,53.0762825012207
2017-09-14,56.650001525878906,55.689998626708984,55.91999816894531,56.2599983215332,1463600.0,53.180259704589844
2017-09-15,56.59000015258789,55.849998474121094,56.06999969482422,56.22999954223633,2199000.0,53.15190124511719
2017-09-18,57.150001525878906,56.41999816894531,56.5099983215332,57.04999923706055,2010000.0,53.9270133972168
2017-09-19,57.5099983215332,56.540000915527344,57.060001373291016,57.5,1962800.0,54.35238265991211
2017-09-20,57.970001220703125,57.18000030517578,57.439998626708984,57.84000015258789,1631500.0,54.673770904541016
2017-09-21,58.09000015258789,57.15999984741211,57.849998474121094,57.290000915527344,1322500.0,54.153873443603516
2017-09-22,57.29999923706055,55.439998626708984,57.20000076293945,56.04999923706055,3459300.0,52.98175811767578
2017-09-25,56.060001373291016,55.380001068115234,56.0,55.66999816894531,2436200.0,52.622554779052734
2017-09-26,56.150001525878906,55.599998474121094,55.849998474121094,55.900001525878906,1771400.0,52.839969635009766
2017-09-27,56.86000061035156,55.9900016784668,56.150001525878906,56.650001525878906,2117900.0,53.548912048339844
2017-09-28,57.09000015258789,56.540000915527344,56.540000915527344,56.869998931884766,1763200.0,53.75687026977539
2017-09-29,57.029998779296875,56.439998626708984,56.77000045776367,56.81999969482422,1436400.0,53.7096061706543
2017-10-02,57.61000061035156,56.7599983215332,56.869998931884766,57.380001068115234,2142700.0,54.238956451416016
2017-10-03,57.540000915527344,57.0099983215332,57.4900016784668,57.38999938964844,1381200.0,54.2484016418457
2017-10-04,57.93000030517578,57.25,57.4900016784668,57.779998779296875,1369400.0,54.61705017089844
2017-10-05,57.77000045776367,57.2599983215332,57.68000030517578,57.709999084472656,1280400.0,54.55088806152344
2017-10-06,57.95000076293945,57.25,57.709999084472656,57.45000076293945,982000.0,54.305118560791016
2017-10-09,57.439998626708984,56.95000076293945,57.43000030517578,57.029998779296875,1313000.0,53.908111572265625
2017-10-10,57.689998626708984,57.029998779296875,57.029998779296875,57.63999938964844,1157500.0,54.484718322753906
2017-10-11,57.97999954223633,57.13999938964844,57.689998626708984,57.38999938964844,1555100.0,54.2484016418457
2017-10-12,57.560001373291016,57.130001068115234,57.279998779296875,57.22999954223633,1676400.0,54.09716033935547
2017-10-13,57.59000015258789,57.2599983215332,57.33000183105469,57.45000076293945,1307900.0,54.305118560791016
2017-10-16,57.720001220703125,57.25,57.59000015258789,57.720001220703125,1291500.0,54.560340881347656
2017-10-17,58.189998626708984,57.70000076293945,57.70000076293945,58.13999938964844,1374300.0,54.95734786987305
2017-10-18,58.33000183105469,57.810001373291016,58.29999923706055,58.02000045776367,1265800.0,54.84391784667969
2017-10-19,57.900001525878906,57.27000045776367,57.75,57.61000061035156,1213800.0,54.45635986328125
2017-10-20,58.25,57.63999938964844,57.970001220703125,58.209999084472656,1181500.0,55.02350997924805
2017-10-23,58.56999969482422,57.88999938964844,58.43000030517578,58.25,1253600.0,55.06132507324219
2017-10-24,58.959999084472656,58.09000015258789,58.61000061035156,58.66999816894531,1845800.0,55.458335876464844
2017-10-25,58.95000076293945,57.52000045776367,58.90999984741211,57.9900016784668,2448800.0,54.81555938720703
2017-10-26,58.54999923706055,57.54999923706055,58.52000045776367,58.0,2000300.0,54.825008392333984
2017-10-27,58.04999923706055,56.13999938964844,58.0,57.95000076293945,2610400.0,54.777748107910156
2017-10-30,57.84000015258789,56.959999084472656,57.619998931884766,57.189998626708984,1420500.0,54.05935287475586
2017-10-31,57.650001525878906,57.08000183105469,57.22999954223633,57.27000045776367,1276200.0,54.134971618652344
2017-11-01,57.93000030517578,57.310001373291016,57.650001525878906,57.720001220703125,1777800.0,54.560340881347656
2017-11-02,58.45000076293945,57.38999938964844,57.869998931884766,57.5,2199200.0,54.35238265991211
2017-11-03,57.63999938964844,56.93000030517578,57.45000076293945,57.119998931884766,1517500.0,53.99318313598633
2017-11-06,57.189998626708984,55.65999984741211,57.099998474121094,55.810001373291016,2328400.0,52.7548942565918
2017-11-07,55.83000183105469,55.11000061035156,55.61000061035156,55.25,2256700.0,52.225547790527344
2017-11-08,55.40999984741211,54.529998779296875,55.060001373291016,55.279998779296875,1748500.0,52.25390625
2017-11-09,55.33000183105469,54.79999923706055,55.02000045776367,54.93000030517578,1583400.0,51.923065185546875
2017-11-10,54.939998626708984,54.31999969482422,54.75,54.849998474121094,1785400.0,51.847442626953125
2017-11-13,54.689998626708984,54.130001068115234,54.56999969482422,54.38999938964844,2438100.0,51.41262435913086
2017-11-14,54.43000030517578,53.75,53.79999923706055,54.33000183105469,1879300.0,51.80836486816406
2017-11-15,54.459999084472656,53.099998474121094,53.970001220703125,53.88999938964844,1840800.0,51.388790130615234
2017-11-16,54.470001220703125,53.72999954223633,54.08000183105469,54.06999969482422,1982700.0,51.56043243408203
2017-11-17,54.380001068115234,53.70000076293945,53.93000030517578,54.209999084472656,1249700.0,51.69393539428711
2017-11-20,54.290000915527344,53.880001068115234,54.0,54.150001525878906,1203600.0,51.63671875
2017-11-21,54.9900016784668,54.2599983215332,54.459999084472656,54.709999084472656,2018700.0,52.17072677612305
2017-11-22,55.06999969482422,54.61000061035156,54.849998474121094,54.75,1085800.0,52.2088737487793
2017-11-24,55.45000076293945,54.72999954223633,54.97999954223633,54.91999816894531,567000.0,52.3709831237793
2017-11-27,55.20000076293945,54.630001068115234,54.90999984741211,55.040000915527344,1601100.0,52.485416412353516
2017-11-28,55.619998931884766,55.0,55.34000015258789,55.58000183105469,2306000.0,53.00035095214844
2017-11-29,55.77000045776367,55.0,55.540000915527344,55.52000045776367,2317100.0,52.94313049316406
2017-11-30,56.93000030517578,55.380001068115234,55.529998779296875,56.61000061035156,2842500.0,53.9825439453125
2017-12-01,56.54999923706055,54.77000045776367,56.540000915527344,55.630001068115234,2807800.0,53.048030853271484
2017-12-04,57.279998779296875,55.720001220703125,56.0,56.880001068115234,2459500.0,54.240013122558594
2017-12-05,57.34000015258789,56.41999816894531,56.959999084472656,56.91999816894531,2295800.0,54.27815628051758
2017-12-06,57.25,56.689998626708984,56.95000076293945,56.79999923706055,1378100.0,54.16372299194336
2017-12-07,57.099998474121094,56.54999923706055,56.75,56.79999923706055,1199700.0,54.16372299194336
2017-12-08,57.22999954223633,56.65999984741211,56.91999816894531,56.90999984741211,1301800.0,54.268619537353516
2017-12-11,57.43000030517578,56.650001525878906,56.86000061035156,57.31999969482422,2633400.0,54.65958786010742
2017-12-12,57.400001525878906,56.540000915527344,57.400001525878906,56.630001068115234,2582100.0,54.00161361694336
2017-12-13,57.209999084472656,56.470001220703125,56.68000030517578,56.47999954223633,1592400.0,53.85857391357422
2017-12-14,56.72999954223633,55.18000030517578,56.47999954223633,55.18000030517578,2233200.0,52.61891555786133
2017-12-15,56.459999084472656,55.77000045776367,55.77000045776367,56.25,4869300.0,53.639251708984375
2017-12-18,57.56999969482422,56.54999923706055,56.630001068115234,57.40999984741211,2903500.0,54.74541473388672
2017-12-19,58.209999084472656,57.459999084472656,57.47999954223633,57.7599983215332,3100900.0,55.07917022705078
2017-12-20,58.18000030517578,57.84000015258789,58.04999923706055,57.970001220703125,1838600.0,55.279422760009766
2017-12-21,58.099998474121094,57.439998626708984,58.02000045776367,57.47999954223633,1466600.0,54.812164306640625
2017-12-22,58.13999938964844,57.400001525878906,57.4900016784668,57.97999954223633,1229800.0,55.28895568847656
2017-12-26,58.2599983215332,57.400001525878906,58.029998779296875,57.4900016784668,1303100.0,54.82170486450195
2017-12-27,57.93000030517578,57.470001220703125,57.66999816894531,57.650001525878906,917900.0,54.974273681640625
2017-12-28,57.83000183105469,57.25,57.709999084472656,57.83000183105469,1013200.0,55.14591979980469
2017-12-29,58.25,57.630001068115234,57.9900016784668,57.939998626708984,1569500.0,55.25081253051758
2018-01-02,59.84000015258789,58.2599983215332,58.70000076293945,59.77000045776367,3177700.0,56.99587631225586
2018-01-03,60.83000183105469,59.790000915527344,59.95000076293945,60.560001373291016,2733800.0,57.749210357666016
2018-01-04,61.880001068115234,60.72999954223633,60.880001068115234,61.58000183105469,2562300.0,58.72187042236328
2018-01-05,61.88999938964844,61.459999084472656,61.869998931884766,61.70000076293945,1732100.0,58.836299896240234
2018-01-08,62.439998626708984,61.650001525878906,61.79999923706055,62.130001068115234,2454400.0,59.24634552001953
2018-01-09,62.369998931884766,61.34000015258789,62.189998626708984,61.4900016784668,2487900.0,58.636051177978516
2018-01-10,61.959999084472656,61.279998779296875,61.529998779296875,61.619998931884766,1341500.0,58.760009765625
2018-01-11,62.22999954223633,61.689998626708984,62.06999969482422,62.22999954223633,1238200.0,59.341697692871094
2018-01-12,62.43000030517578,61.709999084472656,62.369998931884766,62.2599983215332,2226600.0,59.370304107666016
2018-01-16,62.290000915527344,60.880001068115234,62.099998474121094,61.22999954223633,1841000.0,58.38810729980469
2018-01-17,61.790000915527344,61.31999969482422,61.59000015258789,61.4900016784668,1547000.0,58.636051177978516
2018-01-18,62.81999969482422,61.15999984741211,61.2400016784668,62.619998931884766,4445300.0,59.713600158691406
2018-01-19,63.709999084472656,62.79999923706055,62.88999938964844,63.5,3126200.0,60.552757263183594
2018-01-22,63.529998779296875,62.7599983215332,63.31999969482422,63.459999084472656,1973500.0,60.514610290527344
2018-01-23,63.56999969482422,62.9900016784668,63.13999938964844,63.31999969482422,1728700.0,60.38111114501953
2018-01-24,64.30999755859375,63.40999984741211,63.619998931884766,63.65999984741211,1776500.0,60.705326080322266
2018-01-25,64.06999969482422,63.209999084472656,63.84000015258789,63.400001525878906,1599300.0,60.4573974609375
2018-01-26,66.7300033569336,63.25,63.54999923706055,64.75,3132200.0,61.74474334716797
2018-01-29,66.94000244140625,64.94999694824219,66.94000244140625,65.08000183105469,3762900.0,62.05942153930664
2018-01-30,65.06999969482422,63.65999984741211,64.41999816894531,64.19999694824219,2431700.0,61.22025680541992
2018-01-31,63.4900016784668,62.40999984741211,63.34000015258789,62.86000061035156,4886900.0,59.94245910644531
2018-02-01,63.31999969482422,61.36000061035156,62.88999938964844,61.66999816894531,4301000.0,58.80769348144531
2018-02-02,62.95000076293945,61.2599983215332,61.4900016784668,62.16999816894531,4226300.0,59.28448486328125
2018-02-05,62.83000183105469,59.2400016784668,61.83000183105469,59.439998626708984,3483400.0,56.68119430541992
2018-02-06,59.7599983215332,57.279998779296875,58.529998779296875,59.56999969482422,4315800.0,56.80516052246094
2018-02-07,60.599998474121094,59.130001068115234,59.33000183105469,59.25,3871400.0,56.5000114440918
2018-02-08,59.220001220703125,56.0,59.150001525878906,56.04999923706055,3729100.0,53.44853210449219
2018-02-09,57.7400016784668,55.130001068115234,56.95000076293945,57.20000076293945,3375300.0,54.545162200927734
2018-02-12,58.310001373291016,57.15999984741211,57.61000061035156,57.880001068115234,2578900.0,55.19359588623047
2018-02-13,58.13999938964844,57.02000045776367,57.70000076293945,58.029998779296875,2240400.0,55.336631774902344
2018-02-14,58.5,57.43000030517578,57.56999969482422,58.380001068115234,2030600.0,55.67039489746094
2018-02-15,58.970001220703125,57.83000183105469,58.84000015258789,58.599998474121094,2865100.0,55.88018035888672
2018-02-16,59.58000183105469,58.290000915527344,58.439998626708984,58.939998626708984,2344500.0,56.20439910888672
2018-02-20,59.04999923706055,57.86000061035156,58.22999954223633,58.0,2809600.0,55.75737762451172
2018-02-21,59.5,57.79999923706055,58.0,58.400001525878906,2282200.0,56.14191436767578
2018-02-22,59.08000183105469,58.15999984741211,58.7400016784668,58.310001373291016,1490400.0,56.05539321899414
2018-02-23,59.52000045776367,58.41999816894531,58.709999084472656,59.5,2289400.0,57.199378967285156
2018-02-26,60.75,59.52000045776367,59.849998474121094,60.56999969482422,1526200.0,58.228004455566406
2018-02-27,61.29999923706055,60.15999984741211,60.599998474121094,60.15999984741211,1832200.0,57.83385467529297
2018-02-28,60.7400016784668,59.560001373291016,60.470001220703125,59.59000015258789,2358600.0,57.2859001159668
2018-03-01,59.869998931884766,57.95000076293945,59.63999938964844,58.36000061035156,2243700.0,56.103458404541016
2018-03-02,58.66999816894531,57.68000030517578,57.9900016784668,58.470001220703125,1931900.0,56.209205627441406
2018-03-05,59.16999816894531,58.04999923706055,58.11000061035156,58.939998626708984,1993500.0,56.661033630371094
2018-03-06,58.61000061035156,57.189998626708984,58.34000015258789,57.70000076293945,4457400.0,55.46897888183594
2018-03-07,56.18000030517578,54.279998779296875,56.040000915527344,55.0,7476800.0,52.87337875366211
2018-03-08,55.380001068115234,54.560001373291016,55.0,54.900001525878906,3597900.0,52.777244567871094
2018-03-09,55.31999969482422,54.369998931884766,55.04999923706055,55.2400016784668,3877400.0,53.104095458984375
2018-03-12,55.81999969482422,54.900001525878906,55.5099983215332,54.97999954223633,3340200.0,52.85415267944336
2018-03-13,55.63999938964844,54.900001525878906,55.29999923706055,55.0,2864100.0,52.87337875366211
2018-03-14,55.41999816894531,54.439998626708984,55.36000061035156,54.75,2995500.0,52.63304138183594
2018-03-15,54.970001220703125,54.349998474121094,54.79999923706055,54.41999816894531,2534300.0,52.315799713134766
2018-03-16,55.16999816894531,54.290000915527344,54.459999084472656,54.56999969482422,3989700.0,52.46000289916992
2018-03-19,54.59000015258789,52.88999938964844,54.5,53.220001220703125,2993600.0,51.16220474243164
2018-03-20,54.040000915527344,53.0,53.5099983215332,53.20000076293945,2877800.0,51.14297866821289
2018-03-21,53.93000030517578,52.810001373291016,53.20000076293945,53.529998779296875,2819500.0,51.46021270751953
2018-03-22,53.150001525878906,50.41999816894531,53.0,51.40999984741211,2943500.0,49.422183990478516
2018-03-23,51.970001220703125,50.040000915527344,51.65999984741211,50.150001525878906,3186900.0,48.210906982421875
2018-03-26,52.56999969482422,51.0099983215332,51.2599983215332,52.369998931884766,4579100.0,50.34506607055664
2018-03-27,52.900001525878906,51.790000915527344,52.41999816894531,52.130001068115234,3425300.0,50.114349365234375
2018-03-28,53.16999816894531,52.09000015258789,52.2599983215332,52.380001068115234,2797800.0,50.35468292236328
2018-03-29,53.970001220703125,52.81999969482422,52.81999969482422,53.43000030517578,2871400.0,51.36408233642578
2018-04-02,53.27000045776367,50.41999816894531,53.18000030517578,51.130001068115234,3264000.0,49.15301513671875
2018-04-03,52.560001373291016,51.18000030517578,51.33000183105469,52.5099983215332,2954800.0,50.479652404785156
2018-04-04,53.22999954223633,51.4900016784668,51.4900016784668,53.16999816894531,2339700.0,51.114131927490234
2018-04-05,53.720001220703125,53.150001525878906,53.52000045776367,53.43000030517578,3283800.0,51.36408233642578
2018-04-06,53.16999816894531,51.709999084472656,52.880001068115234,52.16999816894531,2845600.0,50.15279769897461
2018-04-09,52.599998474121094,51.7599983215332,52.459999084472656,51.9900016784668,2924500.0,49.97976303100586
2018-04-10,52.86000061035156,52.13999938964844,52.75,52.5099983215332,4038400.0,50.479652404785156
2018-04-11,52.68000030517578,51.959999084472656,52.029998779296875,52.439998626708984,1460100.0,50.412357330322266
2018-04-12,52.900001525878906,52.400001525878906,52.70000076293945,52.59000015258789,1313000.0,50.55656051635742
2018-04-13,53.45000076293945,52.84000015258789,53.08000183105469,53.220001220703125,1413400.0,51.16220474243164
2018-04-16,53.97999954223633,53.27000045776367,53.5,53.75,1625700.0,51.67171096801758
2018-04-17,54.02000045776367,53.220001220703125,53.529998779296875,53.52000045776367,1899500.0,51.45060348510742
2018-04-18,54.290000915527344,53.560001373291016,53.72999954223633,54.06999969482422,2328500.0,51.979331970214844
2018-04-19,54.16999816894531,53.20000076293945,54.060001373291016,53.59000015258789,1634900.0,51.51789474487305
2018-04-20,54.18000030517578,53.209999084472656,54.0099983215332,53.40999984741211,1728900.0,51.34485626220703
2018-04-23,53.86000061035156,53.38999938964844,53.5,53.709999084472656,1990900.0,51.63325500488281
2018-04-24,54.060001373291016,52.45000076293945,53.9900016784668,52.7599983215332,3193700.0,50.71998596191406
2018-04-25,53.810001373291016,52.0099983215332,52.709999084472656,53.47999954223633,3457000.0,51.412147521972656
2018-04-26,54.13999938964844,51.83000183105469,53.470001220703125,52.380001068115234,2644500.0,50.35468292236328
2018-04-27,53.41999816894531,52.43000030517578,52.43000030517578,52.58000183105469,2535000.0,50.54695129394531
2018-04-30,52.7599983215332,51.470001220703125,52.599998474121094,51.560001373291016,2682300.0,49.56638717651367
2018-05-01,51.47999954223633,50.209999084472656,51.43000030517578,51.11000061035156,2900500.0,49.1337890625
2018-05-02,51.209999084472656,50.0,51.11000061035156,50.18000030517578,2491300.0,48.23974609375
2018-05-03,51.310001373291016,50.029998779296875,50.18000030517578,51.16999816894531,4594500.0,49.19146728515625
2018-05-04,52.5099983215332,50.81999969482422,50.95000076293945,52.189998626708984,2278300.0,50.17202377319336
2018-05-07,52.040000915527344,51.13999938964844,51.9900016784668,51.88999938964844,2289600.0,49.88362503051758
2018-05-08,51.939998626708984,51.40999984741211,51.88999938964844,51.709999084472656,1879400.0,49.71059036254883
2018-05-09,52.400001525878906,51.61000061035156,51.91999816894531,52.189998626708984,1786200.0,50.17202377319336
2018-05-10,53.29999923706055,52.25,52.29999923706055,52.84000015258789,1432600.0,50.79689407348633
2018-05-11,53.84000015258789,52.84000015258789,52.95000076293945,53.650001525878906,1839900.0,51.57557678222656
2018-05-14,54.34000015258789,53.4900016784668,53.75,54.209999084472656,2621500.0,52.113922119140625
2018-05-15,54.119998931884766,53.0099983215332,54.0099983215332,53.810001373291016,3179300.0,51.729393005371094
2018-05-16,55.810001373291016,53.959999084472656,54.0,55.029998779296875,4568100.0,52.90221405029297
2018-05-17,55.349998474121094,54.880001068115234,54.88999938964844,55.060001373291016,2358100.0,52.93105697631836
2018-05-18,55.22999954223633,54.75,55.0,54.959999084472656,2145600.0,52.834922790527344
2018-05-21,55.290000915527344,54.72999954223633,55.20000076293945,55.2400016784668,1851400.0,53.104095458984375
2018-05-22,55.970001220703125,54.72999954223633,55.189998626708984,55.689998626708984,2968000.0,53.53669357299805
2018-05-23,55.63999938964844,54.59000015258789,55.34000015258789,55.25,3238300.0,53.113712310791016
2018-05-24,54.880001068115234,53.810001373291016,54.58000183105469,54.599998474121094,2747700.0,52.94401550292969
2018-05-25,54.650001525878906,53.810001373291016,54.45000076293945,54.130001068115234,1716200.0,52.48827362060547
2018-05-29,53.810001373291016,52.63999938964844,53.66999816894531,52.939998626708984,2179800.0,51.33435821533203
2018-05-30,54.20000076293945,53.33000183105469,53.43000030517578,53.88999938964844,1842000.0,52.255550384521484
2018-05-31,54.33000183105469,53.2400016784668,53.91999816894531,53.5,2271900.0,51.87738037109375
2018-06-01,55.66999816894531,54.52000045776367,55.08000183105469,55.2400016784668,3564300.0,53.564605712890625
2018-06-04,57.56999969482422,55.84000015258789,55.84000015258789,57.27000045776367,6673000.0,55.53303527832031
2018-06-05,58.58000183105469,57.119998931884766,57.66999816894531,57.189998626708984,6374900.0,55.45545959472656
2018-06-06,59.0,56.84000015258789,58.029998779296875,58.9900016784668,4790700.0,57.20087432861328
2018-06-07,59.060001373291016,58.540000915527344,59.0,58.61000061035156,3586100.0,56.832393646240234
2018-06-08,58.97999954223633,58.08000183105469,58.20000076293945,58.810001373291016,3392400.0,57.02633285522461
2018-06-11,59.400001525878906,58.79999923706055,58.869998931884766,59.0099983215332,2364000.0,57.22026443481445
2018-06-12,59.56999969482422,58.560001373291016,59.29999923706055,58.65999984741211,2820400.0,56.88087463378906
2018-06-13,58.43000030517578,57.099998474121094,58.38999938964844,57.20000076293945,3607700.0,55.46516036987305
2018-06-14,57.56999969482422,56.66999816894531,57.4900016784668,56.84000015258789,3981600.0,55.11608123779297
2018-06-15,56.36000061035156,54.95000076293945,56.099998474121094,55.43000030517578,6759100.0,53.748844146728516
2018-06-18,56.20000076293945,55.060001373291016,55.220001220703125,55.86000061035156,3835100.0,54.165802001953125
2018-06-19,55.58000183105469,54.63999938964844,55.400001525878906,54.779998779296875,2917900.0,53.118553161621094
2018-06-20,54.9900016784668,53.90999984741211,54.9900016784668,54.16999816894531,2896300.0,52.52705383300781
2018-06-21,54.2400016784668,52.58000183105469,54.189998626708984,52.869998931884766,4280900.0,51.266483306884766
2018-06-22,53.61000061035156,52.95000076293945,53.130001068115234,53.0,5024000.0,51.392547607421875
2018-06-25,53.220001220703125,52.29999923706055,52.97999954223633,53.040000915527344,2736100.0,51.431331634521484
2018-06-26,53.439998626708984,52.90999984741211,53.150001525878906,53.20000076293945,2264600.0,51.58647918701172
2018-06-27,53.7599983215332,52.849998474121094,53.279998779296875,52.869998931884766,2687500.0,51.266483306884766
2018-06-28,52.86000061035156,52.029998779296875,52.70000076293945,52.439998626708984,2556600.0,50.849525451660156
2018-06-29,52.869998931884766,52.06999969482422,52.63999938964844,52.08000183105469,2361900.0,50.500450134277344
2018-07-02,51.959999084472656,50.97999954223633,51.900001525878906,51.68000030517578,3003300.0,50.112579345703125
2018-07-03,52.220001220703125,51.380001068115234,51.939998626708984,51.61000061035156,1165800.0,50.044700622558594
2018-07-05,52.22999954223633,51.29999923706055,51.959999084472656,52.189998626708984,1966300.0,50.60710525512695
2018-07-06,52.650001525878906,51.619998931884766,51.95000076293945,52.36000061035156,1469900.0,50.77195358276367
2018-07-09,53.189998626708984,52.52000045776367,52.7400016784668,53.04999923706055,2326500.0,51.4410285949707
2018-07-10,53.54999923706055,53.08000183105469,53.08000183105469,53.470001220703125,1867500.0,51.848289489746094
2018-07-11,53.33000183105469,52.84000015258789,52.880001068115234,52.869998931884766,2937200.0,51.266483306884766
2018-07-12,54.0,53.0099983215332,53.349998474121094,53.31999969482422,2589800.0,51.70283508300781
2018-07-13,53.54999923706055,52.93000030517578,53.33000183105469,53.150001525878906,1312900.0,51.53799819946289
2018-07-16,53.279998779296875,52.29999923706055,53.15999984741211,52.459999084472656,1244500.0,50.868919372558594
2018-07-17,53.279998779296875,52.189998626708984,52.47999954223633,53.119998931884766,1754200.0,51.50890350341797
2018-07-18,53.310001373291016,52.810001373291016,53.08000183105469,53.04999923706055,1797800.0,51.4410285949707
2018-07-19,53.470001220703125,52.709999084472656,53.04999923706055,53.310001373291016,1250900.0,51.69314193725586
2018-07-20,53.09000015258789,52.630001068115234,52.84000015258789,52.84000015258789,1394400.0,51.237396240234375
2018-07-23,53.04999923706055,52.52000045776367,53.0099983215332,52.689998626708984,1926200.0,51.091941833496094
2018-07-24,53.150001525878906,52.66999816894531,52.83000183105469,53.04999923706055,2859200.0,51.4410285949707
2018-07-25,53.369998931884766,52.7400016784668,52.97999954223633,53.040000915527344,2764100.0,51.431331634521484
2018-07-26,53.439998626708984,50.79999923706055,53.439998626708984,52.040000915527344,3867800.0,50.4616584777832
2018-07-27,52.9900016784668,51.77000045776367,52.470001220703125,52.02000045776367,2612500.0,50.442264556884766
2018-07-30,53.2599983215332,52.150001525878906,52.150001525878906,52.75,2247600.0,51.150123596191406
2018-07-31,53.84000015258789,52.88999938964844,53.09000015258789,53.72999954223633,2277100.0,52.10040283203125
2018-08-01,53.720001220703125,52.369998931884766,53.279998779296875,52.43000030517578,1847100.0,50.83982849121094
2018-08-02,52.18000030517578,51.16999816894531,52.060001373291016,52.029998779296875,2416300.0,50.451961517333984
2018-08-03,52.810001373291016,52.15999984741211,52.349998474121094,52.54999923706055,2166600.0,50.9561882019043
2018-08-06,53.119998931884766,52.38999938964844,52.439998626708984,52.900001525878906,1670000.0,51.29557418823242
2018-08-07,53.84000015258789,52.83000183105469,52.900001525878906,53.599998474121094,2197100.0,51.97434616088867
2018-08-08,53.720001220703125,52.93000030517578,53.61000061035156,52.95000076293945,1512600.0,51.344058990478516
2018-08-09,53.59000015258789,53.04999923706055,53.060001373291016,53.15999984741211,1211400.0,51.547691345214844
2018-08-10,52.959999084472656,51.939998626708984,52.959999084472656,52.119998931884766,1953600.0,50.53923034667969
2018-08-13,52.29999923706055,51.22999954223633,52.209999084472656,51.599998474121094,2371900.0,50.035003662109375
2018-08-14,52.02000045776367,51.29999923706055,51.29999923706055,51.81999969482422,1379600.0,50.71518325805664
2018-08-15,51.529998779296875,50.029998779296875,51.400001525878906,51.0,2854700.0,49.91266632080078
2018-08-16,51.880001068115234,51.220001220703125,51.310001373291016,51.61000061035156,2063200.0,50.50966262817383
2018-08-17,52.08000183105469,51.310001373291016,51.459999084472656,51.970001220703125,1819100.0,50.86198806762695
2018-08-20,52.22999954223633,51.7599983215332,52.099998474121094,52.0,2188200.0,50.8913459777832
2018-08-21,52.4900016784668,51.93000030517578,51.97999954223633,52.369998931884766,1675900.0,51.253456115722656
2018-08-22,52.4900016784668,51.630001068115234,52.25,51.65999984741211,1580300.0,50.55859375
2018-08-23,51.66999816894531,51.13999938964844,51.560001373291016,51.209999084472656,2123700.0,50.11819076538086
2018-08-24,51.93000030517578,51.290000915527344,51.40999984741211,51.83000183105469,1510700.0,50.7249755859375
2018-08-27,52.970001220703125,52.029998779296875,52.040000915527344,52.52000045776367,1705100.0,51.40026092529297
2018-08-28,52.720001220703125,52.02000045776367,52.63999938964844,52.20000076293945,2022600.0,51.08708190917969
2018-08-29,52.58000183105469,52.209999084472656,52.43000030517578,52.439998626708984,1282800.0,51.321964263916016
2018-08-30,52.380001068115234,51.65999984741211,52.189998626708984,51.72999954223633,1533400.0,50.62710189819336
2018-08-31,51.83000183105469,51.0,51.5099983215332,51.13999938964844,2667500.0,50.049678802490234
2018-09-04,51.09000015258789,50.5099983215332,50.97999954223633,50.95000076293945,3133700.0,49.863731384277344
2018-09-05,51.540000915527344,50.529998779296875,50.869998931884766,51.43000030517578,3712100.0,50.333499908447266
2018-09-06,52.060001373291016,51.2400016784668,51.5,51.83000183105469,3089100.0,50.7249755859375
2018-09-07,51.970001220703125,51.41999816894531,51.790000915527344,51.709999084472656,1724700.0,50.60752868652344
2018-09-10,52.27000045776367,51.790000915527344,51.91999816894531,51.900001525878906,2352200.0,50.793479919433594
2018-09-11,51.90999984741211,51.20000076293945,51.689998626708984,51.599998474121094,2101500.0,50.499874114990234
2018-09-12,52.45000076293945,51.5099983215332,51.619998931884766,52.369998931884766,1548000.0,51.253456115722656
2018-09-13,53.279998779296875,52.619998931884766,52.84000015258789,52.72999954223633,1995400.0,51.60578155517578
2018-09-14,53.279998779296875,52.56999969482422,52.72999954223633,53.2400016784668,1473300.0,52.10491180419922
2018-09-17,54.20000076293945,53.20000076293945,53.2400016784668,53.619998931884766,2301100.0,52.476806640625
2018-09-18,54.099998474121094,53.630001068115234,53.900001525878906,53.720001220703125,1557200.0,52.57468032836914
2018-09-19,54.41999816894531,53.79999923706055,53.880001068115234,54.220001220703125,2240700.0,53.06401824951172
2018-09-20,54.95000076293945,54.41999816894531,54.650001525878906,54.58000183105469,1984000.0,53.416343688964844
2018-09-21,54.790000915527344,53.65999984741211,54.790000915527344,54.119998931884766,4923500.0,52.96614456176758
2018-09-24,53.95000076293945,52.09000015258789,53.869998931884766,52.34000015258789,3081100.0,51.224098205566406
2018-09-25,52.65999984741211,50.90999984741211,52.560001373291016,51.08000183105469,3948800.0,49.990962982177734
2018-09-26,51.869998931884766,50.40999984741211,51.08000183105469,50.95000076293945,5576200.0,49.863731384277344
2018-09-27,51.0,50.189998626708984,50.95000076293945,50.22999954223633,2448000.0,49.15908432006836
2018-09-28,50.22999954223633,49.04999923706055,50.20000076293945,49.150001525878906,4461200.0,48.10211181640625
2018-10-01,50.22999954223633,49.380001068115234,49.400001525878906,49.970001220703125,2923900.0,48.90462875366211
2018-10-02,50.689998626708984,49.83000183105469,49.9900016784668,50.29999923706055,2620200.0,49.22759246826172
2018-10-03,50.439998626708984,48.209999084472656,50.400001525878906,48.2400016784668,5525600.0,47.21151351928711
2018-10-04,48.81999969482422,48.06999969482422,48.2599983215332,48.779998779296875,4839200.0,47.73999786376953
2018-10-05,49.72999954223633,48.689998626708984,48.75,48.779998779296875,4465400.0,47.73999786376953
2018-10-08,48.84000015258789,46.900001525878906,48.54999923706055,47.33000183105469,4393100.0,46.32091522216797
2018-10-09,46.099998474121094,44.18000030517578,46.099998474121094,44.63999938964844,8124200.0,43.688262939453125
2018-10-10,45.040000915527344,43.5,44.72999954223633,43.529998779296875,9213100.0,42.6019287109375
2018-10-11,44.11000061035156,42.689998626708984,43.66999816894531,42.81999969482422,5727100.0,41.907066345214844
2018-10-12,43.790000915527344,41.869998931884766,43.65999984741211,42.66999816894531,4655100.0,41.76026153564453
2018-10-15,43.099998474121094,42.54999923706055,42.59000015258789,42.70000076293945,4747500.0,41.78962707519531
2018-10-16,43.43000030517578,42.369998931884766,42.70000076293945,43.38999938964844,5215500.0,42.46491241455078
2018-10-17,43.61000061035156,42.810001373291016,43.36000061035156,43.20000076293945,3981700.0,42.27896499633789
2018-10-18,43.0099983215332,41.66999816894531,42.7400016784668,42.060001373291016,3732900.0,41.163272857666016
2018-10-19,42.720001220703125,42.130001068115234,42.220001220703125,42.2400016784668,2774900.0,41.33943176269531
2018-10-22,42.40999984741211,40.810001373291016,42.27000045776367,40.93000030517578,4208900.0,40.05736541748047
2018-10-23,41.630001068115234,39.77000045776367,40.459999084472656,41.380001068115234,4602700.0,40.49776840209961
2018-10-24,41.52000045776367,39.599998474121094,41.470001220703125,39.689998626708984,4844100.0,38.84379577636719
2018-10-25,44.470001220703125,41.0,41.31999969482422,43.7599983215332,7019300.0,42.8270263671875
2018-10-26,45.5099983215332,43.060001373291016,43.349998474121094,44.849998474121094,8572500.0,43.8937873840332
2018-10-29,45.689998626708984,43.029998779296875,45.29999923706055,43.63999938964844,5597100.0,42.70958709716797
2018-10-30,45.619998931884766,43.630001068115234,43.7400016784668,45.380001068115234,5469100.0,44.4124870300293
2018-10-31,46.34000015258789,45.13999938964844,45.939998626708984,45.36000061035156,5167600.0,44.392913818359375
2018-11-01,46.2400016784668,45.0099983215332,45.54999923706055,46.08000183105469,3329200.0,45.097564697265625
2018-11-02,46.7599983215332,45.22999954223633,46.5099983215332,45.540000915527344,3098800.0,44.56907653808594
2018-11-05,46.470001220703125,45.380001068115234,45.779998779296875,46.16999816894531,4707400.0,45.18564224243164
2018-11-06,47.06999969482422,46.11000061035156,46.16999816894531,46.630001068115234,4557300.0,45.63583755493164
2018-11-07,47.470001220703125,46.349998474121094,47.09000015258789,47.38999938964844,4000700.0,46.37963104248047
2018-11-08,47.43000030517578,46.58000183105469,47.290000915527344,46.9900016784668,3010200.0,45.988162994384766
2018-11-09,46.91999816894531,45.83000183105469,46.709999084472656,46.220001220703125,3718400.0,45.234580993652344
2018-11-12,46.380001068115234,45.4900016784668,46.279998779296875,45.619998931884766,2703300.0,44.647369384765625
2018-11-13,46.63999938964844,45.63999938964844,45.720001220703125,45.900001525878906,3252600.0,44.92140197753906
2018-11-14,46.54999923706055,45.2599983215332,45.88999938964844,45.59000015258789,3288600.0,45.109397888183594
2018-11-15,46.02000045776367,44.36000061035156,44.720001220703125,45.81999969482422,3883500.0,45.336971282958984
2018-11-16,46.439998626708984,45.400001525878906,45.689998626708984,46.18000030517578,3066800.0,45.69317626953125
2018-11-19,46.900001525878906,45.86000061035156,46.2400016784668,46.22999954223633,3352100.0,45.74264907836914
2018-11-20,46.65999984741211,44.56999969482422,45.810001373291016,45.7400016784668,3430100.0,45.257816314697266
2018-11-21,46.029998779296875,45.29999923706055,45.88999938964844,45.650001525878906,3187700.0,45.168766021728516
2018-11-23,45.25,44.459999084472656,45.20000076293945,44.90999984741211,1345800.0,44.43656539916992
2018-11-26,46.029998779296875,45.27000045776367,45.400001525878906,45.709999084472656,2568100.0,45.22813034057617
2018-11-27,45.880001068115234,45.02000045776367,45.40999984741211,45.560001373291016,3437800.0,45.079715728759766
2018-11-28,45.900001525878906,43.970001220703125,45.72999954223633,44.95000076293945,5872300.0,44.47614288330078
2018-11-29,46.119998931884766,44.7599983215332,44.959999084472656,45.7400016784668,4494500.0,45.257816314697266
2018-11-30,46.59000015258789,45.599998474121094,45.599998474121094,46.189998626708984,4071200.0,45.70307159423828
2018-12-03,47.68000030517578,46.63999938964844,47.04999923706055,47.310001373291016,3969300.0,46.8112678527832
2018-12-04,47.06999969482422,45.5099983215332,46.95000076293945,45.939998626708984,5357700.0,45.45570755004883
2018-12-06,45.130001068115234,44.0,45.06999969482422,45.119998931884766,4111100.0,44.644351959228516
2018-12-07,45.779998779296875,44.529998779296875,45.189998626708984,44.7599983215332,3213700.0,44.288143157958984
2018-12-10,45.29999923706055,43.599998474121094,44.7599983215332,44.310001373291016,3743100.0,43.842891693115234
2018-12-11,45.400001525878906,43.90999984741211,45.0099983215332,44.13999938964844,3139700.0,43.6746826171875
2018-12-12,45.11000061035156,44.16999816894531,44.869998931884766,44.2599983215332,2035000.0,43.79341506958008
2018-12-13,44.41999816894531,42.95000076293945,44.209999084472656,43.08000183105469,3566000.0,42.625858306884766
2018-12-14,43.779998779296875,42.68000030517578,42.72999954223633,43.439998626708984,3445300.0,42.982059478759766
2018-12-17,42.72999954223633,40.90999984741211,42.5,41.349998474121094,5158800.0,40.914093017578125
2018-12-18,42.290000915527344,40.970001220703125,41.7400016784668,41.15999984741211,2811100.0,40.726097106933594
2018-12-19,42.099998474121094,40.38999938964844,41.130001068115234,40.599998474121094,3268400.0,40.172000885009766
2018-12-20,40.849998474121094,39.060001373291016,40.5099983215332,39.560001373291016,5721200.0,39.142967224121094
2018-12-21,40.40999984741211,39.0099983215332,39.459999084472656,39.119998931884766,6163600.0,38.70759963989258
2018-12-24,39.060001373291016,37.54999923706055,39.029998779296875,37.560001373291016,1856100.0,37.1640510559082
2018-12-26,39.63999938964844,37.560001373291016,37.970001220703125,39.619998931884766,3366200.0,39.20233154296875
2018-12-27,40.38999938964844,38.75,38.93000030517578,40.380001068115234,4349200.0,39.95431900024414
2018-12-28,40.95000076293945,39.56999969482422,40.709999084472656,39.810001373291016,3929700.0,39.39033126831055
2018-12-31,40.400001525878906,39.209999084472656,40.0099983215332,40.36000061035156,3261200.0,39.934532165527344
