Date,High,Low,Open,Close,Volume,Adj Close
2016-01-04,54.79999923706055,53.38999938964844,54.31999969482422,54.79999923706055,53778000.0,51.06563949584961
2016-01-05,55.38999938964844,54.540000915527344,54.93000030517578,55.04999923706055,34079700.0,51.29861068725586
2016-01-06,54.400001525878906,53.63999938964844,54.31999969482422,54.04999923706055,39518900.0,50.36675262451172
2016-01-07,53.4900016784668,52.06999969482422,52.70000076293945,52.16999816894531,56564900.0,48.614864349365234
2016-01-08,53.279998779296875,52.150001525878906,52.369998931884766,52.33000183105469,48754000.0,48.76396179199219
2016-01-11,52.849998474121094,51.459999084472656,52.5099983215332,52.29999923706055,36663600.0,48.736000061035156
2016-01-12,53.099998474121094,52.060001373291016,52.7599983215332,52.779998779296875,36095500.0,49.18329620361328
2016-01-13,54.06999969482422,51.29999923706055,53.79999923706055,51.63999938964844,66883600.0,48.1209831237793
2016-01-14,53.41999816894531,51.56999969482422,52.0,53.11000061035156,52381900.0,49.490814208984375
2016-01-15,51.970001220703125,50.34000015258789,51.310001373291016,50.9900016784668,71820700.0,47.515281677246094
2016-01-19,51.68000030517578,50.060001373291016,51.47999954223633,50.560001373291016,43564500.0,47.11458206176758
2016-01-20,51.380001068115234,49.099998474121094,49.97999954223633,50.790000915527344,63273000.0,47.32890701293945
2016-01-21,51.58000183105469,50.29999923706055,51.0,50.47999954223633,40191200.0,47.0400276184082
2016-01-22,52.33000183105469,51.2599983215332,51.40999984741211,52.290000915527344,37555800.0,48.7266960144043
2016-01-25,52.650001525878906,51.650001525878906,51.939998626708984,51.790000915527344,34707700.0,48.260765075683594
2016-01-26,52.439998626708984,51.54999923706055,51.790000915527344,52.16999816894531,28699500.0,48.614864349365234
2016-01-27,52.20000076293945,51.02000045776367,52.0099983215332,51.220001220703125,36775200.0,47.729610443115234
2016-01-28,52.209999084472656,51.25,51.86000061035156,52.060001373291016,62513800.0,48.51236343383789
2016-01-29,55.09000015258789,54.0,54.72999954223633,55.09000015258789,83611700.0,51.33588409423828
2016-02-01,55.09000015258789,54.5,54.880001068115234,54.709999084472656,44208500.0,50.981773376464844
2016-02-02,54.2599983215332,52.650001525878906,54.16999816894531,53.0,56313800.0,49.3883056640625
2016-02-03,53.38999938964844,51.2599983215332,53.25,52.15999984741211,57559800.0,48.60554504394531
2016-02-04,52.810001373291016,51.369998931884766,52.099998474121094,52.0,46803400.0,48.456451416015625
2016-02-05,52.0,49.560001373291016,51.939998626708984,50.15999984741211,62009000.0,46.74184036254883
2016-02-08,49.56999969482422,48.189998626708984,49.54999923706055,49.40999984741211,59290500.0,46.04294204711914
2016-02-09,50.2400016784668,48.66999816894531,49.02000045776367,49.279998779296875,45822200.0,45.921810150146484
2016-02-10,50.38999938964844,49.52000045776367,49.88999938964844,49.709999084472656,38237000.0,46.322505950927734
2016-02-11,50.11000061035156,48.5099983215332,48.68000030517578,49.689998626708984,48878600.0,46.30386734008789
2016-02-12,50.68000030517578,49.75,50.25,50.5,34243300.0,47.05866622924805
2016-02-16,51.09000015258789,50.130001068115234,50.900001525878906,51.09000015258789,37291200.0,47.95028305053711
2016-02-17,52.77000045776367,51.45000076293945,51.4900016784668,52.41999816894531,40789000.0,49.19855499267578
2016-02-18,52.95000076293945,52.099998474121094,52.33000183105469,52.189998626708984,27176000.0,48.98268127441406
2016-02-19,52.279998779296875,51.529998779296875,51.970001220703125,51.81999969482422,33559100.0,48.63542556762695
2016-02-22,53.0,52.279998779296875,52.279998779296875,52.650001525878906,25008300.0,49.41441345214844
2016-02-23,52.369998931884766,50.97999954223633,52.34000015258789,51.18000030517578,28895300.0,48.03475570678711
2016-02-24,51.5,50.20000076293945,50.689998626708984,51.36000061035156,33014500.0,48.20369338989258
2016-02-25,52.099998474121094,50.61000061035156,51.72999954223633,52.099998474121094,26695900.0,48.89820861816406
2016-02-26,52.68000030517578,51.099998474121094,52.599998474121094,51.29999923706055,35975900.0,48.147377014160156
2016-02-29,51.650001525878906,50.65999984741211,51.349998474121094,50.880001068115234,31654000.0,47.75318908691406
2016-03-01,52.59000015258789,50.91999816894531,50.970001220703125,52.58000183105469,33024500.0,49.34872055053711
2016-03-02,52.959999084472656,52.15999984741211,52.40999984741211,52.95000076293945,29289900.0,49.695980072021484
2016-03-03,52.970001220703125,51.779998779296875,52.970001220703125,52.349998474121094,24418100.0,49.132850646972656
2016-03-04,52.45000076293945,51.709999084472656,52.400001525878906,52.029998779296875,33034200.0,48.832515716552734
2016-03-07,51.79999923706055,50.58000183105469,51.560001373291016,51.029998779296875,38407800.0,47.89397048950195
2016-03-08,52.130001068115234,50.599998474121094,50.79999923706055,51.650001525878906,33835100.0,48.47587585449219
2016-03-09,52.849998474121094,51.86000061035156,51.88999938964844,52.84000015258789,28251600.0,49.592742919921875
2016-03-10,52.939998626708984,51.15999984741211,52.93000030517578,52.04999923706055,38384200.0,48.85129165649414
2016-03-11,53.06999969482422,52.380001068115234,53.0,53.06999969482422,32275700.0,49.80860900878906
2016-03-14,53.59000015258789,52.630001068115234,52.709999084472656,53.16999816894531,24083600.0,49.9024658203125
2016-03-15,53.59000015258789,52.7400016784668,52.75,53.59000015258789,21104800.0,50.29664993286133
2016-03-16,54.599998474121094,53.400001525878906,53.45000076293945,54.349998474121094,31691700.0,51.00994110107422
2016-03-17,55.0,54.0,54.209999084472656,54.65999984741211,28223900.0,51.30088806152344
2016-03-18,54.970001220703125,53.45000076293945,54.91999816894531,53.4900016784668,67625500.0,50.20279312133789
2016-03-21,53.93000030517578,52.93000030517578,53.25,53.86000061035156,23925700.0,50.5500602722168
2016-03-22,54.25,53.459999084472656,53.61000061035156,54.06999969482422,23124100.0,50.74715042114258
2016-03-23,54.2400016784668,53.7400016784668,54.11000061035156,53.970001220703125,20129000.0,50.653297424316406
2016-03-24,54.33000183105469,53.72999954223633,53.84000015258789,54.209999084472656,19950000.0,50.8785514831543
2016-03-28,54.290000915527344,53.33000183105469,54.209999084472656,53.540000915527344,17025100.0,50.249725341796875
2016-03-29,54.86000061035156,53.45000076293945,53.65999984741211,54.709999084472656,23375000.0,51.347816467285156
2016-03-30,55.63999938964844,54.900001525878906,54.93000030517578,55.04999923706055,23008300.0,51.666927337646484
2016-03-31,55.59000015258789,54.86000061035156,54.95000076293945,55.22999954223633,26360500.0,51.83586883544922
2016-04-01,55.61000061035156,54.56999969482422,55.04999923706055,55.56999969482422,24399200.0,52.154972076416016
2016-04-04,55.65999984741211,55.0,55.43000030517578,55.43000030517578,18928800.0,52.02357482910156
2016-04-05,55.29999923706055,54.459999084472656,55.189998626708984,54.560001373291016,19272300.0,51.207035064697266
2016-04-06,55.20000076293945,54.209999084472656,54.36000061035156,55.119998931884766,21032100.0,51.73261260986328
2016-04-07,54.90999984741211,54.22999954223633,54.869998931884766,54.459999084472656,19225100.0,51.113182067871094
2016-04-08,55.279998779296875,54.31999969482422,54.66999816894531,54.41999816894531,22167200.0,51.07564163208008
2016-04-11,55.150001525878906,54.29999923706055,54.4900016784668,54.310001373291016,21414200.0,50.972408294677734
2016-04-12,54.779998779296875,53.7599983215332,54.369998931884766,54.650001525878906,24574200.0,51.291507720947266
2016-04-13,55.439998626708984,54.88999938964844,55.119998931884766,55.349998474121094,20818000.0,51.948490142822266
2016-04-14,55.58000183105469,55.06999969482422,55.220001220703125,55.36000061035156,20875100.0,51.95787811279297
2016-04-15,55.91999816894531,55.11000061035156,55.29999923706055,55.650001525878906,28793800.0,52.23006057739258
2016-04-18,56.59000015258789,55.209999084472656,55.4900016784668,56.459999084472656,23150300.0,52.99028015136719
2016-04-19,56.77000045776367,55.68000030517578,56.630001068115234,56.38999938964844,29596800.0,52.9245719909668
2016-04-20,56.5,55.4900016784668,56.290000915527344,55.59000015258789,36195700.0,52.173744201660156
2016-04-21,56.22999954223633,55.41999816894531,55.79999923706055,55.779998779296875,38909100.0,52.3520622253418
2016-04-22,52.43000030517578,50.77000045776367,51.90999984741211,51.779998779296875,126834100.0,48.59788131713867
2016-04-25,52.130001068115234,51.630001068115234,51.779998779296875,52.11000061035156,33226900.0,48.90760040283203
2016-04-26,52.349998474121094,51.09000015258789,52.2599983215332,51.439998626708984,33532600.0,48.278785705566406
2016-04-27,51.5,50.54999923706055,51.47999954223633,50.939998626708984,43369300.0,47.80950164794922
2016-04-28,50.77000045776367,49.560001373291016,50.619998931884766,49.900001525878906,43134800.0,46.83341598510742
2016-04-29,50.25,49.349998474121094,49.349998474121094,49.869998931884766,48411700.0,46.80525588989258
2016-05-02,50.75,49.779998779296875,50.0,50.61000061035156,33114500.0,47.499786376953125
2016-05-03,50.40999984741211,49.599998474121094,50.34000015258789,49.779998779296875,26460200.0,46.720787048339844
2016-05-04,50.060001373291016,49.459999084472656,49.84000015258789,49.869998931884766,24257600.0,46.80525588989258
2016-05-05,50.29999923706055,49.72999954223633,49.869998931884766,49.939998626708984,25390700.0,46.87096405029297
2016-05-06,50.38999938964844,49.65999984741211,49.91999816894531,50.38999938964844,24787300.0,47.29330062866211
2016-05-09,50.59000015258789,50.0,50.4900016784668,50.06999969482422,17951600.0,46.99296951293945
2016-05-10,51.099998474121094,50.189998626708984,50.33000183105469,51.02000045776367,22741500.0,47.88459396362305
2016-05-11,51.779998779296875,51.0,51.130001068115234,51.04999923706055,24039100.0,47.91274642944336
2016-05-12,51.810001373291016,50.91999816894531,51.20000076293945,51.5099983215332,24102800.0,48.34447479248047
2016-05-13,51.900001525878906,51.040000915527344,51.439998626708984,51.08000183105469,22592300.0,47.94090270996094
2016-05-16,51.959999084472656,50.75,50.79999923706055,51.83000183105469,20032000.0,48.64480972290039
2016-05-17,51.72999954223633,50.36000061035156,51.720001220703125,50.5099983215332,27803500.0,47.73750305175781
2016-05-18,51.13999938964844,50.29999923706055,50.47999954223633,50.810001373291016,24907500.0,48.02104187011719
2016-05-19,50.619998931884766,49.81999969482422,50.470001220703125,50.31999969482422,23842400.0,47.55792999267578
2016-05-20,51.220001220703125,50.400001525878906,50.47999954223633,50.619998931884766,23905800.0,47.841461181640625
2016-05-23,50.68000030517578,49.97999954223633,50.599998474121094,50.029998779296875,25999700.0,47.28384780883789
2016-05-24,51.709999084472656,50.400001525878906,50.70000076293945,51.59000015258789,34757900.0,48.75822830200195
2016-05-25,52.4900016784668,51.790000915527344,51.91999816894531,52.119998931884766,24040200.0,49.259132385253906
2016-05-26,51.97999954223633,51.36000061035156,51.93000030517578,51.88999938964844,24182900.0,49.041751861572266
2016-05-27,52.31999969482422,51.77000045776367,51.91999816894531,52.31999969482422,17721400.0,49.44815444946289
2016-05-31,53.0,52.08000183105469,52.2599983215332,53.0,37653100.0,50.09082794189453
2016-06-01,52.95000076293945,52.439998626708984,52.439998626708984,52.849998474121094,25324800.0,49.949058532714844
2016-06-02,52.7400016784668,51.84000015258789,52.63999938964844,52.47999954223633,22565300.0,49.59938049316406
2016-06-03,52.41999816894531,51.599998474121094,52.380001068115234,51.790000915527344,23368300.0,48.94724655151367
2016-06-06,52.349998474121094,51.88999938964844,51.9900016784668,52.130001068115234,18243300.0,49.268585205078125
2016-06-07,52.72999954223633,52.099998474121094,52.2400016784668,52.099998474121094,20866800.0,49.2402229309082
2016-06-08,52.439998626708984,51.869998931884766,52.02000045776367,52.040000915527344,21149400.0,49.18352508544922
2016-06-09,52.0,51.4900016784668,52.0,51.619998931884766,20305700.0,48.78657531738281
2016-06-10,52.04999923706055,51.040000915527344,51.04999923706055,51.47999954223633,25833200.0,48.654258728027344
2016-06-13,50.720001220703125,49.060001373291016,49.58000183105469,50.13999938964844,83217800.0,47.38780975341797
2016-06-14,50.099998474121094,49.56999969482422,49.900001525878906,49.83000183105469,42577100.0,47.09483337402344
2016-06-15,50.119998931884766,49.689998626708984,49.779998779296875,49.689998626708984,33757600.0,46.96251678466797
2016-06-16,50.470001220703125,49.5099983215332,49.52000045776367,50.38999938964844,31188600.0,47.62408447265625
2016-06-17,50.43000030517578,49.81999969482422,50.40999984741211,50.130001068115234,45710500.0,47.37836837768555
2016-06-20,50.83000183105469,50.029998779296875,50.63999938964844,50.06999969482422,35607900.0,47.3216552734375
2016-06-21,51.43000030517578,50.15999984741211,50.20000076293945,51.189998626708984,34097800.0,48.38018035888672
2016-06-22,51.459999084472656,50.95000076293945,51.08000183105469,50.9900016784668,28816800.0,48.191162109375
2016-06-23,52.060001373291016,51.150001525878906,51.279998779296875,51.90999984741211,29028800.0,49.0606575012207
2016-06-24,50.939998626708984,49.52000045776367,49.810001373291016,49.83000183105469,133503000.0,47.09483337402344
2016-06-27,49.150001525878906,48.040000915527344,49.099998474121094,48.43000030517578,50216300.0,45.771671295166016
2016-06-28,49.470001220703125,48.66999816894531,48.91999816894531,49.439998626708984,38140700.0,46.72623825073242
2016-06-29,50.720001220703125,49.79999923706055,49.90999984741211,50.540000915527344,31304000.0,47.765865325927734
2016-06-30,51.29999923706055,50.5,50.720001220703125,51.16999816894531,28527800.0,48.36127853393555
2016-07-01,51.720001220703125,51.06999969482422,51.130001068115234,51.15999984741211,21400400.0,48.35182571411133
2016-07-05,51.279998779296875,50.7400016784668,50.83000183105469,51.16999816894531,24806400.0,48.36127853393555
2016-07-06,51.540000915527344,50.38999938964844,50.779998779296875,51.380001068115234,28167500.0,48.55975341796875
2016-07-07,51.61000061035156,51.06999969482422,51.41999816894531,51.380001068115234,19580800.0,48.55975341796875
2016-07-08,52.36000061035156,51.54999923706055,51.72999954223633,52.29999923706055,28391000.0,49.42924880981445
2016-07-11,52.83000183105469,52.470001220703125,52.5,52.59000015258789,22269200.0,49.703338623046875
2016-07-12,53.400001525878906,52.790000915527344,52.939998626708984,53.209999084472656,27317600.0,50.289310455322266
2016-07-13,53.86000061035156,53.18000030517578,53.560001373291016,53.5099983215332,25356800.0,50.57283401489258
2016-07-14,53.9900016784668,53.58000183105469,53.84000015258789,53.7400016784668,24545500.0,50.79020309448242
2016-07-15,54.0,53.209999084472656,53.95000076293945,53.70000076293945,32024400.0,50.75240707397461
2016-07-18,54.34000015258789,53.54999923706055,53.70000076293945,53.959999084472656,31433900.0,50.998130798339844
2016-07-19,53.900001525878906,52.93000030517578,53.709999084472656,53.09000015258789,53336500.0,50.17588806152344
2016-07-20,56.84000015258789,55.529998779296875,56.150001525878906,55.90999984741211,89893300.0,52.841094970703125
2016-07-21,56.22999954223633,55.7599983215332,55.97999954223633,55.79999923706055,32776700.0,52.73713684082031
2016-07-22,56.630001068115234,55.779998779296875,56.08000183105469,56.56999969482422,32157200.0,53.46487045288086
2016-07-25,56.7400016784668,56.2599983215332,56.470001220703125,56.72999954223633,25610600.0,53.616085052490234
2016-07-26,57.290000915527344,56.5099983215332,56.52000045776367,56.7599983215332,28079000.0,53.644439697265625
2016-07-27,56.79999923706055,56.11000061035156,56.61000061035156,56.189998626708984,32095300.0,53.10572814941406
2016-07-28,56.369998931884766,55.720001220703125,56.0,56.209999084472656,37550400.0,53.1246337890625
2016-07-29,56.7599983215332,56.04999923706055,56.2599983215332,56.68000030517578,30558700.0,53.56883239746094
2016-08-01,56.75,56.13999938964844,56.599998474121094,56.58000183105469,26003400.0,53.47431945800781
2016-08-02,56.900001525878906,56.310001373291016,56.849998474121094,56.58000183105469,35122000.0,53.47431945800781
2016-08-03,57.11000061035156,56.4900016784668,56.68000030517578,56.970001220703125,22075600.0,53.84291076660156
2016-08-04,57.52000045776367,56.66999816894531,56.79999923706055,57.38999938964844,26466400.0,54.239864349365234
2016-08-05,58.209999084472656,57.45000076293945,57.650001525878906,57.959999084472656,29335200.0,54.77857208251953
2016-08-08,58.09000015258789,57.779998779296875,58.060001373291016,58.060001373291016,19473500.0,54.87308120727539
2016-08-09,58.5,58.02000045776367,58.16999816894531,58.20000076293945,16920700.0,55.005401611328125
2016-08-10,58.31999969482422,57.81999969482422,58.15999984741211,58.02000045776367,15756900.0,54.83528518676758
2016-08-11,58.45000076293945,58.029998779296875,58.029998779296875,58.29999923706055,18133800.0,55.09991455078125
2016-08-12,58.189998626708984,57.619998931884766,58.029998779296875,57.939998626708984,21655200.0,54.759674072265625
2016-08-15,58.5,57.959999084472656,58.0099983215332,58.119998931884766,19283900.0,54.92979049682617
2016-08-16,57.619998931884766,57.27000045776367,57.61000061035156,57.439998626708984,20523500.0,54.625465393066406
2016-08-17,57.68000030517578,57.22999954223633,57.540000915527344,57.560001373291016,18856400.0,54.73958969116211
2016-08-18,57.70000076293945,57.27000045776367,57.41999816894531,57.599998474121094,14214300.0,54.77763366699219
2016-08-19,57.72999954223633,57.20000076293945,57.43000030517578,57.619998931884766,17271000.0,54.79664611816406
2016-08-22,57.75,57.2599983215332,57.599998474121094,57.66999816894531,15221900.0,54.84419250488281
2016-08-23,58.18000030517578,57.849998474121094,57.900001525878906,57.88999938964844,18732400.0,55.05341720581055
2016-08-24,58.040000915527344,57.720001220703125,57.79999923706055,57.95000076293945,18151500.0,55.110477447509766
2016-08-25,58.290000915527344,57.779998779296875,57.880001068115234,58.16999816894531,18552600.0,55.31969451904297
2016-08-26,58.70000076293945,57.689998626708984,58.279998779296875,58.029998779296875,20971200.0,55.18655776977539
2016-08-29,58.599998474121094,58.099998474121094,58.18000030517578,58.099998474121094,16217900.0,55.25312805175781
2016-08-30,58.189998626708984,57.61000061035156,57.97999954223633,57.88999938964844,16930200.0,55.05341720581055
2016-08-31,57.79999923706055,57.29999923706055,57.650001525878906,57.459999084472656,20860300.0,54.644493103027344
2016-09-01,57.81999969482422,57.0099983215332,57.0099983215332,57.59000015258789,26075400.0,54.76811981201172
2016-09-02,58.189998626708984,57.41999816894531,57.66999816894531,57.66999816894531,18900500.0,54.84419250488281
2016-09-06,57.79999923706055,57.209999084472656,57.779998779296875,57.61000061035156,16278400.0,54.78714370727539
2016-09-07,57.84000015258789,57.40999984741211,57.470001220703125,57.65999984741211,17493400.0,54.83469009399414
2016-09-08,57.790000915527344,57.18000030517578,57.630001068115234,57.43000030517578,19972500.0,54.6159553527832
2016-09-09,57.52000045776367,56.209999084472656,56.790000915527344,56.209999084472656,35113900.0,53.45574188232422
2016-09-12,57.209999084472656,55.61000061035156,56.0,57.04999923706055,29303000.0,54.254581451416016
2016-09-13,56.650001525878906,56.04999923706055,56.5,56.529998779296875,30130200.0,53.76006317138672
2016-09-14,56.630001068115234,56.029998779296875,56.38999938964844,56.2599983215332,24062500.0,53.503292083740234
2016-09-15,57.349998474121094,55.97999954223633,56.150001525878906,57.189998626708984,26847000.0,54.387718200683594
2016-09-16,57.630001068115234,56.75,57.630001068115234,57.25,44607000.0,54.444786071777344
2016-09-19,57.75,56.849998474121094,57.27000045776367,56.93000030517578,20879200.0,54.14046096801758
2016-09-20,57.349998474121094,56.75,57.349998474121094,56.810001373291016,17384000.0,54.026336669921875
2016-09-21,57.849998474121094,57.08000183105469,57.5099983215332,57.7599983215332,33707300.0,54.92979431152344
2016-09-22,58.0,57.630001068115234,57.91999816894531,57.81999969482422,19822200.0,54.986846923828125
2016-09-23,57.90999984741211,57.380001068115234,57.869998931884766,57.43000030517578,19955300.0,54.6159553527832
2016-09-26,57.13999938964844,56.83000183105469,57.08000183105469,56.900001525878906,21688700.0,54.111934661865234
2016-09-27,58.060001373291016,56.68000030517578,56.93000030517578,57.95000076293945,28065100.0,55.110477447509766
2016-09-28,58.060001373291016,57.66999816894531,57.880001068115234,58.029998779296875,20536400.0,55.18655776977539
2016-09-29,58.16999816894531,57.209999084472656,57.810001373291016,57.400001525878906,25463500.0,54.587432861328125
2016-09-30,57.77000045776367,57.34000015258789,57.56999969482422,57.599998474121094,29910800.0,54.77763366699219
2016-10-03,57.54999923706055,57.060001373291016,57.40999984741211,57.41999816894531,19189500.0,54.6064453125
2016-10-04,57.599998474121094,56.970001220703125,57.27000045776367,57.2400016784668,20085900.0,54.435272216796875
2016-10-05,57.959999084472656,57.2599983215332,57.290000915527344,57.63999938964844,16726400.0,54.815670013427734
2016-10-06,57.86000061035156,57.279998779296875,57.7400016784668,57.7400016784668,16212600.0,54.910770416259766
2016-10-07,57.97999954223633,57.41999816894531,57.849998474121094,57.79999923706055,20089000.0,54.96782684326172
2016-10-10,58.38999938964844,57.869998931884766,57.90999984741211,58.040000915527344,18084400.0,55.196067810058594
2016-10-11,58.02000045776367,56.88999938964844,57.88999938964844,57.189998626708984,26497400.0,54.387718200683594
2016-10-12,57.27000045776367,56.400001525878906,57.11000061035156,57.11000061035156,22177500.0,54.31163787841797
2016-10-13,57.29999923706055,56.31999969482422,56.70000076293945,56.91999816894531,25313700.0,54.13095474243164
2016-10-14,57.7400016784668,57.119998931884766,57.119998931884766,57.41999816894531,27402500.0,54.6064453125
2016-10-17,57.459999084472656,56.869998931884766,57.36000061035156,57.220001220703125,23830000.0,54.4162483215332
2016-10-18,57.95000076293945,57.40999984741211,57.529998779296875,57.65999984741211,18631500.0,54.83469009399414
2016-10-19,57.84000015258789,57.400001525878906,57.470001220703125,57.529998779296875,22878400.0,54.711055755615234
2016-10-20,57.52000045776367,56.65999984741211,57.5,57.25,49455600.0,54.444786071777344
2016-10-21,60.45000076293945,59.4900016784668,60.279998779296875,59.65999984741211,80032200.0,56.736690521240234
2016-10-24,61.0,59.93000030517578,59.939998626708984,61.0,54067000.0,58.01103210449219
2016-10-25,61.369998931884766,60.79999923706055,60.849998474121094,60.9900016784668,35137200.0,58.001529693603516
2016-10-26,61.20000076293945,60.470001220703125,60.810001373291016,60.630001068115234,29911600.0,57.65916061401367
2016-10-27,60.83000183105469,60.09000015258789,60.61000061035156,60.099998474121094,28479900.0,57.155128479003906
2016-10-28,60.52000045776367,59.58000183105469,60.0099983215332,59.869998931884766,33574700.0,56.936397552490234
2016-10-31,60.41999816894531,59.91999816894531,60.15999984741211,59.91999816894531,26434700.0,56.98395538330078
2016-11-01,60.02000045776367,59.25,59.970001220703125,59.79999923706055,24533000.0,56.869834899902344
2016-11-02,59.93000030517578,59.29999923706055,59.81999969482422,59.43000030517578,22147000.0,56.51795959472656
2016-11-03,59.63999938964844,59.11000061035156,59.529998779296875,59.209999084472656,21600400.0,56.308738708496094
2016-11-04,59.279998779296875,58.52000045776367,58.650001525878906,58.709999084472656,28697000.0,55.8332405090332
2016-11-07,60.52000045776367,59.779998779296875,59.779998779296875,60.41999816894531,31664800.0,57.459449768066406
2016-11-08,60.779998779296875,60.150001525878906,60.54999923706055,60.470001220703125,22862000.0,57.50699996948242
2016-11-09,60.59000015258789,59.20000076293945,60.0,60.16999816894531,49632500.0,57.22169876098633
2016-11-10,60.4900016784668,57.630001068115234,60.47999954223633,58.70000076293945,57822400.0,55.823734283447266
2016-11-11,59.119998931884766,58.0099983215332,58.22999954223633,59.02000045776367,38767800.0,56.128055572509766
2016-11-14,59.08000183105469,57.279998779296875,59.02000045776367,58.119998931884766,40861900.0,55.27214813232422
2016-11-15,59.4900016784668,58.31999969482422,58.33000183105469,58.869998931884766,35904100.0,56.363616943359375
2016-11-16,59.65999984741211,58.810001373291016,58.939998626708984,59.650001525878906,26851400.0,57.110408782958984
2016-11-17,60.95000076293945,59.970001220703125,60.40999984741211,60.63999938964844,32132700.0,58.05826187133789
2016-11-18,61.13999938964844,60.29999923706055,60.779998779296875,60.349998474121094,27686300.0,57.78060531616211
2016-11-21,60.970001220703125,60.41999816894531,60.5,60.86000061035156,19652600.0,58.268890380859375
2016-11-22,61.2599983215332,60.810001373291016,60.97999954223633,61.119998931884766,23206700.0,58.517818450927734
2016-11-23,61.099998474121094,60.25,61.0099983215332,60.400001525878906,21847200.0,57.8284797668457
2016-11-25,60.529998779296875,60.130001068115234,60.29999923706055,60.529998779296875,8409600.0,57.95293426513672
2016-11-28,61.02000045776367,60.209999084472656,60.34000015258789,60.61000061035156,20732600.0,58.02953338623047
2016-11-29,61.40999984741211,60.52000045776367,60.650001525878906,61.09000015258789,22366700.0,58.48909378051758
2016-11-30,61.18000030517578,60.220001220703125,60.86000061035156,60.2599983215332,34655400.0,57.69443130493164
2016-12-01,60.150001525878906,58.939998626708984,60.11000061035156,59.20000076293945,34542100.0,56.67955780029297
2016-12-02,59.470001220703125,58.79999923706055,59.08000183105469,59.25,25515700.0,56.72743225097656
2016-12-05,60.59000015258789,59.560001373291016,59.70000076293945,60.220001220703125,23552700.0,57.65614318847656
2016-12-06,60.459999084472656,59.79999923706055,60.43000030517578,59.95000076293945,19907000.0,57.39763259887695
2016-12-07,61.380001068115234,59.79999923706055,60.0099983215332,61.369998931884766,30809000.0,58.757179260253906
2016-12-08,61.58000183105469,60.84000015258789,61.29999923706055,61.0099983215332,21220800.0,58.41250228881836
2016-12-09,61.9900016784668,61.130001068115234,61.18000030517578,61.970001220703125,27349400.0,59.33163070678711
2016-12-12,62.29999923706055,61.720001220703125,61.81999969482422,62.16999816894531,20198100.0,59.52311706542969
2016-12-13,63.41999816894531,62.2400016784668,62.5,62.97999954223633,35718900.0,60.29862976074219
2016-12-14,63.45000076293945,62.529998779296875,63.0,62.68000030517578,30352700.0,60.01140213012695
2016-12-15,63.150001525878906,62.29999923706055,62.70000076293945,62.58000183105469,27669900.0,59.9156608581543
2016-12-16,62.95000076293945,62.119998931884766,62.95000076293945,62.29999923706055,42204700.0,59.64757537841797
2016-12-19,63.77000045776367,62.41999816894531,62.560001373291016,63.619998931884766,34338200.0,60.91138458251953
2016-12-20,63.79999923706055,63.029998779296875,63.689998626708984,63.540000915527344,26028400.0,60.83478927612305
2016-12-21,63.70000076293945,63.119998931884766,63.43000030517578,63.540000915527344,17096300.0,60.83478927612305
2016-12-22,64.0999984741211,63.40999984741211,63.84000015258789,63.54999923706055,22176600.0,60.844364166259766
2016-12-23,63.540000915527344,62.79999923706055,63.45000076293945,63.2400016784668,12398000.0,60.54756164550781
2016-12-27,64.06999969482422,63.209999084472656,63.209999084472656,63.279998779296875,11763200.0,60.58585739135742
2016-12-28,63.400001525878906,62.83000183105469,63.400001525878906,62.9900016784668,14653300.0,60.30820083618164
2016-12-29,63.20000076293945,62.72999954223633,62.86000061035156,62.900001525878906,10181600.0,60.22203826904297
2016-12-30,62.9900016784668,62.029998779296875,62.959999084472656,62.13999938964844,25579900.0,59.494388580322266
2017-01-03,62.84000015258789,62.130001068115234,62.790000915527344,62.58000183105469,20694100.0,59.9156608581543
2017-01-04,62.75,62.119998931884766,62.47999954223633,62.29999923706055,21340000.0,59.64757537841797
2017-01-05,62.65999984741211,62.029998779296875,62.189998626708984,62.29999923706055,24876000.0,59.64757537841797
2017-01-06,63.150001525878906,62.040000915527344,62.29999923706055,62.84000015258789,19922900.0,60.164588928222656
2017-01-09,63.08000183105469,62.540000915527344,62.7599983215332,62.63999938964844,20256600.0,59.97310256958008
2017-01-10,63.06999969482422,62.279998779296875,62.72999954223633,62.619998931884766,18593000.0,59.953956604003906
2017-01-11,63.22999954223633,62.43000030517578,62.61000061035156,63.189998626708984,21517300.0,60.49968719482422
2017-01-12,63.400001525878906,61.95000076293945,63.060001373291016,62.61000061035156,20968200.0,59.94438552856445
2017-01-13,62.869998931884766,62.349998474121094,62.619998931884766,62.70000076293945,19422300.0,60.030555725097656
2017-01-17,62.70000076293945,62.029998779296875,62.68000030517578,62.529998779296875,20620400.0,59.8677864074707
2017-01-18,62.70000076293945,62.119998931884766,62.66999816894531,62.5,19670100.0,59.83906936645508
2017-01-19,62.97999954223633,62.20000076293945,62.2400016784668,62.29999923706055,18451700.0,59.64757537841797
2017-01-20,62.81999969482422,62.369998931884766,62.66999816894531,62.7400016784668,30213500.0,60.068851470947266
2017-01-23,63.119998931884766,62.56999969482422,62.70000076293945,62.959999084472656,23097600.0,60.27947998046875
2017-01-24,63.7400016784668,62.939998626708984,63.20000076293945,63.52000045776367,24672900.0,60.815643310546875
2017-01-25,64.0999984741211,63.45000076293945,63.95000076293945,63.68000030517578,23672700.0,60.968833923339844
2017-01-26,64.54000091552734,63.54999923706055,64.12000274658203,64.2699966430664,43554600.0,61.5337028503418
2017-01-27,65.91000366210938,64.88999938964844,65.38999938964844,65.77999877929688,44818000.0,62.979427337646484
2017-01-30,65.79000091552734,64.80000305175781,65.69000244140625,65.12999725341797,31651400.0,62.35708999633789
2017-01-31,65.1500015258789,64.26000213623047,64.86000061035156,64.6500015258789,25270500.0,61.89753341674805
2017-02-01,64.62000274658203,63.470001220703125,64.36000061035156,63.58000183105469,39671500.0,60.87308883666992
2017-02-02,63.40999984741211,62.75,63.25,63.16999816894531,45827000.0,60.48053741455078
2017-02-03,63.70000076293945,63.06999969482422,63.5,63.68000030517578,30301800.0,60.968833923339844
2017-02-06,63.650001525878906,63.13999938964844,63.5,63.63999938964844,19796400.0,60.93053436279297
2017-02-07,63.779998779296875,63.22999954223633,63.7400016784668,63.43000030517578,20277200.0,60.72947311401367
2017-02-08,63.810001373291016,63.220001220703125,63.56999969482422,63.34000015258789,18096400.0,60.643306732177734
2017-02-09,64.44000244140625,63.31999969482422,63.52000045776367,64.05999755859375,22644400.0,61.33264923095703
2017-02-10,64.30000305175781,63.97999954223633,64.25,64.0,18170700.0,61.27520751953125
2017-02-13,64.86000061035156,64.12999725341797,64.23999786376953,64.72000122070312,22920100.0,61.96455764770508
2017-02-14,64.72000122070312,64.0199966430664,64.41000366210938,64.56999969482422,23065900.0,62.19572830200195
2017-02-15,64.56999969482422,64.16000366210938,64.5,64.52999877929688,17005200.0,62.157196044921875
2017-02-16,65.23999786376953,64.44000244140625,64.73999786376953,64.5199966430664,20546300.0,62.14756393432617
2017-02-17,64.69000244140625,64.30000305175781,64.47000122070312,64.62000274658203,21248800.0,62.2438850402832
2017-02-21,64.94999694824219,64.44999694824219,64.61000061035156,64.48999786376953,20655900.0,62.11866760253906
2017-02-22,64.38999938964844,64.05000305175781,64.33000183105469,64.36000061035156,19292700.0,61.99345016479492
2017-02-23,64.7300033569336,64.19000244140625,64.41999816894531,64.62000274658203,20273100.0,62.2438850402832
2017-02-24,64.80000305175781,64.13999938964844,64.52999877929688,64.62000274658203,21796800.0,62.2438850402832
2017-02-27,64.54000091552734,64.05000305175781,64.54000091552734,64.2300033569336,15871500.0,61.86823272705078
2017-02-28,64.19999694824219,63.7599983215332,64.08000183105469,63.97999954223633,23239800.0,61.62742233276367
2017-03-01,64.98999786376953,64.0199966430664,64.12999725341797,64.94000244140625,26937500.0,62.552127838134766
2017-03-02,64.75,63.880001068115234,64.69000244140625,64.01000213623047,24539600.0,61.656314849853516
2017-03-03,64.27999877929688,63.619998931884766,63.9900016784668,64.25,18135900.0,61.887489318847656
2017-03-06,64.55999755859375,63.810001373291016,63.970001220703125,64.2699966430664,18750300.0,61.90675354003906
2017-03-07,64.77999877929688,64.19000244140625,64.19000244140625,64.4000015258789,18521000.0,62.031982421875
2017-03-08,65.08000183105469,64.25,64.26000213623047,64.98999786376953,21510900.0,62.60028076171875
2017-03-09,65.19999694824219,64.4800033569336,65.19000244140625,64.7300033569336,19846800.0,62.34983825683594
2017-03-10,65.26000213623047,64.75,65.11000061035156,64.93000030517578,19538200.0,62.542484283447266
2017-03-13,65.19000244140625,64.56999969482422,65.01000213623047,64.70999908447266,20100000.0,62.3305778503418
2017-03-14,64.55000305175781,64.1500015258789,64.52999877929688,64.41000366210938,14280200.0,62.04161071777344
2017-03-15,64.91999816894531,64.25,64.55000305175781,64.75,24833800.0,62.36910629272461
2017-03-16,64.76000213623047,64.30000305175781,64.75,64.63999938964844,20674300.0,62.26315689086914
2017-03-17,65.23999786376953,64.68000030517578,64.91000366210938,64.87000274658203,49219700.0,62.48469543457031
2017-03-20,65.18000030517578,64.72000122070312,64.91000366210938,64.93000030517578,14598100.0,62.542484283447266
2017-03-21,65.5,64.12999725341797,65.19000244140625,64.20999908447266,26640500.0,61.84896469116211
2017-03-22,65.13999938964844,64.12000274658203,64.12000274658203,65.02999877929688,20680000.0,62.63880920410156
2017-03-23,65.23999786376953,64.7699966430664,64.94000244140625,64.87000274658203,19269200.0,62.48469543457031
2017-03-24,65.44999694824219,64.76000213623047,65.36000061035156,64.9800033569336,22617100.0,62.59065246582031
2017-03-27,65.22000122070312,64.3499984741211,64.62999725341797,65.0999984741211,18614700.0,62.706233978271484
2017-03-28,65.47000122070312,64.6500015258789,64.95999908447266,65.29000091552734,20080400.0,62.88924789428711
2017-03-29,65.5,64.94999694824219,65.12000274658203,65.47000122070312,13618400.0,63.062625885009766
2017-03-30,65.9800033569336,65.36000061035156,65.41999816894531,65.70999908447266,15122800.0,63.29381561279297
2017-03-31,66.19000244140625,65.44999694824219,65.6500015258789,65.86000061035156,21040300.0,63.43828201293945
2017-04-03,65.94000244140625,65.19000244140625,65.80999755859375,65.55000305175781,20400900.0,63.13969421386719
2017-04-04,65.80999755859375,65.27999877929688,65.38999938964844,65.7300033569336,12997400.0,63.313079833984375
2017-04-05,66.3499984741211,65.44000244140625,66.30000305175781,65.55999755859375,21448600.0,63.149322509765625
2017-04-06,66.05999755859375,65.4800033569336,65.5999984741211,65.7300033569336,18103500.0,63.313079833984375
2017-04-07,65.95999908447266,65.44000244140625,65.8499984741211,65.68000030517578,14108500.0,63.264923095703125
2017-04-10,65.81999969482422,65.36000061035156,65.61000061035156,65.52999877929688,17952700.0,63.120426177978516
2017-04-11,65.61000061035156,64.8499984741211,65.5999984741211,65.4800033569336,18791500.0,63.072265625
2017-04-12,65.51000213623047,65.11000061035156,65.41999816894531,65.2300033569336,17108500.0,62.83145523071289
2017-04-13,65.86000061035156,64.94999694824219,65.29000091552734,64.94999694824219,17896500.0,62.56174850463867
2017-04-17,65.48999786376953,65.01000213623047,65.04000091552734,65.4800033569336,16689300.0,63.072265625
2017-04-18,65.70999908447266,65.16000366210938,65.33000183105469,65.38999938964844,15155600.0,62.98558044433594
2017-04-19,65.75,64.88999938964844,65.6500015258789,65.04000091552734,26992800.0,62.6484489440918
2017-04-20,65.75,65.13999938964844,65.45999908447266,65.5,22299500.0,63.09153366088867
2017-04-21,66.69999694824219,65.44999694824219,65.66999816894531,66.4000015258789,32522600.0,63.95843505859375
2017-04-24,67.66000366210938,67.0999984741211,67.4800033569336,67.52999877929688,29770000.0,65.04688262939453
2017-04-25,68.04000091552734,67.5999984741211,67.9000015258789,67.91999816894531,30242700.0,65.42254638671875
2017-04-26,68.30999755859375,67.62000274658203,68.08000183105469,67.83000183105469,26190800.0,65.33585357666016
2017-04-27,68.37999725341797,67.58000183105469,68.1500015258789,68.2699966430664,34971000.0,65.75967407226562
2017-04-28,69.13999938964844,67.69000244140625,68.91000366210938,68.45999908447266,39423500.0,65.94268798828125
2017-05-01,69.55000305175781,68.5,68.68000030517578,69.41000366210938,31954400.0,66.8577651977539
2017-05-02,69.70999908447266,69.12999725341797,69.70999908447266,69.30000305175781,23906100.0,66.75180053710938
2017-05-03,69.37999725341797,68.70999908447266,69.37999725341797,69.08000183105469,28928000.0,66.53990173339844
2017-05-04,69.08000183105469,68.63999938964844,69.02999877929688,68.80999755859375,21749400.0,66.27981567382812
2017-05-05,69.02999877929688,68.48999786376953,68.9000015258789,69.0,19128800.0,66.46282958984375
2017-05-08,69.05000305175781,68.41999816894531,68.97000122070312,68.94000244140625,18566100.0,66.40504455566406
2017-05-09,69.27999877929688,68.68000030517578,68.86000061035156,69.04000091552734,22858400.0,66.50137329101562
2017-05-10,69.55999755859375,68.91999816894531,68.98999786376953,69.30999755859375,17977800.0,66.76143646240234
2017-05-11,68.7300033569336,68.12000274658203,68.36000061035156,68.45999908447266,28789400.0,65.94268798828125
2017-05-12,68.61000061035156,68.04000091552734,68.61000061035156,68.37999725341797,18714100.0,65.8656234741211
2017-05-15,68.4800033569336,67.56999969482422,68.13999938964844,68.43000030517578,31530300.0,65.91378784179688
2017-05-16,69.44000244140625,68.16000366210938,68.2300033569336,69.41000366210938,34956000.0,67.2409896850586
2017-05-17,69.0999984741211,67.43000030517578,68.88999938964844,67.4800033569336,30548800.0,65.37129211425781
2017-05-18,68.12999725341797,67.13999938964844,67.4000015258789,67.70999908447266,25201300.0,65.59410095214844
2017-05-19,68.0999984741211,67.43000030517578,67.5,67.69000244140625,26961100.0,65.57473754882812
2017-05-22,68.5,67.5,67.88999938964844,68.44999694824219,16237600.0,66.31096649169922
2017-05-23,68.75,68.37999725341797,68.72000122070312,68.68000030517578,15425800.0,66.53379821777344
2017-05-24,68.87999725341797,68.44999694824219,68.87000274658203,68.7699966430664,14593900.0,66.6209716796875
2017-05-25,69.87999725341797,68.91000366210938,68.97000122070312,69.62000274658203,21854100.0,67.44442749023438
2017-05-26,70.22000122070312,69.5199966430664,69.80000305175781,69.95999908447266,19827900.0,67.77378845214844
2017-05-30,70.41000366210938,69.7699966430664,69.79000091552734,70.41000366210938,17072800.0,68.20973205566406
2017-05-31,70.73999786376953,69.80999755859375,70.52999877929688,69.83999633789062,30436400.0,67.65754699707031
2017-06-01,70.61000061035156,69.44999694824219,70.23999786376953,70.0999984741211,21603600.0,67.90941619873047
2017-06-02,71.86000061035156,70.23999786376953,70.44000244140625,71.76000213623047,34770300.0,69.5175552368164
2017-06-05,72.88999938964844,71.80999755859375,71.97000122070312,72.27999877929688,33316800.0,70.02129364013672
2017-06-06,72.62000274658203,72.2699966430664,72.30000305175781,72.5199966430664,31511100.0,70.2537841796875
2017-06-07,72.7699966430664,71.94999694824219,72.63999938964844,72.38999938964844,22301800.0,70.12786865234375
2017-06-08,72.5199966430664,71.5,72.51000213623047,71.94999694824219,24456300.0,69.70160675048828
2017-06-09,72.08000183105469,68.58999633789062,72.04000091552734,70.31999969482422,49187400.0,68.1225357055664
2017-06-12,69.94000244140625,68.12999725341797,69.25,69.77999877929688,47761700.0,67.59941864013672
2017-06-13,70.81999969482422,69.95999908447266,70.0199966430664,70.6500015258789,25258600.0,68.44223022460938
2017-06-14,71.0999984741211,69.43000030517578,70.91000366210938,70.2699966430664,25510700.0,68.07411193847656
2017-06-15,70.20999908447266,68.80000305175781,69.2699966430664,69.9000015258789,26068700.0,67.7156753540039
2017-06-16,70.02999877929688,69.22000122070312,69.7300033569336,70.0,48345100.0,67.81254577636719
2017-06-19,70.94000244140625,70.3499984741211,70.5,70.87000274658203,23798300.0,68.65535736083984
2017-06-20,70.87000274658203,69.87000274658203,70.81999969482422,69.91000366210938,21512200.0,67.72535705566406
2017-06-21,70.62000274658203,69.94000244140625,70.20999908447266,70.2699966430664,19891100.0,68.07411193847656
2017-06-22,70.58999633789062,69.70999908447266,70.54000091552734,70.26000213623047,22965700.0,68.06442260742188
2017-06-23,71.25,69.91999816894531,70.08999633789062,71.20999908447266,27617300.0,68.98472595214844
2017-06-26,71.70999908447266,70.44000244140625,71.4000015258789,70.52999877929688,19607000.0,68.32598876953125
2017-06-27,70.18000030517578,69.18000030517578,70.11000061035156,69.20999908447266,25215100.0,67.04723358154297
2017-06-28,69.83999633789062,68.79000091552734,69.20999908447266,69.80000305175781,25806200.0,67.61880493164062
2017-06-29,69.48999786376953,68.08999633789062,69.37999725341797,68.48999786376953,28918700.0,66.3497314453125
2017-06-30,69.37999725341797,68.73999786376953,68.77999877929688,68.93000030517578,24161100.0,66.7759780883789
2017-07-03,69.5999984741211,68.0199966430664,69.33000183105469,68.16999816894531,16165500.0,66.03972625732422
2017-07-05,69.44000244140625,68.22000122070312,68.26000213623047,69.08000183105469,21176300.0,66.92130279541016
2017-07-06,68.77999877929688,68.12000274658203,68.2699966430664,68.56999969482422,21117600.0,66.42723083496094
2017-07-07,69.83999633789062,68.69999694824219,68.69999694824219,69.45999908447266,16878300.0,67.28941345214844
2017-07-10,70.25,69.19999694824219,69.45999908447266,69.9800033569336,15014500.0,67.79318237304688
2017-07-11,70.68000030517578,69.75,70.0,69.98999786376953,17460000.0,67.8028564453125
2017-07-12,71.27999877929688,70.55000305175781,70.69000244140625,71.1500015258789,17750900.0,68.9266128540039
2017-07-13,72.04000091552734,71.30999755859375,71.5,71.7699966430664,20269800.0,69.5272216796875
2017-07-14,73.2699966430664,71.95999908447266,72.23999786376953,72.77999877929688,25868100.0,70.50566864013672
2017-07-17,73.44999694824219,72.72000122070312,72.80000305175781,73.3499984741211,21803900.0,71.05785369873047
2017-07-18,73.38999938964844,72.66000366210938,73.08999633789062,73.30000305175781,26435300.0,71.0094223022461
2017-07-19,74.04000091552734,73.44999694824219,73.5,73.86000061035156,22416200.0,71.55191802978516
2017-07-20,74.30000305175781,73.27999877929688,74.18000030517578,74.22000122070312,42361000.0,71.90067291259766
2017-07-21,74.29000091552734,73.16999816894531,73.44999694824219,73.79000091552734,46717100.0,71.4841079711914
2017-07-24,73.75,73.12999725341797,73.52999877929688,73.5999984741211,21394800.0,71.300048828125
2017-07-25,74.30999755859375,73.5,73.80000305175781,74.19000244140625,22018700.0,71.8716049194336
2017-07-26,74.37999725341797,73.80999755859375,74.33999633789062,74.05000305175781,16252200.0,71.7359848022461
2017-07-27,74.41999816894531,72.31999969482422,73.76000213623047,73.16000366210938,36844200.0,70.87380981445312
2017-07-28,73.30999755859375,72.54000091552734,72.66999816894531,73.04000091552734,18306700.0,70.7575454711914
2017-07-31,73.44000244140625,72.41000366210938,73.30000305175781,72.69999694824219,23600100.0,70.42816162109375
2017-08-01,73.41999816894531,72.48999786376953,73.0999984741211,72.58000183105469,22132300.0,70.31194305419922
2017-08-02,72.55999755859375,71.44000244140625,72.55000305175781,72.26000213623047,26499200.0,70.0019302368164
2017-08-03,72.44000244140625,71.8499984741211,72.19000244140625,72.1500015258789,18214400.0,69.89537048339844
2017-08-04,73.04000091552734,72.23999786376953,72.4000015258789,72.68000030517578,22579000.0,70.4087905883789
2017-08-07,72.9000015258789,72.26000213623047,72.80000305175781,72.4000015258789,18705700.0,70.1375503540039
2017-08-08,73.12999725341797,71.75,72.08999633789062,72.79000091552734,22044600.0,70.51536560058594
2017-08-09,72.51000213623047,72.05000305175781,72.25,72.47000122070312,22213400.0,70.20536804199219
2017-08-10,72.19000244140625,71.3499984741211,71.9000015258789,71.41000366210938,24734500.0,69.17848205566406
2017-08-11,72.69999694824219,71.27999877929688,71.61000061035156,72.5,21443700.0,70.23442077636719
2017-08-14,73.72000122070312,72.94999694824219,73.05999755859375,73.58999633789062,20067300.0,71.29035949707031
2017-08-15,73.58999633789062,73.04000091552734,73.58999633789062,73.22000122070312,19181400.0,71.30982971191406
2017-08-16,74.0999984741211,73.16999816894531,73.33999633789062,73.6500015258789,18150400.0,71.72862243652344
2017-08-17,73.87000274658203,72.4000015258789,73.58000183105469,72.4000015258789,22977500.0,70.51123809814453
2017-08-18,72.83999633789062,71.93000030517578,72.2699966430664,72.48999786376953,18761500.0,70.59888458251953
2017-08-21,72.4800033569336,71.69999694824219,72.47000122070312,72.1500015258789,17734800.0,70.26775360107422
2017-08-22,73.23999786376953,72.3499984741211,72.3499984741211,73.16000366210938,14343700.0,71.25140380859375
2017-08-23,73.1500015258789,72.52999877929688,72.95999908447266,72.72000122070312,13766500.0,70.8228759765625
2017-08-24,72.86000061035156,72.06999969482422,72.73999786376953,72.69000244140625,17098300.0,70.79366302490234
2017-08-25,73.3499984741211,72.4800033569336,72.86000061035156,72.81999969482422,12794300.0,70.9202651977539
2017-08-28,73.08999633789062,72.55000305175781,73.05999755859375,72.83000183105469,14569700.0,70.93000793457031
2017-08-29,73.16000366210938,72.05000305175781,72.25,73.05000305175781,11478400.0,71.14427185058594
2017-08-30,74.20999908447266,72.83000183105469,73.01000213623047,74.01000213623047,16897800.0,72.07923126220703
2017-08-31,74.95999908447266,73.80000305175781,74.02999877929688,74.7699966430664,27652800.0,72.81939697265625
2017-09-01,74.73999786376953,73.63999938964844,74.70999908447266,73.94000244140625,21736200.0,72.01106262207031
2017-09-05,73.88999938964844,72.9800033569336,73.33999633789062,73.61000061035156,21556000.0,71.68965911865234
2017-09-06,74.04000091552734,73.3499984741211,73.73999786376953,73.4000015258789,16535800.0,71.48514556884766
2017-09-07,74.5999984741211,73.5999984741211,73.68000030517578,74.33999633789062,17471200.0,72.40062713623047
2017-09-08,74.44000244140625,73.83999633789062,74.33000183105469,73.9800033569336,14703800.0,72.05001068115234
2017-09-11,74.94000244140625,74.30999755859375,74.30999755859375,74.76000213623047,17910400.0,72.80966186523438
2017-09-12,75.23999786376953,74.37000274658203,74.76000213623047,74.68000030517578,14394900.0,72.73175048828125
2017-09-13,75.2300033569336,74.55000305175781,74.93000030517578,75.20999908447266,13380800.0,73.24791717529297
2017-09-14,75.48999786376953,74.5199966430664,75.0,74.7699966430664,15733900.0,72.81939697265625
2017-09-15,75.38999938964844,74.06999969482422,74.83000183105469,75.30999755859375,38578400.0,73.3453140258789
2017-09-18,75.97000122070312,75.04000091552734,75.2300033569336,75.16000366210938,23307000.0,73.19923400878906
2017-09-19,75.70999908447266,75.01000213623047,75.20999908447266,75.44000244140625,16093300.0,73.47193145751953
2017-09-20,75.55000305175781,74.30999755859375,75.3499984741211,74.94000244140625,21587900.0,72.98497009277344
2017-09-21,75.23999786376953,74.11000061035156,75.11000061035156,74.20999908447266,19186100.0,72.27400207519531
2017-09-22,74.51000213623047,73.8499984741211,73.98999786376953,74.41000366210938,14111400.0,72.46879577636719
2017-09-25,74.25,72.91999816894531,74.08999633789062,73.26000213623047,24149200.0,71.34878540039062
2017-09-26,73.80999755859375,72.98999786376953,73.66999816894531,73.26000213623047,18019600.0,71.34878540039062
2017-09-27,74.16999816894531,73.16999816894531,73.55000305175781,73.8499984741211,19565100.0,71.92340850830078
2017-09-28,73.97000122070312,73.30999755859375,73.54000091552734,73.87000274658203,10883800.0,71.94288635253906
2017-09-29,74.54000091552734,73.87999725341797,73.94000244140625,74.48999786376953,17079100.0,72.54671478271484
2017-10-02,75.01000213623047,74.30000305175781,74.70999908447266,74.61000061035156,15304800.0,72.66358184814453
2017-10-03,74.87999725341797,74.19000244140625,74.66999816894531,74.26000213623047,12190400.0,72.32271575927734
2017-10-04,74.72000122070312,73.70999908447266,74.08999633789062,74.69000244140625,13317700.0,72.74148559570312
2017-10-05,76.12000274658203,74.95999908447266,75.22000122070312,75.97000122070312,21195300.0,73.98810577392578
2017-10-06,76.02999877929688,75.54000091552734,75.66999816894531,76.0,13959800.0,74.01731872558594
2017-10-09,76.55000305175781,75.86000061035156,75.97000122070312,76.29000091552734,11386500.0,74.29975128173828
2017-10-10,76.62999725341797,76.13999938964844,76.33000183105469,76.29000091552734,13944500.0,74.29975128173828
2017-10-11,76.45999908447266,75.94999694824219,76.36000061035156,76.41999816894531,15388900.0,74.42635345458984
2017-10-12,77.29000091552734,76.37000274658203,76.48999786376953,77.12000274658203,16876500.0,75.10810089111328
2017-10-13,77.87000274658203,77.29000091552734,77.58999633789062,77.48999786376953,15335700.0,75.46844482421875
2017-10-16,77.80999755859375,77.3499984741211,77.41999816894531,77.6500015258789,12380100.0,75.624267578125
2017-10-17,77.62000274658203,77.25,77.47000122070312,77.58999633789062,16824000.0,75.56582641601562
2017-10-18,77.8499984741211,77.37000274658203,77.66999816894531,77.61000061035156,13300700.0,75.58531188964844
2017-10-19,77.93000030517578,77.3499984741211,77.56999969482422,77.91000366210938,15092800.0,75.87749481201172
2017-10-20,78.97000122070312,78.22000122070312,78.31999969482422,78.80999755859375,22866400.0,76.7540054321289
2017-10-23,79.33999633789062,78.76000213623047,78.98999786376953,78.83000183105469,20627200.0,76.77349090576172
2017-10-24,79.19999694824219,78.45999908447266,78.9000015258789,78.86000061035156,17517200.0,76.80270385742188
2017-10-25,79.0999984741211,78.01000213623047,78.58000183105469,78.62999725341797,20410800.0,76.57868957519531
2017-10-26,79.41999816894531,78.75,79.19999694824219,78.76000213623047,32120700.0,76.70531463623047
2017-10-27,86.19999694824219,83.61000061035156,84.37000274658203,83.80999755859375,71066700.0,81.62357330322266
2017-10-30,84.33000183105469,83.11000061035156,83.69999694824219,83.88999938964844,31756700.0,81.70146942138672
2017-10-31,84.36000061035156,83.11000061035156,84.36000061035156,83.18000030517578,27086600.0,81.010009765625
2017-11-01,83.76000213623047,82.87999725341797,83.68000030517578,83.18000030517578,22307400.0,81.010009765625
2017-11-02,84.45999908447266,83.12000274658203,83.3499984741211,84.05000305175781,23992900.0,81.85730743408203
2017-11-03,84.54000091552734,83.4000015258789,84.08000183105469,84.13999938964844,17633500.0,81.94495391845703
2017-11-06,84.69999694824219,84.08000183105469,84.19999694824219,84.47000122070312,19164300.0,82.26634979248047
2017-11-07,84.9000015258789,83.93000030517578,84.7699966430664,84.2699966430664,17939700.0,82.07156372070312
2017-11-08,84.61000061035156,83.83000183105469,84.13999938964844,84.55999755859375,18034200.0,82.35399627685547
2017-11-09,84.2699966430664,82.9000015258789,84.11000061035156,84.08999633789062,21178400.0,81.89625549316406
2017-11-10,84.0999984741211,83.2300033569336,83.79000091552734,83.87000274658203,19397800.0,81.6820068359375
2017-11-13,83.94000244140625,83.45999908447266,83.66000366210938,83.93000030517578,14196900.0,81.74043273925781
2017-11-14,84.0999984741211,82.9800033569336,83.5,84.05000305175781,18801300.0,81.85730743408203
2017-11-15,83.69000244140625,82.69000244140625,83.47000122070312,82.9800033569336,19383100.0,81.22108459472656
2017-11-16,83.41999816894531,82.94000244140625,83.0999984741211,83.19999694824219,20962800.0,81.43641662597656
2017-11-17,83.12000274658203,82.23999786376953,83.12000274658203,82.4000015258789,22079000.0,80.65338134765625
2017-11-20,82.58999633789062,82.25,82.4000015258789,82.52999877929688,16315000.0,80.7806167602539
2017-11-21,83.83999633789062,82.73999786376953,82.73999786376953,83.72000122070312,21237500.0,81.94539642333984
2017-11-22,83.9000015258789,83.04000091552734,83.83000183105469,83.11000061035156,20553100.0,81.34833526611328
2017-11-24,83.43000030517578,82.77999877929688,83.01000213623047,83.26000213623047,7425600.0,81.49514770507812
2017-11-27,83.9800033569336,83.30000305175781,83.30999755859375,83.87000274658203,18265200.0,82.09222412109375
2017-11-28,85.05999755859375,84.0199966430664,84.06999969482422,84.87999725341797,21926000.0,83.08080291748047
2017-11-29,84.91999816894531,83.18000030517578,84.70999908447266,83.33999633789062,27381100.0,81.57345581054688
2017-11-30,84.5199966430664,83.33999633789062,83.51000213623047,84.16999816894531,33054600.0,82.3858642578125
2017-12-01,84.80999755859375,83.22000122070312,83.5999984741211,84.26000213623047,29532100.0,82.47394561767578
2017-12-04,84.43000030517578,80.69999694824219,84.41999816894531,81.08000183105469,39094900.0,79.3613510131836
2017-12-05,82.68000030517578,80.9800033569336,81.33999633789062,81.58999633789062,26152300.0,79.86053466796875
2017-12-06,83.13999938964844,81.43000030517578,81.55000305175781,82.77999877929688,26162100.0,81.02531433105469
2017-12-07,82.80000305175781,82.0,82.54000091552734,82.48999786376953,23184500.0,80.74146270751953
2017-12-08,84.58000183105469,83.33000183105469,83.62999725341797,84.16000366210938,24489100.0,82.3760757446289
2017-12-11,85.37000274658203,84.12000274658203,84.29000091552734,85.2300033569336,22857900.0,83.42339324951172
2017-12-12,86.05000305175781,85.08000183105469,85.30999755859375,85.58000183105469,23924100.0,83.7659683227539
2017-12-13,86.0,85.16999816894531,85.73999786376953,85.3499984741211,22062700.0,83.54084777832031
2017-12-14,85.87000274658203,84.52999877929688,85.43000030517578,84.69000244140625,19306000.0,82.89484405517578
2017-12-15,87.08999633789062,84.87999725341797,85.26000213623047,86.8499984741211,53936700.0,85.00904846191406
2017-12-18,87.5,86.2300033569336,87.12000274658203,86.37999725341797,22283800.0,84.54900360107422
2017-12-19,86.3499984741211,85.2699966430664,86.3499984741211,85.83000183105469,23524800.0,84.01067352294922
2017-12-20,86.30000305175781,84.70999908447266,86.19999694824219,85.5199966430664,23674900.0,83.70722961425781
2017-12-21,86.0999984741211,85.4000015258789,86.05000305175781,85.5,17990700.0,83.68766021728516
2017-12-22,85.62999725341797,84.91999816894531,85.4000015258789,85.51000213623047,14145800.0,83.69745635986328
2017-12-26,85.52999877929688,85.02999877929688,85.30999755859375,85.4000015258789,9891200.0,83.58978271484375
2017-12-27,85.9800033569336,85.22000122070312,85.6500015258789,85.70999908447266,14678000.0,83.8932113647461
2017-12-28,85.93000030517578,85.55000305175781,85.9000015258789,85.72000122070312,10594300.0,83.90300750732422
2017-12-29,86.05000305175781,85.5,85.62999725341797,85.54000091552734,18717400.0,83.72681427001953
2018-01-02,86.30999755859375,85.5,86.12999725341797,85.94999694824219,22483800.0,84.12812805175781
2018-01-03,86.51000213623047,85.97000122070312,86.05999755859375,86.3499984741211,26061400.0,84.51964569091797
2018-01-04,87.66000366210938,86.56999969482422,86.58999633789062,87.11000061035156,21912000.0,85.26354217529297
2018-01-05,88.41000366210938,87.43000030517578,87.66000366210938,88.19000244140625,23407100.0,86.32064819335938
2018-01-08,88.58000183105469,87.5999984741211,88.19999694824219,88.27999877929688,22113000.0,86.40873718261719
2018-01-09,88.7300033569336,87.86000061035156,88.6500015258789,88.22000122070312,19484300.0,86.35001373291016
2018-01-10,88.19000244140625,87.41000366210938,87.86000061035156,87.81999969482422,18652200.0,85.95848846435547
2018-01-11,88.12999725341797,87.23999786376953,88.12999725341797,88.08000183105469,17808900.0,86.21297454833984
2018-01-12,89.77999877929688,88.44999694824219,88.66999816894531,89.5999984741211,24271500.0,87.70076751708984
2018-01-16,90.79000091552734,88.01000213623047,90.0999984741211,88.3499984741211,36599700.0,86.47725677490234
2018-01-17,90.27999877929688,88.75,89.08000183105469,90.13999938964844,25602600.0,88.22931671142578
2018-01-18,90.66999816894531,89.66000366210938,89.80000305175781,90.0999984741211,24159700.0,88.1901626586914
2018-01-19,90.61000061035156,89.66000366210938,90.13999938964844,90.0,36875000.0,88.09227752685547
2018-01-22,91.62000274658203,89.73999786376953,90.0,91.61000061035156,23601600.0,89.66815185546875
2018-01-23,92.30000305175781,91.54000091552734,91.9000015258789,91.9000015258789,23412800.0,89.95199584960938
2018-01-24,93.43000030517578,91.58000183105469,92.55000305175781,91.81999969482422,33277500.0,89.87370300292969
2018-01-25,93.23999786376953,91.93000030517578,92.47000122070312,92.33000183105469,26383200.0,90.37289428710938
2018-01-26,94.05999755859375,92.58000183105469,93.12000274658203,94.05999755859375,29172200.0,92.06622314453125
2018-01-29,95.44999694824219,93.72000122070312,95.13999938964844,93.91999816894531,31569900.0,91.92919158935547
2018-01-30,93.66000366210938,92.0999984741211,93.30000305175781,92.73999786376953,38635100.0,90.7741928100586
2018-01-31,95.4000015258789,93.51000213623047,93.75,95.01000213623047,48756300.0,92.99607849121094
2018-02-01,96.06999969482422,93.58000183105469,94.79000091552734,94.26000213623047,47227900.0,92.26197814941406
2018-02-02,93.97000122070312,91.5,93.63999938964844,91.77999877929688,47867800.0,89.83454132080078
2018-02-05,93.23999786376953,88.0,90.55999755859375,88.0,51031500.0,86.13467407226562
2018-02-06,91.4800033569336,85.25,86.88999938964844,91.33000183105469,67998600.0,89.39408874511719
2018-02-07,91.7699966430664,89.19999694824219,90.48999786376953,89.61000061035156,41107600.0,87.7105484008789
2018-02-08,89.87999725341797,84.76000213623047,89.70999908447266,85.01000213623047,55628700.0,83.20805358886719
2018-02-09,88.93000030517578,83.83000183105469,86.30000305175781,88.18000030517578,63499100.0,86.31086730957031
2018-02-12,89.77999877929688,87.93000030517578,88.73999786376953,89.12999725341797,35720300.0,87.24071502685547
2018-02-13,90.0,87.80000305175781,88.93000030517578,89.83000183105469,26407700.0,87.9258804321289
2018-02-14,90.98999786376953,88.41000366210938,88.51000213623047,90.80999755859375,34960900.0,89.30264282226562
2018-02-15,92.72000122070312,90.62000274658203,91.20999908447266,92.66000366210938,27823900.0,91.1219482421875
2018-02-16,93.5,91.80000305175781,92.44999694824219,92.0,30596900.0,90.47289276123047
2018-02-20,93.05999755859375,91.01000213623047,91.4800033569336,92.72000122070312,30911700.0,91.18094635009766
2018-02-21,93.36000061035156,91.48999786376953,92.9800033569336,91.48999786376953,26922500.0,89.97135925292969
2018-02-22,92.7300033569336,91.36000061035156,92.05000305175781,91.7300033569336,24392800.0,90.20738220214844
2018-02-23,94.06999969482422,92.36000061035156,93.5999984741211,94.05999755859375,26329200.0,92.49870300292969
2018-02-26,95.44999694824219,94.25,94.4000015258789,95.41999816894531,30199800.0,93.83611297607422
2018-02-27,95.83999633789062,94.19999694824219,95.73999786376953,94.19999694824219,25869100.0,92.6363754272461
2018-02-28,95.70999908447266,93.62999725341797,94.83999633789062,93.7699966430664,31167300.0,92.21351623535156
2018-03-01,94.56999969482422,91.83999633789062,93.98999786376953,92.8499984741211,37135600.0,91.30877685546875
2018-03-02,93.1500015258789,90.86000061035156,91.58000183105469,93.05000305175781,32830400.0,91.5054702758789
2018-03-05,94.2699966430664,92.26000213623047,92.33999633789062,93.63999938964844,23901600.0,92.0856704711914
2018-03-06,94.48999786376953,92.94000244140625,94.33999633789062,93.31999969482422,22175800.0,91.77098083496094
2018-03-07,93.94000244140625,92.43000030517578,93.16000366210938,93.86000061035156,26716100.0,92.3020248413086
2018-03-08,95.0999984741211,93.7699966430664,94.2699966430664,94.43000030517578,25887800.0,92.86255645751953
2018-03-09,96.54000091552734,95.0,95.29000091552734,96.54000091552734,36937300.0,94.93753814697266
2018-03-12,97.20999908447266,96.04000091552734,96.5,96.7699966430664,26073700.0,95.16371154785156
2018-03-13,97.23999786376953,93.97000122070312,97.0,94.41000366210938,35387800.0,92.8428955078125
2018-03-14,95.41000366210938,93.5,95.12000274658203,93.8499984741211,32132000.0,92.29218292236328
2018-03-15,94.58000183105469,92.83000183105469,93.52999877929688,94.18000030517578,27611000.0,92.61671447753906
2018-03-16,95.37999725341797,93.91999816894531,94.68000030517578,94.5999984741211,49081300.0,93.02973937988281
2018-03-19,93.9000015258789,92.11000061035156,93.73999786376953,92.88999938964844,33344100.0,91.34811401367188
2018-03-20,93.7699966430664,93.0,93.05000305175781,93.12999725341797,23075200.0,91.58413696289062
2018-03-21,94.05000305175781,92.20999908447266,92.93000030517578,92.4800033569336,24457100.0,90.9449234008789
2018-03-22,91.75,89.66000366210938,91.2699966430664,89.79000091552734,38604700.0,88.29957580566406
2018-03-23,90.45999908447266,87.08000183105469,89.5,87.18000030517578,44068900.0,85.73289489746094
2018-03-26,94.0,90.4000015258789,90.61000061035156,93.77999877929688,56396800.0,92.22334289550781
2018-03-27,95.13999938964844,88.51000213623047,94.94000244140625,89.47000122070312,56569000.0,87.98489379882812
2018-03-28,91.2300033569336,88.87000274658203,89.81999969482422,89.38999938964844,52501100.0,87.90621185302734
2018-03-29,92.29000091552734,88.4000015258789,90.18000030517578,91.2699966430664,45867500.0,89.75501251220703
2018-04-02,90.87999725341797,87.51000213623047,90.47000122070312,88.5199966430664,48515400.0,87.05065155029297
2018-04-03,90.05000305175781,87.88999938964844,89.58000183105469,89.70999908447266,37213800.0,88.22089385986328
2018-04-04,92.76000213623047,87.7300033569336,87.8499984741211,92.33000183105469,35560000.0,90.79740905761719
2018-04-05,93.06999969482422,91.4000015258789,92.44000244140625,92.37999725341797,29771900.0,90.8465805053711
2018-04-06,92.45999908447266,89.4800033569336,91.48999786376953,90.2300033569336,38026000.0,88.7322769165039
2018-04-09,93.16999816894531,90.62000274658203,91.04000091552734,90.7699966430664,31533900.0,89.26331329345703
2018-04-10,93.27999877929688,91.63999938964844,92.38999938964844,92.87999725341797,26812000.0,91.3382797241211
2018-04-11,93.29000091552734,91.4800033569336,92.01000213623047,91.86000061035156,24872100.0,90.33521270751953
2018-04-12,94.16000366210938,92.43000030517578,92.43000030517578,93.58000183105469,26758900.0,92.02666473388672
2018-04-13,94.18000030517578,92.44000244140625,94.05000305175781,93.08000183105469,23346100.0,91.53496551513672
2018-04-16,94.66000366210938,93.41999816894531,94.06999969482422,94.16999816894531,20288100.0,92.60686492919922
2018-04-17,96.54000091552734,94.87999725341797,95.0,96.06999969482422,26771000.0,94.47533416748047
2018-04-18,96.72000122070312,95.5199966430664,96.22000122070312,96.44000244140625,21043300.0,94.83919525146484
2018-04-19,97.06999969482422,95.33999633789062,96.44000244140625,96.11000061035156,23552500.0,94.51466369628906
2018-04-20,96.11000061035156,94.05000305175781,95.91000366210938,95.0,31154400.0,93.42308807373047
2018-04-23,96.29000091552734,94.62999725341797,95.73999786376953,95.3499984741211,22331800.0,93.76728057861328
2018-04-24,96.47000122070312,92.41000366210938,96.23999786376953,93.12000274658203,34524800.0,91.57429504394531
2018-04-25,93.30000305175781,90.27999877929688,93.30000305175781,92.30999755859375,33729300.0,90.77774047851562
2018-04-26,95.1500015258789,93.0999984741211,93.55000305175781,94.26000213623047,42529000.0,92.69538879394531
2018-04-27,97.9000015258789,93.91000366210938,97.5999984741211,95.81999969482422,48272800.0,94.22948455810547
2018-04-30,96.4000015258789,93.1500015258789,96.33000183105469,93.5199966430664,41523600.0,91.96765899658203
2018-05-01,95.29000091552734,92.79000091552734,93.20999908447266,95.0,31408900.0,93.42308807373047
2018-05-02,95.16999816894531,93.19000244140625,94.98999786376953,93.51000213623047,27471000.0,91.95783233642578
2018-05-03,94.93000030517578,92.44999694824219,92.95999908447266,94.06999969482422,31142500.0,92.50852966308594
2018-05-04,95.37000274658203,92.91999816894531,93.31999969482422,95.16000366210938,22531300.0,93.58043670654297
2018-05-07,96.70999908447266,95.0999984741211,95.16999816894531,96.22000122070312,24242000.0,94.62284851074219
2018-05-08,96.16000366210938,95.05999755859375,95.8499984741211,95.80999755859375,23484600.0,94.21965026855469
2018-05-09,96.97000122070312,95.05000305175781,96.01000213623047,96.94000244140625,27327400.0,95.33090209960938
2018-05-10,97.94999694824219,97.05000305175781,97.45999908447266,97.91000366210938,22388100.0,96.28480529785156
2018-05-11,97.87000274658203,97.04000091552734,97.80000305175781,97.69999694824219,16778300.0,96.07827758789062
2018-05-14,98.69000244140625,97.30999755859375,97.91999816894531,98.02999877929688,19454100.0,96.40280151367188
2018-05-15,97.8499984741211,96.33999633789062,97.23999786376953,97.31999969482422,24594000.0,95.70458984375
2018-05-16,97.4000015258789,96.62000274658203,97.36000061035156,97.1500015258789,17384700.0,95.95149993896484
2018-05-17,97.54000091552734,95.83000183105469,96.76000213623047,96.18000030517578,17246700.0,94.99346923828125
2018-05-18,96.93000030517578,96.01000213623047,96.01000213623047,96.36000061035156,17865800.0,95.17124938964844
2018-05-21,98.01000213623047,96.80000305175781,97.0,97.5999984741211,19422500.0,96.39595031738281
2018-05-22,98.16999816894531,97.19999694824219,97.68000030517578,97.5,15441200.0,96.29718780517578
2018-05-23,98.7300033569336,96.31999969482422,96.70999908447266,98.66000366210938,21114800.0,97.44287109375
2018-05-24,98.94000244140625,96.80999755859375,98.7300033569336,98.30999755859375,26649300.0,97.0971908569336
2018-05-25,98.9800033569336,97.86000061035156,98.30000305175781,98.36000061035156,18363900.0,97.14657592773438
2018-05-29,98.87999725341797,97.2300033569336,97.83999633789062,98.01000213623047,28671000.0,96.80089569091797
2018-05-30,99.25,97.91000366210938,98.30999755859375,98.94999694824219,22158500.0,97.72929382324219
2018-05-31,99.98999786376953,98.61000061035156,99.29000091552734,98.83999633789062,34140900.0,97.62065124511719
2018-06-01,100.86000061035156,99.16999816894531,99.27999877929688,100.79000091552734,28655600.0,99.54660034179688
2018-06-04,101.86000061035156,100.8499984741211,101.26000213623047,101.66999816894531,27281600.0,100.41574096679688
2018-06-05,102.33000183105469,101.52999877929688,102.0,102.19000244140625,23514400.0,100.92933654785156
2018-06-06,102.5999984741211,101.9000015258789,102.4800033569336,102.48999786376953,21122900.0,101.22562408447266
2018-06-07,102.69000244140625,100.37999725341797,102.6500015258789,100.87999725341797,28232200.0,99.63548278808594
2018-06-08,101.94999694824219,100.54000091552734,101.08999633789062,101.62999725341797,22165100.0,100.37622833251953
2018-06-11,101.58999633789062,100.66999816894531,101.01000213623047,101.05000305175781,23490900.0,99.80339813232422
2018-06-12,101.44999694824219,100.75,101.0999984741211,101.30999755859375,18325200.0,100.0601806640625
2018-06-13,102.01000213623047,100.55999755859375,101.72000122070312,100.8499984741211,29492900.0,99.6058578491211
2018-06-14,102.02999877929688,101.0,101.6500015258789,101.41999816894531,25691800.0,100.1688232421875
2018-06-15,101.52999877929688,100.06999969482422,101.51000213623047,100.12999725341797,65738600.0,98.89474487304688
2018-06-18,101.11000061035156,99.41999816894531,100.01000213623047,100.86000061035156,23586000.0,99.61573791503906
2018-06-19,101.0,99.5,99.6500015258789,100.86000061035156,28653100.0,99.61573791503906
2018-06-20,102.5199966430664,101.12000274658203,101.37000274658203,101.87000274658203,26180800.0,100.61328125
2018-06-21,102.45999908447266,100.87999725341797,102.08000183105469,101.13999938964844,23198200.0,99.89227294921875
2018-06-22,100.7699966430664,99.62999725341797,100.41000366210938,100.41000366210938,38923100.0,99.1712875366211
2018-06-25,100.11000061035156,97.30000305175781,100.0,98.38999938964844,35433300.0,97.17620849609375
2018-06-26,100.08000183105469,98.75,98.81999969482422,99.08000183105469,26897200.0,97.8576889038086
2018-06-27,100.0199966430664,97.4000015258789,99.58000183105469,97.54000091552734,31298400.0,96.3366928100586
2018-06-28,99.11000061035156,97.26000213623047,97.37999725341797,98.62999725341797,26650700.0,97.41324615478516
2018-06-29,99.91000366210938,98.33000183105469,98.93000030517578,98.61000061035156,28053200.0,97.39349365234375
2018-07-02,100.05999755859375,98.0,98.0999984741211,100.01000213623047,19564500.0,98.7762222290039
2018-07-03,100.62999725341797,98.94000244140625,100.4800033569336,99.05000305175781,14670300.0,97.82806396484375
2018-07-05,99.91999816894531,99.02999877929688,99.5,99.76000213623047,18977400.0,98.52930450439453
2018-07-06,101.43000030517578,99.66999816894531,99.88999938964844,101.16000366210938,19234600.0,99.91203308105469
2018-07-09,102.25,101.25,101.6500015258789,101.8499984741211,18212000.0,100.5935287475586
2018-07-10,102.51000213623047,101.86000061035156,102.0,102.12000274658203,19293100.0,100.86019134521484
2018-07-11,102.33999633789062,101.0999984741211,101.1500015258789,101.9800033569336,19644600.0,100.721923828125
2018-07-12,104.41000366210938,102.7300033569336,102.7699966430664,104.19000244140625,24335900.0,102.90465545654297
2018-07-13,105.5999984741211,104.08999633789062,104.37000274658203,105.43000030517578,24635200.0,104.12935638427734
2018-07-16,105.81999969482422,104.5199966430664,105.4000015258789,104.91000366210938,21786900.0,103.61577606201172
2018-07-17,106.5,104.31999969482422,104.61000061035156,105.94999694824219,25901700.0,104.64293670654297
2018-07-18,106.05000305175781,104.72000122070312,105.94000244140625,105.12000274658203,29493900.0,103.82318115234375
2018-07-19,105.30999755859375,103.88999938964844,104.93000030517578,104.4000015258789,40171600.0,103.112060546875
2018-07-20,108.19999694824219,106.08000183105469,108.08000183105469,106.2699966430664,56004000.0,104.95899200439453
2018-07-23,108.13999938964844,106.12999725341797,106.30000305175781,107.97000122070312,29707000.0,106.63801574707031
2018-07-24,108.81999969482422,107.26000213623047,108.56999969482422,107.66000366210938,26316600.0,106.33184814453125
2018-07-25,111.1500015258789,107.5999984741211,107.95999908447266,110.83000183105469,30702100.0,109.46273803710938
2018-07-26,111.0,109.5,110.73999786376953,109.62000274658203,31372100.0,108.26766967773438
2018-07-27,110.18000030517578,106.13999938964844,110.18000030517578,107.68000030517578,37005300.0,106.35159301757812
2018-07-30,107.52999877929688,104.76000213623047,107.19000244140625,105.37000274658203,34668300.0,104.07010650634766
2018-07-31,106.72000122070312,105.37999725341797,106.48999786376953,106.08000183105469,27655200.0,104.7713394165039
2018-08-01,106.44999694824219,105.41999816894531,106.02999877929688,106.27999877929688,23628700.0,104.9688720703125
2018-08-02,108.08999633789062,104.83999633789062,105.4000015258789,107.56999969482422,26104300.0,106.24295043945312
2018-08-03,108.05000305175781,106.81999969482422,107.80000305175781,108.04000091552734,18659600.0,106.7071533203125
2018-08-06,108.41999816894531,107.55999755859375,108.12000274658203,108.12999725341797,20265900.0,106.79605102539062
2018-08-07,109.0999984741211,108.16999816894531,108.55999755859375,108.87999725341797,16080200.0,107.53678894042969
2018-08-08,109.75,108.76000213623047,109.33000183105469,109.48999786376953,15487500.0,108.13927459716797
2018-08-09,110.16000366210938,109.5999984741211,109.70999908447266,109.66999816894531,13660400.0,108.31704711914062
2018-08-10,109.69000244140625,108.37999725341797,109.41999816894531,109.0,18183700.0,107.65531921386719
2018-08-13,109.58000183105469,108.0999984741211,109.23999786376953,108.20999908447266,18472500.0,106.87506103515625
2018-08-14,109.75,108.04000091552734,108.55999755859375,109.55999755859375,16788300.0,108.20840454101562
2018-08-15,108.98999786376953,106.81999969482422,108.48999786376953,107.66000366210938,29982800.0,106.74104309082031
2018-08-16,108.86000061035156,107.30000305175781,108.30000305175781,107.63999938964844,21384300.0,106.7212142944336
2018-08-17,107.9000015258789,106.69000244140625,107.36000061035156,107.58000183105469,18061500.0,106.66172790527344
2018-08-20,107.9000015258789,106.4800033569336,107.51000213623047,106.87000274658203,17914200.0,105.9577865600586
2018-08-21,107.3499984741211,105.8499984741211,106.91999816894531,105.9800033569336,22881900.0,105.07538604736328
2018-08-22,107.33999633789062,105.77999877929688,105.8499984741211,107.05999755859375,18000600.0,106.14615631103516
2018-08-23,108.18000030517578,106.87000274658203,107.1500015258789,107.55999755859375,18167700.0,106.64189147949219
2018-08-24,108.55999755859375,107.55999755859375,107.66999816894531,108.4000015258789,17234000.0,107.4747314453125
2018-08-27,109.63999938964844,108.51000213623047,109.2699966430664,109.5999984741211,19662300.0,108.66448211669922
2018-08-28,110.5,109.79000091552734,109.94000244140625,110.26000213623047,19151500.0,109.31884765625
2018-08-29,112.02999877929688,110.2699966430664,110.44999694824219,112.0199966430664,20818000.0,111.06382751464844
2018-08-30,112.61000061035156,111.44000244140625,111.66999816894531,111.94999694824219,22798700.0,110.99442291259766
2018-08-31,112.77999877929688,111.5199966430664,111.69000244140625,112.33000183105469,23222700.0,111.37118530273438
2018-09-04,111.95999908447266,110.22000122070312,110.8499984741211,111.70999908447266,22634600.0,110.7564697265625
2018-09-05,111.41999816894531,108.0999984741211,111.01000213623047,108.48999786376953,32872400.0,107.56395721435547
2018-09-06,108.98999786376953,107.51000213623047,108.25,108.73999786376953,23477600.0,107.81182098388672
2018-09-07,108.72000122070312,107.2300033569336,108.2300033569336,108.20999908447266,22498600.0,107.28634643554688
2018-09-10,109.63999938964844,108.36000061035156,108.83999633789062,109.37999725341797,20727900.0,108.44635772705078
2018-09-11,111.58999633789062,108.88999938964844,108.9000015258789,111.23999786376953,24301800.0,110.29048156738281
2018-09-12,111.8499984741211,110.51000213623047,111.43000030517578,111.70999908447266,18891100.0,110.7564697265625
2018-09-13,113.7300033569336,112.12000274658203,112.12000274658203,112.91000366210938,26055600.0,111.94623565673828
2018-09-14,113.7300033569336,112.44000244140625,113.36000061035156,113.37000274658203,19122300.0,112.40229797363281
2018-09-17,113.69999694824219,111.86000061035156,113.69000244140625,112.13999938964844,20736500.0,111.18280029296875
2018-09-18,113.69999694824219,111.72000122070312,112.19000244140625,113.20999908447266,22170900.0,112.24366760253906
2018-09-19,113.31999969482422,111.04000091552734,113.05000305175781,111.69999694824219,21728400.0,110.74655151367188
2018-09-20,113.80000305175781,111.93000030517578,112.27999877929688,113.56999969482422,23714500.0,112.60059356689453
2018-09-21,115.29000091552734,113.51000213623047,114.0,114.26000213623047,71229700.0,113.28470611572266
2018-09-24,114.9000015258789,112.22000122070312,113.02999877929688,114.66999816894531,27334500.0,113.69120788574219
2018-09-25,115.0999984741211,113.75,114.80000305175781,114.44999694824219,22668000.0,113.47308349609375
2018-09-26,115.05999755859375,113.73999786376953,114.47000122070312,113.9800033569336,19352000.0,113.0071029663086
2018-09-27,114.91000366210938,114.19999694824219,114.77999877929688,114.41000366210938,19091300.0,113.43342590332031
2018-09-28,114.56999969482422,113.68000030517578,114.19000244140625,114.37000274658203,21647800.0,113.39376831054688
2018-10-01,115.68000030517578,114.7300033569336,114.75,115.61000061035156,18883100.0,114.62318420410156
2018-10-02,115.83999633789062,114.44000244140625,115.30000305175781,115.1500015258789,20787200.0,114.1671142578125
2018-10-03,116.18000030517578,114.93000030517578,115.41999816894531,115.16999816894531,16648000.0,114.18693542480469
2018-10-04,114.76000213623047,111.62999725341797,114.61000061035156,112.79000091552734,34821700.0,111.8272476196289
2018-10-05,113.16999816894531,110.63999938964844,112.62999725341797,112.12999725341797,29068900.0,111.17288970947266
2018-10-08,112.02999877929688,109.33999633789062,111.66000366210938,110.8499984741211,29640600.0,109.90380859375
2018-10-09,113.08000183105469,110.80000305175781,111.13999938964844,112.26000213623047,26198600.0,111.30177307128906
2018-10-10,111.5,105.79000091552734,111.23999786376953,106.16000366210938,61376300.0,105.25384521484375
2018-10-11,108.93000030517578,104.19999694824219,105.3499984741211,105.91000366210938,63904300.0,105.0059814453125
2018-10-12,111.23999786376953,107.12000274658203,109.01000213623047,109.56999969482422,47742100.0,108.63473510742188
2018-10-15,109.4800033569336,106.94999694824219,108.91000366210938,107.5999984741211,32068100.0,106.68155670166016
2018-10-16,111.41000366210938,108.94999694824219,109.54000091552734,111.0,31610200.0,110.05253601074219
2018-10-17,111.80999755859375,109.55000305175781,111.68000030517578,110.70999908447266,26548200.0,109.76500701904297
2018-10-18,110.52999877929688,107.83000183105469,110.0999984741211,108.5,32506200.0,107.57386779785156
2018-10-19,110.86000061035156,108.20999908447266,108.93000030517578,108.66000366210938,32785500.0,107.73250579833984
2018-10-22,110.54000091552734,108.23999786376953,109.31999969482422,109.62999725341797,26545600.0,108.69422149658203
2018-10-23,108.97000122070312,105.11000061035156,107.7699966430664,108.0999984741211,43770400.0,107.17728424072266
2018-10-24,108.48999786376953,101.58999633789062,108.41000366210938,102.31999969482422,63897800.0,101.44662475585938
2018-10-25,109.2699966430664,106.1500015258789,106.55000305175781,108.30000305175781,61646800.0,107.37557983398438
2018-10-26,108.75,104.76000213623047,105.69000244140625,106.95999908447266,55523100.0,106.04701232910156
2018-10-29,108.69999694824219,101.62999725341797,108.11000061035156,103.8499984741211,55162000.0,102.96356201171875
2018-10-30,104.37999725341797,100.11000061035156,103.66000366210938,103.7300033569336,65350900.0,102.84459686279297
2018-10-31,108.13999938964844,105.38999938964844,105.44000244140625,106.80999755859375,51062400.0,105.8982925415039
2018-11-01,107.31999969482422,105.52999877929688,107.05000305175781,105.91999816894531,33384200.0,105.0158920288086
2018-11-02,107.31999969482422,104.9800033569336,106.4800033569336,106.16000366210938,37680200.0,105.25384521484375
2018-11-05,107.73999786376953,105.9000015258789,106.37000274658203,107.51000213623047,27922100.0,106.59232330322266
2018-11-06,108.83999633789062,106.27999877929688,107.37999725341797,107.72000122070312,24340200.0,106.80052947998047
2018-11-07,112.23999786376953,109.4000015258789,109.44000244140625,111.95999908447266,37901700.0,111.00433349609375
2018-11-08,112.20999908447266,110.91000366210938,111.80000305175781,111.75,25644100.0,110.79613494873047
2018-11-09,111.44999694824219,108.76000213623047,110.8499984741211,109.56999969482422,32039200.0,108.63473510742188
2018-11-12,109.95999908447266,106.0999984741211,109.41999816894531,106.87000274658203,33621800.0,105.9577865600586
2018-11-13,108.73999786376953,106.63999938964844,107.55000305175781,106.94000244140625,35374600.0,106.02719116210938
2018-11-14,108.26000213623047,104.47000122070312,108.0999984741211,104.97000122070312,39495100.0,104.52361297607422
2018-11-15,107.80000305175781,103.91000366210938,104.98999786376953,107.27999877929688,38505200.0,106.82378387451172
2018-11-16,108.87999725341797,106.80000305175781,107.08000183105469,108.29000091552734,33502100.0,107.8294906616211
2018-11-19,108.55999755859375,103.55000305175781,108.2699966430664,104.62000274658203,44773900.0,104.17510223388672
2018-11-20,102.97000122070312,99.3499984741211,101.80000305175781,101.70999908447266,64052500.0,101.27747344970703
2018-11-21,104.43000030517578,102.23999786376953,103.5999984741211,103.11000061035156,28130600.0,102.67151641845703
2018-11-23,103.80999755859375,102.0,102.16999816894531,103.06999969482422,13823100.0,102.6316909790039
2018-11-26,106.62999725341797,104.58000183105469,104.79000091552734,106.47000122070312,32336200.0,106.0172348022461
2018-11-27,107.33000183105469,105.36000061035156,106.2699966430664,107.13999938964844,29124500.0,106.68437957763672
2018-11-28,111.33000183105469,107.86000061035156,107.88999938964844,111.12000274658203,46788500.0,110.6474609375
2018-11-29,111.12000274658203,109.02999877929688,110.33000183105469,110.19000244140625,28123200.0,109.7214126586914
2018-11-30,110.97000122070312,109.36000061035156,110.69999694824219,110.88999938964844,33665600.0,110.4184341430664
2018-12-03,113.41999816894531,110.7300033569336,113.0,112.08999633789062,34732800.0,111.61332702636719
2018-12-04,112.63999938964844,108.20999908447266,111.94000244140625,108.5199966430664,45197000.0,108.05850982666016
2018-12-06,109.23999786376953,105.0,105.81999969482422,109.19000244140625,49107400.0,108.72566986083984
2018-12-07,109.44999694824219,104.30000305175781,108.37999725341797,104.81999969482422,45044900.0,104.3742446899414
2018-12-10,107.9800033569336,103.88999938964844,104.80000305175781,107.58999633789062,40801500.0,107.13246154785156
2018-12-11,110.94999694824219,107.44000244140625,109.80000305175781,108.58999633789062,42381900.0,108.12821197509766
2018-12-12,111.2699966430664,109.04000091552734,110.88999938964844,109.08000183105469,36183000.0,108.61613464355469
2018-12-13,110.87000274658203,108.62999725341797,109.58000183105469,109.44999694824219,31333400.0,108.98455810546875
2018-12-14,109.26000213623047,105.5,108.25,106.02999877929688,47043100.0,105.5791015625
2018-12-17,105.80000305175781,101.70999908447266,105.41000366210938,102.88999938964844,56957300.0,102.45245361328125
2018-12-18,104.51000213623047,102.5199966430664,103.75,103.97000122070312,49319200.0,103.52786254882812
2018-12-19,106.87999725341797,101.3499984741211,103.6500015258789,103.69000244140625,68198200.0,103.24905395507812
2018-12-20,104.30999755859375,98.77999877929688,103.05000305175781,101.51000213623047,70334200.0,101.07832336425781
2018-12-21,103.0,97.45999908447266,101.62999725341797,98.2300033569336,111242100.0,97.8122787475586
2018-12-24,97.97000122070312,93.9800033569336,97.68000030517578,94.12999725341797,43935200.0,93.72970581054688
2018-12-26,100.69000244140625,93.95999908447266,95.13999938964844,100.55999755859375,51634800.0,100.13236236572266
2018-12-27,101.19000244140625,96.4000015258789,99.30000305175781,101.18000030517578,49498500.0,100.74972534179688
2018-12-28,102.41000366210938,99.5199966430664,102.08999633789062,100.38999938964844,38196300.0,99.96308898925781
2018-12-31,102.4000015258789,100.44000244140625,101.29000091552734,101.56999969482422,33173800.0,101.13806915283203
