Date,High,Low,Open,Close,Volume,Adj Close
2016-01-04,87.05000305175781,85.76000213623047,86.8499984741211,87.0,4703000.0,74.3825454711914
2016-01-05,88.2300033569336,86.8499984741211,87.02999877929688,87.87000274658203,3923500.0,75.12638092041016
2016-01-06,88.20999908447266,87.02999877929688,87.02999877929688,87.8499984741211,4861600.0,75.10928344726562
2016-01-07,88.45999908447266,86.68000030517578,86.68000030517578,87.25,6132500.0,74.5962905883789
2016-01-08,87.6500015258789,86.4800033569336,87.58000183105469,86.70999908447266,5415200.0,74.13462829589844
2016-01-11,89.33000183105469,87.4000015258789,87.44000244140625,89.16999816894531,8012200.0,76.23783874511719
2016-01-12,89.87999725341797,88.16000366210938,89.61000061035156,89.08999633789062,4742600.0,76.16944885253906
2016-01-13,89.19999694824219,88.05999755859375,89.0,88.30999755859375,6109300.0,75.50257110595703
2016-01-14,89.05999755859375,86.94999694824219,88.38999938964844,87.87999725341797,8194700.0,75.13492584228516
2016-01-15,86.94000244140625,85.11000061035156,86.05000305175781,86.29000091552734,7420500.0,73.77552032470703
2016-01-19,87.83000183105469,86.44000244140625,86.44000244140625,87.47000122070312,5097300.0,74.78439331054688
2016-01-20,86.9000015258789,84.45999908447266,86.68000030517578,85.86000061035156,5729600.0,73.40787506103516
2016-01-21,86.19999694824219,84.69000244140625,85.41999816894531,85.80000305175781,5436400.0,73.35659790039062
2016-01-22,87.16999816894531,85.80000305175781,86.75,86.87000274658203,3677200.0,74.27140808105469
2016-01-25,87.5999984741211,86.51000213623047,87.05000305175781,86.68000030517578,3258800.0,74.10897827148438
2016-01-26,88.31999969482422,86.76000213623047,86.76000213623047,87.30999755859375,4542500.0,74.64759063720703
2016-01-27,89.37999725341797,87.20999908447266,87.6500015258789,88.08999633789062,4882900.0,75.31446838378906
2016-01-28,89.72000122070312,87.61000061035156,88.79000091552734,89.05999755859375,3856900.0,76.14379119873047
2016-01-29,90.23999786376953,88.33000183105469,88.86000061035156,90.01000213623047,8383100.0,76.95601654052734
2016-02-01,90.30999755859375,89.33000183105469,89.79000091552734,89.41000366210938,5985600.0,76.44304656982422
2016-02-02,89.44999694824219,88.30000305175781,88.51000213623047,89.3499984741211,5323000.0,76.39173889160156
2016-02-03,90.27999877929688,88.4800033569336,89.83999633789062,89.79000091552734,6023000.0,76.7679443359375
2016-02-04,90.3499984741211,87.68000030517578,87.68000030517578,89.0999984741211,5916500.0,76.177978515625
2016-02-05,89.61000061035156,87.41999816894531,89.19000244140625,89.55000305175781,4557200.0,76.56273651123047
2016-02-08,90.29000091552734,88.6500015258789,89.27999877929688,89.72000122070312,5298500.0,76.70807647705078
2016-02-09,90.55999755859375,88.93000030517578,89.29000091552734,90.0199966430664,5092900.0,76.96456146240234
2016-02-10,90.38999938964844,89.04000091552734,90.25,89.2300033569336,3730600.0,76.28913879394531
2016-02-11,88.75,87.5,88.1500015258789,88.33999633789062,4181200.0,75.52823638916016
2016-02-12,89.5,88.25,89.02999877929688,89.05999755859375,4930400.0,76.14379119873047
2016-02-16,90.33999633789062,88.5999984741211,89.5,90.12000274658203,4482900.0,77.0500717163086
2016-02-17,92.19000244140625,89.76000213623047,90.05999755859375,91.2300033569336,6288600.0,77.99907684326172
2016-02-18,91.81999969482422,91.06999969482422,91.13999938964844,91.6500015258789,5886200.0,78.35818481445312
2016-02-19,92.19000244140625,90.77999877929688,91.58000183105469,91.94000244140625,4121500.0,78.60612487792969
2016-02-22,92.8499984741211,92.0199966430664,92.33999633789062,92.54000091552734,3796800.0,79.1191177368164
2016-02-23,92.79000091552734,91.80000305175781,92.41999816894531,92.05000305175781,3590000.0,78.70016479492188
2016-02-24,91.91000366210938,90.69999694824219,91.8499984741211,91.45999908447266,4534100.0,78.19572448730469
2016-02-25,92.4800033569336,91.36000061035156,91.52999877929688,92.44999694824219,3134200.0,79.04215240478516
2016-02-26,92.87000274658203,91.11000061035156,92.54000091552734,91.44999694824219,4025100.0,78.18717193603516
2016-02-29,91.7699966430664,90.4800033569336,91.0,91.02999877929688,4697700.0,77.82809448242188
2016-03-01,91.7300033569336,91.0199966430664,91.5999984741211,91.54000091552734,4489800.0,78.26412963867188
2016-03-02,91.88999938964844,90.79000091552734,91.29000091552734,91.55999755859375,3258500.0,78.28121185302734
2016-03-03,93.29000091552734,91.30999755859375,91.54000091552734,93.26000213623047,4125500.0,79.73467254638672
2016-03-04,94.91000366210938,93.25,93.29000091552734,94.48999786376953,5729300.0,80.78629302978516
2016-03-07,94.19000244140625,93.0999984741211,94.0199966430664,93.9000015258789,4888800.0,80.2818603515625
2016-03-08,94.79000091552734,93.76000213623047,94.06999969482422,94.44999694824219,5455200.0,80.75208282470703
2016-03-09,96.06999969482422,94.66000366210938,94.87000274658203,96.01000213623047,6544300.0,82.08584594726562
2016-03-10,96.87999725341797,95.75,95.98999786376953,96.83999633789062,5423900.0,82.79545593261719
2016-03-11,97.1500015258789,96.05999755859375,96.98999786376953,96.48999786376953,7202800.0,82.49624633789062
2016-03-14,97.12999725341797,96.0,96.58000183105469,96.44000244140625,4625300.0,82.45350646972656
2016-03-15,96.69999694824219,95.80000305175781,95.91000366210938,96.44000244140625,5039700.0,82.45350646972656
2016-03-16,97.36000061035156,95.6500015258789,96.41000366210938,97.18000030517578,3936900.0,83.08616638183594
2016-03-17,99.33000183105469,97.29000091552734,97.29000091552734,98.9000015258789,7378200.0,84.55673217773438
2016-03-18,99.23999786376953,97.91999816894531,99.02999877929688,98.16999816894531,9472700.0,83.93260192871094
2016-03-21,98.81999969482422,97.76000213623047,98.08000183105469,98.58999633789062,3784300.0,84.29167175292969
2016-03-22,97.69000244140625,96.43000030517578,97.33999633789062,96.73999786376953,3655200.0,83.57464599609375
2016-03-23,97.29000091552734,96.27999877929688,96.73999786376953,97.06999969482422,3028900.0,84.75332641601562
2016-03-24,97.5999984741211,96.66000366210938,97.04000091552734,97.56999969482422,3674800.0,85.18989562988281
2016-03-28,98.20999908447266,97.41999816894531,97.86000061035156,97.86000061035156,3206800.0,85.4430923461914
2016-03-29,98.88999938964844,97.37000274658203,98.0199966430664,98.86000061035156,4819300.0,86.31623077392578
2016-03-30,99.52999877929688,98.63999938964844,99.02999877929688,98.69000244140625,3405300.0,86.16780090332031
2016-03-31,99.01000213623047,98.01000213623047,98.52999877929688,98.11000061035156,4380300.0,85.661376953125
2016-04-01,99.83000183105469,97.55000305175781,97.7699966430664,99.75,4184600.0,87.09329986572266
2016-04-04,100.4800033569336,99.47000122070312,99.95999908447266,100.36000061035156,4198200.0,87.62589263916016
2016-04-05,100.41000366210938,99.87999725341797,100.0,100.26000213623047,3524300.0,87.53858947753906
2016-04-06,101.30999755859375,100.20999908447266,100.33000183105469,101.16999816894531,4550700.0,88.33311462402344
2016-04-07,101.1500015258789,100.19000244140625,101.08999633789062,100.58000183105469,3681000.0,87.81797790527344
2016-04-08,100.94999694824219,100.44000244140625,100.80999755859375,100.87999725341797,3710200.0,88.07990264892578
2016-04-11,101.80000305175781,100.08999633789062,101.27999877929688,100.33000183105469,4943700.0,87.59968566894531
2016-04-12,101.81999969482422,100.41000366210938,100.47000122070312,101.62999725341797,4375400.0,88.73473358154297
2016-04-13,102.0,99.37000274658203,101.88999938964844,100.33000183105469,5404200.0,87.59968566894531
2016-04-14,101.4800033569336,99.55999755859375,100.4000015258789,99.76000213623047,4271700.0,87.10201263427734
2016-04-15,100.4800033569336,99.18000030517578,99.87000274658203,100.11000061035156,6298100.0,87.40762329101562
2016-04-18,101.38999938964844,99.77999877929688,100.11000061035156,100.5999984741211,4926000.0,87.83543395996094
2016-04-19,99.7300033569336,97.08000183105469,98.6500015258789,99.27999877929688,7394400.0,86.68292999267578
2016-04-20,99.2300033569336,98.0,98.88999938964844,98.12999725341797,4209600.0,85.6788558959961
2016-04-21,98.04000091552734,95.91000366210938,97.81999969482422,96.41999816894531,5090800.0,84.1858139038086
2016-04-22,96.97000122070312,96.12999725341797,96.5999984741211,96.91999816894531,3660600.0,84.62237548828125
2016-04-25,97.54000091552734,96.20999908447266,96.58999633789062,97.52999877929688,3251100.0,85.15496826171875
2016-04-26,98.08999633789062,96.93000030517578,97.93000030517578,97.23999786376953,3714600.0,84.9017562866211
2016-04-27,98.2300033569336,96.41000366210938,97.37000274658203,97.2699966430664,3708500.0,84.9279556274414
2016-04-28,97.94000244140625,96.5,96.61000061035156,97.3499984741211,3207700.0,84.99781036376953
2016-04-29,98.58000183105469,97.41000366210938,97.41999816894531,98.12000274658203,4268300.0,85.67010498046875
2016-05-02,98.87999725341797,97.88999938964844,98.41999816894531,98.55999755859375,2899600.0,86.05426788330078
2016-05-03,98.8499984741211,97.97000122070312,98.4800033569336,98.5199966430664,2673000.0,86.01934051513672
2016-05-04,98.94000244140625,97.51000213623047,97.91999816894531,98.77999877929688,3146000.0,86.2463607788086
2016-05-05,99.98999786376953,98.73999786376953,99.30999755859375,99.18000030517578,5751400.0,86.5956039428711
2016-05-06,100.4000015258789,99.19999694824219,99.2300033569336,100.31999969482422,4065400.0,87.5909652709961
2016-05-09,100.6500015258789,100.0199966430664,100.3499984741211,100.38999938964844,4491700.0,87.6520767211914
2016-05-10,101.93000030517578,100.4000015258789,100.5,101.88999938964844,3076200.0,88.96175384521484
2016-05-11,102.37999725341797,101.66000366210938,101.87999725341797,101.80000305175781,3380000.0,88.8831787109375
2016-05-12,102.55000305175781,101.61000061035156,101.91000366210938,102.18000030517578,4916100.0,89.21495819091797
2016-05-13,102.38999938964844,100.68000030517578,101.7300033569336,100.88999938964844,3066700.0,88.08863067626953
2016-05-16,101.94000244140625,100.30999755859375,100.83999633789062,101.70999908447266,3001100.0,88.80461120605469
2016-05-17,101.4800033569336,99.18000030517578,101.18000030517578,99.83999633789062,4346600.0,87.17186737060547
2016-05-18,99.91999816894531,98.41999816894531,99.80000305175781,98.94999694824219,3408500.0,86.3947982788086
2016-05-19,98.5999984741211,97.19999694824219,98.54000091552734,98.36000061035156,3466900.0,85.8796615600586
2016-05-20,98.69000244140625,97.83000183105469,98.66999816894531,98.04000091552734,3369500.0,85.60025787353516
2016-05-23,98.41999816894531,97.7300033569336,98.05999755859375,98.27999877929688,2356900.0,85.80980682373047
2016-05-24,99.37000274658203,98.58999633789062,98.70999908447266,98.83999633789062,3074400.0,86.29874420166016
2016-05-25,99.5,98.6500015258789,98.66999816894531,99.05000305175781,2543100.0,86.48210906982422
2016-05-26,99.16999816894531,98.45999908447266,99.05000305175781,99.01000213623047,2310400.0,86.44718933105469
2016-05-27,99.3499984741211,98.70999908447266,99.0999984741211,99.18000030517578,2059800.0,86.5956039428711
2016-05-31,99.5999984741211,98.16999816894531,99.31999969482422,98.68000030517578,5706400.0,86.15904998779297
2016-06-01,99.54000091552734,98.41999816894531,98.68000030517578,99.4000015258789,3472700.0,86.78770446777344
2016-06-02,99.37000274658203,98.87999725341797,99.13999938964844,99.26000213623047,2511600.0,86.66546630859375
2016-06-03,101.22000122070312,99.51000213623047,99.55999755859375,101.12000274658203,4792500.0,88.2894515991211
2016-06-06,101.69000244140625,100.0199966430664,101.22000122070312,100.31999969482422,5121100.0,87.5909652709961
2016-06-07,100.91000366210938,100.22000122070312,100.45999908447266,100.45999908447266,5551400.0,87.71319580078125
2016-06-08,101.72000122070312,100.19999694824219,100.25,101.72000122070312,4124400.0,88.81332397460938
2016-06-09,102.01000213623047,100.76000213623047,101.27999877929688,101.77999877929688,4229900.0,88.86571502685547
2016-06-10,101.58999633789062,100.77999877929688,101.12999725341797,101.30000305175781,3608200.0,88.4466323852539
2016-06-13,101.58999633789062,100.51000213623047,100.87999725341797,100.56999969482422,3566000.0,87.80924224853516
2016-06-14,100.16999816894531,99.18000030517578,100.13999938964844,99.88999938964844,5161100.0,87.21552276611328
2016-06-15,100.30000305175781,99.25,100.1500015258789,99.6500015258789,3780100.0,87.0059814453125
2016-06-16,100.26000213623047,98.97000122070312,99.62000274658203,100.1500015258789,4575200.0,87.44254302978516
2016-06-17,101.0,99.62999725341797,100.36000061035156,100.7300033569336,6393800.0,87.9489517211914
2016-06-20,101.91000366210938,101.18000030517578,101.30000305175781,101.55000305175781,5045300.0,88.6648941040039
2016-06-21,101.13999938964844,100.45999908447266,100.87999725341797,100.8499984741211,5413800.0,88.94712829589844
2016-06-22,101.7699966430664,100.86000061035156,101.0,101.02999877929688,3504300.0,89.10589599609375
2016-06-23,101.91000366210938,101.0199966430664,101.66999816894531,101.9000015258789,2722800.0,89.8731918334961
2016-06-24,100.08000183105469,97.12000274658203,99.1500015258789,97.70999908447266,14754900.0,86.17772674560547
2016-06-27,98.66999816894531,96.88999938964844,97.33999633789062,98.19999694824219,8140200.0,86.6098861694336
2016-06-28,99.0,97.08000183105469,98.91000366210938,98.54000091552734,6146600.0,86.90977478027344
2016-06-29,99.19999694824219,98.1500015258789,98.80999755859375,98.62000274658203,4488400.0,86.9803237915039
2016-06-30,101.9000015258789,98.93000030517578,99.08999633789062,101.72000122070312,7545500.0,89.7144546508789
2016-07-01,102.30000305175781,101.12999725341797,101.72000122070312,101.27999877929688,4767800.0,89.32638549804688
2016-07-05,103.1500015258789,101.2699966430664,101.30000305175781,102.23999786376953,5932400.0,90.1730728149414
2016-07-06,102.83000183105469,101.19000244140625,102.30000305175781,102.36000061035156,4240500.0,90.27890014648438
2016-07-07,102.91000366210938,101.66000366210938,102.58000183105469,101.77999877929688,3140100.0,89.76737213134766
2016-07-08,103.16000366210938,101.75,102.33999633789062,103.08999633789062,3403800.0,90.92276000976562
2016-07-11,103.66999816894531,102.0999984741211,102.9800033569336,103.37999725341797,4040100.0,91.17852020263672
2016-07-12,103.81999969482422,102.75,103.33000183105469,102.9000015258789,3669000.0,90.75518798828125
2016-07-13,103.33999633789062,102.41000366210938,102.69999694824219,103.23999786376953,4013800.0,91.05506134033203
2016-07-14,103.66000366210938,102.73999786376953,103.37999725341797,103.19000244140625,3059800.0,91.01094818115234
2016-07-15,104.19999694824219,103.18000030517578,103.41000366210938,103.62999725341797,3531900.0,91.3990249633789
2016-07-18,103.7300033569336,102.9000015258789,103.48999786376953,103.0,4446500.0,90.84337615966797
2016-07-19,100.5,98.69999694824219,100.5,99.88999938964844,10017800.0,88.1004409790039
2016-07-20,101.0999984741211,99.5199966430664,100.37999725341797,99.6500015258789,5622900.0,87.88876342773438
2016-07-21,99.7699966430664,98.37000274658203,99.7699966430664,99.41999816894531,6596300.0,87.6859130859375
2016-07-22,99.91000366210938,99.23999786376953,99.31999969482422,99.83999633789062,3843600.0,88.05632781982422
2016-07-25,100.13999938964844,99.41000366210938,99.81999969482422,99.70999908447266,2957700.0,87.94168853759766
2016-07-26,100.0,98.72000122070312,99.8499984741211,98.95999908447266,4126200.0,87.28019714355469
2016-07-27,99.0,97.13999938964844,98.9800033569336,97.33000183105469,7007900.0,85.84256744384766
2016-07-28,99.25,96.94999694824219,97.36000061035156,99.0999984741211,6361100.0,87.4036636352539
2016-07-29,100.4000015258789,98.62000274658203,99.29000091552734,100.26000213623047,5582100.0,88.42677307128906
2016-08-01,100.37999725341797,99.27999877929688,99.73999786376953,100.1500015258789,4341600.0,88.32974243164062
2016-08-02,100.2699966430664,99.48999786376953,100.12000274658203,99.97000122070312,3923100.0,88.1709976196289
2016-08-03,99.91999816894531,98.63999938964844,99.62000274658203,99.02999877929688,3727100.0,87.34193420410156
2016-08-04,99.55000305175781,98.9000015258789,99.36000061035156,99.0,3871800.0,87.31548309326172
2016-08-05,99.48999786376953,98.63999938964844,99.0,98.93000030517578,5777700.0,87.25374603271484
2016-08-08,99.5199966430664,98.23999786376953,98.77999877929688,98.55000305175781,3888200.0,86.91858673095703
2016-08-09,99.2300033569336,98.38999938964844,98.66999816894531,98.4000015258789,3462800.0,86.78628540039062
2016-08-10,99.87000274658203,98.69999694824219,98.9000015258789,99.16999816894531,3321000.0,87.46540832519531
2016-08-11,99.91999816894531,98.83000183105469,99.48999786376953,98.86000061035156,2960900.0,87.1919937133789
2016-08-12,99.97000122070312,98.9800033569336,99.52999877929688,99.0,3060100.0,87.31548309326172
2016-08-15,99.18000030517578,98.54000091552734,99.13999938964844,98.61000061035156,5256700.0,86.97151184082031
2016-08-16,99.66000366210938,98.4000015258789,98.41999816894531,99.47000122070312,3374500.0,87.7300033569336
2016-08-17,100.37999725341797,99.44999694824219,99.69999694824219,100.29000091552734,3894400.0,88.45323181152344
2016-08-18,100.3499984741211,99.81999969482422,100.06999969482422,100.33999633789062,3256600.0,88.49732208251953
2016-08-19,100.12000274658203,99.54000091552734,100.04000091552734,99.93000030517578,2912400.0,88.13570404052734
2016-08-22,100.19000244140625,99.69999694824219,99.95999908447266,100.12000274658203,2380400.0,88.30328369140625
2016-08-23,100.58000183105469,100.1500015258789,100.25,100.38999938964844,2101400.0,88.54141998291016
2016-08-24,100.37000274658203,99.4000015258789,100.12999725341797,100.12999725341797,2839300.0,88.3121109008789
2016-08-25,100.19999694824219,99.44000244140625,100.19999694824219,99.83999633789062,2397600.0,88.05632781982422
2016-08-26,100.4800033569336,98.86000061035156,99.95999908447266,99.0999984741211,2778300.0,87.4036636352539
2016-08-29,100.31999969482422,99.05999755859375,99.08000183105469,100.26000213623047,2958800.0,88.42677307128906
2016-08-30,100.25,99.55000305175781,100.05999755859375,99.97000122070312,2276600.0,88.1709976196289
2016-08-31,100.0199966430664,99.31999969482422,99.91999816894531,99.93000030517578,3143300.0,88.13570404052734
2016-09-01,100.66999816894531,99.61000061035156,99.80000305175781,100.62000274658203,3314400.0,88.74427795410156
2016-09-02,102.0999984741211,100.87000274658203,100.95999908447266,101.7699966430664,3531400.0,89.758544921875
2016-09-06,102.37999725341797,101.44000244140625,101.66000366210938,102.36000061035156,3376200.0,90.27890014648438
2016-09-07,102.25,101.55000305175781,102.0,102.08999633789062,2959000.0,90.04077911376953
2016-09-08,102.19999694824219,100.87999725341797,102.0999984741211,101.31999969482422,3691300.0,89.3616714477539
2016-09-09,100.9800033569336,97.54000091552734,100.63999938964844,97.54000091552734,7231500.0,86.02778625488281
2016-09-12,100.98999786376953,97.91000366210938,98.0199966430664,100.63999938964844,6335900.0,88.76192474365234
2016-09-13,100.4800033569336,98.5199966430664,99.9800033569336,98.93000030517578,4377800.0,87.25374603271484
2016-09-14,99.4800033569336,98.27999877929688,99.16999816894531,98.62000274658203,4134900.0,86.9803237915039
2016-09-15,100.0,98.37000274658203,98.37000274658203,99.75,3870900.0,87.97695922851562
2016-09-16,99.37000274658203,98.48999786376953,99.22000122070312,98.83999633789062,5852300.0,87.17436218261719
2016-09-19,99.62999725341797,98.7699966430664,99.08999633789062,98.81999969482422,2527500.0,87.15672302246094
2016-09-20,99.95999908447266,98.83999633789062,99.19999694824219,99.20999908447266,2759400.0,87.50068664550781
2016-09-21,100.94999694824219,99.05999755859375,99.47000122070312,100.6500015258789,4491500.0,88.77074432373047
2016-09-22,102.08999633789062,101.0,101.08999633789062,101.72000122070312,4363800.0,89.7144546508789
2016-09-23,101.94999694824219,101.0199966430664,101.5999984741211,101.52999877929688,3763500.0,89.546875
2016-09-26,100.43000030517578,99.05999755859375,100.43000030517578,99.13999938964844,4534200.0,88.3438949584961
2016-09-27,99.51000213623047,98.63999938964844,99.41999816894531,99.33000183105469,3338700.0,88.5132064819336
2016-09-28,99.70999908447266,98.9000015258789,99.55999755859375,99.41000366210938,3974100.0,88.5844955444336
2016-09-29,99.55000305175781,97.68000030517578,99.52999877929688,97.77999877929688,5462500.0,87.1319808959961
2016-09-30,98.69999694824219,97.12000274658203,98.2300033569336,97.22000122070312,7048600.0,86.63297271728516
2016-10-03,98.01000213623047,97.11000061035156,97.3499984741211,97.41999816894531,4881200.0,86.8111801147461
2016-10-04,97.62999725341797,96.05999755859375,97.20999908447266,96.0999984741211,5558900.0,85.63492584228516
2016-10-05,96.45999908447266,95.37000274658203,96.30000305175781,95.68000030517578,4646400.0,85.26066589355469
2016-10-06,96.04000091552734,95.0,95.2300033569336,95.63999938964844,3175200.0,85.22502899169922
2016-10-07,96.55999755859375,95.69999694824219,95.88999938964844,96.0199966430664,4056300.0,85.56365203857422
2016-10-10,96.62999725341797,96.08999633789062,96.44000244140625,96.25,2192400.0,85.76860046386719
2016-10-11,96.25,95.1500015258789,96.19999694824219,95.5199966430664,4611400.0,85.11809539794922
2016-10-12,96.43000030517578,95.4000015258789,95.54000091552734,96.08999633789062,4133900.0,85.62602233886719
2016-10-13,96.68000030517578,95.44000244140625,95.93000030517578,96.19999694824219,4769000.0,85.72404479980469
2016-10-14,96.73999786376953,95.81999969482422,96.33000183105469,95.83000183105469,3156300.0,85.39434051513672
2016-10-17,95.9800033569336,95.26000213623047,95.83000183105469,95.51000213623047,4097900.0,85.10917663574219
2016-10-18,97.0999984741211,95.91999816894531,96.97000122070312,96.55999755859375,6187300.0,86.04484558105469
2016-10-19,96.7699966430664,95.69000244140625,96.2300033569336,95.9800033569336,5552000.0,85.52801513671875
2016-10-20,96.29000091552734,95.44000244140625,95.95999908447266,95.56999969482422,3872600.0,85.16265869140625
2016-10-21,97.29000091552734,95.80000305175781,95.91999816894531,96.30999755859375,5274800.0,85.82206726074219
2016-10-24,97.01000213623047,96.41000366210938,96.79000091552734,96.91000366210938,4105300.0,86.35673522949219
2016-10-25,97.1500015258789,96.23999786376953,97.1500015258789,96.58000183105469,3456300.0,86.06265258789062
2016-10-26,96.97000122070312,95.83999633789062,96.58000183105469,96.05000305175781,3312900.0,85.59039306640625
2016-10-27,96.88999938964844,95.68000030517578,96.31999969482422,95.77999877929688,3612900.0,85.34978485107422
2016-10-28,96.7300033569336,95.77999877929688,96.11000061035156,96.30999755859375,4147000.0,85.82206726074219
2016-10-31,96.5,96.04000091552734,96.4800033569336,96.44000244140625,3327200.0,85.93791961669922
2016-11-01,96.73999786376953,95.75,96.62999725341797,96.08000183105469,3978500.0,85.61711883544922
2016-11-02,96.5199966430664,95.9000015258789,96.13999938964844,96.05000305175781,3820900.0,85.59039306640625
2016-11-03,96.58000183105469,95.87999725341797,96.29000091552734,96.2300033569336,2569900.0,85.75078582763672
2016-11-04,96.58999633789062,95.33000183105469,96.1500015258789,95.48999786376953,3138800.0,85.09134674072266
2016-11-07,97.3499984741211,96.30000305175781,96.37000274658203,97.33000183105469,4785200.0,86.7309799194336
2016-11-08,98.20999908447266,97.19999694824219,97.19999694824219,97.86000061035156,3216400.0,87.20328521728516
2016-11-09,96.06999969482422,93.0999984741211,96.04000091552734,94.3499984741211,8933900.0,84.07551574707031
2016-11-10,92.98999786376953,90.0199966430664,92.70999908447266,90.5,14941100.0,80.64476776123047
2016-11-11,90.76000213623047,88.69999694824219,90.45999908447266,88.94999694824219,7938900.0,79.26356506347656
2016-11-14,89.41000366210938,86.9000015258789,89.19999694824219,87.33000183105469,11886300.0,77.81996154785156
2016-11-15,88.27999877929688,87.2300033569336,87.5,87.5,8715900.0,77.9714584350586
2016-11-16,88.72000122070312,87.37999725341797,87.79000091552734,87.91999816894531,8188500.0,78.3457260131836
2016-11-17,89.73999786376953,87.94000244140625,88.05000305175781,89.2699966430664,8751100.0,79.5487060546875
2016-11-18,89.81999969482422,88.2699966430664,89.37999725341797,89.08999633789062,6471000.0,79.38831329345703
2016-11-21,89.68000030517578,88.95999908447266,89.08999633789062,89.62000274658203,5408600.0,79.86058807373047
2016-11-22,90.23999786376953,89.19999694824219,89.9000015258789,90.0,4837600.0,80.19921112060547
2016-11-23,89.75,88.54000091552734,89.75,88.88999938964844,4896600.0,79.2100830078125
2016-11-25,89.51000213623047,88.91999816894531,88.91999816894531,89.29000091552734,3850500.0,79.56653594970703
2016-11-28,90.3499984741211,89.29000091552734,89.37000274658203,90.23999786376953,5077200.0,80.41307067871094
2016-11-29,90.62000274658203,90.0,90.12999725341797,90.5999984741211,4130700.0,80.7338638305664
2016-11-30,90.61000061035156,88.25,90.18000030517578,88.27999877929688,8426700.0,78.66651153564453
2016-12-01,88.0999984741211,86.77999877929688,87.8499984741211,87.7699966430664,6168900.0,78.21205139160156
2016-12-02,88.69999694824219,87.63999938964844,88.16000366210938,88.08000183105469,4818400.0,78.4883041381836
2016-12-05,88.31999969482422,87.56999969482422,87.91999816894531,87.7699966430664,5204400.0,78.21205139160156
2016-12-06,88.47000122070312,87.66999816894531,87.7300033569336,88.18000030517578,3541800.0,78.57740783691406
2016-12-07,89.88999938964844,87.9000015258789,88.30999755859375,89.87000274658203,4960600.0,80.08338165283203
2016-12-08,89.80000305175781,88.70999908447266,89.36000061035156,89.38999938964844,4247100.0,79.65563201904297
2016-12-09,90.52999877929688,89.4000015258789,89.5199966430664,90.23999786376953,4298000.0,80.41307067871094
2016-12-12,91.05000305175781,90.33999633789062,90.41999816894531,90.81999969482422,3805100.0,80.92992401123047
2016-12-13,92.16000366210938,91.01000213623047,91.11000061035156,92.02999877929688,4900400.0,82.00814819335938
2016-12-14,92.62999725341797,90.20999908447266,92.26000213623047,90.72000122070312,6652000.0,80.8408203125
2016-12-15,90.7699966430664,89.75,90.29000091552734,89.9000015258789,5550500.0,80.110107421875
2016-12-16,91.43000030517578,89.62000274658203,90.08000183105469,91.30999755859375,7415100.0,81.3665542602539
2016-12-19,91.55000305175781,90.69000244140625,91.55000305175781,91.45999908447266,4334400.0,81.50022888183594
2016-12-20,90.7300033569336,88.9000015258789,90.41999816894531,90.69999694824219,4586800.0,81.75260925292969
2016-12-21,91.69000244140625,90.63999938964844,90.76000213623047,91.30999755859375,4294400.0,82.30242156982422
2016-12-22,91.66999816894531,90.76000213623047,91.01000213623047,91.61000061035156,3682200.0,82.57283020019531
2016-12-23,91.73999786376953,91.27999877929688,91.7300033569336,91.58000183105469,2547100.0,82.54578399658203
2016-12-27,91.79000091552734,91.08999633789062,91.52999877929688,91.33000183105469,1990800.0,82.3204574584961
2016-12-28,91.31999969482422,90.61000061035156,91.02999877929688,90.94000244140625,2290700.0,81.96892547607422
2016-12-29,92.0,90.75,90.94999694824219,91.7300033569336,3059100.0,82.68099212646484
2016-12-30,92.1500015258789,91.30000305175781,91.79000091552734,91.48999786376953,3314600.0,82.46466064453125
2017-01-03,92.0,90.91999816894531,91.79000091552734,91.2300033569336,5020900.0,82.2303237915039
2017-01-04,91.12000274658203,90.12000274658203,90.52999877929688,90.41999816894531,6695000.0,81.5002212524414
2017-01-05,91.76000213623047,90.52999877929688,90.69000244140625,91.12999725341797,4840100.0,82.14017486572266
2017-01-06,91.95999908447266,90.7300033569336,91.38999938964844,91.83999633789062,3826100.0,82.78014373779297
2017-01-09,91.44000244140625,90.83000183105469,91.08999633789062,91.30999755859375,3456800.0,82.30242156982422
2017-01-10,91.66000366210938,90.30999755859375,91.66000366210938,90.5199966430664,4203400.0,81.59034729003906
2017-01-11,90.95999908447266,90.33000183105469,90.6500015258789,90.44000244140625,3603500.0,81.51824188232422
2017-01-12,90.86000061035156,90.25,90.44999694824219,90.51000213623047,3000700.0,81.58133697509766
2017-01-13,90.69999694824219,89.97000122070312,90.41999816894531,90.4000015258789,3054600.0,81.48219299316406
2017-01-17,92.55999755859375,90.1500015258789,90.62999725341797,92.36000061035156,6225200.0,83.24884796142578
2017-01-18,93.5199966430664,92.54000091552734,92.5999984741211,93.48999786376953,5236800.0,84.26736450195312
2017-01-19,93.97000122070312,93.2300033569336,93.36000061035156,93.8499984741211,5563300.0,84.59185028076172
2017-01-20,94.68000030517578,94.06999969482422,94.12999725341797,94.56999969482422,5628700.0,85.24083709716797
2017-01-23,94.80999755859375,94.31999969482422,94.61000061035156,94.76000213623047,3350300.0,85.4120864868164
2017-01-24,95.94000244140625,94.87999725341797,94.91999816894531,95.77999877929688,4945300.0,86.33146667480469
2017-01-25,96.97000122070312,95.48999786376953,95.66999816894531,96.38999938964844,5353000.0,86.88129425048828
2017-01-26,96.88999938964844,96.26000213623047,96.55999755859375,96.36000061035156,3524500.0,86.854248046875
2017-01-27,96.83999633789062,95.83000183105469,96.58000183105469,96.31999969482422,3055200.0,86.81819152832031
2017-01-30,96.5199966430664,95.62999725341797,96.51000213623047,95.95999908447266,3403200.0,86.49372100830078
2017-01-31,96.38999938964844,95.75,96.11000061035156,96.12999725341797,4173400.0,86.64693450927734
2017-02-01,97.0,95.19999694824219,95.61000061035156,95.94999694824219,5263800.0,86.48468780517578
2017-02-02,99.31999969482422,97.25,97.93000030517578,98.83999633789062,6169600.0,89.08959197998047
2017-02-03,101.43000030517578,99.0999984741211,99.18000030517578,101.11000061035156,6655200.0,91.13567352294922
2017-02-06,100.83999633789062,99.91999816894531,100.83000183105469,100.0,5905700.0,90.13516998291016
2017-02-07,101.77999877929688,99.94000244140625,100.0,101.62999725341797,5450100.0,91.6043701171875
2017-02-08,102.98999786376953,101.38999938964844,101.44999694824219,102.62999725341797,4881500.0,92.50572204589844
2017-02-09,102.91000366210938,101.7300033569336,102.33000183105469,102.7699966430664,3125800.0,92.63191986083984
2017-02-10,102.83999633789062,101.79000091552734,102.31999969482422,102.62999725341797,3412700.0,92.50572204589844
2017-02-13,103.12999725341797,102.19999694824219,102.80999755859375,102.7300033569336,2886500.0,92.59586334228516
2017-02-14,102.88999938964844,101.79000091552734,102.66999816894531,102.58000183105469,3309800.0,92.46066284179688
2017-02-15,103.04000091552734,101.7699966430664,102.29000091552734,102.93000030517578,3396000.0,92.77613067626953
2017-02-16,103.12999725341797,102.31999969482422,102.9000015258789,102.98999786376953,4888600.0,92.83020782470703
2017-02-17,103.7300033569336,102.7699966430664,102.93000030517578,103.66000366210938,5093000.0,93.43412017822266
2017-02-21,104.75,103.05000305175781,103.37000274658203,104.55999755859375,4570200.0,94.24533081054688
2017-02-22,104.87000274658203,103.80000305175781,104.48999786376953,104.52999877929688,3660500.0,94.21829223632812
2017-02-23,106.66999816894531,104.76000213623047,104.94999694824219,106.5199966430664,4286100.0,96.01197814941406
2017-02-24,107.7699966430664,105.80000305175781,106.44000244140625,107.72000122070312,5549700.0,97.09361267089844
2017-02-27,108.9000015258789,107.2300033569336,107.52999877929688,108.69999694824219,5557300.0,97.97692108154297
2017-02-28,109.98999786376953,108.30000305175781,108.30999755859375,109.3499984741211,7336600.0,98.56281280517578
2017-03-01,110.30000305175781,108.68000030517578,109.0,110.22000122070312,5140700.0,99.34697723388672
2017-03-02,110.30000305175781,109.5199966430664,110.0,109.80000305175781,4419500.0,98.96841430664062
2017-03-03,110.25,109.2699966430664,109.61000061035156,110.20999908447266,3722400.0,99.33795928955078
2017-03-06,110.16999816894531,109.45999908447266,109.80999755859375,109.7300033569336,7192100.0,98.90531158447266
2017-03-07,110.63999938964844,109.5,109.5199966430664,110.55000305175781,3929100.0,99.64443969726562
2017-03-08,110.5,109.38999938964844,110.19000244140625,109.72000122070312,3681100.0,98.89630126953125
2017-03-09,110.5,109.70999908447266,109.9800033569336,110.27999877929688,3465900.0,99.40106201171875
2017-03-10,110.70999908447266,110.0999984741211,110.5,110.54000091552734,5141600.0,99.63542175292969
2017-03-13,111.0999984741211,110.38999938964844,110.66999816894531,111.0199966430664,3166300.0,100.06806945800781
2017-03-14,111.37999725341797,110.41999816894531,110.72000122070312,110.7699966430664,3518600.0,99.84272766113281
2017-03-15,112.76000213623047,110.95999908447266,111.0,112.41999816894531,3665600.0,101.32996368408203
2017-03-16,112.94999694824219,112.02999877929688,112.80000305175781,112.69999694824219,4002000.0,101.58233642578125
2017-03-17,114.45999908447266,112.7300033569336,113.19999694824219,113.0,8831000.0,101.85273742675781
2017-03-20,114.11000061035156,113.0,113.04000091552734,114.01000213623047,5682600.0,102.76310729980469
2017-03-21,114.6500015258789,113.19000244140625,113.30000305175781,113.48999786376953,6947200.0,103.23612213134766
2017-03-22,114.0999984741211,112.8499984741211,113.9000015258789,113.0,5343100.0,102.7904052734375
2017-03-23,113.80999755859375,112.68000030517578,112.83000183105469,112.94999694824219,4522100.0,102.74491119384766
2017-03-24,112.31999969482422,110.01000213623047,112.31999969482422,111.79000091552734,6601600.0,101.6897201538086
2017-03-27,112.56999969482422,110.80000305175781,111.2300033569336,112.37999725341797,4521600.0,102.22640991210938
2017-03-28,112.94999694824219,111.58999633789062,112.13999938964844,112.80000305175781,4000900.0,102.60847473144531
2017-03-29,113.52999877929688,112.47000122070312,112.73999786376953,113.4000015258789,3613200.0,103.15425872802734
2017-03-30,114.05999755859375,112.87000274658203,113.16000366210938,113.5199966430664,2968100.0,103.2634048461914
2017-03-31,113.72000122070312,112.87000274658203,113.54000091552734,112.9000015258789,3790700.0,102.69943237304688
2017-04-03,113.4000015258789,112.55000305175781,112.91000366210938,112.91000366210938,3333400.0,102.70854949951172
2017-04-04,113.66999816894531,113.04000091552734,113.16999816894531,113.44999694824219,7336000.0,103.1997299194336
2017-04-05,114.05999755859375,113.05999755859375,113.5,113.19000244140625,4072800.0,102.9632339477539
2017-04-06,113.7699966430664,112.37999725341797,113.37999725341797,112.58999633789062,4358900.0,102.41744232177734
2017-04-07,114.0199966430664,112.83000183105469,112.86000061035156,113.5999984741211,5636900.0,103.336181640625
2017-04-10,113.97000122070312,112.83000183105469,113.5999984741211,113.05000305175781,4973500.0,102.83587646484375
2017-04-11,113.68000030517578,113.0,113.4800033569336,113.41999816894531,3587100.0,103.17245483398438
2017-04-12,113.94999694824219,113.25,113.69000244140625,113.77999877929688,4141800.0,103.49992370605469
2017-04-13,113.77999877929688,112.94000244140625,113.4800033569336,113.05999755859375,3098300.0,102.844970703125
2017-04-17,114.87000274658203,113.13999938964844,113.13999938964844,114.73999786376953,4105500.0,104.37318420410156
2017-04-18,115.62999725341797,114.58000183105469,114.69000244140625,115.20999908447266,5275000.0,104.80072021484375
2017-04-19,115.1500015258789,113.70999908447266,115.08000183105469,113.91000366210938,3688400.0,103.61817932128906
2017-04-20,110.7300033569336,108.55999755859375,109.1500015258789,109.9800033569336,9707200.0,100.04325866699219
2017-04-21,110.2699966430664,109.5,109.77999877929688,109.62000274658203,4695700.0,99.71578979492188
2017-04-24,112.75,110.33999633789062,110.4800033569336,112.38999938964844,4382900.0,102.23550415039062
2017-04-25,113.44999694824219,112.0,112.37999725341797,113.08999633789062,3827400.0,102.87226867675781
2017-04-26,113.0,111.08999633789062,112.86000061035156,111.1500015258789,3778400.0,101.10755157470703
2017-04-27,111.44000244140625,110.0,111.19999694824219,110.19000244140625,5509600.0,100.23429107666016
2017-04-28,110.91000366210938,109.7300033569336,110.12999725341797,110.83999633789062,3680900.0,100.8255615234375
2017-05-01,111.08000183105469,110.52999877929688,111.0,110.55000305175781,2350200.0,100.561767578125
2017-05-02,110.83000183105469,110.25,110.5999984741211,110.47000122070312,2926300.0,100.48897552490234
2017-05-03,110.87000274658203,109.94999694824219,110.4000015258789,110.61000061035156,2915500.0,100.61634063720703
2017-05-04,111.75,110.55000305175781,110.88999938964844,111.19999694824219,3496000.0,101.15302276611328
2017-05-05,112.30000305175781,111.33000183105469,111.51000213623047,112.25,2883200.0,102.10816955566406
2017-05-08,112.6500015258789,111.88999938964844,112.08999633789062,112.62999725341797,3688200.0,102.45382690429688
2017-05-09,112.94000244140625,110.94000244140625,112.94000244140625,111.93000030517578,4491600.0,101.81707000732422
2017-05-10,112.11000061035156,110.62999725341797,111.69999694824219,110.83000183105469,3623800.0,100.81645965576172
2017-05-11,111.41000366210938,110.08999633789062,110.7300033569336,111.19000244140625,3581600.0,101.14393615722656
2017-05-12,111.80000305175781,110.80000305175781,110.95999908447266,111.70999908447266,2407500.0,101.616943359375
2017-05-15,112.47000122070312,111.6500015258789,111.88999938964844,112.36000061035156,2332000.0,102.2082290649414
2017-05-16,114.36000061035156,112.61000061035156,112.94999694824219,113.5199966430664,3851100.0,103.2634048461914
2017-05-17,114.7300033569336,113.0999984741211,113.5199966430664,113.75,4562800.0,103.47262573242188
2017-05-18,114.29000091552734,113.29000091552734,113.77999877929688,113.58000183105469,3350700.0,103.3179931640625
2017-05-19,115.2699966430664,113.5,113.98999786376953,114.73999786376953,4236100.0,104.37318420410156
2017-05-22,116.37000274658203,114.87000274658203,115.02999877929688,116.22000122070312,3687600.0,105.71947479248047
2017-05-23,117.58999633789062,116.0999984741211,116.18000030517578,116.45999908447266,3796000.0,105.93778991699219
2017-05-24,117.5199966430664,116.25,116.86000061035156,117.43000030517578,2618600.0,106.82015228271484
2017-05-25,119.77999877929688,117.63999938964844,117.79000091552734,119.4800033569336,3072900.0,108.6849365234375
2017-05-26,119.87999725341797,118.95999908447266,119.25,119.83000183105469,2243100.0,109.00330352783203
2017-05-30,120.19000244140625,118.98999786376953,119.25,119.94999694824219,2860300.0,109.11246490478516
2017-05-31,121.11000061035156,119.7699966430664,120.4800033569336,119.80000305175781,4719000.0,108.97602081298828
2017-06-01,120.93000030517578,119.27999877929688,120.0,120.9000015258789,4730000.0,109.97663116455078
2017-06-02,121.81999969482422,120.52999877929688,121.3499984741211,121.79000091552734,3133300.0,110.78621673583984
2017-06-05,122.0,120.80999755859375,121.5,121.97000122070312,2625500.0,110.949951171875
2017-06-06,122.9000015258789,121.44999694824219,121.7699966430664,122.0,3583100.0,110.97724151611328
2017-06-07,122.87000274658203,121.56999969482422,121.95999908447266,122.30000305175781,3235800.0,111.25015258789062
2017-06-08,122.30000305175781,120.5199966430664,122.30000305175781,121.11000061035156,4064000.0,110.16766357421875
2017-06-09,121.5,119.79000091552734,120.97000122070312,120.12000274658203,4160000.0,109.26709747314453
2017-06-12,120.30999755859375,118.86000061035156,120.12000274658203,119.16999816894531,4786700.0,108.40293884277344
2017-06-13,119.01000213623047,118.04000091552734,118.87000274658203,118.69000244140625,4336000.0,107.96629333496094
2017-06-14,120.2300033569336,118.91000366210938,119.0,119.75,3780300.0,108.93053436279297
2017-06-15,120.86000061035156,119.0199966430664,119.2300033569336,120.51000213623047,3854700.0,109.62188720703125
2017-06-16,121.97000122070312,119.87999725341797,119.87999725341797,121.83999633789062,7117900.0,110.83169555664062
2017-06-19,122.9800033569336,121.72000122070312,122.05999755859375,122.9000015258789,2983900.0,111.79593658447266
2017-06-20,123.55000305175781,122.01000213623047,122.7300033569336,122.11000061035156,3051700.0,111.07730102539062
2017-06-21,121.83999633789062,120.13999938964844,121.0999984741211,120.19000244140625,3180600.0,110.26994323730469
2017-06-22,120.20999908447266,119.6500015258789,120.1500015258789,119.70999908447266,2209900.0,109.82955169677734
2017-06-23,120.1500015258789,119.44999694824219,119.8499984741211,119.55999755859375,3391400.0,109.69194030761719
2017-06-26,120.11000061035156,119.43000030517578,119.69000244140625,119.51000213623047,1789400.0,109.64605712890625
2017-06-27,120.19999694824219,117.83999633789062,119.5999984741211,118.13999938964844,3972400.0,108.3891372680664
2017-06-28,119.52999877929688,118.4000015258789,118.69999694824219,118.93000030517578,1848000.0,109.11392974853516
2017-06-29,118.44000244140625,116.7300033569336,118.4000015258789,117.08000183105469,3227300.0,107.4166259765625
2017-06-30,118.4000015258789,117.08999633789062,117.2300033569336,117.44999694824219,3222900.0,107.7560806274414
2017-07-03,117.93000030517578,116.66000366210938,117.86000061035156,116.9000015258789,1632700.0,107.2514877319336
2017-07-05,118.72000122070312,116.16999816894531,116.16999816894531,118.54000091552734,3667900.0,108.7561264038086
2017-07-06,118.62999725341797,117.87000274658203,118.20999908447266,118.3499984741211,3831000.0,108.58180236816406
2017-07-07,118.6500015258789,117.41000366210938,118.55999755859375,117.9000015258789,2713100.0,108.16895294189453
2017-07-10,118.97000122070312,117.86000061035156,117.9800033569336,118.16000366210938,2492400.0,108.40748596191406
2017-07-11,118.3499984741211,116.98999786376953,118.3499984741211,117.20999908447266,3465600.0,107.53590393066406
2017-07-12,118.58999633789062,117.56999969482422,118.1500015258789,118.2300033569336,2949200.0,108.47171783447266
2017-07-13,118.44999694824219,117.44000244140625,118.31999969482422,117.51000213623047,3770400.0,107.81114196777344
2017-07-14,119.48999786376953,118.0,118.0199966430664,119.12999725341797,3826800.0,109.29741668701172
2017-07-17,119.6500015258789,118.80000305175781,119.44000244140625,119.0,2841200.0,109.17816162109375
2017-07-18,120.0,118.66000366210938,119.0,119.63999938964844,3217800.0,109.76534271240234
2017-07-19,121.69000244140625,119.41999816894531,119.51000213623047,121.62000274658203,5003800.0,111.5819091796875
2017-07-20,121.16000366210938,117.55000305175781,118.66000366210938,119.86000061035156,6564100.0,109.96717071533203
2017-07-21,119.83999633789062,118.72000122070312,119.56999969482422,119.58000183105469,3543600.0,109.71029663085938
2017-07-24,120.0,118.83999633789062,119.43000030517578,118.88999938964844,3935500.0,109.0772476196289
2017-07-25,119.73999786376953,117.76000213623047,119.52999877929688,117.81999969482422,4991700.0,108.09555053710938
2017-07-26,118.58999633789062,117.5,117.93000030517578,117.6500015258789,4110900.0,107.93958282470703
2017-07-27,118.76000213623047,117.47000122070312,117.6500015258789,118.19000244140625,4439800.0,108.43501281738281
2017-07-28,118.91999816894531,109.30999755859375,118.20999908447266,118.51000213623047,15993900.0,108.72860717773438
2017-07-31,118.25,116.61000061035156,117.12999725341797,116.70999908447266,6421800.0,107.0771484375
2017-08-01,117.37999725341797,115.66999816894531,117.01000213623047,115.87999725341797,5708400.0,106.31568145751953
2017-08-02,115.80999755859375,113.87999725341797,115.80999755859375,114.45999908447266,5701500.0,105.01287078857422
2017-08-03,115.5199966430664,114.16999816894531,114.79000091552734,114.48999786376953,4265500.0,105.04039764404297
2017-08-04,115.44999694824219,113.91000366210938,115.43000030517578,114.76000213623047,4568000.0,105.2881088256836
2017-08-07,115.88999938964844,114.68000030517578,114.75,115.86000061035156,3844900.0,106.29732513427734
2017-08-08,115.55000305175781,114.55000305175781,115.48999786376953,114.66999816894531,2813200.0,105.20553588867188
2017-08-09,115.80000305175781,114.56999969482422,114.98999786376953,115.41000366210938,2512400.0,105.88445281982422
2017-08-10,115.5,114.06999969482422,115.02999877929688,114.22000122070312,3519100.0,104.79267883300781
2017-08-11,115.41999816894531,114.0199966430664,115.05000305175781,114.87999725341797,2653800.0,105.39820861816406
2017-08-14,115.11000061035156,114.47000122070312,114.88999938964844,114.76000213623047,3225000.0,105.2881088256836
2017-08-15,117.12999725341797,114.77999877929688,114.88999938964844,116.81999969482422,4005800.0,107.17808532714844
2017-08-16,117.9800033569336,116.38999938964844,116.7699966430664,117.7300033569336,3106100.0,108.01298522949219
2017-08-17,118.29000091552734,115.66999816894531,117.75,115.93000030517578,3269000.0,106.3615493774414
2017-08-18,115.94999694824219,114.66999816894531,115.75,115.33000183105469,4178200.0,105.81106567382812
2017-08-21,116.48999786376953,115.08000183105469,115.29000091552734,116.25,2442300.0,106.6551284790039
2017-08-22,117.0,115.76000213623047,116.33999633789062,116.2300033569336,1882100.0,106.63678741455078
2017-08-23,116.45999908447266,115.0199966430664,116.01000213623047,115.45999908447266,2190000.0,105.93033599853516
2017-08-24,116.11000061035156,114.0999984741211,115.66000366210938,114.5199966430664,2806000.0,105.06791687011719
2017-08-25,115.41000366210938,114.4800033569336,115.19000244140625,114.80000305175781,3109500.0,105.32481384277344
2017-08-28,115.70999908447266,114.73999786376953,115.22000122070312,115.54000091552734,2736600.0,106.00373840332031
2017-08-29,116.8499984741211,114.87000274658203,115.16000366210938,116.55000305175781,2741900.0,106.93036651611328
2017-08-30,117.0,115.55999755859375,116.0,116.43000030517578,2903600.0,106.82028198242188
2017-08-31,117.20999908447266,116.26000213623047,116.7300033569336,116.93000030517578,4283000.0,107.27901458740234
2017-09-01,117.94000244140625,116.87999725341797,117.16999816894531,117.83000183105469,3036800.0,108.1047134399414
2017-09-05,117.75,116.62999725341797,117.41999816894531,117.66999816894531,3061600.0,107.95793151855469
2017-09-06,119.0999984741211,117.48999786376953,118.0,118.62000274658203,3660400.0,108.82951354980469
2017-09-07,119.43000030517578,117.13999938964844,118.23999786376953,118.91999816894531,3577200.0,109.10476684570312
2017-09-08,119.19000244140625,116.72000122070312,119.05999755859375,117.05999755859375,3660000.0,107.39826202392578
2017-09-11,118.44000244140625,117.58000183105469,117.58000183105469,117.93000030517578,2900900.0,108.19646453857422
2017-09-12,118.16999816894531,116.2699966430664,118.06999969482422,117.05000305175781,2461300.0,107.38910675048828
2017-09-13,117.4800033569336,116.7300033569336,116.73999786376953,116.86000061035156,2680900.0,107.21478271484375
2017-09-14,117.05999755859375,116.20999908447266,116.86000061035156,116.7300033569336,3596500.0,107.09551239013672
2017-09-15,116.7300033569336,115.05000305175781,116.58000183105469,115.79000091552734,5992400.0,106.23310089111328
2017-09-18,116.19000244140625,115.12000274658203,115.69000244140625,116.08000183105469,2998500.0,106.49916076660156
2017-09-19,116.06999969482422,114.94000244140625,115.98999786376953,115.36000061035156,3105600.0,105.8386001586914
2017-09-20,115.62000274658203,112.77999877929688,115.44000244140625,113.43000030517578,3822300.0,104.0678939819336
2017-09-21,113.66999816894531,112.75,113.30000305175781,112.91999816894531,2887700.0,103.59996795654297
2017-09-22,113.20999908447266,112.27999877929688,113.05999755859375,112.51000213623047,2999000.0,103.22382354736328
2017-09-25,113.68000030517578,112.37000274658203,112.7699966430664,113.25,4734900.0,103.90274810791016
2017-09-26,113.33000183105469,112.0999984741211,112.27999877929688,112.20999908447266,3537400.0,103.9305191040039
2017-09-27,112.19000244140625,111.1500015258789,111.98999786376953,111.61000061035156,3719400.0,103.37480163574219
2017-09-28,112.37999725341797,111.55000305175781,112.16999816894531,111.80000305175781,3479100.0,103.55078125
2017-09-29,112.29000091552734,110.94000244140625,111.77999877929688,111.01000213623047,3912800.0,102.81907653808594
2017-10-02,111.7300033569336,110.61000061035156,111.2300033569336,110.87000274658203,3403300.0,102.68940734863281
2017-10-03,110.69000244140625,110.05000305175781,110.66000366210938,110.19000244140625,2903000.0,102.05957794189453
2017-10-04,111.9000015258789,110.16000366210938,110.4800033569336,111.41999816894531,4161800.0,103.19880676269531
2017-10-05,112.0199966430664,111.27999877929688,111.45999908447266,111.54000091552734,4904300.0,103.3099594116211
2017-10-06,111.73999786376953,110.70999908447266,111.4800033569336,111.2699966430664,5642200.0,103.05989074707031
2017-10-09,114.58000183105469,111.54000091552734,111.58000183105469,113.37000274658203,3292500.0,105.00493621826172
2017-10-10,115.27999877929688,113.93000030517578,114.12000274658203,115.16999816894531,3930600.0,106.672119140625
2017-10-11,115.1500015258789,113.80000305175781,114.87000274658203,114.26000213623047,3374000.0,105.82926177978516
2017-10-12,114.75,113.5,114.66000366210938,114.52999877929688,3100400.0,106.079345703125
2017-10-13,115.1500015258789,113.9000015258789,114.95999908447266,113.98999786376953,2658100.0,105.57918548583984
2017-10-16,114.4000015258789,113.44000244140625,114.05000305175781,113.5199966430664,2559600.0,105.14385986328125
2017-10-17,113.41000366210938,112.43000030517578,113.12000274658203,112.6500015258789,3997700.0,104.33806610107422
2017-10-18,112.88999938964844,112.23999786376953,112.62000274658203,112.51000213623047,3442000.0,104.2083969116211
2017-10-19,111.86000061035156,107.01000213623047,109.04000091552734,108.1500015258789,9606600.0,100.17008972167969
2017-10-20,109.5199966430664,108.0,108.55999755859375,109.5199966430664,6177200.0,101.43901062011719
2017-10-23,110.2699966430664,109.12000274658203,109.44999694824219,109.36000061035156,3762100.0,101.29080963134766
2017-10-24,109.66999816894531,108.16000366210938,109.16999816894531,108.56999969482422,4117700.0,100.5591049194336
2017-10-25,108.8499984741211,106.75,108.41000366210938,107.0,4060400.0,99.10494995117188
2017-10-26,107.8499984741211,106.86000061035156,107.5,106.93000030517578,3468100.0,99.04011535644531
2017-10-27,107.0199966430664,105.75,106.66000366210938,105.94000244140625,5067400.0,98.12316131591797
2017-10-30,105.80000305175781,104.55999755859375,105.70999908447266,104.69999694824219,5021400.0,96.97464752197266
2017-10-31,105.19999694824219,104.26000213623047,104.75,104.63999938964844,5419200.0,96.91908264160156
2017-11-01,105.0,103.63999938964844,104.77999877929688,103.75,4102200.0,96.0947494506836
2017-11-02,103.8499984741211,102.44999694824219,103.70999908447266,102.80000305175781,4601500.0,95.21484375
2017-11-03,103.05000305175781,102.4800033569336,103.0,102.66000366210938,3064300.0,95.0851821899414
2017-11-06,103.08999633789062,101.58000183105469,102.62000274658203,102.13999938964844,4162000.0,94.60354614257812
2017-11-07,103.16000366210938,101.94000244140625,102.05999755859375,103.0199966430664,3901900.0,95.4186019897461
2017-11-08,103.38999938964844,102.66000366210938,103.0199966430664,103.08999633789062,4882700.0,95.48345184326172
2017-11-09,103.0999984741211,102.18000030517578,102.91000366210938,102.45999908447266,3427700.0,94.89993286132812
2017-11-10,103.27999877929688,102.05000305175781,102.08999633789062,103.0199966430664,4935200.0,95.4186019897461
2017-11-13,103.81999969482422,103.0,103.11000061035156,103.51000213623047,3864600.0,95.8724594116211
2017-11-14,103.7699966430664,102.62999725341797,103.38999938964844,102.72000122070312,4736100.0,95.14075469970703
2017-11-15,102.5999984741211,101.63999938964844,102.31999969482422,102.05000305175781,4928400.0,94.52018737792969
2017-11-16,103.45999908447266,102.45999908447266,102.5,102.66000366210938,3207000.0,95.0851821899414
2017-11-17,103.01000213623047,102.01000213623047,102.20999908447266,102.63999938964844,4084500.0,95.066650390625
2017-11-20,103.73999786376953,102.51000213623047,102.66000366210938,102.54000091552734,4779700.0,94.9740219116211
2017-11-21,103.94000244140625,102.83000183105469,102.93000030517578,103.36000061035156,4224000.0,95.73352813720703
2017-11-22,103.75,103.19000244140625,103.41000366210938,103.54000091552734,3658100.0,95.90023803710938
2017-11-24,103.9000015258789,102.9800033569336,103.80000305175781,103.18000030517578,1970500.0,95.56681060791016
2017-11-27,103.30999755859375,102.72000122070312,103.25,102.72000122070312,3377100.0,95.14075469970703
2017-11-28,103.05999755859375,102.44000244140625,102.81999969482422,102.87999725341797,4687700.0,95.2889404296875
2017-11-29,103.16999816894531,102.01000213623047,102.5199966430664,102.68000030517578,4343800.0,95.10370635986328
2017-11-30,103.37000274658203,102.61000061035156,102.70999908447266,102.75,7123200.0,95.16853332519531
2017-12-01,103.79000091552734,102.1500015258789,103.2699966430664,103.70999908447266,6318600.0,96.05770111083984
2017-12-04,104.83999633789062,103.04000091552734,103.95999908447266,104.61000061035156,5179400.0,96.89128875732422
2017-12-05,105.56999969482422,104.33999633789062,105.48999786376953,105.45999908447266,4916200.0,97.67858123779297
2017-12-06,107.93000030517578,105.2699966430664,106.62999725341797,107.5999984741211,5108900.0,99.66068267822266
2017-12-07,107.47000122070312,106.2300033569336,107.47000122070312,106.69999694824219,4040000.0,98.82707977294922
2017-12-08,106.68000030517578,105.5,106.51000213623047,106.58999633789062,4611900.0,98.72520446777344
2017-12-11,106.5999984741211,105.80000305175781,106.5999984741211,106.04000091552734,3049000.0,98.21578216552734
2017-12-12,107.9800033569336,105.87000274658203,106.2300033569336,107.30000305175781,4428300.0,99.3828125
2017-12-13,108.66999816894531,106.9800033569336,107.08999633789062,108.23999786376953,5898400.0,100.25345611572266
2017-12-14,108.5199966430664,107.23999786376953,108.0199966430664,107.68000030517578,4648300.0,99.73477935791016
2017-12-15,110.2699966430664,108.43000030517578,108.43000030517578,109.68000030517578,11082900.0,101.58719635009766
2017-12-18,110.12999725341797,107.80000305175781,109.76000213623047,107.97000122070312,4541600.0,100.00337219238281
2017-12-19,108.81999969482422,108.02999877929688,108.44000244140625,108.12000274658203,4371700.0,100.1423110961914
2017-12-20,106.0,103.56999969482422,106.0,104.37000274658203,7359900.0,97.63523864746094
2017-12-21,105.30999755859375,104.47000122070312,104.5,104.77999877929688,3831000.0,98.0187759399414
2017-12-22,105.44999694824219,104.5199966430664,104.83000183105469,104.6500015258789,2496200.0,97.89717102050781
2017-12-26,104.83000183105469,103.7699966430664,104.77999877929688,104.11000061035156,2311500.0,97.39202117919922
2017-12-27,105.01000213623047,104.25,104.55000305175781,104.70999908447266,2012900.0,97.95330047607422
2017-12-28,104.9000015258789,104.08000183105469,104.9000015258789,104.80999755859375,2376700.0,98.04684448242188
2017-12-29,106.5199966430664,105.0,105.08000183105469,105.6500015258789,4248300.0,98.8326416015625
2018-01-02,106.16999816894531,104.16000366210938,105.81999969482422,104.38999938964844,5126800.0,97.6539535522461
2018-01-03,104.86000061035156,103.8499984741211,104.36000061035156,104.26000213623047,3589600.0,97.53234100341797
2018-01-04,104.48999786376953,103.47000122070312,104.23999786376953,103.47000122070312,4170100.0,96.7933120727539
2018-01-05,104.5999984741211,103.2699966430664,103.2699966430664,104.30000305175781,4641400.0,97.56977081298828
2018-01-08,104.66999816894531,103.8499984741211,103.9800033569336,104.13999938964844,4911600.0,97.42008209228516
2018-01-09,105.44000244140625,104.23999786376953,104.75,104.88999938964844,3939200.0,98.12168884277344
2018-01-10,106.04000091552734,103.87999725341797,105.0199966430664,105.62999725341797,3696500.0,98.81393432617188
2018-01-11,106.62000274658203,104.41000366210938,106.31999969482422,104.86000061035156,4109300.0,98.09362030029297
2018-01-12,105.63999938964844,103.91000366210938,105.56999969482422,104.5,5513700.0,97.75685119628906
2018-01-16,104.9800033569336,103.7699966430664,104.55000305175781,104.87000274658203,5855600.0,98.10298156738281
2018-01-17,106.25,105.08000183105469,105.08000183105469,105.79000091552734,4005800.0,98.96361541748047
2018-01-18,105.70999908447266,104.80000305175781,105.45999908447266,105.06999969482422,4134600.0,98.29006958007812
2018-01-19,109.11000061035156,105.54000091552734,105.58000183105469,108.91999816894531,5818900.0,101.89163208007812
2018-01-22,109.68000030517578,108.45999908447266,109.1500015258789,108.80999755859375,4762300.0,101.78874206542969
2018-01-23,109.77999877929688,108.4000015258789,108.5,109.52999877929688,3778100.0,102.4622802734375
2018-01-24,110.88999938964844,109.55999755859375,109.55999755859375,110.5999984741211,4404100.0,103.4632339477539
2018-01-25,111.25,103.0199966430664,110.43000030517578,107.48999786376953,11823700.0,100.55392456054688
2018-01-26,110.45999908447266,107.30999755859375,107.36000061035156,110.19000244140625,6000700.0,103.0796890258789
2018-01-29,109.69999694824219,108.41000366210938,109.62999725341797,108.61000061035156,3952500.0,101.60164642333984
2018-01-30,109.37000274658203,107.75,108.19999694824219,107.94000244140625,4069700.0,100.97488403320312
2018-01-31,108.47000122070312,106.73999786376953,108.2300033569336,107.2300033569336,5041600.0,100.31069946289062
2018-02-01,107.58000183105469,104.93000030517578,107.04000091552734,105.16999816894531,7612900.0,98.38361358642578
2018-02-02,105.52999877929688,103.19000244140625,105.0,103.44000244140625,6421800.0,96.76525115966797
2018-02-05,103.4800033569336,98.51000213623047,102.93000030517578,98.69000244140625,7901200.0,92.3217544555664
2018-02-06,100.63999938964844,96.66000366210938,97.30999755859375,100.33000183105469,9591600.0,93.8559341430664
2018-02-07,101.61000061035156,98.5,99.9000015258789,98.87999725341797,5916800.0,92.49949645996094
2018-02-08,102.37999725341797,99.0,99.5199966430664,100.38999938964844,11214300.0,93.91206359863281
2018-02-09,101.5999984741211,98.55000305175781,100.9000015258789,99.94000244140625,9899900.0,93.49109649658203
2018-02-12,103.06999969482422,99.79000091552734,100.2699966430664,102.4000015258789,6468900.0,95.79235076904297
2018-02-13,103.16000366210938,100.9800033569336,101.73999786376953,103.05000305175781,5182300.0,96.4004135131836
2018-02-14,103.5,101.73999786376953,102.75,102.54000091552734,4253800.0,95.92332458496094
2018-02-15,103.70999908447266,102.05999755859375,102.55999755859375,103.69000244140625,4361100.0,96.99911499023438
2018-02-16,105.12999725341797,103.05000305175781,103.30999755859375,104.30999755859375,5209400.0,97.57910919189453
2018-02-20,103.88999938964844,102.33000183105469,103.69999694824219,102.8499984741211,3974900.0,96.21331787109375
2018-02-21,105.05000305175781,102.9800033569336,103.0999984741211,103.72000122070312,5661100.0,97.02719116210938
2018-02-22,105.51000213623047,102.88999938964844,103.66000366210938,102.9800033569336,4072900.0,96.33493041992188
2018-02-23,106.36000061035156,103.43000030517578,103.6500015258789,106.11000061035156,4824700.0,99.26296997070312
2018-02-26,106.79000091552734,105.18000030517578,106.2300033569336,106.68000030517578,5654700.0,99.79618835449219
2018-02-27,106.47000122070312,104.08000183105469,106.38999938964844,104.08000183105469,4414500.0,97.36396026611328
2018-02-28,105.62999725341797,103.5,105.4000015258789,103.55000305175781,5346000.0,96.86815643310547
2018-03-01,105.05000305175781,102.93000030517578,103.66999816894531,104.68000030517578,6683300.0,97.92523193359375
2018-03-02,107.08000183105469,104.30999755859375,104.30999755859375,106.80999755859375,6229100.0,99.91779327392578
2018-03-05,107.83999633789062,105.7699966430664,106.04000091552734,107.69999694824219,5557500.0,100.7503662109375
2018-03-06,108.0,106.62000274658203,107.76000213623047,107.9800033569336,6041000.0,101.01231384277344
2018-03-07,107.8499984741211,106.33000183105469,106.97000122070312,106.88999938964844,3271400.0,99.99263000488281
2018-03-08,109.05999755859375,106.94000244140625,107.16000366210938,109.0,4053800.0,101.96648406982422
2018-03-09,109.9000015258789,107.9800033569336,109.45999908447266,108.30000305175781,4398000.0,101.3116455078125
2018-03-12,108.56999969482422,107.13999938964844,107.98999786376953,107.13999938964844,5081300.0,100.22650146484375
2018-03-13,107.75,106.83000183105469,107.58000183105469,107.23999786376953,3847100.0,100.3200454711914
2018-03-14,107.75,105.36000061035156,107.51000213623047,105.61000061035156,3287300.0,98.79523468017578
2018-03-15,105.79000091552734,104.77999877929688,105.29000091552734,104.98999786376953,3620800.0,98.2152328491211
2018-03-16,105.80000305175781,103.16999816894531,105.0,103.45999908447266,8277000.0,96.7839584350586
2018-03-19,103.44999694824219,101.69999694824219,103.12999725341797,101.73999786376953,4968100.0,95.17494201660156
2018-03-20,102.18000030517578,100.12000274658203,101.87999725341797,100.2699966430664,5194600.0,93.79979705810547
2018-03-21,99.45999908447266,97.05999755859375,99.08000183105469,97.75,5917500.0,92.42874145507812
2018-03-22,99.25,97.30000305175781,97.55999755859375,97.66999816894531,9655800.0,92.35308837890625
2018-03-23,98.72000122070312,95.51000213623047,98.30000305175781,95.62999725341797,5709200.0,90.42414855957031
2018-03-26,97.11000061035156,95.9800033569336,96.48999786376953,96.3499984741211,5239200.0,91.1049575805664
2018-03-27,97.66999816894531,95.97000122070312,96.36000061035156,96.7300033569336,7207000.0,91.46427154541016
2018-03-28,100.18000030517578,97.22000122070312,97.44999694824219,99.79000091552734,7571000.0,94.3576889038086
2018-03-29,101.01000213623047,99.22000122070312,100.27999877929688,99.4000015258789,3489300.0,93.9889144897461
2018-04-02,99.93000030517578,97.30999755859375,99.58999633789062,97.54000091552734,4673600.0,92.23016357421875
2018-04-03,100.06999969482422,97.5,98.29000091552734,99.8499984741211,5735000.0,94.41441345214844
2018-04-04,101.36000061035156,98.9000015258789,99.19000244140625,100.91999816894531,5150600.0,95.42616271972656
2018-04-05,102.20999908447266,100.20999908447266,101.38999938964844,101.69999694824219,4507900.0,96.16371154785156
2018-04-06,102.41000366210938,100.54000091552734,101.62000274658203,101.0199966430664,5049200.0,95.5207290649414
2018-04-09,102.04000091552734,100.43000030517578,101.4800033569336,100.69999694824219,4198100.0,95.21814727783203
2018-04-10,101.77999877929688,100.5199966430664,101.25,101.0999984741211,2860100.0,95.59637451171875
2018-04-11,102.29000091552734,100.62999725341797,100.91000366210938,100.72000122070312,3623600.0,95.237060546875
2018-04-12,101.93000030517578,100.02999877929688,101.33000183105469,100.25,3518500.0,94.79264831542969
2018-04-13,102.33000183105469,100.25,100.79000091552734,101.8499984741211,3985900.0,96.30554962158203
2018-04-16,103.3499984741211,101.7300033569336,102.26000213623047,102.94999694824219,3971200.0,97.34565734863281
2018-04-17,103.55000305175781,102.26000213623047,103.19999694824219,103.30000305175781,6145300.0,97.6766128540039
2018-04-18,103.11000061035156,100.5999984741211,102.88999938964844,101.44000244140625,5523700.0,95.9178695678711
2018-04-19,94.26000213623047,83.5,93.5199966430664,85.63999938964844,45570300.0,80.97798156738281
2018-04-20,86.30000305175781,83.81999969482422,85.70999908447266,84.2699966430664,17814200.0,79.68255615234375
2018-04-23,84.58999633789062,83.08999633789062,84.11000061035156,83.66999816894531,11783300.0,79.11521911621094
2018-04-24,83.58999633789062,80.63999938964844,83.1500015258789,82.48999786376953,13897700.0,77.99945068359375
2018-04-25,82.94000244140625,81.43000030517578,82.5999984741211,81.80999755859375,8361000.0,77.3564682006836
2018-04-26,82.30000305175781,80.47000122070312,82.22000122070312,81.48999786376953,9191300.0,77.05388641357422
2018-04-27,83.55000305175781,81.3499984741211,81.55999755859375,82.55999755859375,6591600.0,78.06564331054688
2018-04-30,83.30999755859375,81.87000274658203,82.75,82.0,6497600.0,77.5361328125
2018-05-01,81.69999694824219,80.79000091552734,81.4000015258789,81.19999694824219,4553800.0,76.77967834472656
2018-05-02,81.18000030517578,79.83000183105469,81.0199966430664,80.0999984741211,6460700.0,75.73956298828125
2018-05-03,81.33999633789062,79.70999908447266,80.12000274658203,80.44000244140625,5784400.0,76.06105041503906
2018-05-04,82.51000213623047,80.5,80.54000091552734,81.87000274658203,5561200.0,77.41321563720703
2018-05-07,82.08000183105469,81.16000366210938,81.9000015258789,81.51000213623047,4519300.0,77.07280731201172
2018-05-08,81.38999938964844,80.31999969482422,81.33999633789062,80.80999755859375,5108500.0,76.4109115600586
2018-05-09,82.79000091552734,80.97000122070312,81.0,81.98999786376953,5021900.0,77.52667236328125
2018-05-10,83.04000091552734,81.9000015258789,81.94000244140625,83.0,4632600.0,78.48170471191406
2018-05-11,83.0199966430664,81.0199966430664,82.70999908447266,81.19999694824219,6557200.0,76.77967834472656
2018-05-14,81.72000122070312,80.7300033569336,81.25,80.86000061035156,5298300.0,76.45819091796875
2018-05-15,80.56999969482422,79.4000015258789,80.41999816894531,79.93000030517578,8023300.0,75.57881927490234
2018-05-16,81.33000183105469,80.23999786376953,80.38999938964844,80.88999938964844,6156800.0,76.48655700683594
2018-05-17,81.43000030517578,80.62000274658203,80.88999938964844,81.04000091552734,5713400.0,76.6283950805664
2018-05-18,81.30000305175781,80.44000244140625,81.26000213623047,80.75,5978600.0,76.35417938232422
2018-05-21,81.0999984741211,79.9800033569336,81.0,80.1500015258789,6153300.0,75.7868423461914
2018-05-22,80.30000305175781,79.62000274658203,80.25,79.87000274658203,6164800.0,75.52208709716797
2018-05-23,81.91999816894531,79.55000305175781,79.93000030517578,81.69999694824219,8187200.0,77.2524642944336
2018-05-24,81.77999877929688,80.8499984741211,81.5999984741211,81.61000061035156,5519500.0,77.16736602783203
2018-05-25,81.88999938964844,80.0999984741211,81.75,80.33999633789062,5010400.0,75.96649169921875
2018-05-29,80.18000030517578,78.87000274658203,79.80000305175781,79.2699966430664,9077000.0,74.95474243164062
2018-05-30,80.4800033569336,79.12000274658203,79.75,80.31999969482422,6157500.0,75.94759368896484
2018-05-31,80.31999969482422,78.61000061035156,80.29000091552734,79.54000091552734,9395500.0,75.21004486083984
2018-06-01,79.75,78.05000305175781,79.44999694824219,78.18000030517578,7733900.0,73.92408752441406
2018-06-04,78.93000030517578,77.77999877929688,78.08000183105469,78.41000366210938,5337000.0,74.14156341552734
2018-06-05,78.5999984741211,77.23999786376953,78.51000213623047,77.51000213623047,8503100.0,73.2905502319336
2018-06-06,77.61000061035156,76.20999908447266,77.55000305175781,76.8499984741211,10480800.0,72.66647338867188
2018-06-07,78.47000122070312,76.33000183105469,76.8499984741211,77.38999938964844,6367600.0,73.17708587646484
2018-06-08,79.66000366210938,78.2699966430664,78.2699966430664,79.41999816894531,7490000.0,75.0965805053711
2018-06-11,80.76000213623047,79.72000122070312,80.2699966430664,80.47000122070312,5194600.0,76.08942413330078
2018-06-12,80.48999786376953,79.36000061035156,80.26000213623047,80.31999969482422,5497900.0,75.94759368896484
2018-06-13,80.73999786376953,79.7699966430664,80.66999816894531,80.0999984741211,5726300.0,75.73956298828125
2018-06-14,81.08999633789062,79.91000366210938,80.20999908447266,80.8499984741211,6018200.0,76.44873046875
2018-06-15,82.13999938964844,80.37999725341797,80.54000091552734,81.87999725341797,13314100.0,77.42266082763672
2018-06-18,81.5,79.20999908447266,81.5,80.02999877929688,6334900.0,75.67337036132812
2018-06-19,81.62000274658203,80.02999877929688,80.02999877929688,80.83999633789062,7467400.0,76.43927001953125
2018-06-20,81.91000366210938,80.5999984741211,80.79000091552734,81.75,6627800.0,77.29973602294922
2018-06-21,80.02999877929688,79.2699966430664,79.5999984741211,79.47000122070312,6049600.0,76.20655822753906
2018-06-22,80.47000122070312,79.80000305175781,79.9000015258789,80.19000244140625,7007300.0,76.89698791503906
2018-06-25,80.16999816894531,79.37000274658203,79.4800033569336,79.97000122070312,4272200.0,76.68602752685547
2018-06-26,80.31999969482422,79.27999877929688,80.19999694824219,79.7699966430664,6640600.0,76.49423217773438
2018-06-27,80.81999969482422,79.19999694824219,79.80000305175781,79.9000015258789,6918700.0,76.618896484375
2018-06-28,81.80000305175781,80.2699966430664,80.5,81.66000366210938,6613100.0,78.30662536621094
2018-06-29,81.9800033569336,80.66000366210938,81.93000030517578,80.73999786376953,4689000.0,77.42440032958984
2018-07-02,81.22000122070312,79.5,80.62000274658203,80.23999786376953,3956700.0,76.94493103027344
2018-07-03,81.23999786376953,80.2300033569336,80.8499984741211,81.12000274658203,3225200.0,77.78880310058594
2018-07-05,82.02999877929688,80.70999908447266,81.1500015258789,82.02999877929688,4165900.0,78.66143035888672
2018-07-06,83.23999786376953,82.01000213623047,82.25,82.26000213623047,4719600.0,78.8819808959961
2018-07-09,82.5999984741211,81.44999694824219,82.30000305175781,82.18000030517578,4366200.0,78.80526733398438
2018-07-10,82.72000122070312,81.83000183105469,82.44000244140625,82.66999816894531,3604100.0,79.275146484375
2018-07-11,83.2699966430664,82.33000183105469,82.87999725341797,82.83999633789062,6191700.0,79.43816375732422
2018-07-12,84.0,82.86000061035156,83.11000061035156,83.19999694824219,5308600.0,79.78337860107422
2018-07-13,83.23999786376953,82.52999877929688,82.9000015258789,82.68000030517578,7517900.0,79.28474426269531
2018-07-16,82.73999786376953,81.55999755859375,82.69999694824219,81.91999816894531,6821400.0,78.55593872070312
2018-07-17,82.58999633789062,81.80000305175781,81.83000183105469,82.33000183105469,6050300.0,78.94911193847656
2018-07-18,82.93000030517578,81.8499984741211,82.5199966430664,82.1500015258789,6453600.0,78.77649688720703
2018-07-19,80.91999816894531,76.5199966430664,79.0,80.9000015258789,17196100.0,77.57783508300781
2018-07-20,84.43000030517578,80.05000305175781,80.0999984741211,84.30999755859375,11313100.0,80.8478012084961
2018-07-23,83.69999694824219,82.62999725341797,83.41999816894531,83.22000122070312,6369900.0,79.80255889892578
2018-07-24,84.16999816894531,82.87999725341797,83.18000030517578,83.55999755859375,6034100.0,80.12859344482422
2018-07-25,84.95999908447266,83.38999938964844,84.43000030517578,83.80999755859375,6212500.0,80.36832427978516
2018-07-26,85.36000061035156,83.55000305175781,84.2699966430664,84.45999908447266,5323000.0,80.99163818359375
2018-07-27,85.72000122070312,84.30000305175781,84.4800033569336,85.47000122070312,5202400.0,81.96016693115234
2018-07-30,86.62999725341797,85.55999755859375,85.63999938964844,86.62000274658203,5138200.0,83.06294250488281
2018-07-31,86.97000122070312,85.83999633789062,86.75,86.30000305175781,5934000.0,82.75608825683594
2018-08-01,86.2300033569336,85.44999694824219,86.02999877929688,85.54000091552734,4657400.0,82.02729034423828
2018-08-02,86.22000122070312,85.31999969482422,85.62000274658203,86.0,2781600.0,82.46839904785156
2018-08-03,87.44000244140625,85.6500015258789,86.05000305175781,86.83999633789062,3485100.0,83.27389526367188
2018-08-06,86.97000122070312,85.9800033569336,86.69000244140625,86.1500015258789,2770300.0,82.61224365234375
2018-08-07,86.5,85.30000305175781,86.5,85.52999877929688,3086600.0,82.0177001953125
2018-08-08,85.55999755859375,83.66000366210938,85.12000274658203,83.75,4319900.0,80.31079864501953
2018-08-09,84.58999633789062,83.72000122070312,83.79000091552734,84.4000015258789,2600500.0,80.9341049194336
2018-08-10,83.4800033569336,82.16999816894531,83.41000366210938,82.55999755859375,5087700.0,79.16966247558594
2018-08-13,82.43000030517578,81.26000213623047,82.23999786376953,81.86000061035156,4733500.0,78.4984130859375
2018-08-14,82.62000274658203,81.80999755859375,81.93000030517578,82.30999755859375,4281600.0,78.929931640625
2018-08-15,83.5199966430664,81.58999633789062,81.98999786376953,83.41000366210938,4767800.0,79.9847640991211
2018-08-16,84.73999786376953,83.44000244140625,83.7300033569336,84.68000030517578,3953800.0,81.20260620117188
2018-08-17,85.2699966430664,84.37000274658203,84.37000274658203,85.05000305175781,4124100.0,81.55741882324219
2018-08-20,85.27999877929688,84.20999908447266,85.23999786376953,84.58000183105469,2854500.0,81.10671997070312
2018-08-21,84.3499984741211,82.93000030517578,84.29000091552734,83.52999877929688,4993600.0,80.0998306274414
2018-08-22,83.62000274658203,82.2300033569336,83.45999908447266,82.43000030517578,4210700.0,79.04500579833984
2018-08-23,82.56999969482422,81.87000274658203,82.41999816894531,82.31999969482422,4094500.0,78.93952178955078
2018-08-24,81.2300033569336,79.41999816894531,80.69999694824219,79.69000244140625,9451700.0,76.41752624511719
2018-08-27,80.6500015258789,79.80999755859375,80.0,80.26000213623047,6102200.0,76.964111328125
2018-08-28,80.16000366210938,79.12999725341797,79.94000244140625,79.5,6437900.0,76.2353286743164
2018-08-29,79.70999908447266,78.83999633789062,79.68000030517578,79.05999755859375,5499600.0,75.81338500976562
2018-08-30,78.69999694824219,78.19999694824219,78.61000061035156,78.56999969482422,6338100.0,75.34351348876953
2018-08-31,78.73999786376953,77.4800033569336,78.33000183105469,77.88999938964844,7001100.0,74.69143676757812
2018-09-04,78.16999816894531,77.31999969482422,78.0,77.63999938964844,5932300.0,74.45169830322266
2018-09-05,78.94999694824219,77.27999877929688,77.45999908447266,78.79000091552734,6004000.0,75.55448150634766
2018-09-06,79.11000061035156,78.16999816894531,78.7300033569336,78.62000274658203,4687200.0,75.39146423339844
2018-09-07,78.88999938964844,78.12000274658203,78.41999816894531,78.5999984741211,4986900.0,75.37227630615234
2018-09-10,79.83999633789062,78.33000183105469,79.05999755859375,78.37999725341797,3773000.0,75.16130828857422
2018-09-11,78.41000366210938,77.16999816894531,78.13999938964844,77.44999694824219,4306800.0,74.2695083618164
2018-09-12,81.56999969482422,77.3499984741211,77.76000213623047,80.05000305175781,9206100.0,76.76274108886719
2018-09-13,80.58999633789062,79.06999969482422,80.45999908447266,79.77999877929688,4132700.0,76.50382232666016
2018-09-14,80.0,78.5999984741211,79.94999694824219,79.33000183105469,3353600.0,76.07231140136719
2018-09-17,80.48999786376953,79.11000061035156,79.54000091552734,80.30000305175781,4276700.0,77.00247955322266
2018-09-18,80.94999694824219,79.58000183105469,80.5,80.33000183105469,4255700.0,77.03124237060547
2018-09-19,81.0999984741211,80.02999877929688,80.12000274658203,80.91000366210938,4147900.0,77.5874252319336
2018-09-20,82.75,80.88999938964844,80.95999908447266,82.55000305175781,5431500.0,79.16007995605469
2018-09-21,83.86000061035156,82.01000213623047,82.94000244140625,83.75,12837800.0,80.31079864501953
2018-09-24,83.75,80.8499984741211,83.51000213623047,81.61000061035156,7696700.0,78.25868225097656
2018-09-25,81.2300033569336,79.83000183105469,80.61000061035156,79.91000366210938,4876300.0,77.71407318115234
2018-09-26,81.2300033569336,79.94999694824219,80.12999725341797,80.5,5867400.0,78.28784942626953
2018-09-27,82.31999969482422,80.72000122070312,81.12999725341797,81.51000213623047,4945700.0,79.27009582519531
2018-09-28,82.29000091552734,81.06999969482422,81.54000091552734,81.54000091552734,5286200.0,79.29927825927734
2018-10-01,81.91000366210938,80.44999694824219,81.41000366210938,81.81999969482422,3718300.0,79.57157897949219
2018-10-02,83.5199966430664,81.98999786376953,82.01000213623047,83.5199966430664,5404700.0,81.22486114501953
2018-10-03,83.98999786376953,82.54000091552734,83.55999755859375,82.91000366210938,5948600.0,80.63162231445312
2018-10-04,83.8499984741211,82.05000305175781,82.26000213623047,83.81999969482422,5888000.0,81.5166244506836
2018-10-05,84.4000015258789,83.5999984741211,83.93000030517578,84.0999984741211,5448500.0,81.78892517089844
2018-10-08,85.30999755859375,84.0999984741211,84.0999984741211,84.88999938964844,6380300.0,82.55722045898438
2018-10-09,85.4800033569336,84.62999725341797,85.06999969482422,84.62999725341797,5369100.0,82.30435180664062
2018-10-10,86.22000122070312,84.02999877929688,84.75,84.62000274658203,6532300.0,82.29463195800781
2018-10-11,85.0,81.44999694824219,84.62000274658203,82.30999755859375,9617400.0,80.04811096191406
2018-10-12,82.47000122070312,80.79000091552734,82.05999755859375,82.30999755859375,6419600.0,80.04811096191406
2018-10-15,84.86000061035156,82.2699966430664,82.36000061035156,83.48999786376953,4556500.0,81.1956787109375
2018-10-16,83.77999877929688,81.81999969482422,82.6500015258789,83.5,4232800.0,81.20541381835938
2018-10-17,85.12000274658203,83.0199966430664,83.4800033569336,84.55999755859375,5048700.0,82.23628234863281
2018-10-18,89.33999633789062,85.6500015258789,86.01000213623047,87.5199966430664,11167400.0,85.11494445800781
2018-10-19,89.01000213623047,88.08999633789062,88.33000183105469,88.83000183105469,6814600.0,86.38894653320312
2018-10-22,89.69999694824219,87.12999725341797,89.08999633789062,87.51000213623047,5273200.0,85.105224609375
2018-10-23,89.27999877929688,87.62000274658203,87.6500015258789,88.5,7462200.0,86.0680160522461
2018-10-24,90.19000244140625,87.91000366210938,88.70999908447266,89.19999694824219,7649000.0,86.74877166748047
2018-10-25,91.18000030517578,87.88999938964844,88.94000244140625,90.62999725341797,6933700.0,88.13948059082031
2018-10-26,91.20999908447266,88.38999938964844,90.37999725341797,89.0,7656700.0,86.55427551269531
2018-10-29,90.66999816894531,88.86000061035156,89.25,90.45999908447266,8138800.0,87.97415161132812
2018-10-30,92.69000244140625,89.87000274658203,91.19999694824219,90.47000122070312,6472300.0,87.98387908935547
2018-10-31,90.23999786376953,87.51000213623047,90.04000091552734,88.06999969482422,9509300.0,85.64982604980469
2018-11-01,89.12999725341797,87.3499984741211,88.33000183105469,88.3499984741211,5630400.0,85.92213439941406
2018-11-02,88.79000091552734,87.06999969482422,88.18000030517578,88.75,5850200.0,86.31114196777344
2018-11-05,90.12999725341797,88.6500015258789,88.69000244140625,89.55000305175781,4633400.0,87.08915710449219
2018-11-06,89.43000030517578,88.38999938964844,88.76000213623047,88.7699966430664,6557200.0,86.3305892944336
2018-11-07,89.72000122070312,88.08000183105469,89.27999877929688,89.06999969482422,5779300.0,86.62235260009766
2018-11-08,89.91999816894531,88.5,88.80000305175781,89.4800033569336,3600800.0,87.02108764648438
2018-11-09,90.87999725341797,89.0199966430664,90.13999938964844,89.18000030517578,5182700.0,86.72932434082031
2018-11-12,88.7699966430664,87.38999938964844,88.06999969482422,87.95999908447266,5233400.0,85.5428466796875
2018-11-13,88.5,86.30999755859375,87.61000061035156,86.4000015258789,7054500.0,84.02571868896484
2018-11-14,87.05000305175781,85.19000244140625,87.05000305175781,85.5,6219100.0,83.15045166015625
2018-11-15,85.83999633789062,84.38999938964844,84.81999969482422,85.83000183105469,6377800.0,83.47138214111328
2018-11-16,86.44999694824219,85.52999877929688,85.69999694824219,86.33000183105469,5196700.0,83.9576416015625
2018-11-19,87.66999816894531,86.30000305175781,86.91999816894531,87.62999725341797,5402600.0,85.22191619873047
2018-11-20,88.97000122070312,86.54000091552734,88.31999969482422,86.55000305175781,4949200.0,84.17160034179688
2018-11-21,86.41999816894531,83.62000274658203,86.41999816894531,83.94999694824219,5915700.0,81.6430435180664
2018-11-23,84.6500015258789,83.05000305175781,83.05000305175781,84.05000305175781,2521100.0,81.74029541015625
2018-11-26,84.23999786376953,82.83000183105469,84.05000305175781,83.83999633789062,4347600.0,81.53606414794922
2018-11-27,85.2699966430664,84.01000213623047,84.19999694824219,85.05000305175781,4975900.0,82.71282196044922
2018-11-28,86.5,84.75,85.05000305175781,86.38999938964844,4754800.0,84.0159912109375
2018-11-29,87.13999938964844,86.2699966430664,86.5,86.95999908447266,4269300.0,84.57032775878906
2018-11-30,87.37000274658203,86.0199966430664,87.22000122070312,86.52999877929688,5651600.0,84.15214538574219
2018-12-03,87.13999938964844,85.02999877929688,86.52999877929688,87.08000183105469,6580600.0,84.6870346069336
2018-12-04,88.5199966430664,85.2300033569336,87.41000366210938,85.43000030517578,5325100.0,83.0823745727539
2018-12-06,85.69999694824219,83.69000244140625,85.52999877929688,85.29000091552734,6413000.0,82.94622039794922
2018-12-07,85.75,84.16999816894531,85.0,84.55999755859375,4780800.0,82.23628234863281
2018-12-10,85.22000122070312,83.27999877929688,85.12999725341797,84.22000122070312,5431900.0,81.90562438964844
2018-12-11,85.54000091552734,83.68000030517578,84.6500015258789,84.33000183105469,4989000.0,82.01260375976562
2018-12-12,85.79000091552734,83.7300033569336,85.41000366210938,83.81999969482422,7762200.0,81.5166244506836
2018-12-13,84.87999725341797,83.55999755859375,83.58999633789062,84.33999633789062,3992800.0,82.02232360839844
2018-12-14,83.93000030517578,82.16999816894531,83.88999938964844,82.5,5676800.0,80.2328872680664
2018-12-17,82.77999877929688,80.95999908447266,82.62999725341797,81.4000015258789,8359500.0,79.16312408447266
2018-12-18,80.33000183105469,75.13999938964844,80.05999755859375,75.16999816894531,13641300.0,73.10431671142578
2018-12-19,74.7699966430664,71.61000061035156,74.75,72.04000091552734,13595400.0,71.13920593261719
2018-12-20,71.5,68.73999786376953,71.48999786376953,69.08000183105469,19218400.0,68.21621704101562
2018-12-21,71.3499984741211,66.11000061035156,68.94999694824219,66.20999908447266,21310100.0,65.3821029663086
2018-12-24,67.04000091552734,65.70999908447266,66.43000030517578,65.97000122070312,6647000.0,65.14510345458984
2018-12-26,66.87000274658203,64.75,66.05000305175781,66.86000061035156,9326100.0,66.02397918701172
2018-12-27,66.98999786376953,64.66999816894531,66.4800033569336,66.68000030517578,11009700.0,65.84622955322266
2018-12-28,69.08000183105469,66.9000015258789,67.6500015258789,67.2699966430664,8260000.0,66.42884826660156
2018-12-31,67.33000183105469,65.69000244140625,66.97000122070312,66.76000213623047,6663800.0,65.92523193359375
