Date,High,Low,Open,Close,Volume,Adj Close
2016-01-04,106.80999755859375,101.7300033569336,106.5,103.31999969482422,1533800,103.31999969482422
2016-01-05,105.9800033569336,101.9000015258789,102.13999938964844,103.80000305175781,1173900,103.80000305175781
2016-01-06,103.62000274658203,100.2699966430664,101.44000244140625,102.26000213623047,2012700,102.26000213623047
2016-01-07,100.79000091552734,95.62000274658203,100.0999984741211,95.76000213623047,1798200,95.76000213623047
2016-01-08,97.98999786376953,93.05999755859375,97.08000183105469,94.77999877929688,1678000,94.77999877929688
2016-01-11,96.22000122070312,90.69999694824219,95.9000015258789,92.19000244140625,2069400,92.19000244140625
2016-01-12,96.75,84.56999969482422,93.62000274658203,88.08999633789062,3783900,88.08999633789062
2016-01-13,89.6500015258789,78.2300033569336,88.5199966430664,78.41999816894531,4098700,78.41999816894531
2016-01-14,82.58999633789062,74.7300033569336,79.76000213623047,80.9800033569336,2460700,80.9800033569336
2016-01-15,79.05000305175781,73.22000122070312,74.4800033569336,76.94999694824219,4179200,76.94999694824219
2016-01-19,79.26000213623047,70.16999816894531,79.19000244140625,73.30999755859375,2674000,73.30999755859375
2016-01-20,75.98999786376953,69.7300033569336,71.62999725341797,74.25,3760500,74.25
2016-01-21,76.72000122070312,71.0,73.87000274658203,73.77999877929688,2186100,73.77999877929688
2016-01-22,80.31999969482422,75.27999877929688,75.5,79.4000015258789,1889400,79.4000015258789
2016-01-25,84.19999694824219,78.12000274658203,78.4800033569336,78.30999755859375,2338700,78.30999755859375
2016-01-26,78.66999816894531,74.23999786376953,78.05999755859375,76.04000091552734,2102100,76.04000091552734
2016-01-27,79.56999969482422,73.83999633789062,76.54000091552734,74.98999786376953,2054000,74.98999786376953
2016-01-28,70.56999969482422,64.51000213623047,70.01000213623047,67.80999755859375,6979500,67.80999755859375
2016-01-29,70.87999725341797,67.80999755859375,68.23999786376953,70.55999755859375,2822900,70.55999755859375
2016-02-01,73.55000305175781,68.80000305175781,70.0,72.58000183105469,3311800,72.58000183105469
2016-02-02,71.8499984741211,67.11000061035156,71.8499984741211,68.94000244140625,4286900,68.94000244140625
2016-02-03,70.41000366210938,65.51000213623047,69.54000091552734,69.16999816894531,2807600,69.16999816894531
2016-02-04,73.0,66.55999755859375,68.91999816894531,72.02999877929688,2962400,72.02999877929688
2016-02-05,71.55999755859375,68.0,70.68000030517578,71.0,4473500,71.0
2016-02-08,71.69999694824219,65.61000061035156,69.5,70.91000366210938,3376400,70.91000366210938
2016-02-09,74.54000091552734,68.30999755859375,68.97000122070312,72.26000213623047,2976100,72.26000213623047
2016-02-10,76.33000183105469,71.70999908447266,73.56999969482422,72.30999755859375,3464100,72.30999755859375
2016-02-11,66.27999877929688,55.0,58.599998474121094,65.51000213623047,15389600,65.51000213623047
2016-02-12,68.5,63.5099983215332,65.54000091552734,68.36000061035156,4687200,68.36000061035156
2016-02-16,71.94000244140625,68.77999877929688,70.30000305175781,71.66999816894531,3370400,71.66999816894531
2016-02-17,77.29000091552734,71.62000274658203,72.66999816894531,74.44999694824219,2618600,74.44999694824219
2016-02-18,75.36000061035156,70.95999908447266,74.86000061035156,71.0199966430664,1848800,71.0199966430664
2016-02-19,73.58999633789062,68.55999755859375,70.83999633789062,72.69999694824219,1758800,72.69999694824219
2016-02-22,75.19999694824219,72.4000015258789,73.56999969482422,73.9000015258789,1264700,73.9000015258789
2016-02-23,74.83000183105469,71.06999969482422,73.47000122070312,72.01000213623047,1609000,72.01000213623047
2016-02-24,74.43000030517578,69.5,71.29000091552734,74.31999969482422,1438100,74.31999969482422
2016-02-25,76.77999877929688,73.30999755859375,74.0,74.27999877929688,1559900,74.27999877929688
2016-02-26,76.38999938964844,73.55999755859375,75.0,74.33999633789062,1334900,74.33999633789062
2016-02-29,75.37999725341797,72.80999755859375,74.76000213623047,73.5,1319300,73.5
2016-03-01,75.05999755859375,71.93000030517578,74.01000213623047,75.05000305175781,2701400,75.05000305175781
2016-03-02,76.5,73.02999877929688,74.79000091552734,73.5999984741211,2147600,73.5999984741211
2016-03-03,74.0,71.2699966430664,74.0,72.55999755859375,1659100,72.55999755859375
2016-03-04,73.94999694824219,70.7300033569336,73.51000213623047,71.98999786376953,1343500,71.98999786376953
2016-03-07,74.66000366210938,69.87999725341797,71.63999938964844,73.29000091552734,1055300,73.29000091552734
2016-03-08,74.22000122070312,70.81999969482422,73.18000030517578,71.16999816894531,1472900,71.16999816894531
2016-03-09,71.95999908447266,67.83000183105469,71.27999877929688,68.8499984741211,1578200,68.8499984741211
2016-03-10,71.62000274658203,67.87999725341797,69.88999938964844,68.6500015258789,1588300,68.6500015258789
2016-03-11,70.91999816894531,68.4000015258789,69.52999877929688,70.88999938964844,1507000,70.88999938964844
2016-03-14,71.98999786376953,68.93000030517578,70.9800033569336,68.9800033569336,1298500,68.9800033569336
2016-03-15,68.48999786376953,65.25,68.37000274658203,65.63999938964844,2661700,65.63999938964844
2016-03-16,67.01000213623047,62.529998779296875,65.1500015258789,63.77000045776367,1268700,63.77000045776367
2016-03-17,64.79000091552734,60.29999923706055,64.02999877929688,63.04999923706055,2631400,63.04999923706055
2016-03-18,66.05000305175781,62.630001068115234,63.81999969482422,65.06999969482422,2452200,65.06999969482422
2016-03-21,69.25,64.7699966430664,64.9800033569336,68.61000061035156,1797900,68.61000061035156
2016-03-22,70.80000305175781,67.3499984741211,67.87000274658203,69.11000061035156,1650000,69.11000061035156
2016-03-23,71.33000183105469,67.22000122070312,70.80999755859375,67.43000030517578,1473500,67.43000030517578
2016-03-24,72.70999908447266,65.5,67.06999969482422,69.76000213623047,1889600,69.76000213623047
2016-03-28,70.91000366210938,68.37000274658203,70.4000015258789,68.44999694824219,1082300,68.44999694824219
2016-03-29,69.9000015258789,67.5199966430664,68.58999633789062,69.25,1252100,69.25
2016-03-30,71.98999786376953,67.94000244140625,70.63999938964844,68.3499984741211,1297400,68.3499984741211
2016-03-31,74.19000244140625,68.51000213623047,68.58000183105469,72.47000122070312,2164700,72.47000122070312
2016-04-01,74.08999633789062,71.06999969482422,73.19999694824219,73.30000305175781,1528000,73.30000305175781
2016-04-04,74.0199966430664,72.41999816894531,73.27999877929688,73.48999786376953,1112600,73.48999786376953
2016-04-05,75.23999786376953,72.23999786376953,73.06999969482422,73.3499984741211,1446800,73.3499984741211
2016-04-06,82.04000091552734,73.41000366210938,73.41000366210938,81.87000274658203,2733400,81.87000274658203
2016-04-07,84.41999816894531,78.63999938964844,81.5,79.4000015258789,1503300,79.4000015258789
2016-04-08,80.83999633789062,75.79000091552734,80.69999694824219,77.47000122070312,1566900,77.47000122070312
2016-04-11,77.66999816894531,75.0,77.0,75.80999755859375,969100,75.80999755859375
2016-04-12,77.52999877929688,75.26000213623047,75.70999908447266,77.37000274658203,808500,77.37000274658203
2016-04-13,79.48999786376953,76.56999969482422,77.63999938964844,79.22000122070312,1046100,79.22000122070312
2016-04-14,79.80000305175781,78.02999877929688,79.30000305175781,78.54000091552734,981500,78.54000091552734
2016-04-15,79.41000366210938,76.08000183105469,79.37000274658203,77.77999877929688,1124500,77.77999877929688
2016-04-18,78.41000366210938,74.69999694824219,77.79000091552734,77.88999938964844,1579500,77.88999938964844
2016-04-19,78.36000061035156,75.83999633789062,77.51000213623047,76.7699966430664,1078600,76.7699966430664
2016-04-20,79.25,77.0,77.18000030517578,78.48999786376953,1027900,78.48999786376953
2016-04-21,79.02999877929688,76.0199966430664,78.05999755859375,77.55999755859375,1656400,77.55999755859375
2016-04-22,77.87000274658203,74.83999633789062,77.11000061035156,76.7699966430664,795200,76.7699966430664
2016-04-25,77.88999938964844,75.83999633789062,76.81999969482422,76.55000305175781,690000,76.55000305175781
2016-04-26,76.95999908447266,73.7699966430664,76.55999755859375,74.43000030517578,770700,74.43000030517578
2016-04-27,74.05000305175781,72.01000213623047,73.98999786376953,73.19000244140625,1243200,73.19000244140625
2016-04-28,74.55000305175781,71.31999969482422,73.20999908447266,72.33999633789062,1269800,72.33999633789062
2016-04-29,73.16999816894531,70.01000213623047,71.45999908447266,72.2699966430664,1353500,72.2699966430664
2016-05-02,74.47000122070312,71.0199966430664,72.02999877929688,74.36000061035156,881100,74.36000061035156
2016-05-03,74.4000015258789,71.55000305175781,73.44999694824219,72.08999633789062,880200,72.08999633789062
2016-05-04,72.0,68.5199966430664,71.4000015258789,68.69000244140625,1255200,68.69000244140625
2016-05-05,71.01000213623047,68.02999877929688,68.97000122070312,70.41000366210938,1573300,70.41000366210938
2016-05-06,72.37999725341797,68.5999984741211,69.7699966430664,70.69000244140625,1466000,70.69000244140625
2016-05-09,74.41999816894531,69.11000061035156,70.4000015258789,72.86000061035156,2195500,72.86000061035156
2016-05-10,73.62000274658203,70.22000122070312,73.51000213623047,73.48999786376953,991400,73.48999786376953
2016-05-11,73.73999786376953,70.4800033569336,73.62000274658203,70.62000274658203,808200,70.62000274658203
2016-05-12,71.3499984741211,68.30999755859375,70.80000305175781,70.54000091552734,1042200,70.54000091552734
2016-05-13,73.30999755859375,69.94999694824219,70.2699966430664,73.20999908447266,858100,73.20999908447266
2016-05-16,76.80999755859375,73.08000183105469,73.08000183105469,76.47000122070312,1347900,76.47000122070312
2016-05-17,76.68000030517578,74.25,76.06999969482422,75.55000305175781,1358500,75.55000305175781
2016-05-18,79.0,74.9000015258789,75.18000030517578,77.52999877929688,1081400,77.52999877929688
2016-05-19,78.94999694824219,74.91999816894531,76.98999786376953,76.04000091552734,932000,76.04000091552734
2016-05-20,78.98999786376953,74.98999786376953,76.33999633789062,77.6500015258789,1070800,77.6500015258789
2016-05-23,82.06999969482422,77.69000244140625,77.97000122070312,80.68000030517578,1679700,80.68000030517578
2016-05-24,81.7699966430664,80.31999969482422,81.0999984741211,81.2699966430664,1099300,81.2699966430664
2016-05-25,83.5,80.63999938964844,81.30999755859375,83.16000366210938,1314700,83.16000366210938
2016-05-26,83.0199966430664,81.05000305175781,82.62999725341797,81.77999877929688,1382700,81.77999877929688
2016-05-27,85.68000030517578,80.94999694824219,81.69000244140625,84.52999877929688,1210400,84.52999877929688
2016-05-31,86.19999694824219,83.83999633789062,84.98999786376953,84.41000366210938,1253600,84.41000366210938
2016-06-01,86.19000244140625,82.33999633789062,83.91999816894531,85.18000030517578,1018900,85.18000030517578
2016-06-02,87.87999725341797,84.9000015258789,85.16999816894531,87.70999908447266,1188200,87.70999908447266
2016-06-03,87.4800033569336,84.43000030517578,87.44000244140625,84.95999908447266,1226500,84.95999908447266
2016-06-06,86.0,82.5199966430664,84.8499984741211,85.48999786376953,1087100,85.48999786376953
2016-06-07,86.22000122070312,82.19999694824219,85.5,82.44000244140625,1027900,82.44000244140625
2016-06-08,83.63999938964844,81.55000305175781,82.91000366210938,82.9000015258789,938700,82.9000015258789
2016-06-09,83.87000274658203,81.58000183105469,83.58999633789062,81.61000061035156,871400,81.61000061035156
2016-06-10,81.43000030517578,78.3499984741211,80.63999938964844,80.41000366210938,1040300,80.41000366210938
2016-06-13,82.47000122070312,79.4800033569336,80.08000183105469,80.01000213623047,959200,80.01000213623047
2016-06-14,80.87000274658203,78.55999755859375,80.1500015258789,79.77999877929688,680800,79.77999877929688
2016-06-15,80.88999938964844,79.27999877929688,80.30000305175781,79.44999694824219,674700,79.44999694824219
2016-06-16,80.26000213623047,78.37000274658203,78.77999877929688,80.0,770100,80.0
2016-06-17,81.55000305175781,76.91999816894531,80.18000030517578,77.11000061035156,1489500,77.11000061035156
2016-06-20,79.9800033569336,77.5,77.81999969482422,78.48999786376953,925000,78.48999786376953
2016-06-21,79.4000015258789,76.04000091552734,78.83999633789062,77.5999984741211,1301200,77.5999984741211
2016-06-22,79.8499984741211,75.5,77.5199966430664,78.5,1202300,78.5
2016-06-23,81.79000091552734,78.12000274658203,79.30000305175781,81.66000366210938,1098400,81.66000366210938
2016-06-24,80.88999938964844,76.41000366210938,76.83999633789062,76.9800033569336,2384300,76.9800033569336
2016-06-27,77.73999786376953,71.75,76.5199966430664,72.44000244140625,1706800,72.44000244140625
2016-06-28,76.75,73.41000366210938,73.41000366210938,76.58000183105469,1208900,76.58000183105469
2016-06-29,79.48999786376953,75.81999969482422,77.1500015258789,78.73999786376953,1247800,78.73999786376953
2016-06-30,80.43000030517578,77.8499984741211,78.87999725341797,79.9800033569336,1063000,79.9800033569336
2016-07-01,82.86000061035156,79.33999633789062,79.61000061035156,81.2699966430664,785500,81.2699966430664
2016-07-05,80.97000122070312,78.4000015258789,80.97000122070312,79.70999908447266,635700,79.70999908447266
2016-07-06,83.44999694824219,79.51000213623047,80.0,82.4800033569336,1102600,82.4800033569336
2016-07-07,84.05999755859375,82.18000030517578,82.52999877929688,83.52999877929688,697200,83.52999877929688
2016-07-08,85.87999725341797,82.97000122070312,83.29000091552734,85.69999694824219,905900,85.69999694824219
2016-07-11,86.9000015258789,84.97000122070312,86.38999938964844,85.0,884400,85.0
2016-07-12,86.11000061035156,84.9000015258789,85.62999725341797,84.97000122070312,592900,84.97000122070312
2016-07-13,86.27999877929688,82.44999694824219,85.98999786376953,82.55999755859375,641200,82.55999755859375
2016-07-14,83.80000305175781,81.2699966430664,83.30999755859375,82.13999938964844,735900,82.13999938964844
2016-07-15,84.69000244140625,82.83000183105469,82.8499984741211,83.83000183105469,1023100,83.83000183105469
2016-07-18,84.45999908447266,83.01000213623047,84.19000244140625,84.12999725341797,674200,84.12999725341797
2016-07-19,84.79000091552734,82.72000122070312,83.73999786376953,82.81999969482422,629100,82.81999969482422
2016-07-20,87.19000244140625,82.76000213623047,82.91000366210938,86.87999725341797,1441000,86.87999725341797
2016-07-21,89.2699966430664,86.29000091552734,87.18000030517578,87.79000091552734,1398400,87.79000091552734
2016-07-22,88.98999786376953,86.37000274658203,88.47000122070312,86.41000366210938,642700,86.41000366210938
2016-07-25,86.88999938964844,84.98999786376953,86.5999984741211,86.43000030517578,762400,86.43000030517578
2016-07-26,87.52999877929688,85.58000183105469,86.01000213623047,86.95999908447266,655700,86.95999908447266
2016-07-27,89.1500015258789,87.23999786376953,87.66999816894531,88.72000122070312,686300,88.72000122070312
2016-07-28,88.94000244140625,86.88999938964844,88.69000244140625,88.12000274658203,574700,88.12000274658203
2016-07-29,90.3499984741211,86.66999816894531,88.5199966430664,90.20999908447266,859800,90.20999908447266
2016-08-01,92.81999969482422,89.44999694824219,90.62000274658203,90.0,1488900,90.0
2016-08-02,89.80999755859375,86.0199966430664,89.73999786376953,88.94999694824219,1377100,88.94999694824219
2016-08-03,90.98999786376953,88.66000366210938,89.08999633789062,90.80999755859375,797200,90.80999755859375
2016-08-04,92.05000305175781,89.75,91.47000122070312,90.12000274658203,816900,90.12000274658203
2016-08-05,92.73999786376953,90.31999969482422,90.83000183105469,90.83999633789062,701700,90.83999633789062
2016-08-08,91.5999984741211,87.9000015258789,90.68000030517578,88.04000091552734,1024000,88.04000091552734
2016-08-09,90.13999938964844,84.5199966430664,90.01000213623047,86.4800033569336,1661400,86.4800033569336
2016-08-10,87.19000244140625,83.05000305175781,86.95999908447266,83.48999786376953,1216100,83.48999786376953
2016-08-11,83.7300033569336,80.48999786376953,83.5,81.20999908447266,1692400,81.20999908447266
2016-08-12,81.4800033569336,80.5,81.08000183105469,81.05000305175781,856400,81.05000305175781
2016-08-15,81.55999755859375,80.5,81.05000305175781,80.55000305175781,988500,80.55000305175781
2016-08-16,80.58999633789062,77.69999694824219,80.58000183105469,77.86000061035156,1387300,77.86000061035156
2016-08-17,78.55999755859375,76.4000015258789,78.22000122070312,76.4800033569336,1283400,76.4800033569336
2016-08-18,77.19999694824219,75.87000274658203,76.5,76.16000366210938,1246900,76.16000366210938
2016-08-19,77.6500015258789,75.5199966430664,75.69000244140625,76.11000061035156,1146800,76.11000061035156
2016-08-22,84.38999938964844,79.11000061035156,79.80000305175781,81.9800033569336,2808200,81.9800033569336
2016-08-23,83.25,80.4800033569336,82.7300033569336,81.9000015258789,1256700,81.9000015258789
2016-08-24,87.9800033569336,81.55000305175781,81.55000305175781,82.44000244140625,3333100,82.44000244140625
2016-08-25,85.06999969482422,78.69999694824219,82.44999694824219,80.0999984741211,1639400,80.0999984741211
2016-08-26,82.19000244140625,79.36000061035156,80.05999755859375,81.04000091552734,891400,81.04000091552734
2016-08-29,81.87999725341797,80.08999633789062,81.0999984741211,81.33000183105469,591500,81.33000183105469
2016-08-30,81.77999877929688,80.48999786376953,81.08000183105469,80.9800033569336,764400,80.9800033569336
2016-08-31,82.16000366210938,80.1500015258789,81.11000061035156,81.0999984741211,1218700,81.0999984741211
2016-09-01,81.7300033569336,79.88999938964844,81.61000061035156,80.80999755859375,670200,80.80999755859375
2016-09-02,82.6500015258789,80.5,81.13999938964844,82.0199966430664,1130900,82.0199966430664
2016-09-06,83.94999694824219,81.75,82.33999633789062,83.75,1579000,83.75
2016-09-07,85.12000274658203,81.98999786376953,83.58999633789062,82.44999694824219,2257400,82.44999694824219
2016-09-08,82.56999969482422,81.19000244140625,82.19999694824219,81.55999755859375,806800,81.55999755859375
2016-09-09,82.05000305175781,79.04000091552734,80.69999694824219,79.12999725341797,1098400,79.12999725341797
2016-09-12,81.37999725341797,78.20999908447266,78.7699966430664,81.16000366210938,1468000,81.16000366210938
2016-09-13,80.16999816894531,77.58000183105469,80.16999816894531,79.20999908447266,1069800,79.20999908447266
2016-09-14,81.75,79.22000122070312,79.22000122070312,80.05000305175781,1088200,80.05000305175781
2016-09-15,80.83999633789062,78.04000091552734,80.02999877929688,80.36000061035156,1092900,80.36000061035156
2016-09-16,82.56999969482422,79.75,80.3499984741211,82.1500015258789,1461900,82.1500015258789
2016-09-19,84.43000030517578,81.48999786376953,82.3499984741211,83.51000213623047,1223600,83.51000213623047
2016-09-20,85.5,83.3499984741211,83.51000213623047,85.05999755859375,1102100,85.05999755859375
2016-09-21,87.26000213623047,83.93000030517578,85.29000091552734,86.70999908447266,1522900,86.70999908447266
2016-09-22,89.4800033569336,86.44000244140625,87.80999755859375,89.2699966430664,1441000,89.2699966430664
2016-09-23,91.26000213623047,88.38999938964844,88.38999938964844,88.9800033569336,1339700,88.9800033569336
2016-09-26,89.04000091552734,86.95999908447266,88.62999725341797,88.76000213623047,1084700,88.76000213623047
2016-09-27,89.23999786376953,86.91000366210938,88.55999755859375,89.06999969482422,1219600,89.06999969482422
2016-09-28,95.38999938964844,91.38999938964844,94.9800033569336,93.19999694824219,2652600,93.19999694824219
2016-09-29,95.13999938964844,91.08000183105469,94.13999938964844,92.29000091552734,2664100,92.29000091552734
2016-09-30,94.66000366210938,90.56999969482422,92.70999908447266,94.29000091552734,1707600,94.29000091552734
2016-10-03,95.69000244140625,93.33000183105469,93.72000122070312,95.54000091552734,1341000,95.54000091552734
2016-10-04,96.18000030517578,93.33000183105469,95.80000305175781,94.16999816894531,1150900,94.16999816894531
2016-10-05,96.37999725341797,94.26000213623047,94.44999694824219,95.69000244140625,1084700,95.69000244140625
2016-10-06,95.0999984741211,92.16000366210938,94.80000305175781,94.77999877929688,1861900,94.77999877929688
2016-10-07,98.08000183105469,95.0,96.0,97.83000183105469,2863100,97.83000183105469
2016-10-10,99.4800033569336,95.94000244140625,98.69000244140625,95.94999694824219,1515300,95.94999694824219
2016-10-11,96.3499984741211,89.80000305175781,95.41000366210938,92.11000061035156,1938100,92.11000061035156
2016-10-12,93.33999633789062,89.7699966430664,92.45999908447266,89.97000122070312,1404900,89.97000122070312
2016-10-13,90.25,88.43000030517578,88.98999786376953,89.52999877929688,1533800,89.52999877929688
2016-10-14,90.77999877929688,86.98999786376953,89.83000183105469,87.0999984741211,1304800,87.0999984741211
2016-10-17,87.88999938964844,84.0199966430664,86.7699966430664,86.69999694824219,1229800,86.69999694824219
2016-10-18,89.79000091552734,87.44999694824219,87.62999725341797,88.77999877929688,1067300,88.77999877929688
2016-10-19,88.55000305175781,87.16000366210938,88.55000305175781,87.95999908447266,815000,87.95999908447266
2016-10-20,90.11000061035156,87.0999984741211,88.06999969482422,88.48999786376953,893000,88.48999786376953
2016-10-21,88.63999938964844,86.1500015258789,88.08999633789062,87.72000122070312,792500,87.72000122070312
2016-10-24,88.5199966430664,87.01000213623047,87.98999786376953,88.18000030517578,994900,88.18000030517578
2016-10-25,88.3499984741211,86.5999984741211,87.86000061035156,87.19999694824219,764500,87.19999694824219
2016-10-26,89.25,86.69999694824219,87.5,87.25,800300,87.25
2016-10-27,90.91000366210938,86.68000030517578,88.0999984741211,87.01000213623047,1062900,87.01000213623047
2016-10-28,88.33999633789062,84.41999816894531,86.05000305175781,87.12999725341797,993900,87.12999725341797
2016-10-31,87.80000305175781,85.93000030517578,87.5199966430664,86.97000122070312,958100,86.97000122070312
2016-11-01,91.33000183105469,86.97000122070312,90.0,90.02999877929688,2593500,90.02999877929688
2016-11-02,90.08999633789062,87.08999633789062,90.0,87.19000244140625,1582700,87.19000244140625
2016-11-03,87.88999938964844,83.08999633789062,87.52999877929688,83.27999877929688,1215900,83.27999877929688
2016-11-04,89.18000030517578,83.01000213623047,84.30000305175781,87.56999969482422,1384800,87.56999969482422
2016-11-07,92.83000183105469,88.73999786376953,89.45999908447266,92.1500015258789,2391700,92.1500015258789
2016-11-08,93.9800033569336,90.37999725341797,92.16000366210938,92.16000366210938,1280400,92.16000366210938
2016-11-09,109.94999694824219,95.02999877929688,95.68000030517578,104.12999725341797,4717800,104.12999725341797
2016-11-10,107.98999786376953,101.6500015258789,105.0,104.70999908447266,2621300,104.70999908447266
2016-11-11,105.7300033569336,102.29000091552734,103.87999725341797,104.51000213623047,2028300,104.51000213623047
2016-11-14,107.08999633789062,101.63999938964844,104.87999725341797,104.88999938964844,1873500,104.88999938964844
2016-11-15,105.0199966430664,101.58000183105469,104.2699966430664,103.16000366210938,1052300,103.16000366210938
2016-11-16,103.98999786376953,100.61000061035156,102.70999908447266,100.73999786376953,715400,100.73999786376953
2016-11-17,108.19999694824219,102.1500015258789,106.9000015258789,105.55000305175781,2869000,105.55000305175781
2016-11-18,105.91999816894531,103.37000274658203,105.30000305175781,103.62999725341797,1103100,103.62999725341797
2016-11-21,109.02999877929688,103.0,103.66000366210938,108.0999984741211,1471800,108.0999984741211
2016-11-22,108.33999633789062,104.4800033569336,107.91000366210938,106.80000305175781,1235000,106.80000305175781
2016-11-23,107.33000183105469,103.9000015258789,104.87999725341797,106.80000305175781,936500,106.80000305175781
2016-11-25,108.61000061035156,105.94999694824219,107.51000213623047,107.7300033569336,783700,107.7300033569336
2016-11-28,107.69999694824219,104.80000305175781,107.12999725341797,105.16999816894531,950800,105.16999816894531
2016-11-29,106.5,103.41000366210938,105.44000244140625,105.06999969482422,803100,105.06999969482422
2016-11-30,106.43000030517578,101.9000015258789,105.33000183105469,102.29000091552734,1040800,102.29000091552734
2016-12-01,103.30999755859375,99.55999755859375,102.52999877929688,99.93000030517578,1001200,99.93000030517578
2016-12-02,104.2300033569336,98.48999786376953,100.22000122070312,102.0199966430664,1105800,102.0199966430664
2016-12-05,105.88999938964844,102.16000366210938,102.66000366210938,104.76000213623047,1785300,104.76000213623047
2016-12-06,107.47000122070312,104.1500015258789,104.37000274658203,107.20999908447266,1288800,107.20999908447266
2016-12-07,106.52999877929688,99.72000122070312,104.76000213623047,101.95999908447266,1947000,101.95999908447266
2016-12-08,103.16999816894531,98.55999755859375,101.43000030517578,102.87999725341797,1147000,102.87999725341797
2016-12-09,105.4800033569336,100.0199966430664,103.8499984741211,100.62999725341797,1078600,100.62999725341797
2016-12-12,101.1500015258789,99.5,100.12000274658203,100.86000061035156,1042200,100.86000061035156
2016-12-13,102.69000244140625,100.55000305175781,101.2300033569336,101.54000091552734,1408300,101.54000091552734
2016-12-14,103.3499984741211,101.01000213623047,101.5,102.41999816894531,1030400,102.41999816894531
2016-12-15,105.38999938964844,101.30999755859375,103.13999938964844,104.58000183105469,1128000,104.58000183105469
2016-12-16,107.19999694824219,102.43000030517578,104.8499984741211,103.0,2807200,103.0
2016-12-19,103.8499984741211,100.27999877929688,102.87999725341797,100.79000091552734,1520700,100.79000091552734
2016-12-20,102.62000274658203,101.01000213623047,101.30999755859375,102.20999908447266,1078100,102.20999908447266
2016-12-21,102.38999938964844,99.30000305175781,101.83999633789062,99.76000213623047,1019500,99.76000213623047
2016-12-22,101.5199966430664,98.7300033569336,100.63999938964844,101.47000122070312,779800,101.47000122070312
2016-12-23,103.16000366210938,99.94999694824219,100.83999633789062,102.94000244140625,982000,102.94000244140625
2016-12-27,105.27999877929688,102.22000122070312,103.0999984741211,102.52999877929688,883700,102.52999877929688
2016-12-28,103.22000122070312,100.91000366210938,102.3499984741211,101.0999984741211,731300,101.0999984741211
2016-12-29,102.16999816894531,100.72000122070312,100.87999725341797,101.95999908447266,726300,101.95999908447266
2016-12-30,102.3499984741211,99.25,101.93000030517578,100.2699966430664,953800,100.2699966430664
2017-01-03,103.19999694824219,100.41000366210938,101.13999938964844,102.31999969482422,1434800,102.31999969482422
2017-01-04,104.62999725341797,102.27999877929688,103.0999984741211,102.83999633789062,1442500,102.83999633789062
2017-01-05,104.98999786376953,102.23999786376953,102.81999969482422,104.80999755859375,940900,104.80999755859375
2017-01-06,109.30000305175781,104.91999816894531,105.41999816894531,108.30999755859375,1817400,108.30999755859375
2017-01-09,119.88999938964844,112.83000183105469,113.55000305175781,118.52999877929688,3004200,118.52999877929688
2017-01-10,121.18000030517578,117.80000305175781,119.08999633789062,119.30000305175781,2013200,119.30000305175781
2017-01-11,119.93000030517578,113.7699966430664,118.80000305175781,115.29000091552734,2085500,115.29000091552734
2017-01-12,118.25,112.87999725341797,114.43000030517578,117.55000305175781,1221500,117.55000305175781
2017-01-13,119.80000305175781,116.72000122070312,117.97000122070312,117.75,1103000,117.75
2017-01-17,116.75,113.23999786376953,115.69999694824219,113.63999938964844,1356700,113.63999938964844
2017-01-18,115.23999786376953,113.12000274658203,114.51000213623047,115.08999633789062,1125400,115.08999633789062
2017-01-19,117.62000274658203,113.0,115.5,117.52999877929688,1160000,117.52999877929688
2017-01-20,122.68000030517578,117.08000183105469,118.31999969482422,117.22000122070312,1907600,117.22000122070312
2017-01-23,119.26000213623047,116.68000030517578,118.2699966430664,117.41999816894531,1751700,117.41999816894531
2017-01-24,118.56999969482422,115.55999755859375,117.55000305175781,118.30000305175781,1323300,118.30000305175781
2017-01-25,121.3499984741211,118.16999816894531,119.12999725341797,120.91000366210938,1411400,120.91000366210938
2017-01-26,124.87000274658203,119.0199966430664,120.51000213623047,120.63999938964844,2437500,120.63999938964844
2017-01-27,123.52999877929688,120.62000274658203,121.44000244140625,121.72000122070312,804100,121.72000122070312
2017-01-30,122.23999786376953,117.81999969482422,121.83000183105469,118.2300033569336,1346100,118.2300033569336
2017-01-31,121.30999755859375,117.0999984741211,117.94999694824219,121.20999908447266,1472600,121.20999908447266
2017-02-01,124.6500015258789,119.86000061035156,121.12000274658203,124.2699966430664,1420800,124.2699966430664
2017-02-02,123.69999694824219,119.2300033569336,123.02999877929688,120.91999816894531,1643900,120.91999816894531
2017-02-03,122.45999908447266,119.62000274658203,121.76000213623047,120.33999633789062,868900,120.33999633789062
2017-02-06,121.30999755859375,118.80999755859375,120.27999877929688,119.68000030517578,1107700,119.68000030517578
2017-02-07,120.43000030517578,117.25,120.08999633789062,118.18000030517578,1670700,118.18000030517578
2017-02-08,123.58999633789062,117.18000030517578,117.31999969482422,122.7300033569336,2180700,122.7300033569336
2017-02-09,124.19000244140625,121.68000030517578,121.91999816894531,122.95999908447266,894000,122.95999908447266
2017-02-10,123.0999984741211,121.26000213623047,123.01000213623047,121.69999694824219,1084700,121.69999694824219
2017-02-13,122.2699966430664,120.26000213623047,122.2699966430664,121.1500015258789,1171000,121.1500015258789
2017-02-14,125.48999786376953,119.62000274658203,119.94000244140625,123.31999969482422,1869500,123.31999969482422
2017-02-15,122.61000061035156,119.01000213623047,122.38999938964844,120.94000244140625,1608100,120.94000244140625
2017-02-16,122.2300033569336,118.52999877929688,121.38999938964844,120.18000030517578,990700,120.18000030517578
2017-02-17,120.8499984741211,119.16000366210938,120.18000030517578,120.48999786376953,941400,120.48999786376953
2017-02-21,122.66999816894531,119.7699966430664,121.08999633789062,122.36000061035156,1257200,122.36000061035156
2017-02-22,122.9000015258789,121.25,121.69999694824219,121.36000061035156,854100,121.36000061035156
2017-02-23,122.13999938964844,118.79000091552734,121.4000015258789,121.94999694824219,1568100,121.94999694824219
2017-02-24,131.88999938964844,127.55999755859375,128.27000427246094,131.2100067138672,9231000,131.2100067138672
2017-02-27,134.97000122070312,130.24000549316406,131.8800048828125,134.02000427246094,33193000,134.02000427246094
2017-02-28,134.0500030517578,131.24000549316406,133.58999633789062,133.10000610351562,3868700,133.10000610351562
2017-03-01,135.47999572753906,131.91000366210938,133.89999389648438,133.22000122070312,3001100,133.22000122070312
2017-03-02,135.7899932861328,132.1199951171875,134.6999969482422,132.8000030517578,1963800,132.8000030517578
2017-03-03,137.75999450683594,132.64999389648438,133.19000244140625,136.91000366210938,2859800,136.91000366210938
2017-03-06,136.97999572753906,133.13999938964844,136.9499969482422,134.3800048828125,1920700,134.3800048828125
2017-03-07,134.85000610351562,131.47999572753906,133.1300048828125,133.38999938964844,1906600,133.38999938964844
2017-03-08,137.8800048828125,133.05999755859375,133.38999938964844,136.0,2363200,136.0
2017-03-09,138.33999633789062,134.22999572753906,135.42999267578125,138.02000427246094,1781600,138.02000427246094
2017-03-10,150.4199981689453,138.5399932861328,138.80999755859375,149.24000549316406,5114800,149.24000549316406
2017-03-13,151.6300048828125,145.2899932861328,149.24000549316406,151.02999877929688,4159600,151.02999877929688
2017-03-14,151.97999572753906,148.8300018310547,149.99000549316406,150.9600067138672,1697400,150.9600067138672
2017-03-15,153.14999389648438,147.89999389648438,151.35000610351562,152.66000366210938,1977100,152.66000366210938
2017-03-16,151.91000366210938,146.97999572753906,151.69000244140625,148.44000244140625,3684300,148.44000244140625
2017-03-17,149.27000427246094,146.7899932861328,148.00999450683594,147.9600067138672,4268000,147.9600067138672
2017-03-20,148.92999267578125,146.50999450683594,147.61000061035156,148.52000427246094,1745200,148.52000427246094
2017-03-21,149.0,140.47000122070312,148.36000061035156,140.72999572753906,2240500,140.72999572753906
2017-03-22,143.5800018310547,140.00999450683594,141.75,141.27999877929688,3860300,141.27999877929688
2017-03-23,141.27000427246094,138.7100067138672,141.1300048828125,138.97000122070312,1887600,138.97000122070312
2017-03-24,140.57000732421875,138.00999450683594,138.97000122070312,139.63999938964844,1547600,139.63999938964844
2017-03-27,140.36000061035156,137.5399932861328,139.14999389648438,139.88999938964844,1038800,139.88999938964844
2017-03-28,141.33999633789062,138.3800048828125,139.4600067138672,139.47999572753906,1852500,139.47999572753906
2017-03-29,139.9499969482422,138.35000610351562,139.5,139.27999877929688,1355400,139.27999877929688
2017-03-30,140.94000244140625,137.6999969482422,140.10000610351562,137.77000427246094,1109800,137.77000427246094
2017-03-31,138.72999572753906,133.25999450683594,137.8000030517578,133.6699981689453,2554800,133.6699981689453
2017-04-03,141.86000061035156,134.1300048828125,135.0,138.52000427246094,3454800,138.52000427246094
2017-04-04,143.0500030517578,137.80999755859375,138.00999450683594,141.5500030517578,1743500,141.5500030517578
2017-04-05,144.32000732421875,137.50999450683594,141.5500030517578,138.42999267578125,1748700,138.42999267578125
2017-04-06,139.3699951171875,134.22999572753906,137.83999633789062,135.5,1595700,135.5
2017-04-07,140.6300048828125,136.5500030517578,139.47999572753906,140.11000061035156,2206700,140.11000061035156
2017-04-10,141.24000549316406,136.02000427246094,140.17999267578125,136.8800048828125,1651500,136.8800048828125
2017-04-11,137.69000244140625,134.16000366210938,137.11000061035156,136.07000732421875,1296000,136.07000732421875
2017-04-12,141.39999389648438,134.9600067138672,136.47999572753906,138.27000427246094,1584600,138.27000427246094
2017-04-13,142.4499969482422,138.00999450683594,139.66000366210938,140.83999633789062,2186400,140.83999633789062
2017-04-17,127.43000030517578,124.05000305175781,124.97000122070312,126.06999969482422,6916700,126.06999969482422
2017-04-18,128.41000366210938,124.1500015258789,125.11000061035156,125.9000015258789,2593400,125.9000015258789
2017-04-19,126.16999816894531,124.05000305175781,125.9000015258789,124.54000091552734,1937200,124.54000091552734
2017-04-20,125.48999786376953,123.05000305175781,125.27999877929688,123.11000061035156,2035200,123.11000061035156
2017-04-21,125.3499984741211,122.51000213623047,123.5,123.01000213623047,1818900,123.01000213623047
2017-04-24,124.73999786376953,123.5,124.05999755859375,123.91000366210938,1155300,123.91000366210938
2017-04-25,124.91000366210938,124.0199966430664,124.66000366210938,124.38999938964844,1175900,124.38999938964844
2017-04-26,125.47000122070312,122.31999969482422,124.68000030517578,123.08000183105469,1151700,123.08000183105469
2017-04-27,125.36000061035156,122.55000305175781,123.0,124.16999816894531,1038100,124.16999816894531
2017-04-28,124.80000305175781,123.0199966430664,124.26000213623047,124.27999877929688,961800,124.27999877929688
2017-05-01,125.58999633789062,123.20999908447266,124.77999877929688,124.0,1149900,124.0
2017-05-02,124.44000244140625,121.5199966430664,123.9800033569336,123.70999908447266,1343300,123.70999908447266
2017-05-03,124.54000091552734,122.80999755859375,123.43000030517578,123.20999908447266,1474400,123.20999908447266
2017-05-04,127.80000305175781,123.33999633789062,126.2300033569336,125.0,1405000,125.0
2017-05-05,124.80000305175781,120.5,124.13999938964844,122.41000366210938,2010700,122.41000366210938
2017-05-08,121.80000305175781,116.44000244140625,121.72000122070312,117.79000091552734,2582900,117.79000091552734
2017-05-09,119.91999816894531,117.04000091552734,117.47000122070312,119.7300033569336,1204300,119.7300033569336
2017-05-10,119.91999816894531,118.08000183105469,119.66999816894531,118.22000122070312,1227400,118.22000122070312
2017-05-11,118.41000366210938,116.20999908447266,117.87000274658203,116.43000030517578,1358600,116.43000030517578
2017-05-12,117.86000061035156,114.33000183105469,115.98999786376953,115.19000244140625,2732700,115.19000244140625
2017-05-15,117.48999786376953,114.02999877929688,115.0,117.3499984741211,1710300,117.3499984741211
2017-05-16,120.87000274658203,117.0999984741211,117.48999786376953,117.76000213623047,2682000,117.76000213623047
2017-05-17,121.68000030517578,116.08000183105469,116.9800033569336,120.48999786376953,3733600,120.48999786376953
2017-05-18,131.75,125.38999938964844,128.16000366210938,128.8000030517578,5666300,128.8000030517578
2017-05-19,133.8000030517578,129.0,129.02999877929688,131.42999267578125,3856500,131.42999267578125
2017-05-22,134.88999938964844,130.22000122070312,131.1999969482422,134.42999267578125,2031400,134.42999267578125
2017-05-23,136.3000030517578,133.50999450683594,134.1699981689453,136.16000366210938,1199100,136.16000366210938
2017-05-24,138.75,135.00999450683594,136.39999389648438,138.10000610351562,1301400,138.10000610351562
2017-05-25,139.97999572753906,138.2100067138672,138.99000549316406,138.41000366210938,1770500,138.41000366210938
2017-05-26,139.49000549316406,132.64999389648438,138.4600067138672,134.3800048828125,2365700,134.3800048828125
2017-05-30,134.1300048828125,129.64999389648438,133.8000030517578,130.49000549316406,1723200,130.49000549316406
2017-05-31,133.82000732421875,128.82000732421875,131.8000030517578,129.3300018310547,2405900,129.3300018310547
2017-06-01,130.9600067138672,127.8499984741211,130.0,129.27999877929688,1911900,129.27999877929688
2017-06-02,132.07000732421875,128.8699951171875,131.55999755859375,131.5,1422100,131.5
2017-06-05,132.77999877929688,121.2300033569336,132.5,124.02999877929688,3822200,124.02999877929688
2017-06-06,124.27999877929688,121.45999908447266,124.1500015258789,122.2699966430664,2061000,122.2699966430664
2017-06-07,123.36000061035156,118.33999633789062,121.52999877929688,119.1500015258789,2210600,119.1500015258789
2017-06-08,120.23999786376953,116.25,119.87999725341797,119.75,2024100,119.75
2017-06-09,122.20999908447266,118.23999786376953,119.0999984741211,119.04000091552734,1410100,119.04000091552734
2017-06-12,120.22000122070312,115.19999694824219,117.80000305175781,116.44000244140625,1802500,116.44000244140625
2017-06-13,119.08999633789062,115.66000366210938,115.81999969482422,118.5199966430664,1199500,118.5199966430664
2017-06-14,121.5,118.01000213623047,118.58999633789062,120.08999633789062,1533700,120.08999633789062
2017-06-15,120.44999694824219,115.79000091552734,119.0,120.37000274658203,1824000,120.37000274658203
2017-06-16,120.73999786376953,117.05000305175781,120.0,118.05000305175781,3658800,118.05000305175781
2017-06-19,122.63999938964844,118.37999725341797,118.37999725341797,122.27999877929688,1431600,122.27999877929688
2017-06-20,126.79000091552734,122.19000244140625,122.9800033569336,124.58000183105469,2028600,124.58000183105469
2017-06-21,134.4499969482422,124.30000305175781,124.48999786376953,133.99000549316406,2893200,133.99000549316406
2017-06-22,137.2899932861328,134.1999969482422,134.86000061035156,135.6300048828125,1731400,135.6300048828125
2017-06-23,136.86000061035156,133.8300018310547,135.33999633789062,136.27999877929688,1790300,136.27999877929688
2017-06-26,137.3000030517578,133.42999267578125,136.97000122070312,134.6699981689453,1389400,134.6699981689453
2017-06-27,135.22999572753906,130.11000061035156,134.49000549316406,130.30999755859375,1193100,130.30999755859375
2017-06-28,135.27999877929688,129.61000061035156,130.41000366210938,134.3300018310547,1261700,134.3300018310547
2017-06-29,133.5800018310547,127.48999786376953,133.5800018310547,128.77999877929688,1387800,128.77999877929688
2017-06-30,129.8300018310547,125.87000274658203,129.74000549316406,125.91000366210938,1369900,125.91000366210938
2017-07-03,128.0,124.95999908447266,126.19999694824219,125.87000274658203,597000,125.87000274658203
2017-07-05,128.8000030517578,125.43000030517578,126.0,128.33999633789062,1189400,128.33999633789062
2017-07-06,128.83999633789062,124.75,127.05000305175781,127.22000122070312,1256300,127.22000122070312
2017-07-07,131.42999267578125,127.3499984741211,127.58000183105469,130.83999633789062,1030300,130.83999633789062
2017-07-10,130.41000366210938,127.01000213623047,130.41000366210938,129.55999755859375,916000,129.55999755859375
2017-07-11,132.86000061035156,128.60000610351562,128.60000610351562,131.9199981689453,1073000,131.9199981689453
2017-07-12,133.94000244140625,131.3300018310547,133.24000549316406,133.22000122070312,796400,133.22000122070312
2017-07-13,134.4600067138672,131.02999877929688,133.32000732421875,133.4199981689453,725800,133.4199981689453
2017-07-14,135.3000030517578,133.27000427246094,134.05999755859375,134.27000427246094,737500,134.27000427246094
2017-07-17,134.4499969482422,130.0399932861328,133.33999633789062,130.6199951171875,1376700,130.6199951171875
2017-07-18,131.0800018310547,128.72000122070312,130.30999755859375,130.85000610351562,993300,130.85000610351562
2017-07-19,133.22999572753906,129.85000610351562,131.7100067138672,130.4499969482422,1173600,130.4499969482422
2017-07-20,134.39999389648438,129.5399932861328,130.52000427246094,133.7899932861328,1130600,133.7899932861328
2017-07-21,135.42999267578125,133.02000427246094,133.02000427246094,134.22000122070312,756000,134.22000122070312
2017-07-24,138.4499969482422,133.72999572753906,134.24000549316406,138.27000427246094,1207500,138.27000427246094
2017-07-25,136.97000122070312,132.8800048828125,134.1300048828125,133.55999755859375,1826700,133.55999755859375
2017-07-26,137.89999389648438,132.6999969482422,133.52000427246094,137.19000244140625,893600,137.19000244140625
2017-07-27,139.58999633789062,131.82000732421875,138.72999572753906,132.72000122070312,1512300,132.72000122070312
2017-07-28,136.80999755859375,132.17999267578125,132.60000610351562,135.74000549316406,989800,135.74000549316406
2017-07-31,136.41000366210938,132.9199981689453,135.30999755859375,133.2899932861328,1209500,133.2899932861328
2017-08-01,134.94000244140625,127.5,132.9199981689453,128.75999450683594,1472500,128.75999450683594
2017-08-02,128.5500030517578,124.0999984741211,128.5,125.70999908447266,1480200,125.70999908447266
2017-08-03,126.77999877929688,124.29000091552734,125.6500015258789,125.9800033569336,1271200,125.9800033569336
2017-08-04,128.8300018310547,123.8499984741211,125.87999725341797,128.6999969482422,872500,128.6999969482422
2017-08-07,133.11000061035156,128.24000549316406,128.8699951171875,132.0,1038400,132.0
2017-08-08,132.75,130.0800018310547,131.6199951171875,130.6999969482422,650000,130.6999969482422
2017-08-09,131.3300018310547,128.72000122070312,130.2100067138672,130.0800018310547,727700,130.0800018310547
2017-08-10,129.27000427246094,122.01000213623047,129.0399932861328,122.12000274658203,1382600,122.12000274658203
2017-08-11,125.08000183105469,122.2699966430664,122.73999786376953,124.0999984741211,898000,124.0999984741211
2017-08-14,126.87000274658203,124.54000091552734,125.0,126.27999877929688,682500,126.27999877929688
2017-08-15,127.16999816894531,126.04000091552734,126.26000213623047,126.37000274658203,590200,126.37000274658203
2017-08-16,127.43000030517578,122.80999755859375,127.37999725341797,124.33999633789062,1284400,124.33999633789062
2017-08-17,125.36000061035156,121.62999725341797,123.37000274658203,121.73999786376953,1007400,121.73999786376953
2017-08-18,122.47000122070312,121.0,121.5999984741211,121.19000244140625,958500,121.19000244140625
2017-08-21,121.37000274658203,118.69000244140625,121.37000274658203,120.88999938964844,989700,120.88999938964844
2017-08-22,124.0,120.44999694824219,121.0999984741211,123.86000061035156,801000,123.86000061035156
2017-08-23,124.52999877929688,121.83000183105469,123.2300033569336,123.6500015258789,655000,123.6500015258789
2017-08-24,124.41000366210938,122.47000122070312,124.1500015258789,123.81999969482422,703800,123.81999969482422
2017-08-25,124.41000366210938,121.41000366210938,124.37999725341797,121.76000213623047,712100,121.76000213623047
2017-08-28,123.7699966430664,120.0,121.6500015258789,123.54000091552734,1052600,123.54000091552734
2017-08-29,127.62999725341797,122.01000213623047,122.62000274658203,124.97000122070312,1128200,124.97000122070312
2017-08-30,138.32000732421875,125.58999633789062,125.87000274658203,138.27000427246094,2758900,138.27000427246094
2017-08-31,140.11000061035156,131.22000122070312,140.0,137.41000366210938,3812600,137.41000366210938
2017-09-01,139.66000366210938,135.4499969482422,137.39999389648438,138.02999877929688,1321800,138.02999877929688
2017-09-05,138.9199981689453,133.86000061035156,135.27000427246094,135.33999633789062,1143500,135.33999633789062
2017-09-06,137.39999389648438,133.94000244140625,136.55999755859375,135.86000061035156,903300,135.86000061035156
2017-09-07,137.35000610351562,132.27000427246094,135.85000610351562,134.33999633789062,1421700,134.33999633789062
2017-09-08,132.24000549316406,126.0,132.24000549316406,129.4600067138672,3152500,129.4600067138672
2017-09-11,131.92999267578125,124.4800033569336,131.5,124.94999694824219,3308500,124.94999694824219
2017-09-12,125.83000183105469,120.0,125.06999969482422,123.1500015258789,2217800,123.1500015258789
2017-09-13,124.87999725341797,122.02999877929688,123.30999755859375,123.58999633789062,1504200,123.58999633789062
2017-09-14,124.70999908447266,119.54000091552734,124.25,119.76000213623047,1957100,119.76000213623047
2017-09-15,120.9800033569336,117.23999786376953,119.91999816894531,119.1500015258789,2995900,119.1500015258789
2017-09-18,120.97000122070312,117.62999725341797,118.83999633789062,118.4000015258789,1835900,118.4000015258789
2017-09-19,118.76000213623047,116.13999938964844,118.37999725341797,117.08999633789062,1445400,117.08999633789062
2017-09-20,118.61000061035156,114.62999725341797,117.62999725341797,114.87000274658203,2249200,114.87000274658203
2017-09-21,116.23999786376953,112.76000213623047,114.52999877929688,115.05000305175781,1798900,115.05000305175781
2017-09-22,115.4800033569336,110.6500015258789,114.36000061035156,110.8499984741211,2174800,110.8499984741211
2017-09-25,110.81999969482422,107.79000091552734,110.43000030517578,109.69000244140625,3127500,109.69000244140625
2017-09-26,111.08999633789062,108.08000183105469,110.16000366210938,109.1500015258789,1920300,109.1500015258789
2017-09-27,111.11000061035156,108.5199966430664,109.05999755859375,110.30999755859375,1681300,110.30999755859375
2017-09-28,115.3499984741211,109.54000091552734,109.86000061035156,113.13999938964844,2951300,113.13999938964844
2017-09-29,116.9000015258789,113.1500015258789,113.26000213623047,116.73999786376953,2291100,116.73999786376953
2017-10-02,118.31999969482422,113.55999755859375,116.83000183105469,115.19000244140625,1979300,115.19000244140625
2017-10-03,115.51000213623047,112.0,112.80999755859375,112.80000305175781,1627100,112.80000305175781
2017-10-04,114.26000213623047,111.55000305175781,112.41999816894531,113.83000183105469,1338500,113.83000183105469
2017-10-05,114.44000244140625,112.6500015258789,113.58000183105469,113.56999969482422,1134000,113.56999969482422
2017-10-06,116.30999755859375,113.04000091552734,114.01000213623047,114.69999694824219,1453500,114.69999694824219
2017-10-09,115.44999694824219,113.80000305175781,114.58000183105469,113.98999786376953,835100,113.98999786376953
2017-10-10,115.69000244140625,113.69999694824219,114.1500015258789,114.7699966430664,1349900,114.7699966430664
2017-10-11,114.8499984741211,111.51000213623047,114.41000366210938,111.62000274658203,1777700,111.62000274658203
2017-10-12,112.95999908447266,110.8499984741211,111.30000305175781,112.7300033569336,1590800,112.7300033569336
2017-10-13,114.38999938964844,112.69999694824219,113.47000122070312,114.30999755859375,1325200,114.30999755859375
2017-10-16,116.66999816894531,114.30999755859375,114.88999938964844,116.5999984741211,1821400,116.5999984741211
2017-10-17,117.25,115.29000091552734,116.5999984741211,115.63999938964844,1799600,115.63999938964844
2017-10-18,116.94000244140625,114.77999877929688,116.05999755859375,115.13999938964844,1687800,115.13999938964844
2017-10-19,115.48999786376953,113.06999969482422,113.95999908447266,114.2699966430664,1838200,114.2699966430664
2017-10-20,114.38999938964844,112.70999908447266,113.73999786376953,114.19000244140625,1571600,114.19000244140625
2017-10-23,114.94999694824219,113.19999694824219,114.94999694824219,113.4800033569336,1770000,113.4800033569336
2017-10-24,115.20999908447266,112.86000061035156,113.11000061035156,114.04000091552734,1767700,114.04000091552734
2017-10-25,115.41000366210938,112.87999725341797,113.36000061035156,114.55000305175781,1929800,114.55000305175781
2017-10-26,116.05000305175781,112.80999755859375,113.48999786376953,115.55999755859375,1731200,115.55999755859375
2017-10-27,116.36000061035156,114.63999938964844,115.52999877929688,116.2699966430664,1814100,116.2699966430664
2017-10-30,117.3499984741211,113.44000244140625,116.52999877929688,114.23999786376953,2181600,114.23999786376953
2017-10-31,117.94999694824219,111.16999816894531,117.94999694824219,113.25,2170900,113.25
2017-11-01,114.79000091552734,106.36000061035156,113.41999816894531,107.95999908447266,2871700,107.95999908447266
2017-11-02,107.88999938964844,104.05999755859375,107.73999786376953,106.51000213623047,2389300,106.51000213623047
2017-11-03,108.04000091552734,104.16999816894531,106.08000183105469,105.08000183105469,1849700,105.08000183105469
2017-11-06,106.75,103.69000244140625,104.55000305175781,105.43000030517578,1583700,105.43000030517578
2017-11-07,109.8499984741211,106.02999877929688,106.02999877929688,108.13999938964844,1890900,108.13999938964844
2017-11-08,109.41999816894531,104.91000366210938,108.22000122070312,104.9800033569336,1365300,104.9800033569336
2017-11-09,105.30999755859375,101.75,104.36000061035156,102.98999786376953,1523600,102.98999786376953
2017-11-10,105.08999633789062,100.5999984741211,101.95999908447266,104.76000213623047,2972600,104.76000213623047
2017-11-13,107.83000183105469,103.19999694824219,104.30000305175781,107.20999908447266,2022000,107.20999908447266
2017-11-14,107.22000122070312,103.55999755859375,106.30000305175781,105.12000274658203,1968600,105.12000274658203
2017-11-15,105.9800033569336,104.0,105.12999725341797,105.23999786376953,978900,105.23999786376953
2017-11-16,108.25,105.01000213623047,105.48999786376953,106.4800033569336,1180800,106.4800033569336
2017-11-17,107.0999984741211,105.41999816894531,106.05999755859375,105.47000122070312,1034800,105.47000122070312
2017-11-20,106.94999694824219,98.72000122070312,105.29000091552734,98.94999694824219,2526700,98.94999694824219
2017-11-21,99.97000122070312,96.5999984741211,99.36000061035156,98.94999694824219,2894000,98.94999694824219
2017-11-22,100.26000213623047,98.27999877929688,99.08999633789062,99.0,1204400,99.0
2017-11-24,99.47000122070312,98.30999755859375,98.70999908447266,98.77999877929688,482800,98.77999877929688
2017-11-27,99.33000183105469,97.43000030517578,98.93000030517578,97.86000061035156,1390400,97.86000061035156
2017-11-28,98.23999786376953,94.77999877929688,98.08000183105469,95.83000183105469,1884200,95.83000183105469
2017-11-29,97.30999755859375,95.05999755859375,96.58000183105469,95.95999908447266,1401700,95.95999908447266
2017-11-30,100.30000305175781,96.19999694824219,96.43000030517578,98.98999786376953,1775800,98.98999786376953
2017-12-01,99.63999938964844,96.08000183105469,98.01000213623047,97.94000244140625,1350300,97.94000244140625
2017-12-04,99.70999908447266,93.6500015258789,98.69000244140625,93.68000030517578,1722600,93.68000030517578
2017-12-05,97.19999694824219,93.48999786376953,94.11000061035156,93.70999908447266,1430700,93.70999908447266
2017-12-06,94.5999984741211,92.91000366210938,94.06999969482422,93.79000091552734,1273100,93.79000091552734
2017-12-07,96.5,93.25,93.93000030517578,94.83000183105469,1199100,94.83000183105469
2017-12-08,97.91000366210938,95.26000213623047,95.26000213623047,96.58000183105469,1339600,96.58000183105469
2017-12-11,97.58000183105469,96.11000061035156,96.25,97.25,1363800,97.25
2017-12-12,96.9800033569336,94.8499984741211,96.94999694824219,95.4000015258789,1548600,95.4000015258789
2017-12-13,99.5199966430664,95.16000366210938,95.5999984741211,98.0999984741211,1323300,98.0999984741211
2017-12-14,99.5,95.86000061035156,98.81999969482422,95.97000122070312,1304000,95.97000122070312
2017-12-15,97.41000366210938,94.44999694824219,97.41000366210938,96.41000366210938,3296300,96.41000366210938
2017-12-18,96.93000030517578,93.31999969482422,96.91999816894531,93.55999755859375,1557700,93.55999755859375
2017-12-19,95.25,93.25,93.80999755859375,95.0199966430664,1524700,95.0199966430664
2017-12-20,95.94999694824219,93.5199966430664,95.38999938964844,94.02999877929688,1414700,94.02999877929688
2017-12-21,97.19000244140625,93.80999755859375,94.48999786376953,96.36000061035156,1028800,96.36000061035156
2017-12-22,96.22000122070312,94.72000122070312,96.05999755859375,95.80999755859375,941300,95.80999755859375
2017-12-26,96.12000274658203,95.16000366210938,95.55999755859375,95.4000015258789,502600,95.4000015258789
2017-12-27,96.94999694824219,95.3499984741211,95.62000274658203,96.51000213623047,832500,96.51000213623047
2017-12-28,96.94999694824219,94.4000015258789,96.44000244140625,95.37999725341797,1139900,95.37999725341797
2017-12-29,96.1500015258789,94.69999694824219,95.54000091552734,94.70999908447266,1236900,94.70999908447266
2018-01-02,101.6500015258789,95.27999877929688,97.36000061035156,100.88999938964844,1830100,100.88999938964844
2018-01-03,102.62999725341797,100.70999908447266,101.75,100.9800033569336,1458500,100.9800033569336
2018-01-04,101.97000122070312,97.5999984741211,101.86000061035156,98.44000244140625,1445300,98.44000244140625
2018-01-05,100.6500015258789,98.5,99.0199966430664,99.8499984741211,1422600,99.8499984741211
2018-01-08,101.0199966430664,98.29000091552734,99.4000015258789,100.80999755859375,1531400,100.80999755859375
2018-01-09,101.9000015258789,96.16000366210938,101.38999938964844,96.29000091552734,2639900,96.29000091552734
2018-01-10,97.23999786376953,94.37000274658203,96.12000274658203,96.62000274658203,1347900,96.62000274658203
2018-01-11,96.61000061035156,92.5199966430664,96.44999694824219,93.05999755859375,3251200,93.05999755859375
2018-01-12,94.48999786376953,92.91000366210938,93.68000030517578,94.06999969482422,1572400,94.06999969482422
2018-01-16,95.22000122070312,91.2300033569336,94.06999969482422,91.6500015258789,2323800,91.6500015258789
2018-01-17,92.0,88.80999755859375,92.0,90.30999755859375,2644800,90.30999755859375
2018-01-18,93.51000213623047,89.9800033569336,90.0999984741211,91.91999816894531,2105000,91.91999816894531
2018-01-19,93.58000183105469,91.55000305175781,92.2300033569336,93.16000366210938,1927500,93.16000366210938
2018-01-22,95.33000183105469,92.6500015258789,93.37999725341797,94.08000183105469,2645200,94.08000183105469
2018-01-23,95.16000366210938,93.87999725341797,94.0999984741211,94.62999725341797,1414500,94.62999725341797
2018-01-24,96.44000244140625,94.33000183105469,94.75,95.33999633789062,1524100,95.33999633789062
2018-01-25,95.77999877929688,93.66000366210938,95.41000366210938,94.26000213623047,1228500,94.26000213623047
2018-01-26,95.69000244140625,94.05999755859375,94.7300033569336,95.51000213623047,1302800,95.51000213623047
2018-01-29,95.94000244140625,93.2699966430664,95.9000015258789,93.54000091552734,1350100,93.54000091552734
2018-01-30,93.37000274658203,91.66000366210938,92.93000030517578,92.5,1373400,92.5
2018-01-31,92.76000213623047,89.7699966430664,92.61000061035156,90.29000091552734,1404600,90.29000091552734
2018-02-01,91.2699966430664,89.2699966430664,90.5199966430664,89.66999816894531,1349000,89.66999816894531
2018-02-02,89.44999694824219,85.75,89.11000061035156,85.91999816894531,2394500,85.91999816894531
2018-02-05,87.9000015258789,85.30999755859375,86.08999633789062,85.33999633789062,2369500,85.33999633789062
2018-02-06,88.33000183105469,84.20999908447266,85.05999755859375,88.11000061035156,2288900,88.11000061035156
2018-02-07,88.05000305175781,86.08999633789062,87.25,86.33999633789062,1254600,86.33999633789062
2018-02-08,87.2300033569336,83.87999725341797,86.4000015258789,83.91999816894531,1930400,83.91999816894531
2018-02-09,85.38999938964844,80.8499984741211,84.44999694824219,84.5,2399200,84.5
2018-02-12,88.36000061035156,84.98999786376953,84.98999786376953,87.5199966430664,1745100,87.5199966430664
2018-02-13,88.83999633789062,85.88999938964844,87.25,88.02999877929688,1661900,88.02999877929688
2018-02-14,89.12000274658203,86.20999908447266,87.30999755859375,88.16999816894531,2243800,88.16999816894531
2018-02-15,88.58999633789062,83.75,87.9000015258789,85.58999633789062,2489000,85.58999633789062
2018-02-16,88.2300033569336,84.51000213623047,85.55000305175781,86.02999877929688,2473900,86.02999877929688
2018-02-20,87.55999755859375,84.58000183105469,85.5999984741211,85.51000213623047,1357400,85.51000213623047
2018-02-21,86.98999786376953,84.66000366210938,85.36000061035156,84.70999908447266,1366600,84.70999908447266
2018-02-22,87.54000091552734,85.0199966430664,85.13999938964844,85.19000244140625,1315700,85.19000244140625
2018-02-23,88.0199966430664,84.87999725341797,85.43000030517578,87.80000305175781,1460400,87.80000305175781
2018-02-26,91.27999877929688,87.12000274658203,88.5,87.52999877929688,1004400,87.52999877929688
2018-02-27,88.73999786376953,86.38999938964844,87.68000030517578,86.56999969482422,1012600,86.56999969482422
2018-02-28,87.11000061035156,85.13999938964844,86.55000305175781,85.16000366210938,1345000,85.16000366210938
2018-03-01,85.0,81.25,84.87999725341797,83.08999633789062,2434200,83.08999633789062
2018-03-02,86.88999938964844,82.05000305175781,82.30000305175781,86.61000061035156,1273500,86.61000061035156
2018-03-05,91.2300033569336,85.3499984741211,86.16000366210938,90.97000122070312,1883200,90.97000122070312
2018-03-06,92.69999694824219,89.86000061035156,91.20999908447266,91.08999633789062,1657300,91.08999633789062
2018-03-07,92.19000244140625,90.52999877929688,90.52999877929688,91.69999694824219,1409900,91.69999694824219
2018-03-08,92.73999786376953,90.8499984741211,91.80999755859375,92.41999816894531,1253400,92.41999816894531
2018-03-09,94.79000091552734,92.86000061035156,93.0199966430664,94.2300033569336,1577900,94.2300033569336
2018-03-12,95.16000366210938,93.69999694824219,94.55000305175781,94.44999694824219,1428000,94.44999694824219
2018-03-13,95.63999938964844,93.47000122070312,94.56999969482422,94.62999725341797,1759800,94.62999725341797
2018-03-14,96.33000183105469,92.0,95.4000015258789,92.26000213623047,2648700,92.26000213623047
2018-03-15,93.25,87.94999694824219,92.29000091552734,88.69000244140625,1734500,88.69000244140625
2018-03-16,90.55999755859375,87.36000061035156,89.19999694824219,90.02999877929688,1977800,90.02999877929688
2018-03-19,89.70999908447266,85.12999725341797,89.5,86.2699966430664,1686600,86.2699966430664
2018-03-20,87.33999633789062,85.87000274658203,86.5,87.01000213623047,1487600,87.01000213623047
2018-03-21,89.75,87.05999755859375,87.44999694824219,88.79000091552734,1232500,88.79000091552734
2018-03-22,88.5,85.18000030517578,87.63999938964844,85.25,2011000,85.25
2018-03-23,85.3499984741211,82.7699966430664,85.0,83.05999755859375,1246400,83.05999755859375
2018-03-26,86.47000122070312,82.77999877929688,84.5,86.37000274658203,1137700,86.37000274658203
2018-03-27,88.66000366210938,84.56999969482422,86.93000030517578,85.02999877929688,1646800,85.02999877929688
2018-03-28,87.88999938964844,84.33000183105469,86.05000305175781,84.95999908447266,1685400,84.95999908447266
2018-03-29,85.68000030517578,83.30999755859375,85.05999755859375,83.33000183105469,1592500,83.33000183105469
2018-04-02,83.37999725341797,79.38999938964844,82.80999755859375,80.55999755859375,1736700,80.55999755859375
2018-04-03,82.45999908447266,79.2699966430664,81.0,81.88999938964844,1073300,81.88999938964844
2018-04-04,84.4000015258789,80.30999755859375,80.83999633789062,83.9800033569336,1184200,83.9800033569336
2018-04-05,84.80000305175781,82.54000091552734,84.80000305175781,83.06999969482422,1216500,83.06999969482422
2018-04-06,69.48999786376953,63.43000030517578,65.98999786376953,64.0199966430664,26083800,64.0199966430664
2018-04-09,67.2300033569336,61.29999923706055,64.56999969482422,65.36000061035156,7900000,65.36000061035156
2018-04-10,68.66000366210938,65.4000015258789,66.20999908447266,68.12000274658203,2882700,68.12000274658203
2018-04-11,69.11000061035156,65.75,67.51000213623047,66.29000091552734,2204500,66.29000091552734
2018-04-12,70.58000183105469,67.05000305175781,67.41000366210938,69.83000183105469,4386100,69.83000183105469
2018-04-13,70.62000274658203,68.88999938964844,70.31999969482422,70.12000274658203,2260200,70.12000274658203
2018-04-16,71.25,68.76000213623047,70.48999786376953,70.37000274658203,2217000,70.37000274658203
2018-04-17,71.08000183105469,70.05999755859375,70.68000030517578,70.5199966430664,1718200,70.5199966430664
2018-04-18,71.18000030517578,69.93000030517578,70.47000122070312,70.06999969482422,1714300,70.06999969482422
2018-04-19,70.37999725341797,67.01000213623047,67.72000122070312,69.05000305175781,3672500,69.05000305175781
2018-04-20,69.41000366210938,67.75,69.29000091552734,68.43000030517578,3355100,68.43000030517578
2018-04-23,69.91000366210938,67.69999694824219,68.83000183105469,68.13999938964844,2620400,68.13999938964844
2018-04-24,66.26000213623047,62.06999969482422,65.66000366210938,62.349998474121094,7408500,62.349998474121094
2018-04-25,63.93000030517578,62.349998474121094,62.61000061035156,62.9900016784668,3689800,62.9900016784668
2018-04-26,63.470001220703125,61.61000061035156,63.470001220703125,62.61000061035156,3066200,62.61000061035156
2018-04-27,63.619998931884766,62.45000076293945,62.83000183105469,62.959999084472656,2889900,62.959999084472656
2018-04-30,63.13999938964844,61.5,62.9900016784668,61.939998626708984,2863900,61.939998626708984
2018-05-01,62.93000030517578,60.630001068115234,62.0,60.849998474121094,2842100,60.849998474121094
2018-05-02,62.209999084472656,60.900001525878906,60.939998626708984,61.04999923706055,3522900,61.04999923706055
2018-05-03,62.43000030517578,60.22999954223633,60.88999938964844,62.38999938964844,2674900,62.38999938964844
2018-05-04,63.869998931884766,61.75,62.29999923706055,62.130001068115234,2721100,62.130001068115234
2018-05-07,63.849998474121094,61.939998626708984,62.380001068115234,62.869998931884766,2739800,62.869998931884766
2018-05-08,63.5,62.27000045776367,62.540000915527344,62.869998931884766,1698900,62.869998931884766
2018-05-09,64.4800033569336,62.65999984741211,62.779998779296875,64.3499984741211,2320900,64.3499984741211
2018-05-10,65.76000213623047,64.52999877929688,64.55000305175781,65.2699966430664,3171800,65.2699966430664
2018-05-11,66.91000366210938,64.61000061035156,65.38999938964844,66.44999694824219,2474200,66.44999694824219
2018-05-14,67.8499984741211,65.80999755859375,66.43000030517578,67.22000122070312,2314800,67.22000122070312
2018-05-15,67.83999633789062,66.25,66.72000122070312,67.2300033569336,1883900,67.2300033569336
2018-05-16,67.5999984741211,65.7300033569336,67.12000274658203,67.0199966430664,2118200,67.0199966430664
2018-05-17,67.5199966430664,65.0999984741211,65.26000213623047,66.63999938964844,1747700,66.63999938964844
2018-05-18,68.12999725341797,66.5,66.7699966430664,67.83000183105469,1768600,67.83000183105469
2018-05-21,68.23999786376953,66.55999755859375,68.19999694824219,66.79000091552734,1247900,66.79000091552734
2018-05-22,67.5199966430664,66.37999725341797,67.13999938964844,66.55999755859375,1068600,66.55999755859375
2018-05-23,66.9800033569336,66.0,66.05999755859375,66.56999969482422,839800,66.56999969482422
2018-05-24,66.86000061035156,65.55000305175781,66.70999908447266,66.66999816894531,1202100,66.66999816894531
2018-05-25,69.18000030517578,66.83000183105469,66.94999694824219,68.43000030517578,1373000,68.43000030517578
2018-05-29,68.12000274658203,66.3499984741211,67.8499984741211,67.05999755859375,1310500,67.05999755859375
2018-05-30,68.18000030517578,66.7699966430664,67.37999725341797,67.87000274658203,1586700,67.87000274658203
2018-05-31,68.83000183105469,67.36000061035156,68.20999908447266,68.2699966430664,1407900,68.2699966430664
2018-06-01,69.61000061035156,66.5,68.52999877929688,67.91000366210938,2121000,67.91000366210938
2018-06-04,68.44999694824219,66.94999694824219,67.88999938964844,68.04000091552734,1278600,68.04000091552734
2018-06-05,68.5999984741211,67.25,68.06999969482422,68.41000366210938,1297200,68.41000366210938
2018-06-06,69.05000305175781,67.91000366210938,68.5999984741211,68.55000305175781,1209500,68.55000305175781
2018-06-07,70.19999694824219,68.2699966430664,69.04000091552734,69.0199966430664,1918600,69.0199966430664
2018-06-08,71.41000366210938,68.83000183105469,69.0999984741211,70.01000213623047,1592900,70.01000213623047
2018-06-11,71.8499984741211,69.33999633789062,71.2699966430664,69.36000061035156,1488500,69.36000061035156
2018-06-12,71.41000366210938,69.23999786376953,69.23999786376953,70.58000183105469,1104200,70.58000183105469
2018-06-13,71.94999694824219,70.12999725341797,70.91000366210938,70.54000091552734,1244900,70.54000091552734
2018-06-14,74.33000183105469,70.7699966430664,70.87000274658203,73.63999938964844,2876900,73.63999938964844
2018-06-15,74.63999938964844,71.8499984741211,74.04000091552734,73.95999908447266,3454500,73.95999908447266
2018-06-18,73.54000091552734,71.12999725341797,73.02999877929688,72.0199966430664,3055500,72.0199966430664
2018-06-19,73.3499984741211,71.27999877929688,71.61000061035156,72.9800033569336,2923600,72.9800033569336
2018-06-20,74.30000305175781,72.77999877929688,73.37999725341797,73.43000030517578,1914700,73.43000030517578
2018-06-21,75.1500015258789,72.31999969482422,74.18000030517578,72.48999786376953,2367500,72.48999786376953
2018-06-22,74.4000015258789,72.33000183105469,73.0,74.02999877929688,1980200,74.02999877929688
2018-06-25,73.55999755859375,71.16000366210938,73.1500015258789,71.7300033569336,1821400,71.7300033569336
2018-06-26,71.47000122070312,66.0999984741211,71.12000274658203,66.7300033569336,4109500,66.7300033569336
2018-06-27,67.05999755859375,65.41999816894531,66.52999877929688,65.45999908447266,1663900,65.45999908447266
2018-06-28,66.2699966430664,63.5099983215332,65.19000244140625,65.76000213623047,2389700,65.76000213623047
2018-06-29,68.27999877929688,65.54000091552734,65.68000030517578,67.0,1623800,67.0
2018-07-02,69.05000305175781,66.27999877929688,66.81999969482422,68.62000274658203,1554500,68.62000274658203
2018-07-03,69.0999984741211,67.81999969482422,68.61000061035156,68.27999877929688,858500,68.27999877929688
2018-07-05,69.63999938964844,68.0199966430664,68.80000305175781,69.29000091552734,720700,69.29000091552734
2018-07-06,71.37999725341797,69.76000213623047,69.80000305175781,70.83000183105469,1501500,70.83000183105469
2018-07-09,72.37000274658203,70.19000244140625,71.33999633789062,71.62000274658203,2813100,71.62000274658203
2018-07-10,71.94000244140625,70.08999633789062,71.94000244140625,70.18000030517578,1378100,70.18000030517578
2018-07-11,70.54000091552734,69.1500015258789,69.8499984741211,70.27999877929688,1418700,70.27999877929688
2018-07-12,71.55999755859375,70.0999984741211,70.52999877929688,71.13999938964844,1503900,71.13999938964844
2018-07-13,70.98999786376953,68.54000091552734,69.37999725341797,70.19000244140625,1176300,70.19000244140625
2018-07-16,70.94999694824219,69.7300033569336,69.93000030517578,70.11000061035156,1139400,70.11000061035156
2018-07-17,71.16999816894531,69.69999694824219,70.02999877929688,70.2300033569336,2257600,70.2300033569336
2018-07-18,70.66999816894531,69.55999755859375,70.33000183105469,70.37000274658203,1316900,70.37000274658203
2018-07-19,70.66999816894531,69.18000030517578,70.37999725341797,70.11000061035156,1321200,70.11000061035156
2018-07-20,70.11000061035156,69.0199966430664,70.11000061035156,69.19999694824219,1040400,69.19999694824219
2018-07-23,69.2699966430664,68.2300033569336,69.2699966430664,68.95999908447266,1090500,68.95999908447266
2018-07-24,71.11000061035156,68.58000183105469,69.20999908447266,68.98999786376953,1359600,68.98999786376953
2018-07-25,70.43000030517578,69.01000213623047,69.01000213623047,70.0999984741211,1148400,70.0999984741211
2018-07-26,70.5,69.1500015258789,70.2699966430664,69.91000366210938,1109100,69.91000366210938
2018-07-27,69.83999633789062,68.22000122070312,69.83999633789062,68.63999938964844,1268400,68.63999938964844
2018-07-30,69.75,67.61000061035156,68.5199966430664,68.58000183105469,1640600,68.58000183105469
2018-07-31,70.44000244140625,65.25,69.33999633789062,66.54000091552734,2572100,66.54000091552734
2018-08-01,66.54000091552734,64.93000030517578,65.37999725341797,65.58999633789062,2055300,65.58999633789062
2018-08-02,65.30999755859375,64.16000366210938,65.30999755859375,64.44999694824219,2430300,64.44999694824219
2018-08-03,64.5999984741211,62.5,64.58999633789062,63.040000915527344,2115300,63.040000915527344
2018-08-06,63.279998779296875,61.45000076293945,63.040000915527344,61.75,2208800,61.75
2018-08-07,63.11000061035156,61.939998626708984,61.939998626708984,63.0099983215332,2091500,63.0099983215332
2018-08-08,64.80000305175781,62.650001525878906,63.16999816894531,63.61000061035156,2667000,63.61000061035156
2018-08-09,64.69999694824219,62.619998931884766,63.470001220703125,64.37999725341797,1608300,64.37999725341797
2018-08-10,65.45999908447266,63.880001068115234,63.880001068115234,64.44000244140625,1022700,64.44000244140625
2018-08-13,65.48999786376953,63.25,64.30000305175781,64.87000274658203,1336500,64.87000274658203
2018-08-14,66.58000183105469,65.0,65.01000213623047,66.44999694824219,1413300,66.44999694824219
2018-08-15,68.33999633789062,66.44000244140625,67.5199966430664,66.87000274658203,1896300,66.87000274658203
2018-08-16,68.20999908447266,66.44000244140625,67.0199966430664,67.8499984741211,1152800,67.8499984741211
2018-08-17,69.4000015258789,67.0199966430664,67.55000305175781,68.80000305175781,1233800,68.80000305175781
2018-08-20,69.33000183105469,68.30999755859375,69.27999877929688,69.05000305175781,1433300,69.05000305175781
2018-08-21,70.43000030517578,68.80999755859375,68.95999908447266,69.62000274658203,1738600,69.62000274658203
2018-08-22,70.01000213623047,68.93000030517578,69.33999633789062,69.4800033569336,810800,69.4800033569336
2018-08-23,69.62000274658203,68.30000305175781,69.30000305175781,69.18000030517578,1871500,69.18000030517578
2018-08-24,70.80999755859375,69.27999877929688,69.4000015258789,70.08000183105469,1936200,70.08000183105469
2018-08-27,73.36000061035156,70.4000015258789,70.5,72.36000061035156,1831200,72.36000061035156
2018-08-28,74.44999694824219,72.25,72.26000213623047,73.8499984741211,1478400,73.8499984741211
2018-08-29,74.37999725341797,73.3499984741211,73.87000274658203,74.08000183105469,1438100,74.08000183105469
2018-08-30,74.6500015258789,71.77999877929688,73.95999908447266,73.6500015258789,671900,73.6500015258789
2018-08-31,74.69000244140625,73.47000122070312,73.73999786376953,73.91000366210938,905100,73.91000366210938
2018-09-04,73.9000015258789,72.36000061035156,73.44000244140625,73.83999633789062,1014900,73.83999633789062
2018-09-05,74.80999755859375,73.55999755859375,73.55999755859375,74.2300033569336,887700,74.2300033569336
2018-09-06,74.61000061035156,71.44000244140625,74.30000305175781,72.20999908447266,1233400,72.20999908447266
2018-09-07,71.69999694824219,68.86000061035156,71.62999725341797,69.16999816894531,1708200,69.16999816894531
2018-09-10,69.56999969482422,67.77999877929688,69.56999969482422,68.4000015258789,1294400,68.4000015258789
2018-09-11,69.13999938964844,66.3499984741211,68.0999984741211,66.81999969482422,2375000,66.81999969482422
2018-09-12,66.95999908447266,65.47000122070312,66.86000061035156,66.51000213623047,1363900,66.51000213623047
2018-09-13,67.66999816894531,66.08000183105469,67.02999877929688,67.4800033569336,1205000,67.4800033569336
2018-09-14,68.52999877929688,67.19000244140625,67.6500015258789,68.08999633789062,957900,68.08999633789062
2018-09-17,68.4000015258789,66.47000122070312,68.08999633789062,67.0199966430664,1141400,67.0199966430664
2018-09-18,67.9800033569336,66.58999633789062,66.8499984741211,67.81999969482422,760100,67.81999969482422
2018-09-19,68.95999908447266,67.19999694824219,67.79000091552734,67.25,918700,67.25
2018-09-20,68.61000061035156,67.26000213623047,67.36000061035156,68.27999877929688,1150400,68.27999877929688
2018-09-21,68.86000061035156,66.41999816894531,68.37000274658203,66.58999633789062,1992800,66.58999633789062
2018-09-24,66.87000274658203,65.63999938964844,66.5199966430664,66.4800033569336,1093700,66.4800033569336
2018-09-25,66.83000183105469,65.6500015258789,66.70999908447266,65.86000061035156,1067200,65.86000061035156
2018-09-26,69.33999633789062,66.02999877929688,66.02999877929688,67.41999816894531,1841900,67.41999816894531
2018-09-27,69.43000030517578,67.0,67.55000305175781,69.04000091552734,971700,69.04000091552734
2018-09-28,69.93000030517578,68.55999755859375,68.80999755859375,69.08000183105469,1312900,69.08000183105469
2018-10-01,69.9000015258789,68.30000305175781,69.47000122070312,68.81999969482422,900400,68.81999969482422
2018-10-02,69.9000015258789,68.56999969482422,68.86000061035156,69.8499984741211,1065200,69.8499984741211
2018-10-03,70.58000183105469,69.55000305175781,70.0,69.94000244140625,874000,69.94000244140625
2018-10-04,69.76000213623047,65.70999908447266,69.76000213623047,66.19000244140625,1378000,66.19000244140625
2018-10-05,66.98999786376953,63.790000915527344,66.2699966430664,65.08000183105469,1302400,65.08000183105469
2018-10-08,65.01000213623047,62.83000183105469,64.61000061035156,64.16999816894531,1396600,64.16999816894531
2018-10-09,65.97000122070312,63.720001220703125,64.18000030517578,65.5,887600,65.5
2018-10-10,66.2699966430664,63.779998779296875,65.5,63.849998474121094,1477800,63.849998474121094
2018-10-11,64.97000122070312,61.06999969482422,64.08000183105469,61.75,2194900,61.75
2018-10-12,63.0,60.900001525878906,62.689998626708984,62.560001373291016,1689900,62.560001373291016
2018-10-15,63.0,61.5099983215332,62.16999816894531,62.029998779296875,1151800,62.029998779296875
2018-10-16,65.12000274658203,62.27000045776367,62.470001220703125,64.91000366210938,1483200,64.91000366210938
2018-10-17,65.5,64.0999984741211,64.91000366210938,65.04000091552734,2128300,65.04000091552734
2018-10-18,65.48999786376953,63.4900016784668,65.3499984741211,64.44000244140625,1163200,64.44000244140625
2018-10-19,67.0199966430664,63.75,64.48999786376953,66.05999755859375,1635800,66.05999755859375
2018-10-22,67.55000305175781,64.75,67.06999969482422,65.18000030517578,1055800,65.18000030517578
2018-10-23,65.87000274658203,62.709999084472656,64.33999633789062,65.04000091552734,1176000,65.04000091552734
2018-10-24,64.97000122070312,60.709999084472656,64.88999938964844,60.91999816894531,2541000,60.91999816894531
2018-10-25,64.55999755859375,60.68000030517578,61.470001220703125,64.29000091552734,1884100,64.29000091552734
2018-10-26,65.55000305175781,61.45000076293945,62.13999938964844,63.95000076293945,1625500,63.95000076293945
2018-10-29,66.69999694824219,61.810001373291016,65.08000183105469,63.31999969482422,1609900,63.31999969482422
2018-10-30,63.0,58.33000183105469,61.40999984741211,61.029998779296875,5709800,61.029998779296875
2018-10-31,65.7699966430664,61.2599983215332,61.65999984741211,64.81999969482422,2474400,64.81999969482422
2018-11-01,69.2699966430664,62.33000183105469,65.05000305175781,68.43000030517578,1776700,68.43000030517578
2018-11-02,69.80999755859375,65.88999938964844,68.94999694824219,67.41000366210938,1577700,67.41000366210938
2018-11-05,69.19000244140625,66.37999725341797,67.7300033569336,68.97000122070312,1184200,68.97000122070312
2018-11-06,69.8499984741211,68.05000305175781,69.0999984741211,68.52999877929688,1154400,68.52999877929688
2018-11-07,70.0,68.05000305175781,69.2699966430664,69.02999877929688,1606400,69.02999877929688
2018-11-08,69.72000122070312,67.95999908447266,68.98999786376953,68.66999816894531,1138400,68.66999816894531
2018-11-09,68.5,64.93000030517578,68.38999938964844,66.02999877929688,1326000,66.02999877929688
2018-11-12,66.19000244140625,62.5099983215332,66.0999984741211,62.86000061035156,2228600,62.86000061035156
2018-11-13,65.30000305175781,62.79999923706055,62.970001220703125,63.72999954223633,1524900,63.72999954223633
2018-11-14,64.77999877929688,62.849998474121094,64.16999816894531,64.1500015258789,2388700,64.1500015258789
2018-11-15,65.06999969482422,61.52000045776367,62.81999969482422,65.02999877929688,1305800,65.02999877929688
2018-11-16,66.91000366210938,64.33000183105469,64.86000061035156,66.51000213623047,1172300,66.51000213623047
2018-11-19,66.8499984741211,63.529998779296875,66.31999969482422,64.25,1684600,64.25
2018-11-20,64.77999877929688,62.63999938964844,63.5099983215332,63.59000015258789,1264600,63.59000015258789
2018-11-21,64.66000366210938,63.099998474121094,63.939998626708984,64.06999969482422,976500,64.06999969482422
2018-11-23,66.30000305175781,63.29999923706055,63.619998931884766,64.66999816894531,688300,64.66999816894531
2018-11-26,67.52999877929688,65.01000213623047,65.5,67.37999725341797,1170600,67.37999725341797
2018-11-27,68.13999938964844,65.73999786376953,66.80000305175781,67.19000244140625,1284400,67.19000244140625
2018-11-28,67.27999877929688,65.18000030517578,67.11000061035156,65.76000213623047,1906600,65.76000213623047
2018-11-29,66.25,64.70999908447266,65.22000122070312,64.79000091552734,1469100,64.79000091552734
2018-11-30,65.5,63.54999923706055,64.83999633789062,64.25,2849200,64.25
2018-12-03,68.93000030517578,65.25,65.25,68.31999969482422,2691300,68.31999969482422
2018-12-04,68.72000122070312,65.37999725341797,68.06999969482422,65.5199966430664,1963200,65.5199966430664
2018-12-06,65.45999908447266,63.220001220703125,64.72000122070312,65.0999984741211,1565500,65.0999984741211
2018-12-07,66.87999725341797,63.93000030517578,64.69999694824219,64.51000213623047,1258200,64.51000213623047
2018-12-10,65.80000305175781,63.540000915527344,64.7300033569336,65.41999816894531,1192600,65.41999816894531
2018-12-11,66.4800033569336,64.86000061035156,66.30000305175781,65.5999984741211,901800,65.5999984741211
2018-12-12,68.5999984741211,66.6500015258789,66.6500015258789,67.66999816894531,1093200,67.66999816894531
2018-12-13,68.87000274658203,67.05000305175781,67.95999908447266,67.29000091552734,1182100,67.29000091552734
2018-12-14,67.63999938964844,65.66000366210938,66.61000061035156,66.25,1184900,66.25
2018-12-17,66.9000015258789,64.20999908447266,65.75,64.81999969482422,1394500,64.81999969482422
2018-12-18,66.86000061035156,63.5,66.69000244140625,64.26000213623047,1707700,64.26000213623047
2018-12-19,65.4800033569336,61.88999938964844,64.04000091552734,62.75,1753800,62.75
2018-12-20,63.380001068115234,60.630001068115234,62.43000030517578,61.72999954223633,1733400,61.72999954223633
2018-12-21,63.33000183105469,58.349998474121094,62.02000045776367,58.66999816894531,3337600,58.66999816894531
2018-12-24,60.119998931884766,57.0,58.25,58.5,1000700,58.5
2018-12-26,62.04999923706055,58.459999084472656,58.880001068115234,62.02000045776367,1388500,62.02000045776367
2018-12-27,62.369998931884766,60.0,61.400001525878906,62.34000015258789,1173000,62.34000015258789
2018-12-28,63.81999969482422,61.709999084472656,62.7400016784668,62.279998779296875,1027600,62.279998779296875
2018-12-31,64.54000091552734,62.65999984741211,62.79999923706055,63.59000015258789,1074800,63.59000015258789
