Date,High,Low,Open,Close,Volume,Adj Close
2016-01-04,87.69000244140625,85.95999908447266,86.4000015258789,87.6500015258789,1327100.0,81.8328628540039
2016-01-05,89.25,87.20999908447266,87.87999725341797,88.16999816894531,1175500.0,82.318359375
2016-01-06,88.58000183105469,86.9800033569336,87.25,87.37000274658203,1971200.0,81.57146453857422
2016-01-07,87.62000274658203,85.5199966430664,85.8499984741211,86.23999786376953,2098300.0,80.51644134521484
2016-01-08,87.72000122070312,85.80000305175781,86.5,85.83999633789062,2067100.0,80.14299011230469
2016-01-11,87.45999908447266,85.38999938964844,86.5999984741211,86.94000244140625,1262700.0,81.17000579833984
2016-01-12,89.16999816894531,86.45999908447266,87.31999969482422,88.91000366210938,1948300.0,83.00924682617188
2016-01-13,89.3499984741211,85.25,88.87999725341797,85.4000015258789,1444400.0,79.732177734375
2016-01-14,85.54000091552734,84.25,85.52999877929688,84.48999786376953,1532800.0,78.88258361816406
2016-01-15,84.33999633789062,82.25,82.72000122070312,84.25,1660300.0,78.65852355957031
2016-01-19,85.45999908447266,83.19999694824219,84.98999786376953,84.33999633789062,1170000.0,78.74254608154297
2016-01-20,84.13999938964844,81.56999969482422,83.2699966430664,83.58000183105469,1272000.0,78.03299713134766
2016-01-21,84.55999755859375,82.43000030517578,83.69000244140625,82.8499984741211,1081300.0,77.3514404296875
2016-01-22,84.12000274658203,82.69999694824219,84.01000213623047,84.05999755859375,2094600.0,78.48112487792969
2016-01-25,84.76000213623047,83.41000366210938,83.9000015258789,84.12999725341797,1610400.0,78.54649353027344
2016-01-26,85.72000122070312,84.16999816894531,84.29000091552734,85.62000274658203,985700.0,79.93759155273438
2016-01-27,87.0199966430664,84.55999755859375,85.2300033569336,84.83999633789062,1186700.0,79.2093505859375
2016-01-28,85.48999786376953,83.94999694824219,85.04000091552734,84.79000091552734,890300.0,79.16268157958984
2016-01-29,87.11000061035156,84.97000122070312,85.27999877929688,86.97000122070312,1338800.0,81.19800567626953
2016-02-01,87.13999938964844,85.77999877929688,86.08000183105469,86.72000122070312,1395100.0,80.96460723876953
2016-02-02,84.08999633789062,77.02999877929688,84.01000213623047,78.23999786376953,6299600.0,73.0473861694336
2016-02-03,78.86000061035156,77.25,77.52999877929688,77.88999938964844,3180100.0,72.72061920166016
2016-02-04,79.81999969482422,77.58000183105469,77.72000122070312,78.83999633789062,1446300.0,73.60755920410156
2016-02-05,78.83999633789062,74.91999816894531,78.83999633789062,75.68000030517578,1792900.0,70.65730285644531
2016-02-08,75.2699966430664,71.76000213623047,74.80000305175781,73.0199966430664,2037700.0,68.173828125
2016-02-09,73.72000122070312,72.08000183105469,72.19999694824219,72.7300033569336,1215000.0,67.90308380126953
2016-02-10,73.66999816894531,72.4000015258789,73.26000213623047,72.72000122070312,1298300.0,67.89374542236328
2016-02-11,72.4000015258789,70.97000122070312,71.72000122070312,71.70999908447266,1066300.0,66.95076751708984
2016-02-12,72.5199966430664,71.22000122070312,72.5,72.05999755859375,948300.0,67.27754211425781
2016-02-16,73.55000305175781,72.52999877929688,73.05000305175781,73.45999908447266,1077700.0,68.5846176147461
2016-02-17,74.62999725341797,73.66000366210938,73.80000305175781,74.26000213623047,808800.0,69.33152770996094
2016-02-18,76.0999984741211,74.22000122070312,74.3499984741211,74.3499984741211,724800.0,69.4155502319336
2016-02-19,75.38999938964844,73.73999786376953,74.51000213623047,75.18000030517578,1123300.0,70.19049072265625
2016-02-22,76.83000183105469,75.80999755859375,75.80999755859375,76.44000244140625,1130200.0,71.36685180664062
2016-02-23,76.36000061035156,75.31999969482422,76.0,75.4000015258789,797100.0,70.3958740234375
2016-02-24,75.66000366210938,74.4800033569336,74.94000244140625,75.45999908447266,790800.0,70.4518814086914
2016-02-25,76.36000061035156,75.20999908447266,75.93000030517578,76.13999938964844,751600.0,71.08675384521484
2016-02-26,76.97000122070312,76.18000030517578,76.52999877929688,76.54000091552734,850200.0,71.46022033691406
2016-02-29,79.75,77.43000030517578,77.45999908447266,78.0199966430664,1677900.0,72.84196472167969
2016-03-01,80.2300033569336,77.7300033569336,78.7699966430664,79.4000015258789,1531700.0,74.13040924072266
2016-03-02,81.22000122070312,79.0,79.13999938964844,80.1500015258789,911200.0,74.83062744140625
2016-03-03,80.68000030517578,79.56999969482422,79.75,80.47000122070312,847600.0,75.12939453125
2016-03-04,81.88999938964844,80.54000091552734,80.55999755859375,81.1500015258789,943800.0,75.76425170898438
2016-03-07,80.6500015258789,78.88999938964844,80.55000305175781,79.33000183105469,1187400.0,74.0650405883789
2016-03-08,79.43000030517578,77.18000030517578,78.75,78.16999816894531,1480500.0,73.44493865966797
2016-03-09,80.19000244140625,78.30999755859375,78.7699966430664,79.76000213623047,1090500.0,74.93882751464844
2016-03-10,81.12999725341797,78.79000091552734,79.9000015258789,79.63999938964844,852200.0,74.8260726928711
2016-03-11,80.62999725341797,78.94999694824219,80.12999725341797,80.41999816894531,956600.0,75.5589370727539
2016-03-14,80.54000091552734,79.52999877929688,80.0,79.58999633789062,867600.0,74.77910614013672
2016-03-15,79.52999877929688,76.7300033569336,78.62999725341797,77.66000366210938,1468000.0,72.96577453613281
2016-03-16,78.52999877929688,77.2699966430664,77.5999984741211,78.36000061035156,922100.0,73.62345886230469
2016-03-17,79.19000244140625,77.93000030517578,78.30000305175781,78.5199966430664,1003400.0,73.77377319335938
2016-03-18,79.56999969482422,78.5199966430664,78.88999938964844,78.9000015258789,1222500.0,74.1308364868164
2016-03-21,78.93000030517578,77.93000030517578,78.52999877929688,78.55999755859375,951200.0,73.81136322021484
2016-03-22,80.31999969482422,78.18000030517578,78.23999786376953,79.62000274658203,1162400.0,74.80730438232422
2016-03-23,79.5,78.5,79.4800033569336,79.04000091552734,935900.0,74.26234436035156
2016-03-24,79.3499984741211,77.80000305175781,78.5999984741211,78.16000366210938,780800.0,73.43556213378906
2016-03-28,78.54000091552734,77.5999984741211,78.41000366210938,77.83999633789062,715100.0,73.1348876953125
2016-03-29,78.66000366210938,77.11000061035156,77.86000061035156,78.4800033569336,649400.0,73.73621368408203
2016-03-30,79.0999984741211,77.80000305175781,78.83999633789062,78.70999908447266,921700.0,73.95228576660156
2016-03-31,79.0999984741211,77.33999633789062,78.62999725341797,77.86000061035156,1351600.0,73.15367889404297
2016-04-01,78.0,75.56999969482422,77.38999938964844,77.80000305175781,1886000.0,73.09730529785156
2016-04-04,77.93000030517578,76.94000244140625,77.81999969482422,76.98999786376953,939400.0,72.33625793457031
2016-04-05,76.38999938964844,75.01000213623047,76.33999633789062,75.05999755859375,1464000.0,70.52291870117188
2016-04-06,76.56999969482422,74.6500015258789,75.1500015258789,76.48999786376953,1459100.0,71.86649322509766
2016-04-07,76.80999755859375,75.72000122070312,76.20999908447266,76.33000183105469,1481700.0,71.7161636352539
2016-04-08,77.70999908447266,76.55000305175781,76.70999908447266,76.70999908447266,1033600.0,72.07319641113281
2016-04-11,77.54000091552734,76.43000030517578,77.04000091552734,76.44999694824219,854200.0,71.82891845703125
2016-04-12,76.93000030517578,75.80000305175781,76.41999816894531,76.72000122070312,974500.0,72.08258819580078
2016-04-13,78.41999816894531,77.16000366210938,77.16000366210938,78.33999633789062,730500.0,73.60465240478516
2016-04-14,78.45999908447266,77.5199966430664,78.18000030517578,77.6500015258789,938800.0,72.9563980102539
2016-04-15,77.66999816894531,76.7300033569336,77.37000274658203,77.38999938964844,833300.0,72.71208953857422
2016-04-18,77.80000305175781,77.05000305175781,77.33000183105469,77.69000244140625,961900.0,72.99395751953125
2016-04-19,78.80999755859375,77.51000213623047,77.69999694824219,78.79000091552734,997600.0,74.02745819091797
2016-04-20,79.51000213623047,78.05000305175781,78.66000366210938,79.30000305175781,942000.0,74.50663757324219
2016-04-21,79.87999725341797,78.69000244140625,79.44999694824219,78.94999694824219,733200.0,74.17778778076172
2016-04-22,80.3499984741211,78.83999633789062,78.83999633789062,79.83000183105469,782800.0,75.00459289550781
2016-04-25,79.52999877929688,78.30000305175781,79.5,78.7699966430664,547800.0,74.00867462158203
2016-04-26,79.6500015258789,78.83999633789062,79.01000213623047,79.47000122070312,641600.0,74.66637420654297
2016-04-27,80.87000274658203,79.23999786376953,79.23999786376953,80.76000213623047,650100.0,75.87837982177734
2016-04-28,80.72000122070312,79.80999755859375,80.2300033569336,80.05000305175781,690800.0,75.2113037109375
2016-04-29,80.25,79.0999984741211,79.83000183105469,80.01000213623047,1009500.0,75.17371368408203
2016-05-02,80.94999694824219,79.51000213623047,80.12999725341797,80.86000061035156,1643400.0,75.97235107421875
2016-05-03,78.36000061035156,76.1500015258789,77.19000244140625,76.43000030517578,2250800.0,71.81011962890625
2016-05-04,76.0999984741211,73.31999969482422,75.69999694824219,74.4000015258789,2138800.0,69.90282440185547
2016-05-05,74.86000061035156,73.88999938964844,74.48999786376953,74.77999877929688,1038000.0,70.25985717773438
2016-05-06,74.81999969482422,73.72000122070312,74.58999633789062,74.58999633789062,932200.0,70.08132934570312
2016-05-09,76.19000244140625,74.66000366210938,74.66000366210938,75.66999816894531,1351600.0,71.09605407714844
2016-05-10,76.5999984741211,75.33000183105469,75.83000183105469,76.5999984741211,789000.0,71.96984100341797
2016-05-11,76.55000305175781,75.66999816894531,76.5,76.05000305175781,1026200.0,71.45309448242188
2016-05-12,76.55999755859375,75.61000061035156,76.27999877929688,76.11000061035156,633900.0,71.50946044921875
2016-05-13,76.41999816894531,75.41999816894531,75.9000015258789,75.91999816894531,729900.0,71.3309555053711
2016-05-16,77.41000366210938,75.70999908447266,75.9000015258789,77.06999969482422,711200.0,72.41143035888672
2016-05-17,77.86000061035156,76.75,76.93000030517578,77.48999786376953,1078000.0,72.80604553222656
2016-05-18,78.12999725341797,76.91000366210938,77.31999969482422,77.4800033569336,1042100.0,72.7966537475586
2016-05-19,77.56999969482422,76.55000305175781,76.86000061035156,77.51000213623047,848600.0,72.82484436035156
2016-05-20,78.83999633789062,77.62000274658203,78.05999755859375,78.73999786376953,692100.0,73.98048400878906
2016-05-23,78.80000305175781,78.1500015258789,78.73999786376953,78.33000183105469,488300.0,73.59526824951172
2016-05-24,79.1500015258789,78.2699966430664,78.54000091552734,78.9800033569336,541300.0,74.20597839355469
2016-05-25,79.79000091552734,78.69000244140625,79.04000091552734,79.36000061035156,592900.0,74.56300354003906
2016-05-26,80.22000122070312,79.5,79.5,79.76000213623047,733500.0,74.93882751464844
2016-05-27,79.69000244140625,79.0999984741211,79.16999816894531,79.43000030517578,738100.0,75.09956359863281
2016-05-31,79.30999755859375,77.55999755859375,79.30999755859375,78.7699966430664,1208100.0,74.94733428955078
2016-06-01,79.72000122070312,78.26000213623047,78.3499984741211,79.55999755859375,494500.0,75.698974609375
2016-06-02,79.8499984741211,79.16999816894531,79.55999755859375,79.7699966430664,473900.0,75.89878845214844
2016-06-03,80.19999694824219,79.06999969482422,79.69999694824219,79.98999786376953,555200.0,76.1081314086914
2016-06-06,81.45999908447266,79.44000244140625,80.0,80.93000030517578,932500.0,77.00250244140625
2016-06-07,81.87999725341797,81.06999969482422,81.06999969482422,81.3499984741211,741700.0,77.40213012695312
2016-06-08,82.16000366210938,81.25,81.4000015258789,81.87000274658203,840000.0,77.89686584472656
2016-06-09,81.93000030517578,81.04000091552734,81.48999786376953,81.22000122070312,543400.0,77.27843475341797
2016-06-10,82.0,80.76000213623047,81.26000213623047,81.0,929100.0,77.06909942626953
2016-06-13,81.62000274658203,80.5199966430664,80.69999694824219,80.61000061035156,1031100.0,76.69804382324219
2016-06-14,81.23999786376953,80.30999755859375,80.4800033569336,80.9800033569336,1264400.0,77.05008697509766
2016-06-15,81.61000061035156,80.83999633789062,81.19000244140625,81.20999908447266,1198200.0,77.26891326904297
2016-06-16,82.08000183105469,80.25,80.6500015258789,81.98999786376953,1254400.0,78.01105499267578
2016-06-17,83.0,81.41000366210938,82.04000091552734,81.91000366210938,1627300.0,77.93494415283203
2016-06-20,83.54000091552734,82.76000213623047,83.0,83.16999816894531,1398100.0,79.1337890625
2016-06-21,83.97000122070312,83.05000305175781,83.05000305175781,83.5,1239900.0,79.4477767944336
2016-06-22,84.27999877929688,83.2300033569336,83.7300033569336,83.38999938964844,898300.0,79.34312438964844
2016-06-23,84.75,83.6500015258789,84.37999725341797,84.13999938964844,766600.0,80.05671691894531
2016-06-24,82.62000274658203,80.93000030517578,82.04000091552734,80.9800033569336,1460800.0,77.05008697509766
2016-06-27,80.19000244140625,78.41999816894531,80.0199966430664,78.48999786376953,1426200.0,74.6809310913086
2016-06-28,80.33999633789062,78.66999816894531,79.55999755859375,80.30000305175781,1282000.0,76.403076171875
2016-06-29,82.20999908447266,80.79000091552734,80.93000030517578,82.08999633789062,729900.0,78.10620880126953
2016-06-30,83.44999694824219,81.62000274658203,82.47000122070312,83.44000244140625,1025300.0,79.39070892333984
2016-07-01,83.91999816894531,82.29000091552734,83.5,82.58999633789062,710100.0,78.58194732666016
2016-07-05,82.06999969482422,81.23999786376953,82.01000213623047,81.54000091552734,794800.0,77.58289337158203
2016-07-06,82.58999633789062,80.77999877929688,81.37999725341797,82.44000244140625,822100.0,78.43921661376953
2016-07-07,83.12999725341797,82.0999984741211,82.75,82.2699966430664,515800.0,78.27748107910156
2016-07-08,84.47000122070312,82.73999786376953,83.22000122070312,84.19999694824219,829600.0,80.11381530761719
2016-07-11,84.69999694824219,83.56999969482422,84.31999969482422,84.41000366210938,440600.0,80.3136215209961
2016-07-12,85.44000244140625,84.69999694824219,84.91000366210938,84.95999908447266,471500.0,80.83692932128906
2016-07-13,85.47000122070312,84.91999816894531,85.1500015258789,85.33000183105469,406500.0,81.18897247314453
2016-07-14,86.22000122070312,85.5,86.0,85.55999755859375,558000.0,81.40780639648438
2016-07-15,85.93000030517578,85.12999725341797,85.83000183105469,85.2699966430664,617700.0,81.13188171386719
2016-07-18,85.4800033569336,84.98999786376953,85.16000366210938,85.05000305175781,497700.0,80.92256927490234
2016-07-19,85.41000366210938,84.69999694824219,84.81999969482422,85.31999969482422,444500.0,81.17945098876953
2016-07-20,86.2300033569336,85.37999725341797,85.63999938964844,86.02999877929688,646500.0,81.85498809814453
2016-07-21,86.36000061035156,85.63999938964844,86.0199966430664,85.93000030517578,451500.0,81.7598648071289
2016-07-22,86.66000366210938,85.83999633789062,85.94000244140625,86.55999755859375,391200.0,82.3592758178711
2016-07-25,86.5,85.29000091552734,86.2699966430664,85.5,693000.0,81.3507308959961
2016-07-26,86.47000122070312,85.31999969482422,85.41999816894531,86.31999969482422,673400.0,82.13092803955078
2016-07-27,86.5,85.7699966430664,86.44999694824219,86.02999877929688,644000.0,81.85498809814453
2016-07-28,86.66000366210938,85.58999633789062,85.79000091552734,86.52999877929688,423600.0,82.33073425292969
2016-07-29,86.7699966430664,86.05999755859375,86.41999816894531,86.62000274658203,452900.0,82.41637420654297
2016-08-01,86.58000183105469,85.41000366210938,86.4800033569336,85.6500015258789,1263100.0,81.4934310913086
2016-08-02,88.0199966430664,85.55000305175781,85.6500015258789,87.97000122070312,1686900.0,83.70085144042969
2016-08-03,88.19000244140625,86.87000274658203,87.91000366210938,88.06999969482422,1347400.0,83.79601287841797
2016-08-04,88.48999786376953,87.75,88.05999755859375,88.25,841000.0,83.96726989746094
2016-08-05,89.30999755859375,88.2300033569336,88.4000015258789,88.73999786376953,694900.0,84.43348693847656
2016-08-08,89.41000366210938,88.2699966430664,88.87000274658203,88.97000122070312,957800.0,84.65232849121094
2016-08-09,90.41999816894531,88.81999969482422,89.04000091552734,89.79000091552734,701100.0,85.43252563476562
2016-08-10,90.55000305175781,89.6500015258789,89.70999908447266,89.9800033569336,755800.0,85.61331176757812
2016-08-11,90.0,89.23999786376953,89.9800033569336,89.87999725341797,580200.0,85.5181655883789
2016-08-12,89.9800033569336,89.55000305175781,89.8499984741211,89.83000183105469,417600.0,85.47059631347656
2016-08-15,91.4000015258789,90.0,90.0,90.75,754000.0,86.34593963623047
2016-08-16,90.76000213623047,89.97000122070312,90.68000030517578,90.0,775000.0,85.63235473632812
2016-08-17,90.56999969482422,89.44999694824219,90.19999694824219,89.91999816894531,554900.0,85.55622863769531
2016-08-18,90.75,89.88999938964844,89.91999816894531,90.63999938964844,375500.0,86.24127197265625
2016-08-19,91.12000274658203,90.18000030517578,90.3499984741211,90.94000244140625,368100.0,86.5267333984375
2016-08-22,91.5199966430664,90.5199966430664,90.68000030517578,91.23999786376953,627800.0,86.81216430664062
2016-08-23,91.88999938964844,91.33000183105469,91.5,91.33999633789062,572300.0,86.90731048583984
2016-08-24,91.98999786376953,90.91000366210938,91.3499984741211,91.0199966430664,638600.0,86.60283660888672
2016-08-25,91.52999877929688,90.80999755859375,91.19999694824219,91.2699966430664,661200.0,86.8406982421875
2016-08-26,91.62000274658203,90.44000244140625,91.3499984741211,90.83999633789062,618200.0,86.43157196044922
2016-08-29,92.69000244140625,90.83999633789062,90.94000244140625,92.62000274658203,806100.0,88.12519073486328
2016-08-30,92.91000366210938,92.02999877929688,92.91000366210938,92.7300033569336,660400.0,88.2298583984375
2016-08-31,93.05999755859375,91.94999694824219,92.62999725341797,92.9800033569336,574600.0,88.46773529052734
2016-09-01,93.61000061035156,92.33999633789062,93.22000122070312,92.8499984741211,826000.0,88.34403228759766
2016-09-02,93.72000122070312,93.0199966430664,93.36000061035156,93.69000244140625,425800.0,89.14326477050781
2016-09-06,94.08999633789062,93.02999877929688,93.75,93.80000305175781,708000.0,89.24793243408203
2016-09-07,93.93000030517578,92.97000122070312,93.30999755859375,93.30000305175781,749600.0,89.27664184570312
2016-09-08,93.29000091552734,92.52999877929688,93.18000030517578,92.80000305175781,484600.0,88.7981948852539
2016-09-09,92.12999725341797,90.86000061035156,91.97000122070312,90.86000061035156,532100.0,86.9418716430664
2016-09-12,92.02999877929688,89.94999694824219,90.30000305175781,91.91999816894531,637900.0,87.95612335205078
2016-09-13,91.83999633789062,89.5,91.18000030517578,89.8499984741211,2894000.0,85.97541046142578
2016-09-14,90.94999694824219,89.26000213623047,89.80000305175781,89.55000305175781,756200.0,85.6883544921875
2016-09-15,90.44999694824219,89.12000274658203,89.33000183105469,90.33000183105469,729800.0,86.43470764160156
2016-09-16,90.30000305175781,89.2300033569336,89.91999816894531,89.36000061035156,719400.0,85.50653839111328
2016-09-19,90.45999908447266,89.36000061035156,89.94999694824219,89.5199966430664,469200.0,85.65963745117188
2016-09-20,90.12999725341797,88.91000366210938,89.86000061035156,89.30999755859375,570200.0,85.45869445800781
2016-09-21,90.08000183105469,89.08000183105469,89.41000366210938,89.9000015258789,596100.0,86.02323913574219
2016-09-22,91.0,90.19999694824219,90.69000244140625,90.80999755859375,417400.0,86.89401245117188
2016-09-23,91.2300033569336,90.5,90.80999755859375,90.87999725341797,503200.0,86.96098327636719
2016-09-26,91.0,90.0,90.1500015258789,90.12999725341797,480400.0,86.24333953857422
2016-09-27,91.62999725341797,89.75,90.08999633789062,91.58000183105469,579500.0,87.63079833984375
2016-09-28,92.12000274658203,91.27999877929688,91.58999633789062,91.94999694824219,651800.0,87.98484802246094
2016-09-29,92.41000366210938,90.23999786376953,91.91999816894531,90.61000061035156,544300.0,86.70263671875
2016-09-30,91.93000030517578,90.37999725341797,91.0199966430664,91.61000061035156,701200.0,87.65951538085938
2016-10-03,91.75,91.04000091552734,91.30999755859375,91.5,696000.0,87.55425262451172
2016-10-04,92.0199966430664,90.52999877929688,91.58000183105469,91.26000213623047,704300.0,87.32461547851562
2016-10-05,92.1500015258789,91.27999877929688,91.75,91.79000091552734,536400.0,87.83174896240234
2016-10-06,92.3499984741211,91.1500015258789,91.47000122070312,92.27999877929688,400900.0,88.30062103271484
2016-10-07,92.9000015258789,91.9000015258789,92.4800033569336,92.62000274658203,515700.0,88.62596130371094
2016-10-10,93.38999938964844,92.38999938964844,92.94000244140625,92.44999694824219,396700.0,88.46328735351562
2016-10-11,92.23999786376953,90.73999786376953,92.19000244140625,91.16999816894531,367200.0,87.23847961425781
2016-10-12,91.80999755859375,90.83999633789062,91.02999877929688,91.05999755859375,543700.0,87.13323211669922
2016-10-13,90.83000183105469,89.37999725341797,90.30000305175781,89.77999877929688,644600.0,85.90843200683594
2016-10-14,90.80999755859375,89.66999816894531,90.41999816894531,89.66999816894531,524300.0,85.80316925048828
2016-10-17,89.91000366210938,89.4000015258789,89.66000366210938,89.58000183105469,600300.0,85.71705627441406
2016-10-18,90.48999786376953,89.51000213623047,90.4000015258789,90.38999938964844,813600.0,86.49211883544922
2016-10-19,91.81999969482422,89.81999969482422,89.81999969482422,91.63999938964844,529300.0,87.68822479248047
2016-10-20,91.69999694824219,90.87999725341797,91.6500015258789,91.05000305175781,287200.0,87.12366485595703
2016-10-21,90.81999969482422,89.87999725341797,90.33000183105469,90.54000091552734,299700.0,86.63566589355469
2016-10-24,91.54000091552734,90.9800033569336,91.23999786376953,91.27999877929688,351700.0,87.34375
2016-10-25,91.5,90.30999755859375,91.27999877929688,90.70999908447266,525100.0,86.79833221435547
2016-10-26,91.56999969482422,90.20999908447266,90.4000015258789,91.37999725341797,749700.0,87.4394302368164
2016-10-27,91.66000366210938,88.88999938964844,91.61000061035156,88.9800033569336,685800.0,85.14293670654297
2016-10-28,90.19000244140625,89.0199966430664,89.58999633789062,89.38999938964844,557000.0,85.53523254394531
2016-10-31,90.0,89.01000213623047,89.88999938964844,89.20999908447266,844300.0,85.36302185058594
2016-11-01,93.4000015258789,90.94999694824219,92.27999877929688,92.7300033569336,1484700.0,88.73121643066406
2016-11-02,93.88999938964844,92.51000213623047,93.02999877929688,93.16000366210938,1422300.0,89.14268493652344
2016-11-03,93.41999816894531,92.4000015258789,92.98999786376953,92.80000305175781,563600.0,88.7981948852539
2016-11-04,94.66000366210938,92.3499984741211,92.77999877929688,94.25,1133900.0,90.18567657470703
2016-11-07,97.22000122070312,95.5199966430664,96.0,96.9800033569336,1056400.0,92.79794311523438
2016-11-08,97.94999694824219,96.66999816894531,96.97000122070312,97.45999908447266,778200.0,93.25724029541016
2016-11-09,101.47000122070312,96.81999969482422,97.16999816894531,101.19999694824219,1530700.0,96.83596801757812
2016-11-10,103.0199966430664,100.88999938964844,101.81999969482422,102.80999755859375,1214800.0,98.37654113769531
2016-11-11,103.98999786376953,102.06999969482422,102.18000030517578,103.41999816894531,866600.0,98.96023559570312
2016-11-14,105.9000015258789,103.61000061035156,103.97000122070312,105.06999969482422,1228600.0,100.53910064697266
2016-11-15,105.93000030517578,104.33000183105469,105.26000213623047,104.87000274658203,805100.0,100.34770965576172
2016-11-16,104.54000091552734,103.69999694824219,104.27999877929688,104.0,784700.0,100.02071380615234
2016-11-17,104.19999694824219,103.08000183105469,103.87000274658203,103.79000091552734,1140100.0,99.81876373291016
2016-11-18,104.0,102.7300033569336,103.87999725341797,103.56999969482422,827300.0,99.60716247558594
2016-11-21,104.6500015258789,102.9800033569336,103.91999816894531,103.9000015258789,603000.0,99.92454528808594
2016-11-22,104.41000366210938,103.33999633789062,104.11000061035156,104.05000305175781,1088300.0,100.06880187988281
2016-11-23,104.52999877929688,103.37000274658203,104.06999969482422,104.16999816894531,678000.0,100.18421173095703
2016-11-25,105.06999969482422,104.1500015258789,104.5199966430664,104.79000091552734,170000.0,100.78048706054688
2016-11-28,104.72000122070312,103.66999816894531,104.38999938964844,104.01000213623047,956100.0,100.03032684326172
2016-11-29,105.5199966430664,104.04000091552734,104.26000213623047,104.68000030517578,743000.0,100.67469787597656
2016-11-30,105.77999877929688,103.54000091552734,105.16999816894531,103.55999755859375,776700.0,99.59754943847656
2016-12-01,104.81999969482422,103.54000091552734,104.05999755859375,104.33999633789062,833500.0,100.34769439697266
2016-12-02,105.70999908447266,104.06999969482422,104.30000305175781,104.95999908447266,696500.0,100.94398498535156
2016-12-05,106.16999816894531,105.38999938964844,105.66000366210938,105.94000244140625,785500.0,101.88648223876953
2016-12-06,106.5199966430664,105.05999755859375,105.77999877929688,106.4800033569336,692800.0,102.40582275390625
2016-12-07,107.54000091552734,106.43000030517578,106.6500015258789,107.12999725341797,784500.0,103.03093719482422
2016-12-08,107.44000244140625,105.37999725341797,107.04000091552734,105.91000366210938,983900.0,101.8576431274414
2016-12-09,106.31999969482422,104.51000213623047,106.31999969482422,105.51000213623047,671100.0,101.47293853759766
2016-12-12,105.19999694824219,104.13999938964844,105.05999755859375,105.0199966430664,839800.0,101.00169372558594
2016-12-13,106.0199966430664,104.63999938964844,105.55000305175781,105.44999694824219,759600.0,101.41522979736328
2016-12-14,105.94999694824219,104.81999969482422,105.37999725341797,105.1500015258789,682200.0,101.12671661376953
2016-12-15,105.91999816894531,104.80999755859375,105.33999633789062,105.0,550700.0,100.98245239257812
2016-12-16,105.44000244140625,103.87000274658203,105.08000183105469,104.0,1208700.0,100.02071380615234
2016-12-19,105.0,103.58999633789062,104.27999877929688,104.3499984741211,569200.0,100.3573226928711
2016-12-20,104.62999725341797,103.88999938964844,104.55000305175781,104.20999908447266,515600.0,100.2226791381836
2016-12-21,104.44000244140625,103.73999786376953,104.31999969482422,103.79000091552734,465400.0,99.81876373291016
2016-12-22,104.4000015258789,102.95999908447266,104.12999725341797,103.69999694824219,362900.0,99.73219299316406
2016-12-23,103.80999755859375,103.25,103.6500015258789,103.72000122070312,212000.0,99.75141906738281
2016-12-27,104.16000366210938,103.12000274658203,103.72000122070312,103.43000030517578,326200.0,99.47251892089844
2016-12-28,103.94000244140625,103.23999786376953,103.5,103.33999633789062,474100.0,99.3859634399414
2016-12-29,103.5,102.62999725341797,103.19000244140625,103.11000061035156,429800.0,99.16476440429688
2016-12-30,103.55999755859375,102.08999633789062,103.55999755859375,102.47000122070312,521000.0,98.54926300048828
2017-01-03,103.8499984741211,102.44999694824219,103.37999725341797,102.72000122070312,698100.0,98.78968811035156
2017-01-04,103.58999633789062,102.48999786376953,103.0,103.27999877929688,660300.0,99.32826232910156
2017-01-05,103.93000030517578,102.69000244140625,103.11000061035156,103.41000366210938,638900.0,99.45329284667969
2017-01-06,104.70999908447266,103.47000122070312,103.51000213623047,104.55000305175781,683700.0,100.54967498779297
2017-01-09,104.37999725341797,102.12000274658203,104.19000244140625,102.13999938964844,602500.0,98.23188781738281
2017-01-10,102.26000213623047,101.16000366210938,102.23999786376953,101.70999908447266,477900.0,97.81834411621094
2017-01-11,101.94999694824219,101.05000305175781,101.41999816894531,101.79000091552734,427400.0,97.8952865600586
2017-01-12,102.06999969482422,101.01000213623047,101.7699966430664,101.79000091552734,383200.0,97.8952865600586
2017-01-13,102.0,101.19000244140625,101.87000274658203,101.76000213623047,377400.0,97.8664321899414
2017-01-17,101.37999725341797,99.88999938964844,101.19999694824219,100.18000030517578,527000.0,96.34687805175781
2017-01-18,101.4000015258789,100.08999633789062,100.29000091552734,100.8499984741211,698400.0,96.99124145507812
2017-01-19,101.70999908447266,99.80000305175781,101.05999755859375,99.98999786376953,579000.0,96.16414642333984
2017-01-20,100.69999694824219,99.88999938964844,100.44999694824219,100.19000244140625,478300.0,96.35649108886719
2017-01-23,100.94000244140625,99.12999725341797,100.0999984741211,100.70999908447266,548800.0,96.8565902709961
2017-01-24,102.41000366210938,100.58000183105469,100.7300033569336,102.06999969482422,436000.0,98.16455841064453
2017-01-25,102.37000274658203,100.83000183105469,102.37000274658203,101.12000274658203,463000.0,97.25090026855469
2017-01-26,101.6500015258789,100.98999786376953,101.01000213623047,101.2300033569336,377700.0,97.35670471191406
2017-01-27,103.61000061035156,101.02999877929688,101.45999908447266,102.52999877929688,720400.0,98.6069564819336
2017-01-30,104.29000091552734,101.87999725341797,104.29000091552734,102.37999725341797,555400.0,98.46269989013672
2017-01-31,102.7300033569336,100.61000061035156,102.16999816894531,102.70999908447266,658100.0,98.78006744384766
2017-02-01,103.33999633789062,101.5,102.81999969482422,101.83000183105469,748700.0,97.93374633789062
2017-02-02,105.31999969482422,100.79000091552734,100.80999755859375,104.9800033569336,1395700.0,100.96321868896484
2017-02-03,105.47000122070312,104.23999786376953,105.20999908447266,104.30000305175781,1023600.0,100.30924987792969
2017-02-06,105.9000015258789,104.0199966430664,104.1500015258789,105.12999725341797,1410800.0,101.10746765136719
2017-02-07,105.47000122070312,104.04000091552734,104.93000030517578,105.33999633789062,864000.0,101.30943298339844
2017-02-08,105.61000061035156,104.58000183105469,104.9800033569336,104.91000366210938,2214300.0,100.89588928222656
2017-02-09,105.80999755859375,104.47000122070312,105.33000183105469,104.48999786376953,878000.0,100.49197387695312
2017-02-10,105.93000030517578,104.16000366210938,105.01000213623047,105.73999786376953,708400.0,101.69413757324219
2017-02-13,107.02999877929688,105.80000305175781,106.01000213623047,107.01000213623047,676800.0,102.9155502319336
2017-02-14,107.97000122070312,106.0,106.36000061035156,107.94000244140625,708800.0,103.80996704101562
2017-02-15,108.08999633789062,107.11000061035156,107.47000122070312,107.31999969482422,1004500.0,103.21367645263672
2017-02-16,108.81999969482422,107.5199966430664,107.56999969482422,108.6500015258789,1107200.0,104.4927978515625
2017-02-17,109.47000122070312,108.0,108.56999969482422,109.45999908447266,609400.0,105.27179718017578
2017-02-21,111.19999694824219,109.54000091552734,109.54000091552734,111.0199966430664,727400.0,106.77210235595703
2017-02-22,110.69999694824219,109.62999725341797,110.51000213623047,110.44000244140625,714600.0,106.21430206298828
2017-02-23,110.73999786376953,109.58999633789062,110.44999694824219,109.83999633789062,1252900.0,105.63725280761719
2017-02-24,111.0999984741211,109.5,109.58999633789062,111.0999984741211,742800.0,106.84906005859375
2017-02-27,111.66999816894531,110.94000244140625,111.12000274658203,111.37000274658203,1609700.0,107.10871887207031
2017-02-28,111.62000274658203,109.51000213623047,110.95999908447266,109.9000015258789,882100.0,105.6949691772461
2017-03-01,111.26000213623047,110.37999725341797,110.80000305175781,110.91000366210938,859600.0,106.66633605957031
2017-03-02,111.2699966430664,110.05000305175781,110.80999755859375,110.30000305175781,754400.0,106.07967376708984
2017-03-03,110.58999633789062,109.9800033569336,110.5,110.45999908447266,822200.0,106.23353576660156
2017-03-06,110.19000244140625,109.31999969482422,109.68000030517578,109.9000015258789,718800.0,105.6949691772461
2017-03-07,110.5199966430664,109.5199966430664,109.62999725341797,109.7300033569336,556800.0,105.53147888183594
2017-03-08,110.1500015258789,109.30000305175781,109.7300033569336,110.02999877929688,759800.0,105.81999969482422
2017-03-09,110.80999755859375,109.62000274658203,109.91000366210938,109.98999786376953,1056400.0,105.78152465820312
2017-03-10,110.63999938964844,109.19999694824219,109.45999908447266,110.62000274658203,765700.0,106.90254211425781
2017-03-13,111.22000122070312,109.7699966430664,110.33999633789062,110.79000091552734,757900.0,107.06683349609375
2017-03-14,110.69999694824219,109.87999725341797,110.0,110.55999755859375,547800.0,106.84455108642578
2017-03-15,111.91999816894531,110.56999969482422,110.8499984741211,111.75,802200.0,107.99456024169922
2017-03-16,112.33999633789062,111.44999694824219,111.91999816894531,111.6500015258789,543500.0,107.8979263305664
2017-03-17,112.69000244140625,111.56999969482422,111.9800033569336,112.30999755859375,1487500.0,108.5357437133789
2017-03-20,112.81999969482422,112.13999938964844,112.41000366210938,112.55000305175781,448400.0,108.7676773071289
2017-03-21,113.0,110.76000213623047,112.58999633789062,110.9000015258789,1125600.0,107.1731185913086
2017-03-22,111.2300033569336,110.26000213623047,110.91000366210938,110.98999786376953,460800.0,107.26010131835938
2017-03-23,111.95999908447266,110.7300033569336,110.83999633789062,111.41999816894531,569900.0,107.67565155029297
2017-03-24,112.16000366210938,110.44999694824219,111.20999908447266,110.88999938964844,514300.0,107.1634521484375
2017-03-27,110.97000122070312,109.43000030517578,110.05000305175781,110.79000091552734,1134400.0,107.06683349609375
2017-03-28,111.98999786376953,110.5,110.73999786376953,111.69000244140625,440800.0,107.93657684326172
2017-03-29,111.76000213623047,110.4000015258789,111.54000091552734,111.12999725341797,552700.0,107.39539337158203
2017-03-30,112.05000305175781,110.87999725341797,111.19999694824219,111.79000091552734,680400.0,108.03321075439453
2017-03-31,111.5999984741211,110.73999786376953,111.5999984741211,111.2699966430664,812800.0,107.53068542480469
2017-04-03,111.69000244140625,109.79000091552734,111.37999725341797,110.2699966430664,1366900.0,106.56430053710938
2017-04-04,110.94999694824219,109.69000244140625,110.2300033569336,110.11000061035156,601900.0,106.40968322753906
2017-04-05,110.6500015258789,109.01000213623047,110.55000305175781,109.05000305175781,800900.0,105.38530731201172
2017-04-06,110.06999969482422,109.0199966430664,109.29000091552734,109.48999786376953,687100.0,105.81050872802734
2017-04-07,110.76000213623047,109.56999969482422,109.88999938964844,110.16999816894531,777000.0,106.46766662597656
2017-04-10,110.83000183105469,109.7699966430664,110.4000015258789,110.05999755859375,589400.0,106.36136627197266
2017-04-11,109.94000244140625,109.25,109.70999908447266,109.94000244140625,426300.0,106.24539947509766
2017-04-12,111.36000061035156,109.93000030517578,110.55000305175781,110.29000091552734,439300.0,106.5836181640625
2017-04-13,110.7699966430664,109.97000122070312,110.13999938964844,110.0199966430664,654800.0,106.32270812988281
2017-04-17,110.58000183105469,109.79000091552734,110.54000091552734,110.20999908447266,1068000.0,106.50631713867188
2017-04-18,110.33000183105469,109.31999969482422,109.72000122070312,109.55999755859375,906100.0,105.87815856933594
2017-04-19,110.25,109.37000274658203,110.06999969482422,109.41999816894531,868400.0,105.74285888671875
2017-04-20,110.51000213623047,109.48999786376953,109.73999786376953,109.94999694824219,1374600.0,106.25505065917969
2017-04-21,111.30999755859375,110.01000213623047,110.16999816894531,110.2699966430664,828700.0,106.56430053710938
2017-04-24,112.08000183105469,111.2699966430664,111.52999877929688,111.69000244140625,646700.0,107.93657684326172
2017-04-25,112.19000244140625,111.20999908447266,112.0199966430664,111.20999908447266,894200.0,107.47271728515625
2017-04-26,111.81999969482422,110.87000274658203,111.33000183105469,111.12999725341797,976900.0,107.39539337158203
2017-04-27,113.33000183105469,111.44000244140625,111.55999755859375,113.29000091552734,731100.0,109.48280334472656
2017-04-28,113.58000183105469,111.72000122070312,112.98999786376953,111.88999938964844,1362200.0,108.12985229492188
2017-05-01,111.55999755859375,109.19999694824219,111.55999755859375,109.70999908447266,1082200.0,106.02313232421875
2017-05-02,109.94000244140625,109.12000274658203,109.56999969482422,109.54000091552734,1061700.0,105.85883331298828
2017-05-03,110.41999816894531,108.3499984741211,109.29000091552734,109.25,953400.0,105.57857513427734
2017-05-04,110.48999786376953,109.5,109.7300033569336,110.0,847000.0,106.30337524414062
2017-05-05,111.80000305175781,110.2300033569336,110.27999877929688,110.72000122070312,970600.0,106.99919128417969
2017-05-08,111.0999984741211,107.8499984741211,110.81999969482422,108.0,1382000.0,104.37059783935547
2017-05-09,108.52999877929688,107.22000122070312,107.79000091552734,108.5,1279800.0,104.85376739501953
2017-05-10,108.95999908447266,108.16999816894531,108.48999786376953,108.95999908447266,716400.0,105.29832458496094
2017-05-11,109.05000305175781,108.04000091552734,108.51000213623047,108.97000122070312,571800.0,105.30797576904297
2017-05-12,109.1500015258789,107.5999984741211,109.1500015258789,107.76000213623047,551500.0,104.13866424560547
2017-05-15,108.81999969482422,107.7300033569336,107.88999938964844,108.62999725341797,623200.0,104.97941589355469
2017-05-16,108.98999786376953,108.37999725341797,108.79000091552734,108.63999938964844,637200.0,104.98905944824219
2017-05-17,108.63999938964844,107.05999755859375,108.63999938964844,107.18000030517578,1216600.0,103.57814025878906
2017-05-18,107.63999938964844,106.18000030517578,107.08999633789062,107.44000244140625,912000.0,103.82941436767578
2017-05-19,108.45999908447266,107.45999908447266,107.94999694824219,107.80999755859375,2390800.0,104.18697357177734
2017-05-22,109.29000091552734,108.06999969482422,108.33000183105469,108.55000305175781,788100.0,104.90211486816406
2017-05-23,109.20999908447266,107.91000366210938,108.66000366210938,108.94000244140625,515000.0,105.27901458740234
2017-05-24,110.0,108.63999938964844,108.69999694824219,109.87999725341797,775100.0,106.18740844726562
2017-05-25,111.3499984741211,109.62000274658203,110.0,111.05000305175781,602300.0,107.31809997558594
2017-05-26,111.16000366210938,110.1500015258789,110.93000030517578,110.55999755859375,801200.0,106.84455108642578
2017-05-30,111.27999877929688,109.86000061035156,110.55999755859375,110.52999877929688,912700.0,106.81555938720703
2017-05-31,112.2300033569336,109.95999908447266,110.4000015258789,112.16000366210938,1276500.0,108.91304016113281
2017-06-01,113.36000061035156,112.01000213623047,112.26000213623047,113.36000061035156,668300.0,110.07829284667969
2017-06-02,114.31999969482422,113.44000244140625,113.55999755859375,113.81999969482422,661700.0,110.52498626708984
2017-06-05,113.68000030517578,112.69000244140625,113.44000244140625,112.73999786376953,811500.0,109.47622680664062
2017-06-06,112.5199966430664,110.68000030517578,112.5199966430664,110.88999938964844,1400700.0,107.6797866821289
2017-06-07,111.80000305175781,110.22000122070312,110.72000122070312,110.44999694824219,1314200.0,107.2525405883789
2017-06-08,111.29000091552734,110.0,110.44999694824219,111.20999908447266,647300.0,107.99053955078125
2017-06-09,111.54000091552734,108.76000213623047,111.29000091552734,109.05999755859375,1908100.0,105.90276336669922
2017-06-12,109.27999877929688,107.77999877929688,109.18000030517578,108.52999877929688,1090000.0,105.38811492919922
2017-06-13,109.54000091552734,108.73999786376953,109.0199966430664,109.30999755859375,831900.0,106.14554595947266
2017-06-14,109.97000122070312,108.79000091552734,109.31999969482422,109.37000274658203,739400.0,106.20380401611328
2017-06-15,109.88999938964844,108.26000213623047,108.8499984741211,109.5,906300.0,106.3300552368164
2017-06-16,110.5999984741211,109.12999725341797,109.7699966430664,110.54000091552734,2234200.0,107.33993530273438
2017-06-19,112.30000305175781,110.38999938964844,110.7300033569336,112.27999877929688,713300.0,109.0295639038086
2017-06-20,112.69000244140625,111.83999633789062,112.01000213623047,111.87000274658203,544100.0,108.63143920898438
2017-06-21,112.33000183105469,111.48999786376953,111.80999755859375,111.70999908447266,424200.0,108.47606658935547
2017-06-22,112.25,110.98999786376953,111.62000274658203,110.98999786376953,407900.0,107.77690124511719
2017-06-23,111.5999984741211,110.66000366210938,111.0199966430664,111.38999938964844,1451900.0,108.16532897949219
2017-06-26,112.43000030517578,110.70999908447266,111.5199966430664,110.91000366210938,582900.0,107.69923400878906
2017-06-27,111.0999984741211,109.30999755859375,110.80000305175781,109.3499984741211,478600.0,106.18437194824219
2017-06-28,110.83000183105469,109.52999877929688,110.0199966430664,110.41999816894531,514900.0,107.22340393066406
2017-06-29,110.30000305175781,108.29000091552734,110.30000305175781,108.98999786376953,949600.0,105.83480072021484
2017-06-30,110.20999908447266,108.69999694824219,109.20999908447266,109.08000183105469,467200.0,105.92220306396484
2017-07-03,110.20999908447266,109.08000183105469,109.80000305175781,109.66999816894531,466400.0,106.49510955810547
2017-07-05,110.94999694824219,109.55999755859375,109.66000366210938,110.83000183105469,713500.0,107.62154388427734
2017-07-06,111.0199966430664,110.19999694824219,110.37999725341797,110.27999877929688,647200.0,107.08745574951172
2017-07-07,113.02999877929688,110.66000366210938,111.16000366210938,112.80999755859375,1010100.0,109.54421997070312
2017-07-10,114.22000122070312,112.4000015258789,112.81999969482422,113.9000015258789,1608700.0,110.6026611328125
2017-07-11,114.97000122070312,113.63999938964844,113.9000015258789,114.72000122070312,795700.0,111.39892578125
2017-07-12,116.08999633789062,115.0,115.44000244140625,115.58999633789062,555200.0,112.24373626708984
2017-07-13,115.79000091552734,114.79000091552734,115.66000366210938,115.13999938964844,664500.0,111.8067626953125
2017-07-14,115.43000030517578,114.06999969482422,115.22000122070312,115.18000030517578,1047900.0,111.8456039428711
2017-07-17,115.1500015258789,113.38999938964844,115.0,113.48999786376953,1057900.0,110.20452880859375
2017-07-18,113.80000305175781,112.93000030517578,113.08999633789062,113.77999877929688,599100.0,110.48612976074219
2017-07-19,114.6500015258789,114.13999938964844,114.13999938964844,114.43000030517578,523300.0,111.1173095703125
2017-07-20,114.76000213623047,113.94999694824219,114.58999633789062,114.2300033569336,519100.0,110.92310333251953
2017-07-21,114.5199966430664,113.6500015258789,113.91999816894531,113.94000244140625,1050500.0,110.64151000976562
2017-07-24,114.41000366210938,113.66999816894531,114.08000183105469,113.94000244140625,674800.0,110.64151000976562
2017-07-25,115.0999984741211,114.05000305175781,114.41999816894531,114.97000122070312,351000.0,111.6417007446289
2017-07-26,115.52999877929688,114.56999969482422,115.2699966430664,115.2300033569336,419500.0,111.89415740966797
2017-07-27,115.63999938964844,113.27999877929688,115.63999938964844,113.87999725341797,715400.0,110.5832290649414
2017-07-28,114.47000122070312,113.69999694824219,113.81999969482422,114.41000366210938,374600.0,111.09790802001953
2017-07-31,114.97000122070312,113.97000122070312,114.80000305175781,114.47000122070312,786000.0,111.15615844726562
2017-08-01,116.48999786376953,111.72000122070312,113.62000274658203,115.8499984741211,1085000.0,112.49620819091797
2017-08-02,116.93000030517578,115.97000122070312,116.05000305175781,116.25,1008900.0,112.88463592529297
2017-08-03,116.94999694824219,115.94999694824219,115.95999908447266,116.91000366210938,592400.0,113.52552032470703
2017-08-04,117.70999908447266,116.37999725341797,117.26000213623047,116.69000244140625,390600.0,113.3118896484375
2017-08-07,117.41999816894531,116.62000274658203,116.69000244140625,117.37999725341797,575000.0,113.98191833496094
2017-08-08,117.80999755859375,116.7300033569336,117.26000213623047,116.88999938964844,646900.0,113.50609588623047
2017-08-09,118.58999633789062,116.7300033569336,116.75,118.55000305175781,602300.0,115.11804962158203
2017-08-10,118.98999786376953,117.86000061035156,117.86000061035156,118.2300033569336,949800.0,114.80731964111328
2017-08-11,119.06999969482422,118.18000030517578,118.2699966430664,118.37000274658203,532000.0,114.9432601928711
2017-08-14,120.29000091552734,118.98999786376953,119.0,119.83999633789062,822700.0,116.3707046508789
2017-08-15,120.54000091552734,119.69000244140625,120.02999877929688,119.79000091552734,587600.0,116.32215118408203
2017-08-16,121.2699966430664,119.9800033569336,119.98999786376953,120.25,510200.0,116.7688217163086
2017-08-17,120.6500015258789,119.11000061035156,119.3499984741211,119.11000061035156,565400.0,115.6618423461914
2017-08-18,119.33999633789062,118.66000366210938,118.97000122070312,118.70999908447266,527900.0,115.27342224121094
2017-08-21,119.06999969482422,117.45999908447266,118.69999694824219,118.55999755859375,462100.0,115.12775421142578
2017-08-22,120.33999633789062,118.62000274658203,118.86000061035156,119.98999786376953,477700.0,116.51634979248047
2017-08-23,119.98999786376953,118.94000244140625,119.68000030517578,119.08000183105469,501900.0,115.63270568847656
2017-08-24,119.52999877929688,118.73999786376953,119.31999969482422,118.83999633789062,339600.0,115.39965057373047
2017-08-25,120.06999969482422,119.05999755859375,119.30000305175781,119.66000366210938,333500.0,116.19591522216797
2017-08-28,122.37000274658203,120.27999877929688,120.27999877929688,121.33000183105469,1433500.0,117.81757354736328
2017-08-29,121.69999694824219,120.56999969482422,120.76000213623047,121.51000213623047,779600.0,117.99236297607422
2017-08-30,122.38999938964844,121.16000366210938,121.55999755859375,122.33999633789062,938600.0,118.79832458496094
2017-08-31,123.26000213623047,122.33999633789062,122.44999694824219,122.9000015258789,881100.0,119.34212493896484
2017-09-01,123.56999969482422,122.55000305175781,123.5199966430664,123.1500015258789,453100.0,119.58488464355469
2017-09-05,123.30999755859375,122.02999877929688,123.0,122.88999938964844,670800.0,119.3323974609375
2017-09-06,123.37999725341797,122.0999984741211,123.37999725341797,122.72000122070312,795700.0,119.16732025146484
2017-09-07,122.76000213623047,121.61000061035156,122.63999938964844,122.44999694824219,598600.0,119.45999908447266
2017-09-08,123.02999877929688,121.37999725341797,122.13999938964844,122.51000213623047,516800.0,119.5185317993164
2017-09-11,123.47000122070312,122.9000015258789,123.08000183105469,123.2699966430664,655900.0,120.25997924804688
2017-09-12,123.75,123.01000213623047,123.5,123.66999816894531,411900.0,120.65021514892578
2017-09-13,123.76000213623047,122.80999755859375,123.37999725341797,123.29000091552734,583500.0,120.27948760986328
2017-09-14,124.3499984741211,122.61000061035156,123.0,124.25,911700.0,121.21604919433594
2017-09-15,126.9800033569336,124.75,124.75,126.87000274658203,1501000.0,123.7720718383789
2017-09-18,128.97999572753906,126.97000122070312,127.33000183105469,128.97999572753906,1007100.0,125.83055114746094
2017-09-19,130.97000122070312,128.6199951171875,129.1999969482422,130.91000366210938,1066000.0,127.71342468261719
2017-09-20,131.6300048828125,130.63999938964844,131.1199951171875,131.60000610351562,751200.0,128.38656616210938
2017-09-21,131.89999389648438,130.72000122070312,131.42999267578125,131.05999755859375,648300.0,127.8597412109375
2017-09-22,131.88999938964844,131.05999755859375,131.41000366210938,131.8000030517578,553800.0,128.58169555664062
2017-09-25,131.7100067138672,129.86000061035156,131.52000427246094,130.75,753900.0,127.55732727050781
2017-09-26,131.6999969482422,130.75,131.0,131.52000427246094,358100.0,128.30853271484375
2017-09-27,132.0,130.7899932861328,131.61000061035156,131.36000061035156,609500.0,128.15245056152344
2017-09-28,131.50999450683594,130.1699981689453,131.1300048828125,130.9499969482422,522500.0,127.75243377685547
2017-09-29,131.74000549316406,130.3800048828125,130.8699951171875,131.67999267578125,455300.0,128.46461486816406
2017-10-02,132.8300018310547,131.52000427246094,131.82000732421875,132.80999755859375,499200.0,129.56703186035156
2017-10-03,133.8000030517578,132.25,133.0,133.30999755859375,491200.0,130.05482482910156
2017-10-04,134.00999450683594,132.58999633789062,133.00999450683594,134.0,412900.0,130.72796630859375
2017-10-05,135.0,134.0,134.13999938964844,134.7899932861328,411200.0,131.49868774414062
2017-10-06,135.75,134.19000244140625,134.4600067138672,135.66000366210938,419700.0,132.34742736816406
2017-10-09,136.2100067138672,135.5500030517578,136.0,135.8800048828125,425000.0,132.56207275390625
2017-10-10,136.6300048828125,135.5399932861328,136.41000366210938,136.07000732421875,491100.0,132.7474365234375
2017-10-11,136.4499969482422,135.63999938964844,136.1199951171875,136.0,466400.0,132.67913818359375
2017-10-12,136.8300018310547,135.80999755859375,135.80999755859375,136.6199951171875,414100.0,133.28399658203125
2017-10-13,137.16000366210938,136.44000244140625,136.94000244140625,136.55999755859375,397200.0,133.2254638671875
2017-10-16,136.85000610351562,135.8300018310547,136.75999450683594,135.89999389648438,400800.0,132.58157348632812
2017-10-17,136.97000122070312,135.9499969482422,135.9499969482422,136.08999633789062,468500.0,132.76693725585938
2017-10-18,136.4499969482422,134.33999633789062,136.3000030517578,134.83999633789062,522900.0,131.54745483398438
2017-10-19,135.74000549316406,133.66000366210938,134.69000244140625,135.61000061035156,470500.0,132.2986297607422
2017-10-20,137.1699981689453,135.49000549316406,136.1999969482422,136.72999572753906,437300.0,133.3912811279297
2017-10-23,137.63999938964844,136.60000610351562,137.2100067138672,136.82000732421875,535800.0,133.47911071777344
2017-10-24,137.38999938964844,136.47999572753906,137.1699981689453,136.9600067138672,405600.0,133.61572265625
2017-10-25,137.44000244140625,136.0800018310547,137.0,136.55999755859375,444100.0,133.2254638671875
2017-10-26,137.38999938964844,135.52999877929688,136.8800048828125,135.86000061035156,400700.0,132.54254150390625
2017-10-27,137.05999755859375,136.11000061035156,136.4600067138672,136.52999877929688,296300.0,133.19618225097656
2017-10-30,136.83999633789062,135.16000366210938,136.6999969482422,135.63999938964844,705600.0,132.32791137695312
2017-10-31,139.52999877929688,135.2100067138672,135.64999389648438,139.32000732421875,830000.0,135.91806030273438
2017-11-01,141.97000122070312,136.7899932861328,140.86000061035156,137.14999389648438,1037200.0,133.80104064941406
2017-11-02,137.27000427246094,135.9499969482422,137.16000366210938,137.10000610351562,609900.0,133.7522735595703
2017-11-03,139.75,137.25999450683594,137.8699951171875,139.41000366210938,994000.0,136.00587463378906
2017-11-06,139.55999755859375,138.35000610351562,139.55999755859375,138.99000549316406,710000.0,135.59613037109375
2017-11-07,139.72000122070312,138.33999633789062,139.02999877929688,139.3699951171875,511400.0,135.96685791015625
2017-11-08,141.5399932861328,139.0,139.2899932861328,141.2899932861328,601000.0,137.8399658203125
2017-11-09,140.80999755859375,136.77000427246094,140.4600067138672,137.55999755859375,672100.0,134.20101928710938
2017-11-10,138.8800048828125,136.92999267578125,136.92999267578125,138.75999450683594,591800.0,135.3717498779297
2017-11-13,139.47999572753906,137.86000061035156,138.22000122070312,138.97000122070312,392200.0,135.57659912109375
2017-11-14,139.3699951171875,137.25,138.5500030517578,139.33999633789062,462500.0,135.9375762939453
2017-11-15,139.1999969482422,137.82000732421875,139.1300048828125,138.97000122070312,413600.0,135.57659912109375
2017-11-16,140.47999572753906,139.25999450683594,139.27000427246094,140.35000610351562,502500.0,137.48683166503906
2017-11-17,141.1199951171875,139.72999572753906,140.08999633789062,139.83999633789062,610700.0,136.98724365234375
2017-11-20,142.0399932861328,140.25,140.3699951171875,141.9199981689453,571300.0,139.02479553222656
2017-11-21,144.75,142.50999450683594,142.97999572753906,144.0,1053500.0,141.06236267089844
2017-11-22,144.0,142.52000427246094,144.0,142.52000427246094,596300.0,139.612548828125
2017-11-24,144.24000549316406,142.35000610351562,142.77000427246094,143.94000244140625,310700.0,141.0036163330078
2017-11-27,144.24000549316406,143.10000610351562,144.02999877929688,143.5,502100.0,140.5725860595703
2017-11-28,144.47000122070312,143.52000427246094,143.88999938964844,144.1999969482422,601600.0,141.25828552246094
2017-11-29,144.6300048828125,142.0,144.1999969482422,143.22000122070312,658600.0,140.2982940673828
2017-11-30,144.94000244140625,142.58999633789062,143.97999572753906,144.5,2345000.0,141.5521697998047
2017-12-01,144.41000366210938,140.97999572753906,144.1999969482422,142.86000061035156,784900.0,139.94561767578125
2017-12-04,144.0399932861328,141.11000061035156,144.0399932861328,141.69000244140625,688300.0,138.79949951171875
2017-12-05,143.7899932861328,141.17999267578125,142.05999755859375,142.5800018310547,704900.0,139.67135620117188
2017-12-06,143.22000122070312,141.7899932861328,142.41000366210938,142.52000427246094,428100.0,139.612548828125
2017-12-07,143.58999633789062,142.22999572753906,142.22999572753906,143.1999969482422,312800.0,140.2786865234375
2017-12-08,144.10000610351562,142.85000610351562,143.9600067138672,143.25,462200.0,140.3276824951172
2017-12-11,143.91000366210938,138.0800018310547,138.0800018310547,142.63999938964844,492200.0,139.7301025390625
2017-12-12,142.7899932861328,140.88999938964844,142.36000061035156,141.4199981689453,662200.0,138.53500366210938
2017-12-13,143.55999755859375,141.17999267578125,141.3300018310547,141.94000244140625,657600.0,139.0443878173828
2017-12-14,142.57000732421875,141.24000549316406,142.57000732421875,141.27000427246094,562200.0,138.3880615234375
2017-12-15,144.60000610351562,141.7100067138672,142.25999450683594,144.08999633789062,2392400.0,141.15054321289062
2017-12-18,144.6999969482422,142.5500030517578,144.6999969482422,142.6699981689453,687000.0,139.75949096679688
2017-12-19,143.83999633789062,142.05999755859375,142.7100067138672,142.57000732421875,469200.0,139.66156005859375
2017-12-20,143.19000244140625,141.91000366210938,142.88999938964844,142.33999633789062,524200.0,139.43624877929688
2017-12-21,143.11000061035156,141.72999572753906,142.86000061035156,142.7899932861328,387600.0,139.87704467773438
2017-12-22,143.10000610351562,141.97000122070312,143.0399932861328,142.77999877929688,350200.0,139.8672637939453
2017-12-26,143.19000244140625,141.83999633789062,142.67999267578125,142.1999969482422,323000.0,139.29908752441406
2017-12-27,143.35000610351562,142.0500030517578,142.3000030517578,143.22000122070312,285700.0,140.2982940673828
2017-12-28,143.86000061035156,141.89999389648438,143.86000061035156,143.22000122070312,540500.0,140.2982940673828
2017-12-29,143.2899932861328,141.6199951171875,143.2899932861328,141.64999389648438,616500.0,138.7602996826172
2018-01-02,142.77999877929688,141.30999755859375,142.0399932861328,142.07000732421875,932400.0,139.1717529296875
2018-01-03,143.25999450683594,140.83999633789062,142.47000122070312,142.82000732421875,766300.0,139.90646362304688
2018-01-04,143.55999755859375,142.00999450683594,142.92999267578125,142.42999267578125,651000.0,139.52439880371094
2018-01-05,143.85000610351562,142.00999450683594,142.69000244140625,143.74000549316406,686800.0,140.8076934814453
2018-01-08,146.6300048828125,143.6199951171875,143.80999755859375,146.39999389648438,590300.0,143.4134063720703
2018-01-09,146.9600067138672,145.25,146.75,145.6199951171875,763300.0,142.64932250976562
2018-01-10,145.38999938964844,143.92999267578125,145.3300018310547,145.14999389648438,422900.0,142.18890380859375
2018-01-11,145.91000366210938,144.8699951171875,145.16000366210938,145.3000030517578,449300.0,142.3358612060547
2018-01-12,147.3300018310547,145.11000061035156,145.25,147.2100067138672,565500.0,144.20689392089844
2018-01-16,148.72999572753906,145.66000366210938,148.55999755859375,145.77000427246094,570300.0,142.79627990722656
2018-01-17,147.77000427246094,145.64999389648438,146.1300048828125,147.61000061035156,618800.0,144.59872436523438
2018-01-18,148.49000549316406,145.7100067138672,147.6999969482422,145.74000549316406,598300.0,142.7668914794922
2018-01-19,146.44000244140625,145.52999877929688,146.4199981689453,145.88999938964844,522200.0,142.913818359375
2018-01-22,145.75999450683594,142.63999938964844,145.75999450683594,143.19000244140625,880600.0,140.26890563964844
2018-01-23,143.44000244140625,142.1999969482422,143.44000244140625,142.41000366210938,657000.0,139.5048065185547
2018-01-24,144.11000061035156,142.55999755859375,142.6199951171875,143.10000610351562,604500.0,140.1807403564453
2018-01-25,144.6999969482422,143.10000610351562,143.60000610351562,144.47000122070312,449500.0,141.52279663085938
2018-01-26,146.1699981689453,143.27000427246094,145.0,146.14999389648438,1033000.0,143.1685028076172
2018-01-29,147.86000061035156,146.32000732421875,146.3699951171875,147.19000244140625,812300.0,144.18728637695312
2018-01-30,157.6999969482422,148.3300018310547,148.9499969482422,156.30999755859375,1633300.0,153.1212615966797
2018-01-31,160.22999572753906,157.02000427246094,157.36000061035156,159.3800048828125,1198100.0,156.1286163330078
2018-02-01,160.6699981689453,157.07000732421875,158.8699951171875,157.67999267578125,1022300.0,154.4633026123047
2018-02-02,158.74000549316406,155.77000427246094,157.17999267578125,155.89999389648438,788600.0,152.7196044921875
2018-02-05,156.14999389648438,146.24000549316406,154.27000427246094,148.1999969482422,1237900.0,145.1766815185547
2018-02-06,149.3000030517578,143.02999877929688,144.67999267578125,148.63999938964844,1217700.0,145.6077117919922
2018-02-07,153.8800048828125,147.3699951171875,148.44000244140625,152.7899932861328,1165600.0,149.6730499267578
2018-02-08,155.3000030517578,149.8000030517578,154.44000244140625,149.83999633789062,1432400.0,146.78323364257812
2018-02-09,154.72000122070312,148.82000732421875,151.00999450683594,153.02000427246094,1290100.0,149.8983612060547
2018-02-12,154.5,150.61000061035156,153.77999877929688,152.7899932861328,828700.0,149.6730499267578
2018-02-13,153.27999877929688,151.07000732421875,151.8800048828125,153.02000427246094,928600.0,149.8983612060547
2018-02-14,155.27999877929688,151.72999572753906,152.25999450683594,154.97000122070312,651300.0,151.80857849121094
2018-02-15,156.92999267578125,153.89999389648438,155.97999572753906,156.22999572753906,706500.0,153.0428924560547
2018-02-16,157.22999572753906,154.50999450683594,155.7899932861328,156.66000366210938,633900.0,153.464111328125
2018-02-20,158.5,155.75,156.30999755859375,157.00999450683594,582300.0,153.8069610595703
2018-02-21,161.0399932861328,156.61000061035156,157.2100067138672,158.1699981689453,901400.0,154.94329833984375
2018-02-22,159.9199981689453,157.63999938964844,158.38999938964844,157.99000549316406,534400.0,154.76699829101562
2018-02-23,158.80999755859375,157.1699981689453,158.36000061035156,158.8000030517578,422700.0,155.56045532226562
2018-02-26,160.8300018310547,158.6199951171875,159.4600067138672,159.5399932861328,494400.0,156.2853546142578
2018-02-27,161.0,159.0,159.27000427246094,159.02000427246094,571200.0,155.7759552001953
2018-02-28,159.91000366210938,156.11000061035156,159.8800048828125,156.14999389648438,794100.0,152.96450805664062
2018-03-01,156.39999389648438,150.74000549316406,156.39999389648438,152.8699951171875,1140600.0,149.7514190673828
2018-03-02,154.36000061035156,150.0500030517578,151.58999633789062,153.86000061035156,629400.0,150.72122192382812
2018-03-05,154.33999633789062,151.1999969482422,153.0,154.25999450683594,748700.0,151.11306762695312
2018-03-06,154.9600067138672,153.77999877929688,154.63999938964844,154.6699981689453,527600.0,151.5146942138672
2018-03-07,156.25999450683594,152.50999450683594,152.97000122070312,155.75999450683594,765400.0,153.1468505859375
2018-03-08,156.2899932861328,153.74000549316406,156.2100067138672,155.74000549316406,569900.0,153.127197265625
2018-03-09,157.77999877929688,155.57000732421875,156.5,157.72000122070312,483400.0,155.07395935058594
2018-03-12,159.5800018310547,157.5500030517578,158.13999938964844,158.02000427246094,876000.0,155.3689422607422
2018-03-13,159.5,157.60000610351562,158.52000427246094,158.10000610351562,724500.0,155.44761657714844
2018-03-14,159.67999267578125,156.6199951171875,159.05999755859375,157.5800018310547,650300.0,154.9363250732422
2018-03-15,158.4600067138672,156.7899932861328,157.75,158.17999267578125,609400.0,155.52622985839844
2018-03-16,158.41000366210938,155.24000549316406,158.1300048828125,156.50999450683594,2300100.0,153.88426208496094
2018-03-19,156.66000366210938,154.75999450683594,156.0500030517578,156.42999267578125,955600.0,153.8056182861328
2018-03-20,158.89999389648438,156.3800048828125,156.9499969482422,158.82000732421875,775000.0,156.155517578125
2018-03-21,161.0399932861328,158.72999572753906,159.13999938964844,159.80999755859375,610200.0,157.12890625
2018-03-22,160.88999938964844,154.25999450683594,158.4199981689453,154.57000732421875,750300.0,151.97682189941406
2018-03-23,159.7100067138672,154.6300048828125,154.6300048828125,157.19000244140625,892900.0,154.55287170410156
2018-03-26,162.3699951171875,158.8300018310547,158.8300018310547,162.07000732421875,1035700.0,159.35098266601562
2018-03-27,164.5800018310547,159.44000244140625,162.8800048828125,160.35000610351562,1218300.0,157.65985107421875
2018-03-28,161.3000030517578,158.75,160.4199981689453,159.77999877929688,1299600.0,157.0994110107422
2018-03-29,162.4199981689453,158.7100067138672,159.9600067138672,161.27999877929688,1367600.0,158.57423400878906
2018-04-02,161.8699951171875,157.67999267578125,160.97999572753906,159.6300048828125,1018100.0,156.95193481445312
2018-04-03,161.0,157.47999572753906,160.3000030517578,159.6999969482422,903800.0,157.02073669433594
2018-04-04,162.30999755859375,157.4600067138672,157.7100067138672,162.2899932861328,650300.0,159.56729125976562
2018-04-05,164.69000244140625,161.88999938964844,162.86000061035156,164.3300018310547,793800.0,161.57308959960938
2018-04-06,164.39999389648438,159.82000732421875,163.2899932861328,161.0399932861328,584300.0,158.3382568359375
2018-04-09,164.63999938964844,161.9600067138672,162.22999572753906,162.8300018310547,757800.0,160.09823608398438
2018-04-10,164.6199951171875,161.1999969482422,164.32000732421875,162.38999938964844,870100.0,159.66563415527344
2018-04-11,163.17999267578125,160.8300018310547,161.52999877929688,161.86000061035156,665100.0,159.14450073242188
2018-04-12,163.92999267578125,161.97999572753906,162.13999938964844,162.75999450683594,569700.0,160.02940368652344
2018-04-13,163.50999450683594,161.13999938964844,162.8699951171875,161.69000244140625,425700.0,158.97738647460938
2018-04-16,165.42999267578125,162.33999633789062,163.3000030517578,165.17999267578125,590600.0,162.4088134765625
2018-04-17,167.60000610351562,165.35000610351562,165.92999267578125,166.9600067138672,449600.0,164.15895080566406
2018-04-18,168.55999755859375,166.69000244140625,167.52000427246094,168.27999877929688,495600.0,165.45680236816406
2018-04-19,169.27999877929688,167.08999633789062,168.2100067138672,168.86000061035156,468100.0,166.02706909179688
2018-04-20,169.52999877929688,167.61000061035156,168.6300048828125,168.0,480900.0,165.18150329589844
2018-04-23,169.13999938964844,168.0,168.64999389648438,169.0,357200.0,166.1647186279297
2018-04-24,170.5399932861328,162.38999938964844,169.64999389648438,164.82000732421875,765300.0,162.0548553466797
2018-04-25,164.9600067138672,158.64999389648438,164.47999572753906,161.16000366210938,1082400.0,158.4562530517578
2018-04-26,161.75,159.30999755859375,161.07000732421875,159.75,1272800.0,157.06991577148438
2018-04-27,161.1300048828125,157.60000610351562,159.75,158.14999389648438,659900.0,155.4967498779297
2018-04-30,158.8300018310547,156.0800018310547,158.33999633789062,156.4199981689453,750000.0,153.7957763671875
2018-05-01,157.5399932861328,151.02000427246094,157.16000366210938,151.77999877929688,1228200.0,149.233642578125
2018-05-02,157.33999633789062,146.32000732421875,153.3000030517578,146.75999450683594,1298300.0,144.29782104492188
2018-05-03,148.22999572753906,143.25999450683594,145.94000244140625,147.3000030517578,1109000.0,144.8287811279297
2018-05-04,149.9199981689453,146.08999633789062,146.64999389648438,149.83999633789062,825500.0,147.326171875
2018-05-07,150.72000122070312,148.49000549316406,149.83999633789062,149.8800048828125,878200.0,147.36550903320312
2018-05-08,154.3800048828125,151.00999450683594,151.3800048828125,153.94000244140625,1612500.0,151.35739135742188
2018-05-09,155.74000549316406,153.27999877929688,154.30999755859375,155.38999938964844,726600.0,152.78305053710938
2018-05-10,156.8000030517578,155.2100067138672,156.02999877929688,156.7100067138672,500900.0,154.0809326171875
2018-05-11,157.3699951171875,155.86000061035156,156.24000549316406,156.64999389648438,465600.0,154.02191162109375
2018-05-14,156.77999877929688,154.41000366210938,156.77999877929688,155.1699981689453,500000.0,152.56675720214844
2018-05-15,155.00999450683594,153.80999755859375,154.27999877929688,154.8800048828125,526200.0,152.2816162109375
2018-05-16,155.8000030517578,153.6199951171875,155.10000610351562,153.6999969482422,616800.0,151.12139892578125
2018-05-17,153.4499969482422,151.97000122070312,153.08999633789062,152.83999633789062,942700.0,150.27584838867188
2018-05-18,154.1300048828125,152.27999877929688,152.75,153.89999389648438,674400.0,151.31805419921875
2018-05-21,155.27000427246094,153.1699981689453,154.63999938964844,154.47000122070312,558800.0,151.8784942626953
2018-05-22,154.52000427246094,150.67999267578125,154.0800018310547,150.72999572753906,614200.0,148.20123291015625
2018-05-23,154.11000061035156,149.83999633789062,150.13999938964844,153.92999267578125,620700.0,151.3475341796875
2018-05-24,154.3800048828125,152.1699981689453,153.41000366210938,153.91000366210938,618800.0,151.32789611816406
2018-05-25,154.25999450683594,152.47000122070312,153.89999389648438,152.89999389648438,394400.0,150.33482360839844
2018-05-29,152.39999389648438,150.35000610351562,152.25,150.86000061035156,655700.0,148.3290557861328
2018-05-30,154.2100067138672,150.60000610351562,151.57000732421875,152.75,616000.0,150.18734741210938
2018-05-31,151.99000549316406,150.14999389648438,151.8800048828125,150.47000122070312,759100.0,148.49974060058594
2018-06-01,153.25999450683594,150.92999267578125,151.2899932861328,152.69000244140625,502400.0,150.69068908691406
2018-06-04,154.1199951171875,152.2899932861328,153.4199981689453,152.89999389648438,419500.0,150.89791870117188
2018-06-05,153.19000244140625,151.2899932861328,152.44000244140625,152.9499969482422,1039800.0,150.947265625
2018-06-06,153.89999389648438,152.7899932861328,153.13999938964844,153.47999572753906,852000.0,151.4703369140625
2018-06-07,154.38999938964844,152.33999633789062,153.4199981689453,152.97999572753906,434100.0,150.97686767578125
2018-06-08,154.75,152.64999389648438,153.0,154.64999389648438,457700.0,152.625
2018-06-11,156.1999969482422,153.8699951171875,154.4199981689453,154.22999572753906,907100.0,152.21051025390625
2018-06-12,154.9600067138672,151.86000061035156,154.9600067138672,152.36000061035156,455200.0,150.364990234375
2018-06-13,153.14999389648438,151.99000549316406,152.0399932861328,152.24000549316406,682600.0,150.24656677246094
2018-06-14,153.5,149.7899932861328,152.60000610351562,149.9499969482422,523000.0,147.98654174804688
2018-06-15,149.33999633789062,147.24000549316406,149.33999633789062,149.22999572753906,1513800.0,147.27597045898438
2018-06-18,149.6999969482422,147.97999572753906,148.57000732421875,149.27000427246094,742800.0,147.31546020507812
2018-06-19,148.16000366210938,145.0,147.92999267578125,145.4499969482422,802900.0,143.5454559326172
2018-06-20,146.19000244140625,144.83999633789062,145.38999938964844,145.22999572753906,562400.0,143.32835388183594
2018-06-21,145.27000427246094,142.60000610351562,144.3699951171875,143.14999389648438,802100.0,141.27557373046875
2018-06-22,144.13999938964844,142.5,143.6699981689453,143.6999969482422,1387400.0,141.81838989257812
2018-06-25,145.0399932861328,142.6999969482422,143.38999938964844,144.1199951171875,542300.0,142.23289489746094
2018-06-26,145.3000030517578,143.66000366210938,144.33999633789062,144.2899932861328,598700.0,142.40066528320312
2018-06-27,146.9499969482422,143.72999572753906,144.5800018310547,143.82000732421875,686400.0,141.93682861328125
2018-06-28,145.25,143.0,143.50999450683594,144.75999450683594,431700.0,142.864501953125
2018-06-29,146.19000244140625,144.3800048828125,145.25999450683594,144.5399932861328,718400.0,142.64736938476562
2018-07-02,146.08999633789062,142.9600067138672,143.6999969482422,145.97000122070312,506300.0,144.05865478515625
2018-07-03,147.02999877929688,145.36000061035156,146.27000427246094,145.75999450683594,378500.0,143.8513946533203
2018-07-05,146.17999267578125,143.38999938964844,145.64999389648438,143.97000122070312,932800.0,142.08485412597656
2018-07-06,145.02000427246094,142.9499969482422,143.9199981689453,144.3000030517578,506700.0,142.41053771972656
2018-07-09,146.61000061035156,144.72999572753906,145.0,145.9499969482422,934800.0,144.03892517089844
2018-07-10,146.9499969482422,145.52000427246094,146.3699951171875,146.44000244140625,638800.0,144.5225067138672
2018-07-11,145.8800048828125,144.36000061035156,145.14999389648438,144.77000427246094,455200.0,142.8743896484375
2018-07-12,147.67999267578125,144.64999389648438,145.25999450683594,147.5399932861328,614200.0,145.60809326171875
2018-07-13,149.14999389648438,147.44000244140625,147.47999572753906,148.88999938964844,649600.0,146.94041442871094
2018-07-16,151.0800018310547,149.4600067138672,149.4600067138672,149.57000732421875,573100.0,147.61154174804688
2018-07-17,151.97999572753906,149.19000244140625,149.19000244140625,151.63999938964844,751600.0,149.6544189453125
2018-07-18,152.77999877929688,151.1699981689453,151.63999938964844,152.14999389648438,604300.0,150.15773010253906
2018-07-19,152.17999267578125,150.4499969482422,151.6300048828125,150.52999877929688,580400.0,148.5589599609375
2018-07-20,151.52999877929688,150.0,150.11000061035156,150.89999389648438,430700.0,148.92410278320312
2018-07-23,151.24000549316406,149.8000030517578,150.8699951171875,150.17999267578125,423700.0,148.21353149414062
2018-07-24,152.05999755859375,149.1199951171875,150.9600067138672,150.97999572753906,630200.0,149.0030517578125
2018-07-25,151.5800018310547,148.75,150.47999572753906,151.36000061035156,513000.0,149.37808227539062
2018-07-26,153.72999572753906,150.22000122070312,151.41000366210938,153.25,814600.0,151.24334716796875
2018-07-27,154.91000366210938,152.97999572753906,153.32000732421875,153.8800048828125,524800.0,151.86509704589844
2018-07-30,154.60000610351562,149.77999877929688,153.75,150.38999938964844,784900.0,148.42079162597656
2018-07-31,165.83999633789062,151.1999969482422,151.1999969482422,164.9499969482422,1368000.0,162.79014587402344
2018-08-01,168.91000366210938,163.67999267578125,164.00999450683594,163.92999267578125,1505600.0,161.7834930419922
2018-08-02,164.41000366210938,161.1699981689453,163.19000244140625,163.44000244140625,917700.0,161.29991149902344
2018-08-03,163.63999938964844,160.63999938964844,163.0399932861328,162.3800048828125,690500.0,160.2537841796875
2018-08-06,162.85000610351562,160.39999389648438,162.0,162.63999938964844,537800.0,160.5103759765625
2018-08-07,164.75999450683594,162.10000610351562,162.94000244140625,164.1300048828125,431000.0,161.98089599609375
2018-08-08,165.1300048828125,162.57000732421875,164.4199981689453,164.47999572753906,708200.0,162.3262939453125
2018-08-09,165.63999938964844,163.88999938964844,164.0,164.57000732421875,423600.0,162.41513061523438
2018-08-10,164.63999938964844,163.0,164.0399932861328,163.25999450683594,543000.0,161.1222686767578
2018-08-13,163.5500030517578,161.91000366210938,162.8000030517578,162.5500030517578,1025000.0,160.42156982421875
2018-08-14,165.4600067138672,162.74000549316406,162.74000549316406,164.89999389648438,507100.0,162.74078369140625
2018-08-15,164.57000732421875,162.25,164.16000366210938,162.8000030517578,708900.0,160.6682891845703
2018-08-16,164.2899932861328,163.02999877929688,163.39999389648438,163.86000061035156,560500.0,161.7144317626953
2018-08-17,165.6199951171875,163.32000732421875,163.72999572753906,164.66000366210938,1260400.0,162.50393676757812
2018-08-20,166.22000122070312,164.3800048828125,165.66000366210938,165.2100067138672,502400.0,163.0467529296875
2018-08-21,166.83999633789062,164.6999969482422,165.5399932861328,166.14999389648438,708300.0,163.97442626953125
2018-08-22,165.83999633789062,163.38999938964844,165.3800048828125,163.6999969482422,847200.0,161.5565185546875
2018-08-23,163.58999633789062,161.7100067138672,163.52000427246094,162.0800018310547,671500.0,159.95773315429688
2018-08-24,163.3699951171875,161.67999267578125,162.64999389648438,163.22999572753906,273500.0,161.09266662597656
2018-08-27,164.69000244140625,163.60000610351562,164.19000244140625,164.47999572753906,516500.0,162.3262939453125
2018-08-28,165.99000549316406,163.9199981689453,165.30999755859375,164.66000366210938,443100.0,162.50393676757812
2018-08-29,165.27999877929688,164.2899932861328,164.77000427246094,164.66000366210938,338600.0,162.50393676757812
2018-08-30,165.11000061035156,162.08999633789062,164.58999633789062,162.47000122070312,597500.0,160.34263610839844
2018-08-31,162.83999633789062,161.49000549316406,161.86000061035156,162.50999450683594,589100.0,160.382080078125
2018-09-04,162.6699981689453,161.0500030517578,162.50999450683594,162.3699951171875,537200.0,160.24391174316406
2018-09-05,163.86000061035156,161.97999572753906,162.35000610351562,162.67999267578125,621400.0,160.5498504638672
2018-09-06,163.72999572753906,161.4600067138672,162.4499969482422,161.52000427246094,1004200.0,160.07911682128906
2018-09-07,161.8000030517578,159.6999969482422,161.8000030517578,160.17999267578125,1033400.0,158.75103759765625
2018-09-10,161.9199981689453,160.0,160.57000732421875,161.17999267578125,682400.0,159.74212646484375
2018-09-11,162.10000610351562,160.1699981689453,160.8300018310547,161.32000732421875,362000.0,159.88088989257812
2018-09-12,161.82000732421875,160.25,160.75,161.67999267578125,476600.0,160.2376708984375
2018-09-13,163.60000610351562,161.4600067138672,162.00999450683594,163.47000122070312,425700.0,162.01170349121094
2018-09-14,165.0800018310547,163.24000549316406,163.77999877929688,164.72000122070312,445700.0,163.25054931640625
2018-09-17,166.8300018310547,164.02000427246094,165.0500030517578,166.4499969482422,618300.0,164.96511840820312
2018-09-18,168.52000427246094,165.94000244140625,166.83999633789062,168.02999877929688,452600.0,166.53103637695312
2018-09-19,168.6999969482422,164.92999267578125,167.8699951171875,165.52000427246094,430800.0,164.04342651367188
2018-09-20,166.27000427246094,160.9600067138672,165.9499969482422,162.66000366210938,1067600.0,161.20892333984375
2018-09-21,165.52999877929688,163.0800018310547,163.14999389648438,164.27999877929688,963200.0,162.81448364257812
2018-09-24,163.63999938964844,161.35000610351562,163.3800048828125,162.25999450683594,478800.0,160.8125
2018-09-25,165.7899932861328,162.0,162.64999389648438,164.80999755859375,512000.0,163.33973693847656
2018-09-26,166.7899932861328,164.67999267578125,165.1699981689453,165.25,467500.0,163.7758331298828
2018-09-27,167.85000610351562,165.1999969482422,165.47000122070312,167.1999969482422,704100.0,165.7084197998047
2018-09-28,169.97999572753906,167.11000061035156,167.33999633789062,169.2100067138672,674100.0,167.70050048828125
2018-10-01,170.32000732421875,167.88999938964844,170.0,168.57000732421875,326100.0,167.0662078857422
2018-10-02,169.6199951171875,168.25999450683594,168.99000549316406,168.5,505100.0,166.99684143066406
2018-10-03,170.72000122070312,168.3000030517578,168.99000549316406,169.08999633789062,604000.0,167.58157348632812
2018-10-04,169.0500030517578,167.61000061035156,168.8699951171875,168.6199951171875,434600.0,167.11575317382812
2018-10-05,170.11000061035156,167.30999755859375,168.91000366210938,167.55999755859375,371100.0,166.06521606445312
2018-10-08,167.8800048828125,166.0,167.55999755859375,167.33999633789062,450100.0,165.84716796875
2018-10-09,167.22000122070312,165.61000061035156,166.52999877929688,166.2899932861328,438700.0,164.80654907226562
2018-10-10,165.99000549316406,160.3300018310547,165.99000549316406,160.64999389648438,707200.0,159.21685791015625
2018-10-11,160.9499969482422,154.14999389648438,159.99000549316406,154.22000122070312,847600.0,152.84422302246094
2018-10-12,157.22000122070312,151.8800048828125,156.42999267578125,154.8699951171875,901000.0,153.48841857910156
2018-10-15,174.2899932861328,163.4199981689453,164.1699981689453,173.25,4727500.0,171.70445251464844
2018-10-16,175.5,170.57000732421875,174.27000427246094,173.52999877929688,2450800.0,171.98196411132812
2018-10-17,173.27999877929688,169.55999755859375,172.99000549316406,171.57000732421875,1759400.0,170.03945922851562
2018-10-18,172.75,169.32000732421875,171.0399932861328,170.6999969482422,1140600.0,169.1772003173828
2018-10-19,170.8000030517578,168.27000427246094,170.8000030517578,168.92999267578125,1143500.0,167.42298889160156
2018-10-22,172.07000732421875,168.08999633789062,169.77000427246094,171.69000244140625,1297100.0,170.1583709716797
2018-10-23,172.8699951171875,168.35000610351562,168.72999572753906,169.11000061035156,1396600.0,167.6013946533203
2018-10-24,169.67999267578125,161.7100067138672,169.1300048828125,162.1999969482422,1222200.0,160.75302124023438
2018-10-25,163.86000061035156,159.39999389648438,162.77999877929688,161.02999877929688,1167500.0,159.59347534179688
2018-10-26,161.92999267578125,156.11000061035156,158.61000061035156,160.83999633789062,1338600.0,159.40516662597656
2018-10-29,163.02999877929688,145.1999969482422,162.75999450683594,146.69000244140625,1918100.0,145.3813934326172
2018-10-30,151.11000061035156,143.16000366210938,146.19000244140625,150.85000610351562,1855400.0,149.50430297851562
2018-10-31,155.00999450683594,148.61000061035156,152.3300018310547,148.7100067138672,1486300.0,147.3833770751953
2018-11-01,151.57000732421875,148.61000061035156,149.75,150.00999450683594,1355200.0,148.67176818847656
2018-11-02,151.3300018310547,146.80999755859375,150.57000732421875,147.02999877929688,1578600.0,145.71835327148438
2018-11-05,150.3000030517578,145.83999633789062,147.8300018310547,149.5500030517578,1979500.0,148.21588134765625
2018-11-06,152.97999572753906,149.22999572753906,149.47999572753906,150.55999755859375,1140500.0,149.21685791015625
2018-11-07,153.1199951171875,148.38999938964844,151.19000244140625,153.08999633789062,1282200.0,151.72430419921875
2018-11-08,153.10000610351562,150.1199951171875,152.9499969482422,151.50999450683594,684600.0,150.15838623046875
2018-11-09,153.77000427246094,150.4600067138672,151.0500030517578,153.13999938964844,638400.0,151.77386474609375
2018-11-12,153.27999877929688,148.50999450683594,153.27999877929688,148.6999969482422,723700.0,147.3734588623047
2018-11-13,152.47999572753906,149.07000732421875,150.27000427246094,150.42999267578125,1269600.0,149.08802795410156
2018-11-14,152.5,148.61000061035156,151.52999877929688,149.41000366210938,975100.0,148.07713317871094
2018-11-15,151.57000732421875,147.47000122070312,148.10000610351562,151.02999877929688,1130900.0,149.68267822265625
2018-11-16,152.4600067138672,149.80999755859375,150.19000244140625,150.91000366210938,790600.0,149.56375122070312
2018-11-19,151.10000610351562,147.14999389648438,150.77999877929688,148.10000610351562,1441200.0,146.77882385253906
2018-11-20,146.91000366210938,143.9600067138672,145.97000122070312,146.49000549316406,955100.0,145.18319702148438
2018-11-21,147.24000549316406,144.27999877929688,146.4499969482422,144.7899932861328,899800.0,144.17250061035156
2018-11-23,146.6699981689453,144.0500030517578,144.08999633789062,145.1699981689453,334900.0,144.55088806152344
2018-11-26,147.4600067138672,144.47999572753906,146.25999450683594,145.75999450683594,914400.0,145.13836669921875
2018-11-27,145.7100067138672,139.14999389648438,145.10000610351562,140.77999877929688,1538600.0,140.1796112060547
2018-11-28,143.75,140.4199981689453,141.33999633789062,143.60000610351562,1107900.0,142.9875946044922
2018-11-29,145.13999938964844,142.2899932861328,143.86000061035156,143.1300048828125,905000.0,142.51959228515625
2018-11-30,143.6999969482422,140.74000549316406,143.3000030517578,142.9499969482422,2183100.0,142.34036254882812
2018-12-03,146.00999450683594,141.6300048828125,145.3300018310547,142.8000030517578,1195800.0,142.19100952148438
2018-12-04,143.30999755859375,137.94000244140625,142.1300048828125,139.0399932861328,1381000.0,138.447021484375
2018-12-06,139.85000610351562,134.3000030517578,137.24000549316406,139.75,1353200.0,139.1540069580078
2018-12-07,140.39999389648438,138.8000030517578,138.9600067138672,139.39999389648438,1179600.0,138.8054962158203
2018-12-10,144.47999572753906,138.92999267578125,140.0,143.4499969482422,1637300.0,142.83822631835938
2018-12-11,146.27000427246094,143.63999938964844,145.16000366210938,144.97999572753906,1897500.0,144.3616943359375
2018-12-12,148.2899932861328,145.5800018310547,146.80999755859375,147.02000427246094,1414400.0,146.39300537109375
2018-12-13,148.92999267578125,146.60000610351562,148.14999389648438,148.44000244140625,1274500.0,147.80694580078125
2018-12-14,148.5,146.64999389648438,147.02000427246094,148.47000122070312,1306500.0,147.83682250976562
2018-12-17,148.52999877929688,145.22999572753906,147.94000244140625,145.91000366210938,2473500.0,145.28773498535156
2018-12-18,146.89999389648438,141.77999877929688,146.63999938964844,142.9499969482422,1298400.0,142.34036254882812
2018-12-19,144.27999877929688,136.8300018310547,142.60000610351562,138.4600067138672,1053000.0,137.86952209472656
2018-12-20,138.52000427246094,132.32000732421875,137.9199981689453,134.5399932861328,1305700.0,133.96621704101562
2018-12-21,133.36000061035156,127.9800033569336,133.36000061035156,128.61000061035156,2142000.0,128.0615234375
2018-12-24,129.22000122070312,125.70999908447266,128.1199951171875,127.26000213623047,1026400.0,126.71727752685547
2018-12-26,128.47000122070312,123.23999786376953,127.44000244140625,128.22999572753906,900100.0,127.6831283569336
2018-12-27,131.63999938964844,125.45999908447266,126.88999938964844,131.63999938964844,1014900.0,131.07859802246094
2018-12-28,133.11000061035156,130.30999755859375,132.47000122070312,131.17999267578125,827300.0,130.62054443359375
2018-12-31,134.64999389648438,131.80999755859375,132.07000732421875,134.64999389648438,696200.0,134.07574462890625
