Date,High,Low,Open,Close,Volume,Adj Close
2016-01-04,90.62000274658203,89.18000030517578,90.41000366210938,90.02999877929688,564600.0,79.36061096191406
2016-01-05,91.33000183105469,89.7300033569336,90.02999877929688,91.16000366210938,515500.0,80.356689453125
2016-01-06,91.36000061035156,90.0199966430664,90.41000366210938,90.69000244140625,462000.0,79.94239044189453
2016-01-07,91.51000213623047,89.1500015258789,89.62999725341797,90.8499984741211,698000.0,80.08342742919922
2016-01-08,91.66999816894531,90.0999984741211,91.12999725341797,90.26000213623047,575400.0,79.5633544921875
2016-01-11,91.87000274658203,89.55000305175781,90.45999908447266,90.55999755859375,698900.0,79.82779693603516
2016-01-12,90.88999938964844,89.5199966430664,90.88999938964844,90.29000091552734,491400.0,79.58979034423828
2016-01-13,91.0199966430664,88.83000183105469,89.7300033569336,89.30000305175781,546000.0,79.43856811523438
2016-01-14,90.19999694824219,88.62000274658203,89.2699966430664,89.38999938964844,792700.0,79.51861572265625
2016-01-15,90.48999786376953,87.19000244140625,88.05000305175781,90.3499984741211,968500.0,80.37261199951172
2016-01-19,91.93000030517578,90.01000213623047,90.79000091552734,91.08000183105469,550800.0,81.02201080322266
2016-01-20,90.83999633789062,87.69000244140625,90.36000061035156,89.37000274658203,995800.0,79.50083923339844
2016-01-21,90.7699966430664,88.80000305175781,89.94999694824219,89.33999633789062,650300.0,79.47413635253906
2016-01-22,91.94999694824219,88.9800033569336,90.31999969482422,91.4800033569336,678800.0,81.3778305053711
2016-01-25,92.94000244140625,90.9000015258789,91.48999786376953,92.52999877929688,679700.0,82.3118667602539
2016-01-26,94.87000274658203,92.5199966430664,92.83999633789062,94.80000305175781,699600.0,84.3311996459961
2016-01-27,94.66999816894531,91.66999816894531,94.66999816894531,92.36000061035156,693200.0,82.16064453125
2016-01-28,93.44000244140625,91.16000366210938,92.62000274658203,91.93000030517578,493100.0,81.77813720703125
2016-01-29,94.0,91.5,92.8499984741211,93.81999969482422,941100.0,83.45941925048828
2016-02-01,94.44999694824219,92.8499984741211,93.19999694824219,93.8499984741211,713700.0,83.48612213134766
2016-02-02,94.29000091552734,92.18000030517578,93.68000030517578,92.41000366210938,762100.0,82.20513916015625
2016-02-03,94.19000244140625,91.02999877929688,92.81999969482422,92.47000122070312,930800.0,82.25850677490234
2016-02-04,92.33999633789062,86.11000061035156,90.47000122070312,87.62999725341797,1655200.0,77.9530029296875
2016-02-05,88.81999969482422,85.25,87.30999755859375,85.55999755859375,978100.0,76.11157989501953
2016-02-08,86.0,82.91000366210938,85.41000366210938,84.63999938964844,663400.0,75.29316711425781
2016-02-09,86.16000366210938,83.66000366210938,83.79000091552734,85.18000030517578,627900.0,75.77354431152344
2016-02-10,87.08000183105469,84.9000015258789,85.5,86.22000122070312,899700.0,76.6987075805664
2016-02-11,85.87000274658203,83.93000030517578,85.05000305175781,84.87000274658203,587500.0,75.4977798461914
2016-02-12,86.87999725341797,84.41000366210938,85.62000274658203,85.48999786376953,753800.0,76.04932403564453
2016-02-16,88.62000274658203,85.48999786376953,86.33999633789062,88.31999969482422,815800.0,78.5667953491211
2016-02-17,89.86000061035156,87.41000366210938,88.5,88.8499984741211,626200.0,79.03826904296875
2016-02-18,91.69000244140625,88.47000122070312,89.26000213623047,91.41000366210938,808500.0,81.31556701660156
2016-02-19,92.19999694824219,89.36000061035156,90.75,91.5999984741211,622400.0,81.48456573486328
2016-02-22,93.4800033569336,91.9000015258789,91.9000015258789,92.97000122070312,462000.0,82.70330047607422
2016-02-23,93.80999755859375,91.63999938964844,92.41999816894531,92.02999877929688,881600.0,81.86710357666016
2016-02-24,92.76000213623047,89.63999938964844,91.4000015258789,91.20999908447266,1181700.0,81.13764190673828
2016-02-25,92.62999725341797,91.66999816894531,91.75,92.27999877929688,532500.0,82.08946990966797
2016-02-26,92.69000244140625,91.48999786376953,92.27999877929688,91.75,663300.0,81.6180191040039
2016-02-29,92.5999984741211,89.76000213623047,91.91000366210938,89.94000244140625,3970800.0,80.00789642333984
2016-03-01,93.9000015258789,90.7300033569336,90.7300033569336,93.87999725341797,682300.0,83.51278686523438
2016-03-02,94.98999786376953,93.19999694824219,93.5199966430664,94.5,542800.0,84.06432342529297
2016-03-03,94.66000366210938,92.7699966430664,94.66000366210938,94.08999633789062,500600.0,83.69960021972656
2016-03-04,94.41999816894531,93.1500015258789,93.91999816894531,93.37000274658203,590300.0,83.05912780761719
2016-03-07,94.2300033569336,92.70999908447266,92.8499984741211,93.79000091552734,432300.0,83.4327392578125
2016-03-08,94.73999786376953,93.5199966430664,93.98999786376953,93.97000122070312,637400.0,83.59284210205078
2016-03-09,94.98999786376953,93.77999877929688,93.80999755859375,94.08999633789062,303200.0,83.69960021972656
2016-03-10,94.83000183105469,92.9800033569336,94.7300033569336,94.05999755859375,353300.0,83.67291259765625
2016-03-11,95.61000061035156,93.44999694824219,94.33000183105469,95.54000091552734,412600.0,84.98948669433594
2016-03-14,96.33999633789062,95.13999938964844,95.51000213623047,96.12000274658203,339500.0,85.50543212890625
2016-03-15,97.22000122070312,95.38999938964844,95.75,97.19999694824219,414400.0,86.46614837646484
2016-03-16,99.9800033569336,96.63999938964844,96.77999877929688,99.37999725341797,841500.0,88.4054183959961
2016-03-17,101.22000122070312,99.0,99.44000244140625,100.9800033569336,500600.0,89.82875061035156
2016-03-18,102.19999694824219,100.30000305175781,100.94999694824219,101.25,819800.0,90.06893157958984
2016-03-21,101.2699966430664,99.19000244140625,100.5,99.5,1004000.0,88.51217651367188
2016-03-22,99.6500015258789,98.4800033569336,99.36000061035156,99.43000030517578,654100.0,88.44991302490234
2016-03-23,99.66999816894531,98.58999633789062,99.55000305175781,98.94999694824219,296100.0,88.0229263305664
2016-03-24,99.08999633789062,97.83000183105469,98.61000061035156,98.30999755859375,466100.0,87.4535903930664
2016-03-28,99.61000061035156,98.33000183105469,98.98999786376953,99.41000366210938,266800.0,88.4321060180664
2016-03-29,101.3499984741211,99.75,99.75,101.29000091552734,599500.0,90.10450744628906
2016-03-30,101.98999786376953,100.69999694824219,101.3499984741211,101.4800033569336,245400.0,90.27352905273438
2016-03-31,102.41999816894531,100.63999938964844,101.22000122070312,102.20999908447266,580200.0,90.92292022705078
2016-04-01,102.8499984741211,101.30999755859375,101.7300033569336,102.5199966430664,324800.0,91.19867706298828
2016-04-04,103.04000091552734,101.45999908447266,102.77999877929688,102.05999755859375,296000.0,90.78948211669922
2016-04-05,102.2300033569336,100.93000030517578,101.41000366210938,101.79000091552734,420600.0,90.5492935180664
2016-04-06,102.43000030517578,101.22000122070312,101.48999786376953,102.30000305175781,267500.0,91.00298309326172
2016-04-07,102.19999694824219,101.30000305175781,101.91999816894531,101.94000244140625,510400.0,90.6827392578125
2016-04-08,103.06999969482422,101.93000030517578,102.31999969482422,102.73999786376953,244900.0,91.3943862915039
2016-04-11,102.62999725341797,101.23999786376953,102.58000183105469,101.25,326800.0,90.06893157958984
2016-04-12,102.27999877929688,100.88999938964844,101.47000122070312,101.80000305175781,528600.0,90.55819702148438
2016-04-13,101.80000305175781,98.91000366210938,101.45999908447266,99.25,689000.0,89.00672149658203
2016-04-14,99.4000015258789,96.12999725341797,98.94999694824219,96.12999725341797,816800.0,86.208740234375
2016-04-15,98.27999877929688,95.86000061035156,96.0,97.8499984741211,822500.0,87.75123596191406
2016-04-18,98.7300033569336,97.5,98.0,98.66000366210938,373500.0,88.4776382446289
2016-04-19,99.08000183105469,98.18000030517578,98.93000030517578,99.05000305175781,409400.0,88.82740020751953
2016-04-20,98.9800033569336,96.7699966430664,98.9800033569336,97.0,364800.0,86.98894500732422
2016-04-21,97.62999725341797,95.2300033569336,97.06999969482422,95.62999725341797,270300.0,85.76033782958984
2016-04-22,96.66999816894531,94.56999969482422,94.56999969482422,96.41000366210938,426200.0,86.45984649658203
2016-04-25,97.26000213623047,95.95999908447266,96.16999816894531,97.25,509900.0,87.2131576538086
2016-04-26,98.54000091552734,97.0199966430664,97.6500015258789,97.5199966430664,322500.0,87.45529174804688
2016-04-27,98.81999969482422,95.7300033569336,97.37000274658203,96.6500015258789,483900.0,86.67506408691406
2016-04-28,97.30000305175781,96.16000366210938,96.37999725341797,96.55999755859375,230400.0,86.5943603515625
2016-04-29,96.3499984741211,94.97000122070312,96.20999908447266,95.70999908447266,343400.0,85.83208465576172
2016-05-02,97.62999725341797,95.7699966430664,95.7699966430664,97.41000366210938,293900.0,87.35665130615234
2016-05-03,97.80999755859375,96.58999633789062,97.19000244140625,97.44000244140625,468900.0,87.383544921875
2016-05-04,99.4800033569336,95.86000061035156,96.80999755859375,99.18000030517578,349600.0,88.94396209716797
2016-05-05,100.7699966430664,98.43000030517578,98.83000183105469,100.56999969482422,476000.0,90.19049835205078
2016-05-06,102.12000274658203,99.45999908447266,100.4800033569336,102.0999984741211,462500.0,91.56259155273438
2016-05-09,102.95999908447266,101.87999725341797,102.41000366210938,102.62999725341797,438000.0,92.03791046142578
2016-05-10,103.86000061035156,102.25,103.08000183105469,102.80999755859375,400000.0,92.1993179321289
2016-05-11,102.87999725341797,100.58000183105469,102.87999725341797,100.68000030517578,491400.0,90.28914642333984
2016-05-12,102.08000183105469,99.87000274658203,100.9000015258789,101.87000274658203,566500.0,91.35633850097656
2016-05-13,102.80000305175781,101.22000122070312,102.01000213623047,102.72000122070312,534800.0,92.11861419677734
2016-05-16,104.05000305175781,102.33000183105469,102.72000122070312,103.66000366210938,435100.0,92.96158599853516
2016-05-17,103.41999816894531,100.26000213623047,103.31999969482422,101.12999725341797,410500.0,90.69271087646484
2016-05-18,101.16999816894531,98.94999694824219,100.79000091552734,99.56999969482422,666000.0,89.293701171875
2016-05-19,99.47000122070312,98.19000244140625,98.56999969482422,99.08999633789062,278500.0,88.8632583618164
2016-05-20,100.69000244140625,99.04000091552734,99.58999633789062,100.0,402300.0,89.67935180664062
2016-05-23,100.45999908447266,99.11000061035156,100.45999908447266,99.41999816894531,248200.0,89.15918731689453
2016-05-24,101.83000183105469,100.08000183105469,100.08000183105469,101.52999877929688,506800.0,91.05142974853516
2016-05-25,101.68000030517578,100.16999816894531,101.68000030517578,101.19999694824219,482200.0,90.75547790527344
2016-05-26,101.69999694824219,100.44000244140625,101.0,100.91000366210938,612100.0,90.49542236328125
2016-05-27,102.3499984741211,100.29000091552734,101.08999633789062,102.3499984741211,361600.0,91.78679656982422
2016-05-31,103.22000122070312,101.44000244140625,102.44999694824219,102.98999786376953,639900.0,92.3607406616211
2016-06-01,102.81999969482422,101.91999816894531,102.3499984741211,102.76000213623047,542200.0,92.15447998046875
2016-06-02,102.79000091552734,101.5,102.43000030517578,101.9000015258789,572300.0,91.38323974609375
2016-06-03,102.98999786376953,99.58999633789062,102.70999908447266,100.25,880000.0,89.90352630615234
2016-06-06,100.58000183105469,97.05000305175781,99.94000244140625,98.1500015258789,711300.0,88.020263671875
2016-06-07,98.95999908447266,97.8499984741211,98.30000305175781,98.19000244140625,569300.0,88.0561294555664
2016-06-08,99.23999786376953,97.43000030517578,98.33000183105469,98.13999938964844,735300.0,88.01129150390625
2016-06-09,98.73999786376953,97.83000183105469,98.19999694824219,98.4800033569336,700300.0,88.31621551513672
2016-06-10,98.5199966430664,97.55999755859375,97.83000183105469,98.13999938964844,498100.0,88.01129150390625
2016-06-13,100.95999908447266,98.25,98.36000061035156,100.36000061035156,561700.0,90.00218200683594
2016-06-14,100.87999725341797,99.5999984741211,100.45999908447266,100.08000183105469,322900.0,89.7510757446289
2016-06-15,101.81999969482422,100.05000305175781,100.19000244140625,101.36000061035156,654400.0,90.89897155761719
2016-06-16,102.55999755859375,101.19000244140625,101.19000244140625,102.16999816894531,444700.0,91.62537384033203
2016-06-17,102.4800033569336,101.05000305175781,102.25,101.68000030517578,572400.0,91.1859359741211
2016-06-20,103.16999816894531,101.37000274658203,102.18000030517578,101.4800033569336,352400.0,91.006591796875
2016-06-21,102.27999877929688,101.51000213623047,101.51000213623047,101.76000213623047,249000.0,91.25769805908203
2016-06-22,102.61000061035156,101.41000366210938,102.04000091552734,101.97000122070312,405200.0,91.44601440429688
2016-06-23,103.02999877929688,102.11000061035156,102.77999877929688,102.33000183105469,430900.0,91.76885986328125
2016-06-24,102.81999969482422,100.08000183105469,100.55000305175781,101.11000061035156,1144500.0,90.6747817993164
2016-06-27,103.22000122070312,100.58999633789062,100.62000274658203,102.91000366210938,676000.0,92.28900146484375
2016-06-28,104.68000030517578,102.3499984741211,103.29000091552734,104.6500015258789,645900.0,93.84944152832031
2016-06-29,106.68000030517578,105.05000305175781,105.33999633789062,105.30000305175781,906300.0,94.43233489990234
2016-06-30,106.43000030517578,104.56999969482422,105.36000061035156,106.4000015258789,1340400.0,95.4188003540039
2016-07-01,108.2300033569336,106.25,106.9800033569336,107.33000183105469,591100.0,96.25282287597656
2016-07-05,109.33999633789062,107.30999755859375,107.30999755859375,109.30000305175781,504500.0,98.01952362060547
2016-07-06,110.01000213623047,108.76000213623047,109.11000061035156,109.66999816894531,543900.0,98.35132598876953
2016-07-07,109.58000183105469,107.4000015258789,109.30000305175781,108.48999786376953,457800.0,97.2931137084961
2016-07-08,109.6500015258789,107.55000305175781,108.73999786376953,108.01000213623047,770700.0,96.86265563964844
2016-07-11,108.9000015258789,107.12999725341797,108.33999633789062,107.87999725341797,794200.0,96.74605560302734
2016-07-12,108.55000305175781,106.80000305175781,107.91000366210938,108.52999877929688,677400.0,97.3289794921875
2016-07-13,108.52999877929688,107.66000366210938,108.0199966430664,108.0199966430664,421500.0,97.6091079711914
2016-07-14,108.54000091552734,105.81999969482422,108.54000091552734,106.06999969482422,565100.0,95.8470458984375
2016-07-15,108.0999984741211,104.94000244140625,106.5999984741211,105.36000061035156,838400.0,95.20547485351562
2016-07-18,107.06999969482422,105.11000061035156,105.63999938964844,105.13999938964844,272200.0,95.00667572021484
2016-07-19,106.1500015258789,104.6500015258789,105.20999908447266,106.0999984741211,339100.0,95.8741455078125
2016-07-20,106.58000183105469,105.68000030517578,106.11000061035156,106.01000213623047,483800.0,95.7928237915039
2016-07-21,106.2699966430664,105.23999786376953,106.05000305175781,105.70999908447266,394800.0,95.52173614501953
2016-07-22,107.5999984741211,105.73999786376953,105.73999786376953,106.75,323100.0,96.46150207519531
2016-07-25,107.41999816894531,105.52999877929688,106.86000061035156,106.44999694824219,337700.0,96.1904067993164
2016-07-26,106.5,105.33000183105469,106.5,105.7699966430664,333100.0,95.5759506225586
2016-07-27,105.48999786376953,102.9000015258789,105.41999816894531,103.7699966430664,924200.0,93.76870727539062
2016-07-28,104.5199966430664,101.44000244140625,103.0,103.80000305175781,534900.0,93.79582214355469
2016-07-29,106.88999938964844,103.61000061035156,103.68000030517578,106.0199966430664,573600.0,95.80186462402344
2016-08-01,106.3499984741211,105.33999633789062,106.0199966430664,105.72000122070312,393200.0,95.53077697753906
2016-08-02,106.16999816894531,103.91000366210938,105.63999938964844,104.23999786376953,299300.0,94.19341278076172
2016-08-03,104.4000015258789,102.62999725341797,104.4000015258789,103.02999877929688,255000.0,93.10002899169922
2016-08-04,103.56999969482422,102.2300033569336,103.55999755859375,102.76000213623047,280100.0,92.85604858398438
2016-08-05,103.20999908447266,102.54000091552734,102.91000366210938,103.19999694824219,290400.0,93.25365447998047
2016-08-08,103.66999816894531,102.77999877929688,103.31999969482422,103.27999877929688,369600.0,93.325927734375
2016-08-09,103.47000122070312,102.5999984741211,103.37000274658203,103.19999694824219,247000.0,93.25365447998047
2016-08-10,103.66999816894531,102.61000061035156,103.26000213623047,103.0,302100.0,93.07292175292969
2016-08-11,104.22000122070312,100.55999755859375,103.16999816894531,101.41999816894531,543600.0,91.64519500732422
2016-08-12,102.94999694824219,101.02999877929688,101.3499984741211,102.1500015258789,439500.0,92.30484771728516
2016-08-15,98.69999694824219,95.80999755859375,98.47000122070312,97.1500015258789,3730800.0,87.78673553466797
2016-08-16,97.25,93.83999633789062,96.75,94.01000213623047,2966400.0,84.94937896728516
2016-08-17,95.33000183105469,92.87000274658203,94.47000122070312,95.0199966430664,1603000.0,85.8620376586914
2016-08-18,95.7300033569336,93.7699966430664,95.05000305175781,94.30000305175781,1566700.0,85.21142578125
2016-08-19,95.91999816894531,93.51000213623047,94.91999816894531,94.55999755859375,921900.0,85.44636535644531
2016-08-22,95.1500015258789,93.27999877929688,94.58000183105469,94.36000061035156,800600.0,85.26564025878906
2016-08-23,95.16999816894531,94.2300033569336,94.58999633789062,94.36000061035156,700000.0,85.26564025878906
2016-08-24,94.36000061035156,92.69000244140625,94.36000061035156,93.1500015258789,735700.0,84.1722640991211
2016-08-25,95.11000061035156,93.0,93.26000213623047,94.37999725341797,962500.0,85.28370666503906
2016-08-26,95.27999877929688,93.05000305175781,94.41999816894531,93.7699966430664,1181500.0,84.73251342773438
2016-08-29,95.31999969482422,94.06999969482422,94.2300033569336,94.41000366210938,717800.0,85.3108139038086
2016-08-30,94.41000366210938,92.9000015258789,94.41000366210938,93.87999725341797,492500.0,84.83191680908203
2016-08-31,94.37999725341797,93.2699966430664,93.69000244140625,93.98999786376953,953200.0,84.93130493164062
2016-09-01,95.44999694824219,93.58000183105469,93.98999786376953,95.0,621000.0,85.84396362304688
2016-09-02,96.94999694824219,95.25,95.3499984741211,95.83000183105469,735600.0,86.59396362304688
2016-09-06,96.05999755859375,95.19000244140625,95.7699966430664,95.9800033569336,751200.0,86.72950744628906
2016-09-07,95.9800033569336,94.9000015258789,95.9800033569336,95.5,743600.0,86.29576873779297
2016-09-08,95.5999984741211,94.5,95.54000091552734,94.98999786376953,638900.0,85.83492279052734
2016-09-09,94.38999938964844,92.38999938964844,94.05999755859375,92.51000213623047,806700.0,83.59394836425781
2016-09-12,94.52999877929688,92.08999633789062,92.2300033569336,94.06999969482422,716600.0,85.00359344482422
2016-09-13,93.44000244140625,91.7699966430664,92.94999694824219,91.95999908447266,804100.0,83.0969467163086
2016-09-14,93.04000091552734,91.8499984741211,92.41999816894531,92.97000122070312,544600.0,84.0096206665039
2016-09-15,93.16999816894531,92.13999938964844,92.83000183105469,92.73999786376953,581100.0,83.8017807006836
2016-09-16,92.81999969482422,91.88999938964844,92.37999725341797,92.62000274658203,727200.0,83.69335174560547
2016-09-19,94.43000030517578,92.61000061035156,92.77999877929688,94.2699966430664,763800.0,85.18431091308594
2016-09-20,95.41999816894531,94.30000305175781,94.9000015258789,94.45999908447266,578900.0,85.35600280761719
2016-09-21,94.87999725341797,92.55999755859375,94.66000366210938,94.83000183105469,571200.0,85.69034576416016
2016-09-22,96.37000274658203,95.22000122070312,95.73999786376953,95.87999725341797,667200.0,86.6391372680664
2016-09-23,96.81999969482422,94.27999877929688,95.55000305175781,96.18000030517578,853400.0,86.91023254394531
2016-09-26,97.94000244140625,95.98999786376953,95.98999786376953,97.37999725341797,725500.0,87.99457550048828
2016-09-27,97.62000274658203,95.80000305175781,97.62000274658203,95.94999694824219,782800.0,86.702392578125
2016-09-28,97.76000213623047,95.63999938964844,96.16999816894531,97.63999938964844,704000.0,88.22950744628906
2016-09-29,97.88999938964844,96.13999938964844,97.31999969482422,96.1500015258789,797600.0,86.88314056396484
2016-09-30,96.9000015258789,93.94000244140625,96.58999633789062,93.98999786376953,800500.0,84.93130493164062
2016-10-03,93.7699966430664,91.27999877929688,93.7699966430664,92.02999877929688,805300.0,83.16019439697266
2016-10-04,91.93000030517578,89.83999633789062,91.93000030517578,90.54000091552734,687000.0,81.8138198852539
2016-10-05,91.12999725341797,87.0199966430664,90.9000015258789,87.69000244140625,910200.0,79.23849487304688
2016-10-06,87.93000030517578,85.83000183105469,87.25,86.73999786376953,793100.0,78.38004302978516
2016-10-07,88.12999725341797,85.04000091552734,87.04000091552734,86.01000213623047,1247500.0,77.72039794921875
2016-10-10,87.45999908447266,86.16000366210938,86.16000366210938,87.08000183105469,447300.0,78.6872787475586
2016-10-11,87.08000183105469,85.8499984741211,86.9000015258789,85.94000244140625,749300.0,77.65715789794922
2016-10-12,87.08999633789062,85.33999633789062,85.47000122070312,87.01000213623047,451200.0,79.38145446777344
2016-10-13,89.69000244140625,86.98999786376953,87.01000213623047,88.88999938964844,1128200.0,81.09662628173828
2016-10-14,89.43000030517578,87.98999786376953,89.0199966430664,89.0,745400.0,81.19698333740234
2016-10-17,90.91000366210938,89.0999984741211,89.86000061035156,90.55000305175781,1050300.0,82.61109161376953
2016-10-18,92.05000305175781,90.56999969482422,91.2699966430664,91.91000366210938,706100.0,83.85185241699219
2016-10-19,92.0,91.01000213623047,91.62000274658203,91.31999969482422,615000.0,83.31356811523438
2016-10-20,93.41999816894531,91.54000091552734,92.54000091552734,92.0199966430664,748200.0,83.95218658447266
2016-10-21,92.41000366210938,91.08999633789062,91.5199966430664,92.26000213623047,418600.0,84.1711654663086
2016-10-24,93.58999633789062,92.02999877929688,93.58999633789062,92.61000061035156,394000.0,84.490478515625
2016-10-25,93.11000061035156,91.7300033569336,92.12999725341797,92.80000305175781,297500.0,84.663818359375
2016-10-26,92.8499984741211,91.23999786376953,92.47000122070312,92.55999755859375,480600.0,84.44485473632812
2016-10-27,92.47000122070312,89.47000122070312,92.47000122070312,89.9800033569336,728500.0,82.09105682373047
2016-10-28,92.02999877929688,89.06999969482422,90.75,90.3499984741211,1328200.0,82.42861938476562
2016-10-31,93.0,90.41999816894531,90.41999816894531,92.75,953100.0,84.61820220947266
2016-11-01,93.04000091552734,91.33999633789062,92.5199966430664,92.22000122070312,618100.0,84.13467407226562
2016-11-02,93.70999908447266,92.2699966430664,92.30999755859375,92.56999969482422,844400.0,84.45397186279297
2016-11-03,94.12999725341797,92.01000213623047,92.6500015258789,93.68000030517578,644700.0,85.46666717529297
2016-11-04,94.5999984741211,93.0,93.68000030517578,94.1500015258789,748000.0,85.89545440673828
2016-11-07,95.4000015258789,93.5,95.22000122070312,93.94000244140625,1120400.0,85.703857421875
2016-11-08,95.70999908447266,93.51000213623047,93.91000366210938,95.2300033569336,621400.0,86.88076782226562
2016-11-09,94.94000244140625,92.66000366210938,94.7300033569336,93.75,909800.0,85.53053283691406
2016-11-10,94.23999786376953,89.8499984741211,93.38999938964844,91.55999755859375,901400.0,83.53253173828125
2016-11-11,93.48999786376953,91.5999984741211,91.5999984741211,91.7300033569336,696900.0,83.68762969970703
2016-11-14,93.05000305175781,89.66999816894531,91.19999694824219,92.69999694824219,701700.0,84.57258605957031
2016-11-15,93.43000030517578,89.58999633789062,92.87999725341797,90.0,639300.0,82.10930633544922
2016-11-16,91.16000366210938,89.4000015258789,89.94000244140625,90.93000030517578,557900.0,82.95777130126953
2016-11-17,91.27999877929688,89.41000366210938,90.44999694824219,89.69000244140625,389000.0,81.82649230957031
2016-11-18,90.30999755859375,88.54000091552734,89.66000366210938,89.05000305175781,401500.0,81.24258422851562
2016-11-21,89.97000122070312,88.75,89.22000122070312,89.0,505600.0,81.19698333740234
2016-11-22,90.97000122070312,89.25,89.31999969482422,90.87999725341797,704500.0,82.9121322631836
2016-11-23,91.11000061035156,89.58000183105469,90.1500015258789,90.8499984741211,606400.0,82.8847885131836
2016-11-25,92.08999633789062,90.4000015258789,90.77999877929688,91.5199966430664,305800.0,83.49602508544922
2016-11-28,93.16000366210938,91.6500015258789,91.6500015258789,92.26000213623047,941800.0,84.1711654663086
2016-11-29,95.4000015258789,91.95999908447266,92.26000213623047,93.80999755859375,1501300.0,85.58526611328125
2016-11-30,94.5999984741211,90.75,93.87000274658203,91.62999725341797,6673300.0,83.59637451171875
2016-12-01,91.6500015258789,87.72000122070312,91.41000366210938,88.9000015258789,24658200.0,81.10574340820312
2016-12-02,91.30000305175781,88.48999786376953,90.94000244140625,89.33000183105469,2293000.0,81.49803924560547
2016-12-05,89.44000244140625,87.58999633789062,89.30000305175781,88.87000274658203,1781800.0,81.07837677001953
2016-12-06,89.80000305175781,87.95999908447266,88.80999755859375,88.48999786376953,1712600.0,80.731689453125
2016-12-07,89.3499984741211,88.11000061035156,88.80999755859375,89.0,1585200.0,81.19698333740234
2016-12-08,92.66999816894531,88.6500015258789,88.83000183105469,92.12999725341797,1272000.0,84.05255126953125
2016-12-09,94.04000091552734,91.94000244140625,92.4000015258789,93.2300033569336,1370500.0,85.05610656738281
2016-12-12,94.88999938964844,92.23999786376953,92.62000274658203,94.76000213623047,1243400.0,86.45196533203125
2016-12-13,96.30999755859375,94.72000122070312,95.26000213623047,95.62999725341797,1432200.0,87.24571228027344
2016-12-14,95.72000122070312,94.3499984741211,95.72000122070312,94.69999694824219,1687300.0,86.3972396850586
2016-12-15,96.8499984741211,93.87999725341797,94.19000244140625,95.45999908447266,1542300.0,87.0905990600586
2016-12-16,97.94999694824219,96.0199966430664,96.38999938964844,96.70999908447266,4576400.0,88.23100280761719
2016-12-19,97.73999786376953,96.29000091552734,97.5,96.88999938964844,1196600.0,88.39522552490234
2016-12-20,97.44000244140625,96.31999969482422,96.83999633789062,97.43000030517578,922800.0,88.88788604736328
2016-12-21,97.94000244140625,94.22000122070312,97.16000366210938,94.33000183105469,1374400.0,86.05966186523438
2016-12-22,95.58999633789062,94.08000183105469,94.5,95.38999938964844,831400.0,87.02674102783203
2016-12-23,96.41000366210938,94.87999725341797,95.69999694824219,95.52999877929688,670000.0,87.15445709228516
2016-12-27,96.86000061035156,95.41000366210938,95.68000030517578,96.33000183105469,596100.0,87.88433074951172
2016-12-28,96.8499984741211,95.36000061035156,96.55000305175781,95.88999938964844,600500.0,87.48289489746094
2016-12-29,97.08000183105469,95.37000274658203,96.0,96.58999633789062,513500.0,88.12152862548828
2016-12-30,98.3499984741211,96.0999984741211,96.7699966430664,97.91999816894531,847500.0,89.33492279052734
2017-01-03,98.5999984741211,96.16000366210938,98.29000091552734,97.31999969482422,1006100.0,88.78752899169922
2017-01-04,98.66999816894531,97.30000305175781,97.69999694824219,98.20999908447266,890100.0,89.5994873046875
2017-01-05,98.6500015258789,96.66999816894531,98.11000061035156,98.08000183105469,897900.0,89.48089599609375
2017-01-06,98.48999786376953,97.43000030517578,98.16000366210938,98.0,933800.0,89.40791320800781
2017-01-09,98.0,96.5199966430664,97.94999694824219,97.4000015258789,986600.0,88.86051940917969
2017-01-10,98.02999877929688,96.5999984741211,97.11000061035156,97.5,743500.0,88.95174407958984
2017-01-11,96.9800033569336,94.7699966430664,96.30000305175781,94.9800033569336,907900.0,87.43285369873047
2017-01-12,96.20999908447266,94.4000015258789,94.7300033569336,96.11000061035156,670200.0,88.47307586669922
2017-01-13,96.08000183105469,94.87000274658203,95.94999694824219,95.12000274658203,404700.0,87.56172943115234
2017-01-17,96.7699966430664,95.16999816894531,95.16999816894531,96.70999908447266,843700.0,89.02538299560547
2017-01-18,97.2300033569336,96.05999755859375,96.87999725341797,96.31999969482422,638100.0,88.66638946533203
2017-01-19,96.54000091552734,94.63999938964844,96.16999816894531,95.26000213623047,508700.0,87.69060516357422
2017-01-20,95.97000122070312,94.19999694824219,95.3499984741211,95.87000274658203,495700.0,88.25213623046875
2017-01-23,96.69000244140625,95.6500015258789,96.18000030517578,95.94000244140625,403300.0,88.31657409667969
2017-01-24,96.75,95.45999908447266,95.93000030517578,96.6500015258789,1032800.0,88.97016143798828
2017-01-25,96.9000015258789,95.6500015258789,96.81999969482422,96.68000030517578,1029000.0,88.99776458740234
2017-01-26,97.37000274658203,96.16999816894531,96.63999938964844,96.80999755859375,698100.0,89.117431640625
2017-01-27,97.4800033569336,95.41999816894531,97.23999786376953,95.7300033569336,502700.0,88.12326049804688
2017-01-30,96.5999984741211,94.43000030517578,95.5199966430664,94.80000305175781,619600.0,87.26715850830078
2017-01-31,96.4000015258789,94.63999938964844,94.9000015258789,94.94999694824219,1000600.0,87.4052505493164
2017-02-01,95.25,93.29000091552734,94.97000122070312,93.77999877929688,824700.0,86.32820892333984
2017-02-02,97.80000305175781,92.5,93.58999633789062,97.66000366210938,1624200.0,89.89991760253906
2017-02-03,98.7699966430664,97.2699966430664,98.19000244140625,97.9800033569336,1054400.0,90.19447326660156
2017-02-06,98.08000183105469,96.69000244140625,97.80000305175781,97.81999969482422,680400.0,90.04718780517578
2017-02-07,98.19000244140625,97.11000061035156,97.63999938964844,97.37000274658203,661900.0,89.63294982910156
2017-02-08,99.0,97.22000122070312,97.47000122070312,97.7300033569336,616500.0,89.9643325805664
2017-02-09,98.19000244140625,97.43000030517578,97.58000183105469,97.9000015258789,545900.0,90.12083435058594
2017-02-10,98.58999633789062,97.30000305175781,97.58000183105469,98.51000213623047,393000.0,90.68235778808594
2017-02-13,98.83000183105469,97.55000305175781,98.55999755859375,98.41000366210938,531200.0,90.5903091430664
2017-02-14,98.93000030517578,97.44000244140625,98.45999908447266,98.79000091552734,745800.0,90.94010925292969
2017-02-15,98.62000274658203,97.41000366210938,97.88999938964844,98.20999908447266,572300.0,90.40618896484375
2017-02-16,99.9000015258789,98.23999786376953,98.33000183105469,99.47000122070312,544400.0,91.56608581542969
2017-02-17,100.22000122070312,99.13999938964844,99.80000305175781,99.62000274658203,1069600.0,91.70416259765625
2017-02-21,100.7300033569336,99.0199966430664,99.26000213623047,100.55000305175781,579100.0,92.56026458740234
2017-02-22,100.97000122070312,99.6500015258789,100.70999908447266,100.3499984741211,668000.0,92.37615203857422
2017-02-23,101.77999877929688,100.0199966430664,100.72000122070312,101.55999755859375,542800.0,93.49000549316406
2017-02-24,102.08999633789062,100.68000030517578,102.0,102.05000305175781,698000.0,93.94107055664062
2017-02-27,103.05000305175781,101.77999877929688,102.31999969482422,102.70999908447266,612400.0,94.54862213134766
2017-02-28,102.97000122070312,102.18000030517578,102.77999877929688,102.7300033569336,666000.0,94.56703186035156
2017-03-01,103.63999938964844,102.18000030517578,103.0,102.56999969482422,864500.0,94.41973876953125
2017-03-02,103.02999877929688,101.19999694824219,102.63999938964844,101.37999725341797,1268700.0,93.32430267333984
2017-03-03,101.31999969482422,100.33999633789062,101.22000122070312,101.08999633789062,950200.0,93.0573501586914
2017-03-06,101.1500015258789,100.12999725341797,100.69999694824219,100.73999786376953,545300.0,92.73515319824219
2017-03-07,100.83000183105469,99.62999725341797,100.75,100.77999877929688,537200.0,92.77198028564453
2017-03-08,100.70999908447266,99.61000061035156,100.48999786376953,99.95999908447266,653400.0,92.01714324951172
2017-03-09,100.80000305175781,98.11000061035156,100.08000183105469,98.12999725341797,790500.0,90.33255767822266
2017-03-10,99.66000366210938,96.2699966430664,98.12999725341797,97.1500015258789,1067800.0,89.430419921875
2017-03-13,97.94999694824219,96.70999908447266,97.37999725341797,97.76000213623047,1116200.0,89.99195098876953
2017-03-14,99.91999816894531,98.12999725341797,98.75,98.88999938964844,1073600.0,91.03216552734375
2017-03-15,101.54000091552734,98.0199966430664,98.87000274658203,101.12999725341797,993400.0,93.09416961669922
2017-03-16,102.16999816894531,100.62000274658203,101.0,101.22000122070312,921600.0,93.17701721191406
2017-03-17,102.73999786376953,100.72000122070312,101.31999969482422,101.77999877929688,2075900.0,93.69252014160156
2017-03-20,101.93000030517578,100.88999938964844,101.91000366210938,101.16000366210938,385900.0,93.12178039550781
2017-03-21,102.20999908447266,100.86000061035156,101.58000183105469,101.1500015258789,764000.0,93.1125717163086
2017-03-22,101.68000030517578,100.45999908447266,101.68000030517578,101.2699966430664,628700.0,93.2230453491211
2017-03-23,102.47000122070312,101.0999984741211,101.2699966430664,101.91000366210938,659900.0,93.81219482421875
2017-03-24,102.80999755859375,101.80999755859375,102.19999694824219,101.91000366210938,350800.0,93.81219482421875
2017-03-27,102.75,100.61000061035156,101.81999969482422,101.16000366210938,640500.0,93.12178039550781
2017-03-28,101.38999938964844,99.75,101.08999633789062,101.0199966430664,599100.0,92.99291229248047
2017-03-29,102.04000091552734,100.62000274658203,100.9800033569336,102.02999877929688,732800.0,93.92266082763672
2017-03-30,102.01000213623047,100.80000305175781,101.81999969482422,101.77999877929688,609400.0,93.69252014160156
2017-03-31,102.58999633789062,101.22000122070312,101.54000091552734,101.73999786376953,534700.0,93.65570068359375
2017-04-03,102.02999877929688,101.12999725341797,101.69999694824219,101.7699966430664,489900.0,93.68331909179688
2017-04-04,103.55000305175781,101.56999969482422,101.75,102.55000305175781,638900.0,94.40132904052734
2017-04-05,102.88999938964844,101.7699966430664,102.31999969482422,102.7300033569336,505900.0,94.56703186035156
2017-04-06,103.0999984741211,101.97000122070312,102.61000061035156,102.79000091552734,380000.0,94.62226867675781
2017-04-07,103.37000274658203,101.9000015258789,102.9000015258789,101.93000030517578,535900.0,93.83059692382812
2017-04-10,102.80999755859375,101.4000015258789,101.86000061035156,102.73999786376953,564200.0,94.57623291015625
2017-04-11,103.08000183105469,101.73999786376953,102.08999633789062,102.8499984741211,872000.0,95.48607635498047
2017-04-12,103.48999786376953,101.62999725341797,102.69000244140625,101.83000183105469,1128300.0,94.53910827636719
2017-04-13,102.05000305175781,100.80000305175781,101.80999755859375,101.08999633789062,727800.0,93.85208129882812
2017-04-17,101.7300033569336,101.20999908447266,101.37999725341797,101.72000122070312,1130400.0,94.4369888305664
2017-04-18,102.38999938964844,101.54000091552734,101.66999816894531,101.9000015258789,746700.0,94.60408782958984
2017-04-19,102.05000305175781,101.06999969482422,101.93000030517578,101.38999938964844,541500.0,94.13060760498047
2017-04-20,101.69000244140625,101.0199966430664,101.62000274658203,101.55999755859375,511300.0,94.28844451904297
2017-04-21,101.81999969482422,101.08999633789062,101.48999786376953,101.2699966430664,450100.0,94.01920318603516
2017-04-24,102.6500015258789,99.80000305175781,101.93000030517578,101.33000183105469,586300.0,94.07491302490234
2017-04-25,101.62999725341797,100.91000366210938,101.41999816894531,101.47000122070312,670600.0,94.20488739013672
2017-04-26,101.91000366210938,100.6500015258789,101.54000091552734,101.0,960000.0,93.76852416992188
2017-04-27,101.0,96.19999694824219,101.0,98.0,1624600.0,90.98333740234375
2017-04-28,99.25,97.29000091552734,97.29000091552734,99.20999908447266,1084100.0,92.10670471191406
2017-05-01,100.01000213623047,98.68000030517578,99.58999633789062,99.61000061035156,650700.0,92.47805786132812
2017-05-02,100.30999755859375,99.19999694824219,99.58999633789062,99.56999969482422,559100.0,92.44091033935547
2017-05-03,99.76000213623047,98.13999938964844,99.43000030517578,98.44000244140625,391700.0,91.39183044433594
2017-05-04,99.0999984741211,97.48999786376953,98.33000183105469,99.0199966430664,592300.0,91.93029022216797
2017-05-05,100.08000183105469,98.83999633789062,99.12000274658203,100.05000305175781,540400.0,92.88655853271484
2017-05-08,100.22000122070312,98.94999694824219,100.19000244140625,99.41000366210938,427200.0,92.29237365722656
2017-05-09,99.29000091552734,98.58999633789062,99.25,98.76000213623047,425900.0,91.68890380859375
2017-05-10,99.2300033569336,98.25,98.56999969482422,98.69999694824219,469300.0,91.6332015991211
2017-05-11,99.33999633789062,97.69000244140625,98.37999725341797,98.79000091552734,487900.0,91.71676635742188
2017-05-12,99.05999755859375,98.04000091552734,98.83000183105469,98.33999633789062,576200.0,91.2989730834961
2017-05-15,99.4000015258789,98.19999694824219,98.38999938964844,99.1500015258789,461700.0,92.05099487304688
2017-05-16,99.4800033569336,98.16000366210938,98.93000030517578,98.69999694824219,550700.0,91.6332015991211
2017-05-17,100.55000305175781,98.51000213623047,98.51000213623047,99.33000183105469,569600.0,92.21810913085938
2017-05-18,100.4000015258789,99.01000213623047,99.63999938964844,99.88999938964844,633600.0,92.73799896240234
2017-05-19,100.43000030517578,98.95999908447266,100.11000061035156,100.0,642200.0,92.84013366699219
2017-05-22,100.8499984741211,99.66000366210938,100.02999877929688,100.05999755859375,438400.0,92.89582824707031
2017-05-23,100.80000305175781,99.76000213623047,100.27999877929688,100.11000061035156,336200.0,92.94225311279297
2017-05-24,100.77999877929688,99.97000122070312,100.36000061035156,100.52999877929688,309300.0,93.33218383789062
2017-05-25,101.33000183105469,99.75,100.83999633789062,100.79000091552734,286700.0,93.57356262207031
2017-05-26,101.94000244140625,100.69000244140625,101.0,101.12999725341797,544500.0,93.88922119140625
2017-05-30,101.4800033569336,100.83999633789062,101.0,101.05000305175781,394900.0,93.81495666503906
2017-05-31,102.19000244140625,101.08000183105469,101.08000183105469,101.94000244140625,1012500.0,94.64122009277344
2017-06-01,102.25,101.12000274658203,101.81999969482422,102.19999694824219,904400.0,94.88259887695312
2017-06-02,104.70999908447266,101.7699966430664,102.77999877929688,104.29000091552734,900100.0,96.82295989990234
2017-06-05,105.97000122070312,103.76000213623047,104.13999938964844,105.56999969482422,745400.0,98.01131439208984
2017-06-06,105.77999877929688,104.5999984741211,105.6500015258789,105.0199966430664,576000.0,97.50070190429688
2017-06-07,106.83999633789062,105.05999755859375,105.30000305175781,106.79000091552734,999700.0,99.14398193359375
2017-06-08,107.62999725341797,105.95999908447266,106.79000091552734,107.37000274658203,748500.0,99.68244934082031
2017-06-09,107.94000244140625,106.76000213623047,107.29000091552734,107.19999694824219,859200.0,99.52461242675781
2017-06-12,107.9000015258789,106.83000183105469,107.04000091552734,107.4000015258789,754000.0,99.71029663085938
2017-06-13,108.16000366210938,107.20999908447266,107.31999969482422,108.16000366210938,674900.0,100.41588592529297
2017-06-14,109.36000061035156,108.5199966430664,108.58000183105469,108.87999725341797,844800.0,101.0843276977539
2017-06-15,110.94999694824219,108.72000122070312,108.72000122070312,110.0,1082600.0,102.12415313720703
2017-06-16,110.12999725341797,109.20999908447266,110.0999984741211,110.04000091552734,902000.0,102.16128540039062
2017-06-19,110.79000091552734,109.68000030517578,110.0,110.31999969482422,357000.0,102.42122650146484
2017-06-20,110.69000244140625,108.62000274658203,110.2699966430664,109.87000274658203,618400.0,102.00345611572266
2017-06-21,110.2300033569336,109.19999694824219,109.86000061035156,110.19000244140625,584100.0,102.300537109375
2017-06-22,110.0999984741211,108.97000122070312,110.0999984741211,109.30000305175781,585800.0,101.4742660522461
2017-06-23,110.38999938964844,108.93000030517578,109.30000305175781,109.18000030517578,1314100.0,101.36286163330078
2017-06-26,109.83999633789062,108.45999908447266,109.22000122070312,108.5999984741211,561600.0,100.82438659667969
2017-06-27,108.63999938964844,106.63999938964844,108.37999725341797,106.72000122070312,1055900.0,99.0789794921875
2017-06-28,107.12999725341797,106.06999969482422,106.83000183105469,106.25,662600.0,98.64263916015625
2017-06-29,106.20999908447266,105.04000091552734,105.36000061035156,105.5999984741211,446500.0,98.03917694091797
2017-06-30,106.08999633789062,104.72000122070312,105.44000244140625,105.37999725341797,683300.0,97.83491516113281
2017-07-03,106.12999725341797,105.2300033569336,105.87999725341797,105.9000015258789,348400.0,98.31770324707031
2017-07-05,106.22000122070312,104.58999633789062,105.91000366210938,105.31999969482422,752700.0,97.77922058105469
2017-07-06,104.9800033569336,101.54000091552734,104.19999694824219,101.55000305175781,937600.0,94.27914428710938
2017-07-07,102.83000183105469,101.29000091552734,101.66000366210938,102.37000274658203,682100.0,95.04045104980469
2017-07-10,102.37000274658203,100.54000091552734,102.37000274658203,100.62999725341797,682900.0,93.42501831054688
2017-07-11,100.73999786376953,99.27999877929688,100.7300033569336,99.58999633789062,857700.0,92.45948028564453
2017-07-12,100.2699966430664,99.30000305175781,99.63999938964844,99.83000183105469,935300.0,93.49910736083984
2017-07-13,100.05999755859375,99.16000366210938,99.95999908447266,99.73999786376953,570800.0,93.41478729248047
2017-07-14,100.83000183105469,99.94000244140625,100.05999755859375,100.41000366210938,571400.0,94.04230499267578
2017-07-17,101.56999969482422,100.16000366210938,100.45999908447266,101.23999786376953,666200.0,94.8196792602539
2017-07-18,101.55999755859375,100.55999755859375,101.23999786376953,100.91999816894531,869000.0,94.51996612548828
2017-07-19,101.55999755859375,100.87000274658203,101.0,101.30000305175781,783300.0,94.87586212158203
2017-07-20,102.12999725341797,100.94000244140625,101.61000061035156,101.01000213623047,693600.0,94.6042709350586
2017-07-21,101.41000366210938,100.54000091552734,100.97000122070312,101.19000244140625,901700.0,94.7728500366211
2017-07-24,102.3499984741211,101.0199966430664,101.48999786376953,102.11000061035156,804800.0,95.6344985961914
2017-07-25,102.2699966430664,100.58999633789062,102.2699966430664,101.41000366210938,588300.0,94.9789047241211
2017-07-26,102.37999725341797,101.12999725341797,101.4000015258789,102.23999786376953,416100.0,95.75625610351562
2017-07-27,103.47000122070312,99.05999755859375,101.2300033569336,102.9000015258789,968700.0,96.37440490722656
2017-07-28,104.63999938964844,102.91000366210938,103.0,103.70999908447266,699300.0,97.13302612304688
2017-07-31,103.88999938964844,103.08000183105469,103.75,103.52999877929688,837500.0,96.9644546508789
2017-08-01,104.36000061035156,103.36000061035156,103.80000305175781,103.87999725341797,460100.0,97.2922592163086
2017-08-02,104.01000213623047,103.19000244140625,103.61000061035156,103.8499984741211,469100.0,97.26415252685547
2017-08-03,104.55999755859375,102.91000366210938,103.86000061035156,103.94000244140625,409600.0,97.34844970703125
2017-08-04,104.6500015258789,103.62000274658203,103.94000244140625,103.76000213623047,399000.0,97.17986297607422
2017-08-07,104.2300033569336,103.23999786376953,103.83000183105469,104.0199966430664,374200.0,97.42337036132812
2017-08-08,104.4000015258789,103.66000366210938,103.91999816894531,104.36000061035156,485800.0,97.74181365966797
2017-08-09,105.2699966430664,104.1500015258789,104.36000061035156,105.08999633789062,546200.0,98.42552185058594
2017-08-10,105.27999877929688,104.44000244140625,104.88999938964844,104.4800033569336,396000.0,97.85420227050781
2017-08-11,104.80000305175781,103.80999755859375,104.80000305175781,104.0199966430664,392700.0,97.42337036132812
2017-08-14,106.3499984741211,104.12999725341797,104.47000122070312,106.19999694824219,486900.0,99.46511840820312
2017-08-15,107.19000244140625,105.05000305175781,106.06999969482422,107.0999984741211,677100.0,100.30804443359375
2017-08-16,107.79000091552734,106.5,107.41000366210938,106.69000244140625,591300.0,99.92406463623047
2017-08-17,107.12000274658203,106.2300033569336,106.55000305175781,106.5199966430664,472100.0,99.76482391357422
2017-08-18,106.1500015258789,105.26000213623047,106.1500015258789,105.7699966430664,507600.0,99.06239318847656
2017-08-21,107.75,105.55000305175781,105.8499984741211,107.44999694824219,501100.0,100.63584899902344
2017-08-22,107.75,106.2300033569336,107.44999694824219,106.88999938964844,411800.0,100.11137390136719
2017-08-23,107.94999694824219,106.7699966430664,106.7699966430664,107.62000274658203,311300.0,100.79508209228516
2017-08-24,108.2699966430664,107.37000274658203,107.75,107.47000122070312,558700.0,100.65458679199219
2017-08-25,108.12000274658203,106.91999816894531,107.55999755859375,107.08999633789062,374700.0,100.2986831665039
2017-08-28,107.19000244140625,105.30000305175781,107.08999633789062,106.33000183105469,529100.0,99.58688354492188
2017-08-29,107.0999984741211,105.48999786376953,106.23999786376953,105.77999877929688,453100.0,99.07176208496094
2017-08-30,106.62000274658203,105.11000061035156,105.6500015258789,106.62000274658203,327500.0,99.85848999023438
2017-08-31,107.23999786376953,106.29000091552734,106.79000091552734,106.45999908447266,501000.0,99.7086410522461
2017-09-01,107.19999694824219,106.19999694824219,106.62999725341797,106.22000122070312,311000.0,99.48385620117188
2017-09-05,106.87999725341797,105.5,106.19000244140625,106.48999786376953,542900.0,99.73673248291016
2017-09-06,106.87000274658203,106.08999633789062,106.69000244140625,106.37000274658203,514200.0,99.62433624267578
2017-09-07,107.47000122070312,106.44999694824219,106.5199966430664,107.02999877929688,558700.0,100.24249267578125
2017-09-08,108.44000244140625,106.91000366210938,107.30000305175781,107.94000244140625,845600.0,101.09477996826172
2017-09-11,109.25,107.80999755859375,108.16999816894531,109.11000061035156,575400.0,102.1905746459961
2017-09-12,108.87999725341797,106.55999755859375,108.86000061035156,107.05999755859375,508000.0,100.27058410644531
2017-09-13,106.93000030517578,105.88999938964844,106.9000015258789,106.25,452300.0,99.51195526123047
2017-09-14,107.2300033569336,105.37000274658203,106.04000091552734,107.01000213623047,406000.0,100.22376251220703
2017-09-15,108.22000122070312,106.7699966430664,107.19999694824219,108.22000122070312,1412300.0,101.35702514648438
2017-09-18,108.66000366210938,107.81999969482422,108.27999877929688,108.26000213623047,753500.0,101.39448547363281
2017-09-19,108.41999816894531,107.02999877929688,108.27999877929688,107.69999694824219,962300.0,100.8699951171875
2017-09-20,108.02999877929688,106.81999969482422,107.62000274658203,107.30000305175781,730300.0,100.49537658691406
2017-09-21,107.80999755859375,107.12000274658203,107.20999908447266,107.2699966430664,667100.0,100.4672622680664
2017-09-22,107.7300033569336,106.83000183105469,107.4000015258789,107.16000366210938,760100.0,100.36425018310547
2017-09-25,107.58000183105469,106.83999633789062,107.26000213623047,106.91000366210938,446400.0,100.1301040649414
2017-09-26,107.5,106.7699966430664,106.8499984741211,107.11000061035156,513700.0,100.31742095947266
2017-09-27,107.05999755859375,105.91999816894531,106.69999694824219,106.05000305175781,455100.0,99.32463836669922
2017-09-28,106.33000183105469,105.48999786376953,105.94999694824219,105.98999786376953,419500.0,99.26844787597656
2017-09-29,106.87999725341797,105.62999725341797,105.75,106.87999725341797,537800.0,100.10200500488281
2017-10-02,107.4000015258789,106.62000274658203,107.08999633789062,107.19999694824219,647200.0,100.4017105102539
2017-10-03,107.4800033569336,106.43000030517578,107.2699966430664,107.18000030517578,541500.0,100.38298034667969
2017-10-04,107.98999786376953,106.83999633789062,107.16000366210938,107.87999725341797,422500.0,101.03858947753906
2017-10-05,109.05999755859375,107.88999938964844,108.18000030517578,108.26000213623047,516900.0,101.39448547363281
2017-10-06,108.16999816894531,106.80999755859375,107.8499984741211,107.93000030517578,356800.0,101.08541107177734
2017-10-09,108.66000366210938,107.81999969482422,107.81999969482422,108.33999633789062,525600.0,101.46941375732422
2017-10-10,109.30000305175781,107.7699966430664,108.66000366210938,108.5199966430664,899400.0,101.63800048828125
2017-10-11,109.19000244140625,108.4000015258789,108.5,108.80000305175781,505600.0,101.9002456665039
2017-10-12,108.66999816894531,107.51000213623047,108.0,108.66000366210938,566300.0,102.58946228027344
2017-10-13,110.23999786376953,108.61000061035156,109.69999694824219,108.77999877929688,513900.0,102.7027587890625
2017-10-16,109.05000305175781,107.30000305175781,108.83999633789062,107.55000305175781,669600.0,101.5414810180664
2017-10-17,107.73999786376953,106.9000015258789,107.3499984741211,107.16000366210938,703200.0,101.17326354980469
2017-10-18,107.2300033569336,105.70999908447266,107.05000305175781,105.81999969482422,818400.0,99.90812683105469
2017-10-19,106.1500015258789,105.02999877929688,105.4800033569336,105.08999633789062,738100.0,99.21891021728516
2017-10-20,105.36000061035156,104.44999694824219,105.12000274658203,104.80999755859375,749900.0,98.95454406738281
2017-10-23,105.22000122070312,103.94000244140625,105.22000122070312,104.41000366210938,759200.0,98.57689666748047
2017-10-24,104.5199966430664,103.0999984741211,104.30000305175781,104.16000366210938,684800.0,98.34086608886719
2017-10-25,104.83999633789062,103.69000244140625,104.01000213623047,104.22000122070312,596300.0,98.39750671386719
2017-10-26,102.75,99.61000061035156,102.75,99.72000122070312,1698300.0,94.14891815185547
2017-10-27,100.58000183105469,98.7300033569336,99.5,100.55000305175781,947500.0,94.93254852294922
2017-10-30,102.26000213623047,100.66000366210938,100.80999755859375,101.98999786376953,950700.0,96.2920913696289
2017-10-31,102.44000244140625,101.54000091552734,101.93000030517578,102.3499984741211,709900.0,96.63197326660156
2017-11-01,103.38999938964844,102.05000305175781,102.7300033569336,103.11000061035156,563800.0,97.34951782226562
2017-11-02,103.87999725341797,101.9800033569336,103.08999633789062,102.16999816894531,587900.0,96.46202850341797
2017-11-03,103.97000122070312,101.52999877929688,101.7699966430664,103.38999938964844,461700.0,97.61388397216797
2017-11-06,105.29000091552734,103.52999877929688,103.58000183105469,104.27999877929688,450400.0,98.45415496826172
2017-11-07,105.75,104.01000213623047,104.25,105.02999877929688,482200.0,99.16226196289062
2017-11-08,105.91000366210938,105.19999694824219,105.19999694824219,105.61000061035156,389400.0,99.70985412597656
2017-11-09,106.20999908447266,104.93000030517578,105.51000213623047,105.61000061035156,341400.0,99.70985412597656
2017-11-10,106.05999755859375,105.0999984741211,105.0999984741211,105.47000122070312,377500.0,99.57767486572266
2017-11-13,106.7699966430664,105.13999938964844,105.73999786376953,106.02999877929688,583000.0,100.10638427734375
2017-11-14,105.98999786376953,103.91000366210938,105.98999786376953,103.94000244140625,1180000.0,98.1331558227539
2017-11-15,104.22000122070312,102.18000030517578,104.0199966430664,102.19999694824219,973500.0,96.49036407470703
2017-11-16,103.56999969482422,101.87999725341797,102.38999938964844,103.13999938964844,635200.0,97.37786102294922
2017-11-17,103.2300033569336,101.6500015258789,102.80000305175781,102.36000061035156,948700.0,96.64142608642578
2017-11-20,103.16999816894531,102.05000305175781,102.66999816894531,102.77999877929688,709900.0,97.03795623779297
2017-11-21,104.66000366210938,102.76000213623047,102.76000213623047,104.58999633789062,736700.0,98.74683380126953
2017-11-22,104.80000305175781,103.62999725341797,104.29000091552734,104.12000274658203,430900.0,98.30309295654297
2017-11-24,104.75,104.0999984741211,104.51000213623047,104.16000366210938,207800.0,98.34086608886719
2017-11-27,104.08999633789062,103.2699966430664,103.5999984741211,103.29000091552734,534000.0,97.51946258544922
2017-11-28,103.58000183105469,102.48999786376953,103.23999786376953,102.87000274658203,524000.0,97.12293243408203
2017-11-29,102.55000305175781,100.69999694824219,101.5,102.25,754200.0,96.5375747680664
2017-11-30,103.0,102.02999877929688,102.30999755859375,102.44000244140625,1160500.0,96.71695709228516
2017-12-01,103.4000015258789,101.9000015258789,102.80000305175781,102.83999633789062,722300.0,97.0946044921875
2017-12-04,103.45999908447266,101.8499984741211,102.80000305175781,102.5199966430664,624300.0,96.79247283935547
2017-12-05,102.75,101.33000183105469,102.31999969482422,101.41000366210938,627900.0,95.74449920654297
2017-12-06,102.68000030517578,101.3499984741211,101.7300033569336,102.33000183105469,472500.0,96.61310577392578
2017-12-07,102.75,101.83999633789062,102.08999633789062,102.2699966430664,527600.0,96.55644989013672
2017-12-08,103.13999938964844,101.87999725341797,102.19000244140625,103.12999725341797,493900.0,97.36840057373047
2017-12-11,103.27999877929688,102.0999984741211,102.94000244140625,102.87999725341797,442300.0,97.13236236572266
2017-12-12,104.06999969482422,101.83000183105469,103.1500015258789,103.87999725341797,967400.0,98.07649230957031
2017-12-13,104.22000122070312,102.3499984741211,103.9000015258789,102.56999969482422,833100.0,96.83969116210938
2017-12-14,102.5199966430664,101.43000030517578,102.08000183105469,102.44999694824219,663000.0,96.72639465332031
2017-12-15,103.73999786376953,102.80999755859375,103.04000091552734,103.0999984741211,1155700.0,97.34007263183594
2017-12-18,103.7699966430664,102.81999969482422,103.16999816894531,102.94999694824219,520200.0,97.19845581054688
2017-12-19,103.01000213623047,99.01000213623047,102.7699966430664,99.5,573500.0,93.94120025634766
2017-12-20,100.76000213623047,98.87000274658203,99.43000030517578,99.4800033569336,1056700.0,93.92233276367188
2017-12-21,100.18000030517578,98.54000091552734,99.69000244140625,98.7699966430664,438900.0,93.25198364257812
2017-12-22,100.04000091552734,98.75,98.80000305175781,99.75,636800.0,94.17723846435547
2017-12-26,100.37000274658203,99.61000061035156,100.01000213623047,100.1500015258789,296200.0,94.55489349365234
2017-12-27,100.55999755859375,99.6500015258789,100.30000305175781,100.06999969482422,287400.0,94.47936248779297
2017-12-28,100.69999694824219,99.80000305175781,100.0999984741211,100.55999755859375,382200.0,94.94198608398438
2017-12-29,101.06999969482422,100.08999633789062,100.86000061035156,100.55999755859375,462300.0,94.94198608398438
2018-01-02,100.5999984741211,99.4800033569336,100.5999984741211,99.5999984741211,901600.0,94.0356216430664
2018-01-03,100.16999816894531,98.30999755859375,99.37000274658203,99.48999786376953,939900.0,93.9317626953125
2018-01-04,99.44999694824219,96.51000213623047,99.11000061035156,96.58000183105469,735500.0,91.18433380126953
2018-01-05,96.98999786376953,95.63999938964844,96.58000183105469,96.1500015258789,960100.0,90.77835845947266
2018-01-08,96.97000122070312,96.06999969482422,96.16000366210938,96.4800033569336,556600.0,91.08992767333984
2018-01-09,96.87000274658203,94.83999633789062,96.38999938964844,95.01000213623047,643500.0,89.7020492553711
2018-01-10,94.69000244140625,93.38999938964844,94.5,93.91000366210938,700000.0,88.66349792480469
2018-01-11,93.83000183105469,91.9800033569336,93.37999725341797,92.06999969482422,605300.0,87.78868103027344
2018-01-12,92.29000091552734,90.87999725341797,92.0,91.31999969482422,856700.0,87.07353973388672
2018-01-16,93.63999938964844,91.62999725341797,91.62999725341797,92.19999694824219,885500.0,87.9126205444336
2018-01-17,93.20999908447266,92.08000183105469,92.73999786376953,92.87000274658203,878200.0,88.55147552490234
2018-01-18,92.61000061035156,91.12999725341797,92.47000122070312,91.54000091552734,672900.0,87.28330993652344
2018-01-19,93.3499984741211,91.81999969482422,92.43000030517578,92.5199966430664,711600.0,88.21773529052734
2018-01-22,93.25,92.2300033569336,92.5,93.25,563800.0,88.91380310058594
2018-01-23,95.08000183105469,93.08999633789062,93.4000015258789,95.0,697300.0,90.58242797851562
2018-01-24,95.18000030517578,94.29000091552734,94.8499984741211,94.61000061035156,781800.0,90.21055603027344
2018-01-25,94.62000274658203,93.80000305175781,94.62000274658203,94.5,580700.0,90.10568237304688
2018-01-26,94.81999969482422,93.33999633789062,94.7699966430664,94.51000213623047,555200.0,90.1152114868164
2018-01-29,94.37000274658203,93.06999969482422,94.2300033569336,93.25,580800.0,88.91380310058594
2018-01-30,93.69000244140625,92.77999877929688,93.0,92.95999908447266,705800.0,88.63727569580078
2018-01-31,95.4000015258789,92.58999633789062,92.81999969482422,95.37000274658203,1157500.0,90.93521881103516
2018-02-01,95.0,91.11000061035156,94.5,91.75,1467200.0,87.48355865478516
2018-02-02,92.12999725341797,90.05000305175781,90.95999908447266,91.69000244140625,875100.0,87.42634582519531
2018-02-05,93.48999786376953,88.9000015258789,91.7300033569336,88.9000015258789,1021800.0,84.76607513427734
2018-02-06,89.91000366210938,86.94999694824219,87.88999938964844,89.19000244140625,1072800.0,85.04258728027344
2018-02-07,90.19999694824219,87.8499984741211,88.80000305175781,87.93000030517578,845600.0,83.84117889404297
2018-02-08,89.47000122070312,85.30000305175781,87.54000091552734,85.38999938964844,982700.0,81.4192886352539
2018-02-09,88.5199966430664,85.75,85.75,87.75,1500900.0,83.6695556640625
2018-02-12,88.72000122070312,85.63999938964844,88.31999969482422,87.73999786376953,1059800.0,83.66000366210938
2018-02-13,88.33999633789062,87.19000244140625,87.83000183105469,87.98999786376953,769900.0,83.89839172363281
2018-02-14,87.91000366210938,86.22000122070312,87.22000122070312,87.8499984741211,751800.0,83.76490020751953
2018-02-15,89.1500015258789,87.62999725341797,88.08999633789062,88.9800033569336,645200.0,84.84236907958984
2018-02-16,89.87999725341797,88.33000183105469,88.94999694824219,88.75,1765600.0,84.623046875
2018-02-20,89.72000122070312,87.02999877929688,88.2699966430664,88.25,830500.0,84.14630126953125
2018-02-21,88.52999877929688,85.4800033569336,88.05999755859375,85.51000213623047,875000.0,81.53372192382812
2018-02-22,86.75,85.30999755859375,85.70999908447266,85.91000366210938,846800.0,81.91512298583984
2018-02-23,88.11000061035156,85.95999908447266,86.44000244140625,88.05000305175781,513100.0,83.95560455322266
2018-02-26,88.47000122070312,87.27999877929688,88.33999633789062,87.7699966430664,610800.0,83.6886215209961
2018-02-27,88.26000213623047,85.56999969482422,87.87000274658203,85.58999633789062,699400.0,81.60999298095703
2018-02-28,87.4800033569336,85.80999755859375,86.08000183105469,85.81999969482422,1053200.0,81.82929992675781
2018-03-01,87.05000305175781,85.2699966430664,85.51000213623047,85.91000366210938,968100.0,81.91512298583984
2018-03-02,86.08999633789062,85.16000366210938,85.41999816894531,85.68000030517578,836200.0,81.69581604003906
2018-03-05,87.44000244140625,85.43000030517578,85.58000183105469,86.75,913300.0,82.71605682373047
2018-03-06,86.86000061035156,85.80999755859375,86.68000030517578,86.22000122070312,867900.0,82.21070098876953
2018-03-07,87.30000305175781,86.0,86.02999877929688,86.69999694824219,1502900.0,82.66837310791016
2018-03-08,87.4800033569336,86.4800033569336,86.91999816894531,87.02999877929688,1072900.0,82.9830322265625
2018-03-09,89.37000274658203,86.66000366210938,87.30999755859375,89.36000061035156,1060600.0,85.2046890258789
2018-03-12,89.76000213623047,88.77999877929688,89.16000366210938,89.33999633789062,680600.0,85.18561553955078
2018-03-13,90.38999938964844,89.20999908447266,89.83000183105469,89.47000122070312,616700.0,85.30957794189453
2018-03-14,90.5,88.91000366210938,89.6500015258789,90.37999725341797,855600.0,86.17725372314453
2018-03-15,91.3499984741211,90.27999877929688,90.55999755859375,90.8499984741211,889400.0,86.62539672851562
2018-03-16,92.05000305175781,90.81999969482422,91.12999725341797,91.9000015258789,1075900.0,87.62657928466797
2018-03-19,91.69999694824219,90.26000213623047,91.69999694824219,91.02999877929688,633000.0,86.79703521728516
2018-03-20,91.7699966430664,89.44999694824219,91.11000061035156,89.8499984741211,745900.0,85.6718978881836
2018-03-21,90.58000183105469,89.0199966430664,89.88999938964844,89.47000122070312,524900.0,85.30957794189453
2018-03-22,90.55999755859375,88.12999725341797,89.11000061035156,88.16000366210938,742600.0,84.06049346923828
2018-03-23,88.33999633789062,86.61000061035156,88.12999725341797,86.83000183105469,803200.0,82.79234313964844
2018-03-26,88.0199966430664,87.12999725341797,87.54000091552734,87.8499984741211,600700.0,83.76490020751953
2018-03-27,89.44000244140625,86.95999908447266,87.80999755859375,88.19999694824219,774100.0,84.09862518310547
2018-03-28,91.13999938964844,88.63999938964844,88.66999816894531,90.94000244140625,716500.0,86.71121978759766
2018-03-29,91.54000091552734,90.48999786376953,91.31999969482422,91.23999786376953,990700.0,86.99726104736328
2018-04-02,91.33999633789062,89.72000122070312,91.33999633789062,90.27999877929688,834100.0,86.0819091796875
2018-04-03,92.2300033569336,90.04000091552734,90.58999633789062,91.63999938964844,872600.0,87.378662109375
2018-04-04,92.73999786376953,91.08000183105469,91.08000183105469,92.5,691300.0,88.19866943359375
2018-04-05,92.62999725341797,91.5999984741211,92.62999725341797,92.44000244140625,337200.0,88.14146423339844
2018-04-06,93.08000183105469,91.77999877929688,92.5999984741211,91.9800033569336,732300.0,87.70285034179688
2018-04-09,92.5999984741211,91.4000015258789,92.05999755859375,91.88999938964844,833900.0,87.61705017089844
2018-04-10,92.69000244140625,91.79000091552734,92.30999755859375,92.18000030517578,564300.0,87.8935546875
2018-04-11,93.11000061035156,91.72000122070312,91.98999786376953,92.2699966430664,671200.0,87.9793701171875
2018-04-12,91.7699966430664,89.95999908447266,91.7699966430664,90.43000030517578,745400.0,87.095703125
2018-04-13,91.62999725341797,90.44000244140625,90.56999969482422,91.5,836300.0,88.1262435913086
2018-04-16,92.33999633789062,91.01000213623047,91.69999694824219,91.69000244140625,708900.0,88.30924987792969
2018-04-17,93.16000366210938,91.5999984741211,91.94000244140625,92.6500015258789,841800.0,89.23385620117188
2018-04-18,92.8499984741211,91.91000366210938,92.80999755859375,92.0,531900.0,88.6078109741211
2018-04-19,92.1500015258789,89.8499984741211,91.73999786376953,90.33999633789062,579700.0,87.0090103149414
2018-04-20,90.76000213623047,89.47000122070312,90.36000061035156,89.61000061035156,453000.0,86.3059310913086
2018-04-23,90.70999908447266,89.36000061035156,89.94000244140625,89.81999969482422,518900.0,86.5082015991211
2018-04-24,90.4000015258789,89.26000213623047,89.91999816894531,89.87000274658203,567000.0,86.55634307861328
2018-04-25,90.19000244140625,88.7300033569336,89.58000183105469,89.72000122070312,400400.0,86.41188049316406
2018-04-26,91.2699966430664,89.55000305175781,89.98999786376953,90.69000244140625,504600.0,87.34610748291016
2018-04-27,92.5,90.19000244140625,90.56999969482422,91.91000366210938,629800.0,88.52113342285156
2018-04-30,92.5,91.37999725341797,92.11000061035156,91.45999908447266,515800.0,88.08772277832031
2018-05-01,92.7699966430664,90.7699966430664,91.56999969482422,92.5199966430664,645200.0,89.10862731933594
2018-05-02,92.91999816894531,91.19999694824219,92.20999908447266,92.0199966430664,916000.0,88.62706756591797
2018-05-03,92.69000244140625,89.81999969482422,90.33000183105469,91.7699966430664,870900.0,88.38629150390625
2018-05-04,92.58999633789062,91.19999694824219,91.54000091552734,92.33999633789062,665200.0,88.93526458740234
2018-05-07,93.13999938964844,92.36000061035156,92.72000122070312,93.05000305175781,413900.0,89.61910247802734
2018-05-08,92.9000015258789,91.69000244140625,92.9000015258789,92.02999877929688,702200.0,88.63670349121094
2018-05-09,92.77999877929688,91.98999786376953,92.19000244140625,92.5,376500.0,89.0893783569336
2018-05-10,93.5199966430664,92.5199966430664,93.1500015258789,93.01000213623047,467400.0,89.58058166503906
2018-05-11,93.81999969482422,91.88999938964844,93.33999633789062,91.9800033569336,544200.0,88.58854675292969
2018-05-14,92.30000305175781,90.70999908447266,91.87999725341797,91.52999877929688,502700.0,88.15514373779297
2018-05-15,90.94000244140625,88.79000091552734,90.87999725341797,89.2300033569336,553500.0,85.93994903564453
2018-05-16,89.43000030517578,88.51000213623047,89.25,88.9000015258789,549500.0,85.62211608886719
2018-05-17,89.26000213623047,87.94000244140625,88.94999694824219,88.23999786376953,419500.0,84.9864501953125
2018-05-18,88.47000122070312,87.47000122070312,88.22000122070312,87.93000030517578,516800.0,84.68788146972656
2018-05-21,88.87999725341797,87.51000213623047,88.19999694824219,88.58999633789062,313600.0,85.32353973388672
2018-05-22,90.05999755859375,88.47000122070312,88.9800033569336,89.83000183105469,892800.0,86.51782989501953
2018-05-23,92.23999786376953,90.05000305175781,90.05000305175781,91.6500015258789,909200.0,88.27072143554688
2018-05-24,91.69999694824219,90.1500015258789,91.5,90.87999725341797,585400.0,87.52910614013672
2018-05-25,92.19999694824219,91.06999969482422,91.06999969482422,91.54000091552734,534700.0,88.1647720336914
2018-05-29,91.80000305175781,90.52999877929688,91.26000213623047,91.73999786376953,627800.0,88.35739135742188
2018-05-30,94.08000183105469,91.37999725341797,91.6500015258789,93.98999786376953,607300.0,90.5244369506836
2018-05-31,93.76000213623047,92.51000213623047,93.22000122070312,93.55999755859375,724400.0,90.11029052734375
2018-06-01,94.77999877929688,91.91000366210938,93.72000122070312,94.55000305175781,750200.0,91.06378936767578
2018-06-04,95.81999969482422,94.22000122070312,94.87000274658203,95.55000305175781,720700.0,92.02691650390625
2018-06-05,95.87000274658203,94.94999694824219,95.77999877929688,95.29000091552734,784600.0,91.77650451660156
2018-06-06,95.41999816894531,94.30999755859375,94.94000244140625,95.30999755859375,507400.0,91.79576873779297
2018-06-07,95.7699966430664,94.80999755859375,95.30999755859375,95.3499984741211,525900.0,91.83428192138672
2018-06-08,96.58999633789062,95.37999725341797,95.47000122070312,96.29000091552734,555000.0,92.73963928222656
2018-06-11,96.5999984741211,95.77999877929688,96.19999694824219,96.30000305175781,626000.0,92.749267578125
2018-06-12,97.47000122070312,95.62999725341797,96.29000091552734,97.08999633789062,671400.0,93.5101318359375
2018-06-13,97.58000183105469,95.22000122070312,97.30000305175781,96.0,714100.0,92.4603271484375
2018-06-14,97.93000030517578,96.19000244140625,96.23999786376953,96.87000274658203,825800.0,93.29825592041016
2018-06-15,97.55999755859375,96.33999633789062,96.98999786376953,96.5,850100.0,92.94188690185547
2018-06-18,96.58999633789062,95.41999816894531,96.3499984741211,96.0199966430664,604100.0,92.47958374023438
2018-06-19,97.12000274658203,95.41000366210938,95.41000366210938,96.29000091552734,782400.0,92.73963928222656
2018-06-20,98.01000213623047,95.7300033569336,96.13999938964844,97.87999725341797,1047000.0,94.27100372314453
2018-06-21,98.97000122070312,97.33999633789062,98.0,98.83000183105469,902500.0,95.18598175048828
2018-06-22,99.81999969482422,98.1500015258789,98.9000015258789,99.58000183105469,846200.0,95.90833282470703
2018-06-25,100.23999786376953,99.18000030517578,99.6500015258789,99.77999877929688,668900.0,96.10095977783203
2018-06-26,100.9000015258789,99.31999969482422,99.83000183105469,100.05000305175781,1467900.0,96.36099243164062
2018-06-27,101.3499984741211,99.61000061035156,100.55000305175781,99.88999938964844,1288100.0,96.20689392089844
2018-06-28,101.45999908447266,99.9800033569336,99.9800033569336,101.25,757200.0,97.51673889160156
2018-06-29,101.7300033569336,99.45999908447266,100.91000366210938,100.66999816894531,1019200.0,96.9581298828125
2018-07-02,100.9800033569336,98.69000244140625,100.55999755859375,99.41999816894531,862600.0,95.75422668457031
2018-07-03,100.36000061035156,98.87000274658203,99.4000015258789,99.44000244140625,541900.0,95.77349090576172
2018-07-05,99.75,98.93000030517578,99.63999938964844,99.6500015258789,666600.0,95.97574615478516
2018-07-06,100.52999877929688,99.66999816894531,99.97000122070312,100.26000213623047,653000.0,96.5632553100586
2018-07-09,100.27999877929688,98.62999725341797,100.27999877929688,99.05000305175781,845600.0,95.39787292480469
2018-07-10,100.08000183105469,98.58000183105469,99.05000305175781,99.80999755859375,730700.0,96.12983703613281
2018-07-11,100.43000030517578,99.29000091552734,99.7300033569336,100.19000244140625,580100.0,96.49584197998047
2018-07-12,99.83999633789062,98.55000305175781,99.33999633789062,99.68000030517578,318400.0,96.89682006835938
2018-07-13,100.11000061035156,99.0999984741211,99.83000183105469,99.44999694824219,325500.0,96.67323303222656
2018-07-16,99.45999908447266,98.4000015258789,99.16000366210938,99.13999938964844,430600.0,96.37189483642578
2018-07-17,99.41000366210938,98.08000183105469,99.3499984741211,98.44999694824219,496200.0,95.70115661621094
2018-07-18,98.8499984741211,97.69999694824219,98.38999938964844,98.41999816894531,353600.0,95.67198944091797
2018-07-19,100.16999816894531,98.16000366210938,98.16000366210938,99.5199966430664,338700.0,96.74127960205078
2018-07-20,99.3499984741211,97.4800033569336,99.23999786376953,97.9000015258789,531900.0,95.16651916503906
2018-07-23,98.01000213623047,97.05000305175781,97.86000061035156,97.88999938964844,394200.0,95.15679931640625
2018-07-24,97.9000015258789,96.94999694824219,97.86000061035156,97.5999984741211,466400.0,94.87488555908203
2018-07-25,99.16999816894531,97.79000091552734,97.87000274658203,98.5199966430664,461600.0,95.76919555664062
2018-07-26,99.37000274658203,98.48999786376953,98.95999908447266,99.11000061035156,281400.0,96.34272766113281
2018-07-27,99.47000122070312,98.11000061035156,99.37000274658203,98.66000366210938,304600.0,95.9052963256836
2018-07-30,99.01000213623047,98.04000091552734,98.66000366210938,98.6500015258789,238100.0,95.89557647705078
2018-07-31,101.38999938964844,97.83000183105469,99.05999755859375,100.77999877929688,459600.0,97.96610260009766
2018-08-01,101.27999877929688,99.31999969482422,99.98999786376953,101.12000274658203,502000.0,98.29661560058594
2018-08-02,100.30999755859375,98.30000305175781,99.79000091552734,99.91000366210938,864700.0,97.12039184570312
2018-08-03,102.11000061035156,99.13999938964844,99.79000091552734,101.8499984741211,510100.0,99.00623321533203
2018-08-06,102.45999908447266,101.16000366210938,101.80999755859375,101.33000183105469,380000.0,98.50074005126953
2018-08-07,101.23999786376953,100.23999786376953,101.23999786376953,101.02999877929688,661500.0,98.20911407470703
2018-08-08,101.41000366210938,100.2699966430664,101.23999786376953,100.4800033569336,353000.0,97.67447662353516
2018-08-09,101.27999877929688,100.41999816894531,100.58000183105469,101.20999908447266,309800.0,98.38408660888672
2018-08-10,101.4800033569336,99.79000091552734,101.0,99.8499984741211,289300.0,97.06206512451172
2018-08-13,100.91000366210938,99.70999908447266,99.75,100.72000122070312,461800.0,97.90778350830078
2018-08-14,101.73999786376953,100.47000122070312,100.66000366210938,101.1500015258789,294900.0,98.32576751708984
2018-08-15,101.88999938964844,100.58999633789062,100.8499984741211,101.69000244140625,307500.0,98.85070037841797
2018-08-16,102.48999786376953,101.4000015258789,101.9000015258789,102.44000244140625,362300.0,99.57975769042969
2018-08-17,103.1500015258789,102.25,102.45999908447266,103.08999633789062,331900.0,100.21160125732422
2018-08-20,104.04000091552734,103.01000213623047,103.4800033569336,103.12999725341797,371100.0,100.25048065185547
2018-08-21,103.51000213623047,101.80999755859375,102.91000366210938,102.04000091552734,340800.0,99.19092559814453
2018-08-22,102.36000061035156,101.55000305175781,101.86000061035156,102.08999633789062,303400.0,99.2395248413086
2018-08-23,102.58000183105469,101.7300033569336,102.26000213623047,102.23999786376953,269000.0,99.38533782958984
2018-08-24,103.80000305175781,102.0,102.0,103.52999877929688,467400.0,100.63932037353516
2018-08-27,103.93000030517578,103.13999938964844,103.80999755859375,103.56999969482422,579400.0,100.6781997680664
2018-08-28,104.58999633789062,103.05999755859375,103.47000122070312,104.48999786376953,467400.0,101.572509765625
2018-08-29,104.7699966430664,103.87000274658203,104.7300033569336,104.01000213623047,350400.0,101.10591888427734
2018-08-30,104.31999969482422,103.2300033569336,104.31999969482422,103.43000030517578,304600.0,100.5421142578125
2018-08-31,103.87999725341797,103.0,103.3499984741211,103.55999755859375,391000.0,100.6684799194336
2018-09-04,104.08999633789062,102.4000015258789,103.20999908447266,103.01000213623047,347900.0,100.13384246826172
2018-09-05,103.95999908447266,102.31999969482422,102.66999816894531,103.51000213623047,591900.0,100.61988067626953
2018-09-06,104.51000213623047,103.58000183105469,103.81999969482422,103.66000366210938,517400.0,100.76568603515625
2018-09-07,103.26000213623047,102.37999725341797,103.16999816894531,102.75,530000.0,99.88109588623047
2018-09-10,104.66000366210938,103.16999816894531,103.16999816894531,104.01000213623047,475300.0,101.10591888427734
2018-09-11,104.9800033569336,103.27999877929688,103.66999816894531,104.02999877929688,482200.0,101.12535095214844
2018-09-12,104.18000030517578,103.45999908447266,104.05999755859375,103.72000122070312,335400.0,100.82401275634766
2018-09-13,104.3499984741211,103.58000183105469,104.31999969482422,103.75,598100.0,100.85317993164062
2018-09-14,103.48999786376953,101.5999984741211,103.45999908447266,102.27999877929688,913500.0,99.4242172241211
2018-09-17,103.4800033569336,101.86000061035156,102.30000305175781,103.12000274658203,934400.0,100.24076080322266
2018-09-18,103.19999694824219,102.41000366210938,103.12000274658203,103.0,457600.0,100.12411499023438
2018-09-19,103.2300033569336,101.47000122070312,103.13999938964844,101.79000091552734,461000.0,98.9478988647461
2018-09-20,102.54000091552734,101.30999755859375,101.86000061035156,102.48999786376953,533300.0,99.62835693359375
2018-09-21,103.97000122070312,101.75,102.38999938964844,103.05000305175781,1001600.0,100.17272186279297
2018-09-24,102.80999755859375,100.33000183105469,102.80999755859375,100.62999725341797,697600.0,97.82028198242188
2018-09-25,101.33000183105469,100.16000366210938,100.5999984741211,100.94000244140625,525800.0,98.12163543701172
2018-09-26,101.61000061035156,99.5,100.98999786376953,99.58999633789062,528600.0,96.809326171875
2018-09-27,100.30000305175781,98.87999725341797,99.48999786376953,98.91000366210938,893800.0,96.1483154296875
2018-09-28,100.20999908447266,99.06999969482422,99.06999969482422,100.18000030517578,964000.0,97.38285827636719
2018-10-01,100.30999755859375,99.33999633789062,100.2300033569336,99.55999755859375,511800.0,96.78015899658203
2018-10-02,100.33999633789062,99.30999755859375,99.69999694824219,99.83000183105469,471200.0,97.0426254272461
2018-10-03,100.11000061035156,97.7699966430664,99.81999969482422,98.63999938964844,463700.0,95.88584899902344
2018-10-04,98.54000091552734,96.97000122070312,98.12999725341797,98.04000091552734,520800.0,95.30259704589844
2018-10-05,99.0199966430664,98.08999633789062,98.2300033569336,98.23999786376953,565500.0,95.49700927734375
2018-10-08,100.38999938964844,98.44000244140625,98.44000244140625,99.8499984741211,596100.0,97.06206512451172
2018-10-09,100.12999725341797,98.91999816894531,99.86000061035156,99.98999786376953,753800.0,97.19815826416016
2018-10-10,100.36000061035156,98.31999969482422,99.68000030517578,98.47000122070312,705300.0,95.7206039428711
2018-10-11,98.83000183105469,95.58000183105469,98.76000213623047,95.79000091552734,1163800.0,93.11542510986328
2018-10-12,96.18000030517578,94.0199966430664,95.69000244140625,94.61000061035156,707500.0,92.86268615722656
2018-10-15,97.37000274658203,94.2699966430664,94.47000122070312,96.31999969482422,780500.0,94.54109954833984
2018-10-16,98.55000305175781,95.81999969482422,96.58000183105469,98.23999786376953,717300.0,96.4256362915039
2018-10-17,98.62000274658203,97.0999984741211,97.94999694824219,98.11000061035156,465200.0,96.29804229736328
2018-10-18,98.79000091552734,97.91000366210938,98.0999984741211,98.23999786376953,463600.0,96.4256362915039
2018-10-19,99.7699966430664,98.12999725341797,98.12999725341797,99.41000366210938,441600.0,97.57404327392578
2018-10-22,99.73999786376953,96.9800033569336,99.5,97.0,551900.0,95.20854187011719
2018-10-23,98.08999633789062,95.97000122070312,96.41999816894531,97.52999877929688,454600.0,95.728759765625
2018-10-24,100.13999938964844,97.61000061035156,97.7300033569336,99.08999633789062,616100.0,97.25994110107422
2018-10-25,100.70999908447266,97.94999694824219,99.05999755859375,100.02999877929688,760800.0,98.18257904052734
2018-10-26,100.0,97.30000305175781,100.0,97.87000274658203,693500.0,96.0624771118164
2018-10-29,99.98999786376953,98.41999816894531,98.61000061035156,99.5999984741211,460000.0,97.76052856445312
2018-10-30,101.0999984741211,99.56999969482422,100.01000213623047,100.0,600600.0,98.15313720703125
2018-10-31,99.86000061035156,97.30000305175781,99.86000061035156,97.70999908447266,864100.0,95.90543365478516
2018-11-01,99.12999725341797,96.58999633789062,99.12999725341797,98.19000244140625,940200.0,96.3765640258789
2018-11-02,98.31999969482422,95.80999755859375,98.05000305175781,96.45999908447266,792200.0,94.67851257324219
2018-11-05,97.73999786376953,96.54000091552734,96.55999755859375,97.36000061035156,735500.0,95.56189727783203
2018-11-06,98.54000091552734,97.22000122070312,97.70999908447266,97.8499984741211,780900.0,96.04283905029297
2018-11-07,98.77999877929688,97.63999938964844,98.4800033569336,98.38999938964844,947900.0,96.57286834716797
2018-11-08,100.0,97.6500015258789,98.13999938964844,99.88999938964844,544800.0,98.045166015625
2018-11-09,100.61000061035156,99.68000030517578,99.9000015258789,100.5199966430664,443500.0,98.66353607177734
2018-11-12,101.86000061035156,100.61000061035156,100.6500015258789,100.9800033569336,533900.0,99.11504364013672
2018-11-13,101.80000305175781,100.30999755859375,101.13999938964844,101.55999755859375,686700.0,99.684326171875
2018-11-14,101.80999755859375,100.20999908447266,101.69000244140625,100.33999633789062,462600.0,98.48685455322266
2018-11-15,99.95999908447266,97.98999786376953,99.7300033569336,99.0,472100.0,97.17160034179688
2018-11-16,101.12999725341797,98.72000122070312,98.97000122070312,101.02999877929688,626400.0,99.16410827636719
2018-11-19,101.80999755859375,100.31999969482422,101.01000213623047,101.44999694824219,427500.0,99.57635498046875
2018-11-20,101.94000244140625,100.26000213623047,101.43000030517578,100.93000030517578,481400.0,99.06596374511719
2018-11-21,102.11000061035156,100.19000244140625,100.81999969482422,101.0999984741211,491000.0,99.23282623291016
2018-11-23,101.51000213623047,100.19000244140625,101.08999633789062,100.79000091552734,140800.0,98.92855072021484
2018-11-26,101.45999908447266,100.30999755859375,101.31999969482422,101.44999694824219,555700.0,99.57635498046875
2018-11-27,102.19000244140625,101.04000091552734,101.41000366210938,102.06999969482422,554300.0,100.18490600585938
2018-11-28,102.72000122070312,101.18000030517578,101.94000244140625,102.55000305175781,644300.0,100.65604400634766
2018-11-29,102.7699966430664,101.33000183105469,102.5,102.22000122070312,419700.0,100.33213806152344
2018-11-30,103.61000061035156,102.08999633789062,102.70999908447266,103.55999755859375,749300.0,101.64739227294922
2018-12-03,103.87999725341797,102.75,103.48999786376953,103.38999938964844,655800.0,101.48052978515625
2018-12-04,103.5199966430664,100.86000061035156,103.31999969482422,101.0,1060100.0,99.1346664428711
2018-12-06,103.5199966430664,99.06999969482422,100.58999633789062,103.41999816894531,1000200.0,101.50997161865234
2018-12-07,103.7699966430664,101.55000305175781,103.20999908447266,101.83999633789062,870800.0,99.95915222167969
2018-12-10,102.3499984741211,100.23999786376953,102.19000244140625,101.87999725341797,535300.0,99.9984130859375
2018-12-11,103.13999938964844,101.87999725341797,102.43000030517578,101.93000030517578,799400.0,100.04749298095703
2018-12-12,102.73999786376953,99.83999633789062,102.5,99.9000015258789,654800.0,98.05498504638672
2018-12-13,102.12000274658203,99.98999786376953,99.98999786376953,101.47000122070312,538700.0,99.59599304199219
2018-12-14,101.83000183105469,100.33999633789062,100.97000122070312,101.41000366210938,803200.0,99.53710174560547
2018-12-17,102.08000183105469,96.81999969482422,101.55999755859375,97.0999984741211,781200.0,95.30669403076172
2018-12-18,98.91000366210938,97.33000183105469,97.58000183105469,98.29000091552734,467100.0,96.47472381591797
2018-12-19,99.56999969482422,97.5199966430664,98.44999694824219,98.04000091552734,715800.0,96.22933197021484
2018-12-20,98.94999694824219,96.66999816894531,97.87000274658203,97.30999755859375,770900.0,95.51280975341797
2018-12-21,100.22000122070312,97.1500015258789,97.38999938964844,97.19999694824219,1311900.0,95.40484619140625
2018-12-24,97.26000213623047,92.2300033569336,97.26000213623047,92.2300033569336,328500.0,90.52664184570312
2018-12-26,95.26000213623047,91.20999908447266,92.4000015258789,95.26000213623047,564400.0,93.50068664550781
2018-12-27,95.4800033569336,92.4000015258789,94.41999816894531,95.4800033569336,610800.0,93.71662139892578
2018-12-28,96.7300033569336,94.05000305175781,96.19999694824219,95.11000061035156,593600.0,93.35345458984375
2018-12-31,95.70999908447266,93.79000091552734,95.1500015258789,95.69999694824219,448400.0,93.93254852294922
