Date,High,Low,Open,Close,Volume,Adj Close
2016-01-04,53.27000045776367,52.29999923706055,53.09000015258789,52.90999984741211,25985400.0,47.99885177612305
2016-01-05,53.27000045776367,52.54999923706055,52.93000030517578,52.88999938964844,14759600.0,47.980709075927734
2016-01-06,52.619998931884766,51.83000183105469,52.119998931884766,51.880001068115234,20026400.0,47.06446075439453
2016-01-07,51.189998626708984,50.150001525878906,51.0099983215332,50.400001525878906,30425600.0,45.721832275390625
2016-01-08,50.86000061035156,49.459999084472656,50.79999923706055,49.560001373291016,22981400.0,44.959800720214844
2016-01-11,50.33000183105469,49.63999938964844,50.18000030517578,50.09000015258789,18989900.0,45.44060134887695
2016-01-12,51.52000045776367,50.45000076293945,50.880001068115234,51.36000061035156,28961500.0,46.59272384643555
2016-01-13,51.79999923706055,49.5,51.72999954223633,49.72999954223633,22013500.0,45.1140251159668
2016-01-14,51.0,49.599998474121094,50.08000183105469,50.63999938964844,24569800.0,45.93955993652344
2016-01-15,49.63999938964844,48.130001068115234,48.59000015258789,48.81999969482422,41090400.0,44.288490295410156
2016-01-19,49.540000915527344,47.9900016784668,49.25,48.209999084472656,29918500.0,43.73511505126953
2016-01-20,48.25,46.880001068115234,47.279998779296875,47.869998931884766,40241100.0,43.42667007446289
2016-01-21,49.04999923706055,47.90999984741211,48.029998779296875,48.0099983215332,24272900.0,43.55367660522461
2016-01-22,49.27000045776367,48.560001373291016,49.029998779296875,49.02000045776367,18298700.0,44.469932556152344
2016-01-25,48.97999954223633,47.619998931884766,48.90999984741211,47.65999984741211,23440800.0,43.23616027832031
2016-01-26,48.560001373291016,47.65999984741211,47.75,48.2599983215332,18845900.0,43.78046798706055
2016-01-27,49.29999923706055,48.130001068115234,48.29999923706055,48.56999969482422,20441500.0,44.06169128417969
2016-01-28,49.400001525878906,48.599998474121094,49.099998474121094,48.91999816894531,21306600.0,44.379207611083984
2016-01-29,50.25,49.16999816894531,49.290000915527344,50.22999954223633,25358300.0,45.5676155090332
2016-02-01,50.18000030517578,49.560001373291016,50.119998931884766,49.939998626708984,17385400.0,45.30453109741211
2016-02-02,49.31999969482422,48.779998779296875,49.2599983215332,48.83000183105469,25593200.0,44.29756546020508
2016-02-03,48.5099983215332,46.5099983215332,48.45000076293945,47.599998474121094,47149700.0,43.51591873168945
2016-02-04,48.61000061035156,47.369998931884766,47.400001525878906,48.25,30603700.0,44.110145568847656
2016-02-05,48.65999984741211,47.599998474121094,48.349998474121094,47.86000061035156,23733700.0,43.75361251831055
2016-02-08,47.34000015258789,46.060001373291016,47.11000061035156,46.5,31172100.0,42.51029968261719
2016-02-09,46.7599983215332,45.36000061035156,45.61000061035156,46.45000076293945,29580100.0,42.464595794677734
2016-02-10,47.220001220703125,46.11000061035156,46.880001068115234,46.16999816894531,19885500.0,42.208614349365234
2016-02-11,45.529998779296875,44.5,44.93000030517578,45.15999984741211,32570900.0,41.28527069091797
2016-02-12,47.38999938964844,45.93000030517578,45.959999084472656,47.310001373291016,28533900.0,43.25080490112305
2016-02-16,48.40999984741211,47.56999969482422,48.04999923706055,48.2400016784668,20410600.0,44.10102081298828
2016-02-17,48.959999084472656,47.9900016784668,48.650001525878906,48.130001068115234,18060500.0,44.000450134277344
2016-02-18,48.13999938964844,47.47999954223633,48.09000015258789,47.72999954223633,17162800.0,43.634765625
2016-02-19,48.16999816894531,47.34000015258789,47.400001525878906,48.09000015258789,18234900.0,43.96388626098633
2016-02-22,49.34000015258789,48.09000015258789,48.09000015258789,49.189998626708984,17572800.0,44.96949768066406
2016-02-23,48.91999816894531,47.97999954223633,48.869998931884766,48.099998474121094,15224700.0,43.973018646240234
2016-02-24,47.68000030517578,46.560001373291016,47.34000015258789,47.61000061035156,18595700.0,43.52505874633789
2016-02-25,48.15999984741211,47.709999084472656,47.709999084472656,47.75,16620200.0,43.65304946899414
2016-02-26,48.540000915527344,47.83000183105469,48.130001068115234,48.06999969482422,20325600.0,43.945594787597656
2016-02-29,48.029998779296875,46.90999984741211,48.029998779296875,46.91999816894531,24018100.0,42.894264221191406
2016-03-01,48.720001220703125,47.13999938964844,47.13999938964844,48.720001220703125,24758500.0,44.53982162475586
2016-03-02,49.56999969482422,48.61000061035156,48.84000015258789,49.56999969482422,18667700.0,45.31689453125
2016-03-03,49.790000915527344,49.06999969482422,49.630001068115234,49.77000045776367,14207600.0,45.49973678588867
2016-03-04,50.4900016784668,49.68000030517578,50.0099983215332,50.11000061035156,18685600.0,45.810569763183594
2016-03-07,50.15999984741211,49.439998626708984,49.77000045776367,50.06999969482422,14386100.0,45.77399444580078
2016-03-08,49.65999984741211,48.91999816894531,49.61000061035156,49.04999923706055,18098200.0,44.84150695800781
2016-03-09,49.5,48.5099983215332,49.380001068115234,48.790000915527344,17920100.0,44.60382080078125
2016-03-10,49.130001068115234,47.959999084472656,48.939998626708984,48.5099983215332,18525300.0,44.34784698486328
2016-03-11,50.130001068115234,48.880001068115234,49.119998931884766,50.06999969482422,18318400.0,45.77399444580078
2016-03-14,50.06999969482422,49.439998626708984,49.970001220703125,49.880001068115234,12803900.0,45.60029602050781
2016-03-15,49.9900016784668,49.20000076293945,49.29999923706055,49.97999954223633,12945600.0,45.69172286987305
2016-03-16,50.290000915527344,49.279998779296875,49.75,49.540000915527344,16629700.0,45.28947448730469
2016-03-17,49.93000030517578,48.84000015258789,49.43000030517578,49.72999954223633,16002800.0,45.46316146850586
2016-03-18,50.70000076293945,49.93000030517578,50.439998626708984,50.540000915527344,35812100.0,46.20367431640625
2016-03-21,50.75,50.16999816894531,50.5,50.66999816894531,13543200.0,46.32251739501953
2016-03-22,50.58000183105469,50.0,50.209999084472656,50.369998931884766,13907000.0,46.04825210571289
2016-03-23,50.33000183105469,49.70000076293945,50.18000030517578,49.7599983215332,13648100.0,45.490596771240234
2016-03-24,49.08000183105469,48.52000045776367,49.02000045776367,48.900001525878906,20871100.0,44.70438003540039
2016-03-28,49.040000915527344,48.54999923706055,49.040000915527344,48.70000076293945,18478100.0,44.521541595458984
2016-03-29,48.650001525878906,47.84000015258789,48.619998931884766,48.04999923706055,24247700.0,43.92731475830078
2016-03-30,49.15999984741211,48.150001525878906,48.400001525878906,48.650001525878906,16794200.0,44.475830078125
2016-03-31,48.84000015258789,48.27000045776367,48.599998474121094,48.36000061035156,16397600.0,44.21071243286133
2016-04-01,48.58000183105469,47.779998779296875,48.22999954223633,48.45000076293945,14321400.0,44.292991638183594
2016-04-04,48.66999816894531,48.20000076293945,48.41999816894531,48.5,12110200.0,44.33869934082031
2016-04-05,48.09000015258789,47.459999084472656,48.08000183105469,47.5099983215332,18297700.0,43.43363952636719
2016-04-06,48.130001068115234,47.220001220703125,47.38999938964844,48.08000183105469,17195200.0,43.954742431640625
2016-04-07,47.779998779296875,46.619998931884766,47.709999084472656,46.93000030517578,17593100.0,42.903411865234375
2016-04-08,47.650001525878906,46.970001220703125,47.349998474121094,47.06999969482422,12236500.0,43.031402587890625
2016-04-11,47.709999084472656,47.0,47.11000061035156,47.029998779296875,15113500.0,42.99481964111328
2016-04-12,47.83000183105469,46.95000076293945,47.13999938964844,47.77000045776367,18658500.0,43.67134094238281
2016-04-13,49.25,48.27000045776367,48.290000915527344,49.029998779296875,26311900.0,44.8232307434082
2016-04-14,49.29999923706055,48.16999816894531,48.29999923706055,48.790000915527344,30006900.0,44.60382080078125
2016-04-15,48.939998626708984,48.060001373291016,48.619998931884766,48.25,24885200.0,44.110145568847656
2016-04-18,48.880001068115234,47.90999984741211,48.25,48.84000015258789,17638000.0,44.649532318115234
2016-04-19,49.91999816894531,48.97999954223633,49.0099983215332,49.880001068115234,18673400.0,45.60029602050781
2016-04-20,50.52000045776367,49.7599983215332,49.97999954223633,50.45000076293945,22647700.0,46.121395111083984
2016-04-21,50.779998779296875,49.93000030517578,50.54999923706055,50.04999923706055,20255400.0,45.75571060180664
2016-04-22,50.7400016784668,50.04999923706055,50.04999923706055,50.619998931884766,16365700.0,46.27680206298828
2016-04-25,50.599998474121094,50.119998931884766,50.310001373291016,50.5099983215332,11689100.0,46.176246643066406
2016-04-26,50.9900016784668,50.45000076293945,50.5099983215332,50.91999816894531,13333500.0,46.55106735229492
2016-04-27,51.40999984741211,50.720001220703125,50.869998931884766,50.93000030517578,15342700.0,46.56020736694336
2016-04-28,50.93000030517578,50.20000076293945,50.5099983215332,50.40999984741211,15506300.0,46.0848274230957
2016-04-29,50.459999084472656,49.68000030517578,50.459999084472656,49.97999954223633,17887000.0,45.69172286987305
2016-05-02,50.70000076293945,50.150001525878906,50.279998779296875,50.59000015258789,14780300.0,46.24937438964844
2016-05-03,50.130001068115234,49.540000915527344,49.86000061035156,50.0,16246400.0,45.71000671386719
2016-05-04,49.27000045776367,48.68000030517578,49.060001373291016,48.939998626708984,22402500.0,45.08358383178711
2016-05-05,49.189998626708984,48.77000045776367,48.970001220703125,48.959999084472656,15953600.0,45.10200500488281
2016-05-06,49.119998931884766,48.650001525878906,48.709999084472656,49.02000045776367,14189600.0,45.15727996826172
2016-05-09,49.220001220703125,48.810001373291016,49.02000045776367,48.880001068115234,13877000.0,45.028316497802734
2016-05-10,49.5099983215332,49.0,49.0,49.400001525878906,14187800.0,45.50734329223633
2016-05-11,49.720001220703125,49.08000183105469,49.36000061035156,49.08000183105469,17344300.0,45.21255874633789
2016-05-12,49.58000183105469,49.04999923706055,49.34000015258789,49.20000076293945,13589600.0,45.32310104370117
2016-05-13,49.43000030517578,48.209999084472656,49.099998474121094,48.2400016784668,25251700.0,44.438751220703125
2016-05-16,48.630001068115234,47.939998626708984,48.119998931884766,48.27000045776367,19655300.0,44.46638488769531
2016-05-17,48.16999816894531,47.54999923706055,48.13999938964844,47.619998931884766,21495600.0,43.86759948730469
2016-05-18,48.720001220703125,47.619998931884766,47.68000030517578,48.650001525878906,30028200.0,44.816436767578125
2016-05-19,48.959999084472656,48.15999984741211,48.439998626708984,48.380001068115234,13604100.0,44.567718505859375
2016-05-20,49.209999084472656,48.560001373291016,48.619998931884766,48.75,13222800.0,44.90855407714844
2016-05-23,48.880001068115234,48.349998474121094,48.7599983215332,48.70000076293945,10428300.0,44.86249542236328
2016-05-24,49.369998931884766,48.689998626708984,49.04999923706055,49.20000076293945,16597700.0,45.32310104370117
2016-05-25,50.83000183105469,49.5099983215332,49.58000183105469,50.5,22478600.0,46.520660400390625
2016-05-26,50.65999984741211,50.400001525878906,50.52000045776367,50.54999923706055,14733900.0,46.56672286987305
2016-05-27,50.86000061035156,50.4900016784668,50.599998474121094,50.849998474121094,13430500.0,46.84307861328125
2016-05-31,51.189998626708984,50.4900016784668,51.02000045776367,50.720001220703125,19725000.0,46.723323822021484
2016-06-01,51.040000915527344,50.16999816894531,50.2599983215332,51.0,16774300.0,46.98125457763672
2016-06-02,51.11000061035156,50.709999084472656,50.959999084472656,51.11000061035156,14179600.0,47.08259582519531
2016-06-03,50.310001373291016,49.61000061035156,50.16999816894531,50.189998626708984,25452600.0,46.235084533691406
2016-06-06,50.869998931884766,50.189998626708984,50.2400016784668,50.4900016784668,14528500.0,46.51144790649414
2016-06-07,50.72999954223633,50.27000045776367,50.72999954223633,50.27000045776367,15310100.0,46.30877685546875
2016-06-08,50.439998626708984,49.7400016784668,50.25,50.0,18168500.0,46.06005859375
2016-06-09,49.68000030517578,48.849998474121094,49.650001525878906,49.13999938964844,19464400.0,45.267826080322266
2016-06-10,48.709999084472656,48.16999816894531,48.4900016784668,48.34000015258789,16815300.0,44.53086471557617
2016-06-13,48.5099983215332,47.959999084472656,48.130001068115234,47.970001220703125,16150100.0,44.19002151489258
2016-06-14,48.119998931884766,46.5099983215332,47.86000061035156,46.880001068115234,25311700.0,43.18590545654297
2016-06-15,47.560001373291016,46.7400016784668,47.27000045776367,46.779998779296875,20142000.0,43.093788146972656
2016-06-16,46.86000061035156,45.959999084472656,46.470001220703125,46.849998474121094,15619300.0,43.15827560424805
2016-06-17,47.0,46.52000045776367,46.849998474121094,46.599998474121094,25661300.0,42.92796325683594
2016-06-20,47.900001525878906,46.91999816894531,47.4900016784668,46.93000030517578,19490100.0,43.231971740722656
2016-06-21,47.34000015258789,46.77000045776367,47.290000915527344,47.22999954223633,11731600.0,43.508331298828125
2016-06-22,47.58000183105469,46.93000030517578,47.150001525878906,46.970001220703125,17072100.0,43.26881790161133
2016-06-23,47.90999984741211,47.38999938964844,47.63999938964844,47.90999984741211,16270000.0,44.13475036621094
2016-06-24,46.970001220703125,45.279998779296875,45.7599983215332,45.709999084472656,46744100.0,42.10810852050781
2016-06-27,45.33000183105469,44.5,45.20000076293945,45.0099983215332,35030100.0,41.46326446533203
2016-06-28,46.11000061035156,45.34000015258789,45.88999938964844,46.099998474121094,27525700.0,42.467376708984375
2016-06-29,46.9900016784668,46.150001525878906,46.630001068115234,46.970001220703125,20856400.0,43.26881790161133
2016-06-30,47.36000061035156,46.529998779296875,47.2400016784668,47.33000183105469,22538800.0,43.60044860839844
2016-07-01,47.279998779296875,46.86000061035156,47.08000183105469,47.029998779296875,19013600.0,43.3240852355957
2016-07-05,46.7599983215332,45.810001373291016,46.70000076293945,46.209999084472656,22213000.0,42.56870651245117
2016-07-06,46.65999984741211,45.70000076293945,45.88999938964844,46.650001525878906,19024100.0,42.97403335571289
2016-07-07,47.220001220703125,46.439998626708984,46.58000183105469,46.79999923706055,17941900.0,43.11221694946289
2016-07-08,47.91999816894531,47.45000076293945,47.45000076293945,47.790000915527344,19775700.0,44.02420425415039
2016-07-11,48.45000076293945,47.939998626708984,48.099998474121094,48.08000183105469,16008700.0,44.29135513305664
2016-07-12,48.630001068115234,48.220001220703125,48.41999816894531,48.349998474121094,15067900.0,44.540077209472656
2016-07-13,48.470001220703125,47.97999954223633,48.310001373291016,48.27000045776367,14389600.0,44.46638488769531
2016-07-14,49.150001525878906,48.66999816894531,49.04999923706055,48.939998626708984,17578400.0,45.08358383178711
2016-07-15,48.880001068115234,47.40999984741211,48.849998474121094,47.709999084472656,35121000.0,43.950504302978516
2016-07-18,48.33000183105469,47.779998779296875,47.810001373291016,48.279998779296875,24139200.0,44.475589752197266
2016-07-19,48.54999923706055,48.04999923706055,48.08000183105469,48.369998931884766,15982900.0,44.558502197265625
2016-07-20,48.689998626708984,48.400001525878906,48.59000015258789,48.61000061035156,16569900.0,44.77959442138672
2016-07-21,48.810001373291016,48.290000915527344,48.650001525878906,48.29999923706055,15532000.0,44.49401092529297
2016-07-22,48.36000061035156,48.099998474121094,48.31999969482422,48.31999969482422,13588500.0,44.51243591308594
2016-07-25,48.2599983215332,47.849998474121094,48.2400016784668,48.119998931884766,12122200.0,44.32820129394531
2016-07-26,48.16999816894531,47.79999923706055,48.029998779296875,47.970001220703125,16130100.0,44.19002151489258
2016-07-27,48.220001220703125,47.779998779296875,47.95000076293945,48.0,17862300.0,44.217655181884766
2016-07-28,48.220001220703125,47.68000030517578,47.939998626708984,48.130001068115234,12562600.0,44.3374137878418
2016-07-29,48.16999816894531,47.95000076293945,47.95000076293945,47.970001220703125,13111700.0,44.19002151489258
2016-08-01,48.04999923706055,47.630001068115234,47.97999954223633,47.810001373291016,16026600.0,44.04263687133789
2016-08-02,47.83000183105469,47.38999938964844,47.65999984741211,47.70000076293945,17033100.0,43.94129180908203
2016-08-03,47.63999938964844,47.33000183105469,47.33000183105469,47.56999969482422,14913500.0,44.17344665527344
2016-08-04,48.0,47.56999969482422,47.599998474121094,47.84000015258789,14639300.0,44.424163818359375
2016-08-05,48.70000076293945,48.130001068115234,48.38999938964844,48.68000030517578,19064700.0,45.20418930053711
2016-08-08,49.04999923706055,48.7400016784668,48.779998779296875,48.90999984741211,14871600.0,45.41776657104492
2016-08-09,49.150001525878906,48.810001373291016,49.02000045776367,48.93000030517578,10449800.0,45.43634796142578
2016-08-10,48.93000030517578,48.08000183105469,48.81999969482422,48.18000030517578,16782700.0,44.739891052246094
2016-08-11,48.5,47.91999816894531,48.22999954223633,48.2400016784668,14383000.0,44.79561233520508
2016-08-12,48.08000183105469,47.83000183105469,48.04999923706055,47.900001525878906,13227500.0,44.47988510131836
2016-08-15,48.34000015258789,48.029998779296875,48.04999923706055,48.27000045776367,11758900.0,44.82346725463867
2016-08-16,48.599998474121094,48.060001373291016,48.15999984741211,48.439998626708984,13957600.0,44.9813232421875
2016-08-17,48.65999984741211,48.310001373291016,48.369998931884766,48.61000061035156,13062900.0,45.13919448852539
2016-08-18,48.65999984741211,48.33000183105469,48.5,48.529998779296875,12189200.0,45.06489562988281
2016-08-19,48.72999954223633,48.20000076293945,48.439998626708984,48.650001525878906,12557700.0,45.17633056640625
2016-08-22,48.7400016784668,48.5,48.63999938964844,48.630001068115234,9212600.0,45.15776062011719
2016-08-23,48.75,48.38999938964844,48.63999938964844,48.40999984741211,15430200.0,44.953468322753906
2016-08-24,48.77000045776367,48.349998474121094,48.5,48.630001068115234,16315800.0,45.15776062011719
2016-08-25,48.689998626708984,48.29999923706055,48.619998931884766,48.380001068115234,13643200.0,44.92561340332031
2016-08-26,48.84000015258789,48.279998779296875,48.58000183105469,48.5099983215332,15527300.0,45.04632568359375
2016-08-29,49.75,48.689998626708984,48.75,49.560001373291016,21078300.0,46.0213623046875
2016-08-30,50.63999938964844,49.68000030517578,49.72999954223633,50.619998931884766,25055800.0,47.00566482543945
2016-08-31,50.91999816894531,50.2400016784668,50.70000076293945,50.79999923706055,24533600.0,47.17281723022461
2016-09-01,51.0,50.11000061035156,50.91999816894531,50.43000030517578,17017100.0,46.8292350769043
2016-09-02,50.65999984741211,50.18000030517578,50.45000076293945,50.54999923706055,12684000.0,46.940673828125
2016-09-06,50.56999969482422,49.630001068115234,50.560001373291016,49.9900016784668,21832200.0,46.420650482177734
2016-09-07,50.029998779296875,49.650001525878906,49.790000915527344,49.77000045776367,12437300.0,46.21636199951172
2016-09-08,49.9900016784668,49.560001373291016,49.810001373291016,49.900001525878906,13589200.0,46.33708190917969
2016-09-09,49.86000061035156,48.720001220703125,49.4900016784668,48.720001220703125,32147200.0,45.241329193115234
2016-09-12,48.63999938964844,47.97999954223633,48.369998931884766,48.540000915527344,35588400.0,45.074188232421875
2016-09-13,47.86000061035156,46.52000045776367,47.79999923706055,46.959999084472656,59000500.0,43.60700225830078
2016-09-14,47.58000183105469,46.5,47.08000183105469,46.52000045776367,44841700.0,43.198421478271484
2016-09-15,46.349998474121094,45.189998626708984,46.119998931884766,46.150001525878906,60827800.0,42.854835510253906
2016-09-16,45.869998931884766,45.25,45.70000076293945,45.43000030517578,51871400.0,42.18624496459961
2016-09-19,46.290000915527344,45.47999954223633,45.619998931884766,46.0099983215332,33486700.0,42.724830627441406
2016-09-20,47.20000076293945,46.119998931884766,47.150001525878906,46.560001373291016,51510400.0,43.235557556152344
2016-09-21,46.540000915527344,45.33000183105469,46.5099983215332,45.83000183105469,64530200.0,42.55768585205078
2016-09-22,46.119998931884766,45.369998931884766,45.83000183105469,45.720001220703125,36964400.0,42.455535888671875
2016-09-23,45.90999984741211,45.43000030517578,45.5,45.7400016784668,28710500.0,42.47411346435547
2016-09-26,45.5,44.650001525878906,45.369998931884766,44.880001068115234,30938000.0,41.67552185058594
2016-09-27,45.099998474121094,44.65999984741211,44.790000915527344,45.09000015258789,24359000.0,41.870521545410156
2016-09-28,45.47999954223633,44.959999084472656,45.36000061035156,45.310001373291016,28220300.0,42.0748176574707
2016-09-29,45.2599983215332,44.209999084472656,45.189998626708984,44.369998931884766,45266700.0,41.201927185058594
2016-09-30,44.72999954223633,44.099998474121094,44.33000183105469,44.279998779296875,54117700.0,41.11835479736328
2016-10-03,44.15999984741211,43.560001373291016,44.119998931884766,43.83000183105469,38197700.0,40.70049285888672
2016-10-04,44.09000015258789,43.54999923706055,43.619998931884766,43.75,44008300.0,40.626190185546875
2016-10-05,45.08000183105469,43.83000183105469,43.83000183105469,44.9900016784668,40459000.0,41.77766036987305
2016-10-06,45.38999938964844,44.83000183105469,45.18000030517578,45.18000030517578,29878200.0,41.954097747802734
2016-10-07,45.45000076293945,44.93000030517578,45.20000076293945,45.33000183105469,24893600.0,42.093387603759766
2016-10-10,45.91999816894531,45.439998626708984,45.70000076293945,45.650001525878906,21676500.0,42.390533447265625
2016-10-11,45.81999969482422,45.150001525878906,45.79999923706055,45.45000076293945,25442600.0,42.20481491088867
2016-10-12,45.83000183105469,45.31999969482422,45.5099983215332,45.31999969482422,21780500.0,42.084102630615234
2016-10-13,45.2400016784668,44.279998779296875,45.2400016784668,44.75,44174600.0,41.55480194091797
2016-10-14,45.52000045776367,44.31999969482422,45.16999816894531,44.709999084472656,45418600.0,41.51765441894531
2016-10-17,44.7599983215332,44.31999969482422,44.540000915527344,44.5,18861300.0,41.3226432800293
2016-10-18,45.0,44.40999984741211,44.75,44.95000076293945,23745100.0,41.74051284790039
2016-10-19,45.529998779296875,44.86000061035156,44.86000061035156,45.2599983215332,26977000.0,42.02838134765625
2016-10-20,45.290000915527344,44.65999984741211,44.970001220703125,44.93000030517578,27210600.0,41.72194290161133
2016-10-21,45.29999923706055,44.65999984741211,44.7400016784668,45.09000015258789,21490800.0,41.870521545410156
2016-10-24,45.68000030517578,45.290000915527344,45.45000076293945,45.52000045776367,19303800.0,42.26981735229492
2016-10-25,45.79999923706055,45.40999984741211,45.470001220703125,45.720001220703125,20402000.0,42.455535888671875
2016-10-26,46.16999816894531,45.439998626708984,45.459999084472656,46.150001525878906,25181900.0,42.854835510253906
2016-10-27,46.810001373291016,46.2599983215332,46.41999816894531,46.40999984741211,25661000.0,43.09627151489258
2016-10-28,46.63999938964844,45.880001068115234,46.56999969482422,46.22999954223633,20882000.0,42.92912292480469
2016-10-31,46.560001373291016,46.0,46.400001525878906,46.0099983215332,20115900.0,42.724830627441406
2016-11-01,46.279998779296875,45.599998474121094,46.119998931884766,45.9900016784668,20020200.0,42.706260681152344
2016-11-02,45.5099983215332,45.06999969482422,45.380001068115234,45.2400016784668,19566600.0,42.35981750488281
2016-11-03,45.790000915527344,45.25,45.33000183105469,45.34000015258789,14982700.0,42.45344924926758
2016-11-04,45.41999816894531,44.4900016784668,45.36000061035156,44.599998474121094,27391600.0,41.760562896728516
2016-11-07,45.689998626708984,45.209999084472656,45.220001220703125,45.400001525878906,25769400.0,42.5096321105957
2016-11-08,45.81999969482422,44.869998931884766,45.18000030517578,45.540000915527344,19406700.0,42.640716552734375
2016-11-09,48.61000061035156,46.0,46.33000183105469,47.9900016784668,67615000.0,44.93474578857422
2016-11-10,51.93000030517578,48.790000915527344,48.93000030517578,51.630001068115234,100988800.0,48.342994689941406
2016-11-11,51.9900016784668,50.72999954223633,51.09000015258789,51.72999954223633,46594900.0,48.4366340637207
2016-11-14,54.060001373291016,51.90999984741211,51.90999984741211,53.220001220703125,58839400.0,49.83176803588867
2016-11-15,52.59000015258789,51.540000915527344,52.380001068115234,52.59000015258789,39437900.0,49.241886138916016
2016-11-16,52.16999816894531,51.36000061035156,51.790000915527344,51.68000030517578,26774300.0,48.38982009887695
2016-11-17,52.900001525878906,50.959999084472656,51.38999938964844,52.4900016784668,29205900.0,49.14824676513672
2016-11-18,52.97999954223633,51.9900016784668,52.45000076293945,52.81999969482422,29673400.0,49.45724105834961
2016-11-21,52.97999954223633,52.02000045776367,52.849998474121094,52.119998931884766,23587200.0,48.80181121826172
2016-11-22,52.58000183105469,51.810001373291016,52.43000030517578,52.220001220703125,22816900.0,48.89543533325195
2016-11-23,52.630001068115234,51.95000076293945,52.45000076293945,52.15999984741211,19986800.0,48.83926010131836
2016-11-25,52.619998931884766,52.040000915527344,52.400001525878906,52.619998931884766,9635500.0,49.26996994018555
2016-11-28,52.47999954223633,51.38999938964844,52.119998931884766,51.58000183105469,26518500.0,48.29618453979492
2016-11-29,52.130001068115234,51.560001373291016,51.560001373291016,51.86000061035156,16267300.0,48.5583610534668
2016-11-30,53.15999984741211,52.29999923706055,52.47999954223633,52.91999816894531,26567200.0,49.550872802734375
2016-12-01,54.470001220703125,53.060001373291016,53.130001068115234,54.34000015258789,35623100.0,50.88046646118164
2016-12-02,54.27000045776367,53.310001373291016,54.2400016784668,53.58000183105469,21894700.0,50.168853759765625
2016-12-05,54.529998779296875,53.869998931884766,53.900001525878906,54.349998474121094,24793900.0,50.88983154296875
2016-12-06,55.56999969482422,54.220001220703125,54.45000076293945,55.54999923706055,30706700.0,52.0134391784668
2016-12-07,57.290000915527344,55.22999954223633,55.54999923706055,57.279998779296875,46617000.0,53.63330078125
2016-12-08,58.02000045776367,56.709999084472656,57.290000915527344,57.290000915527344,39828600.0,53.64265823364258
2016-12-09,57.2400016784668,56.4900016784668,56.90999984741211,57.13999938964844,20331200.0,53.5022087097168
2016-12-12,57.099998474121094,55.54999923706055,56.5,55.779998779296875,27886200.0,52.228782653808594
2016-12-13,56.209999084472656,55.290000915527344,55.849998474121094,55.84000015258789,24355600.0,52.28497314453125
2016-12-14,55.619998931884766,54.029998779296875,54.7400016784668,54.70000076293945,54590600.0,51.217552185058594
2016-12-15,56.25,54.900001525878906,55.16999816894531,55.189998626708984,31345900.0,51.67635726928711
2016-12-16,55.650001525878906,54.91999816894531,55.4900016784668,55.34000015258789,32767100.0,51.816802978515625
2016-12-19,55.470001220703125,54.650001525878906,55.18000030517578,55.220001220703125,16801400.0,51.70444869995117
2016-12-20,56.31999969482422,55.150001525878906,55.470001220703125,56.099998474121094,19245300.0,52.52841567993164
2016-12-21,56.09000015258789,55.63999938964844,56.09000015258789,55.709999084472656,14058400.0,52.16324996948242
2016-12-22,56.029998779296875,55.5,55.7599983215332,55.75,14515500.0,52.20070266723633
2016-12-23,55.97999954223633,55.619998931884766,55.779998779296875,55.959999084472656,8282900.0,52.3973274230957
2016-12-27,56.099998474121094,55.84000015258789,55.900001525878906,55.95000076293945,8893900.0,52.387969970703125
2016-12-28,56.08000183105469,55.27000045776367,55.97999954223633,55.31999969482422,10609100.0,51.798072814941406
2016-12-29,55.459999084472656,54.47999954223633,55.189998626708984,54.84000015258789,15794100.0,51.348636627197266
2016-12-30,55.36000061035156,54.790000915527344,54.88999938964844,55.11000061035156,15095500.0,51.60144805908203
2017-01-03,56.349998474121094,55.459999084472656,55.66999816894531,56.0,22063800.0,52.43478012084961
2017-01-04,56.310001373291016,55.61000061035156,56.15999984741211,56.04999923706055,15036100.0,52.481605529785156
2017-01-05,55.81999969482422,54.47999954223633,55.4900016784668,55.18000030517578,18831600.0,51.6669921875
2017-01-06,55.56999969482422,54.70000076293945,55.2599983215332,55.040000915527344,18715900.0,51.53590774536133
2017-01-09,54.810001373291016,54.18000030517578,54.68000030517578,54.2400016784668,21665600.0,50.786842346191406
2017-01-10,55.18000030517578,54.2599983215332,54.349998474121094,54.619998931884766,17978200.0,51.14263916015625
2017-01-11,54.79999923706055,53.720001220703125,54.599998474121094,54.79999923706055,21100600.0,51.311180114746094
2017-01-12,54.779998779296875,53.900001525878906,54.650001525878906,54.5,20566600.0,51.0302848815918
2017-01-13,56.20000076293945,54.650001525878906,55.11000061035156,55.310001373291016,37231600.0,51.788719177246094
2017-01-17,54.959999084472656,53.58000183105469,54.79999923706055,53.779998779296875,26866000.0,50.35612106323242
2017-01-18,54.290000915527344,53.34000015258789,53.779998779296875,54.27000045776367,21186700.0,50.8149299621582
2017-01-19,54.77000045776367,53.86000061035156,54.2400016784668,54.58000183105469,20906900.0,51.10519027709961
2017-01-20,55.11000061035156,54.619998931884766,54.75,55.06999969482422,24160800.0,51.563995361328125
2017-01-23,55.0,54.150001525878906,54.709999084472656,54.25,17227400.0,50.79619598388672
2017-01-24,55.06999969482422,54.130001068115234,54.36000061035156,54.70000076293945,18523300.0,51.217552185058594
2017-01-25,56.83000183105469,55.279998779296875,55.380001068115234,56.619998931884766,32252100.0,53.015316009521484
2017-01-26,57.33000183105469,56.59000015258789,56.61000061035156,57.18000030517578,23769800.0,53.539669036865234
2017-01-27,57.11000061035156,56.40999984741211,57.029998779296875,56.59000015258789,17186200.0,52.98722457885742
2017-01-30,56.31999969482422,55.75,56.119998931884766,56.08000183105469,15961400.0,52.50969314575195
2017-01-31,56.380001068115234,55.79999923706055,55.97999954223633,56.33000183105469,22409100.0,52.74378204345703
2017-02-01,57.06999969482422,55.77000045776367,56.540000915527344,55.90999984741211,21157700.0,52.7060661315918
2017-02-02,55.959999084472656,55.400001525878906,55.56999969482422,55.75,13044400.0,52.555233001708984
2017-02-03,57.290000915527344,56.43000030517578,56.880001068115234,57.27000045776367,19879800.0,53.98813247680664
2017-02-06,57.40999984741211,56.4900016784668,57.08000183105469,56.54999923706055,13940200.0,53.30939483642578
2017-02-07,57.189998626708984,56.27000045776367,56.86000061035156,56.34000015258789,14937400.0,53.11142349243164
2017-02-08,56.209999084472656,55.16999816894531,56.209999084472656,55.630001068115234,18592200.0,52.44211196899414
2017-02-09,56.77000045776367,55.630001068115234,55.630001068115234,56.72999954223633,15907800.0,53.47907638549805
2017-02-10,57.040000915527344,56.65999984741211,57.02000045776367,56.86000061035156,12268100.0,53.60162353515625
2017-02-13,57.5099983215332,56.88999938964844,57.06999969482422,57.08000183105469,15325300.0,53.809024810791016
2017-02-14,58.0,56.9900016784668,57.130001068115234,57.97999954223633,16268200.0,54.65744400024414
2017-02-15,59.0099983215332,57.88999938964844,58.099998474121094,58.54999923706055,25350400.0,55.19477844238281
2017-02-16,58.36000061035156,57.5099983215332,58.36000061035156,58.119998931884766,14694500.0,54.78942108154297
2017-02-17,58.099998474121094,57.45000076293945,57.58000183105469,58.09000015258789,15783200.0,54.761138916015625
2017-02-21,58.630001068115234,57.900001525878906,58.25,58.25,16916800.0,54.9119758605957
2017-02-22,58.59000015258789,58.0,58.0,58.36000061035156,12344200.0,55.015663146972656
2017-02-23,58.59000015258789,58.060001373291016,58.43000030517578,58.4900016784668,13841400.0,55.13822555541992
2017-02-24,57.90999984741211,57.31999969482422,57.70000076293945,57.810001373291016,16379100.0,54.497188568115234
2017-02-27,58.25,57.709999084472656,57.810001373291016,58.060001373291016,10101000.0,54.73286437988281
2017-02-28,58.31999969482422,57.72999954223633,57.9900016784668,57.880001068115234,15558900.0,54.56317901611328
2017-03-01,59.9900016784668,59.09000015258789,59.11000061035156,59.72999954223633,25912700.0,56.30716323852539
2017-03-02,59.790000915527344,58.56999969482422,59.779998779296875,58.709999084472656,17578600.0,55.34561538696289
2017-03-03,59.2400016784668,58.66999816894531,58.849998474121094,58.88999938964844,14740000.0,55.51529312133789
2017-03-06,58.880001068115234,58.18000030517578,58.540000915527344,58.61000061035156,13225500.0,55.251346588134766
2017-03-07,58.52000045776367,58.02000045776367,58.43000030517578,58.29999923706055,13099900.0,54.959110260009766
2017-03-08,59.130001068115234,58.16999816894531,58.95000076293945,58.209999084472656,14711300.0,54.874263763427734
2017-03-09,58.869998931884766,58.20000076293945,58.45000076293945,58.70000076293945,15721500.0,55.336185455322266
2017-03-10,59.18000030517578,58.52000045776367,58.97999954223633,58.849998474121094,15120200.0,55.47758865356445
2017-03-13,59.029998779296875,58.52000045776367,58.83000183105469,58.70000076293945,14063500.0,55.336185455322266
2017-03-14,58.810001373291016,58.25,58.4900016784668,58.7599983215332,10885000.0,55.39274597167969
2017-03-15,59.310001373291016,58.36000061035156,58.900001525878906,58.709999084472656,17777300.0,55.34561538696289
2017-03-16,59.40999984741211,58.7599983215332,58.86000061035156,59.31999969482422,18468200.0,55.920658111572266
2017-03-17,59.40999984741211,58.52000045776367,59.369998931884766,58.66999816894531,20985700.0,55.30790710449219
2017-03-20,58.470001220703125,57.619998931884766,58.470001220703125,57.630001068115234,17663200.0,54.3275032043457
2017-03-21,57.959999084472656,55.630001068115234,57.93000030517578,55.849998474121094,31766400.0,52.649505615234375
2017-03-22,55.56999969482422,54.849998474121094,55.529998779296875,55.33000183105469,27740900.0,52.159305572509766
2017-03-23,55.9900016784668,54.97999954223633,55.22999954223633,55.25,19000000.0,52.08388900756836
2017-03-24,56.04999923706055,55.220001220703125,55.5,55.83000183105469,21127500.0,52.630653381347656
2017-03-27,55.58000183105469,54.2400016784668,54.630001068115234,55.38999938964844,16854800.0,52.21586608886719
2017-03-28,56.25,55.2400016784668,55.349998474121094,55.959999084472656,14878900.0,52.753204345703125
2017-03-29,56.09000015258789,55.54999923706055,55.939998626708984,55.66999816894531,10329100.0,52.479820251464844
2017-03-30,56.43000030517578,55.61000061035156,55.68000030517578,56.2400016784668,12106500.0,53.017154693603516
2017-03-31,56.18000030517578,55.619998931884766,56.02000045776367,55.65999984741211,11864600.0,52.470394134521484
2017-04-03,55.81999969482422,54.790000915527344,55.70000076293945,55.4900016784668,14550700.0,52.31013488769531
2017-04-04,55.33000183105469,54.97999954223633,55.29999923706055,55.20000076293945,11937400.0,52.0367546081543
2017-04-05,56.20000076293945,54.93000030517578,55.790000915527344,54.97999954223633,17411700.0,51.82936096191406
2017-04-06,55.650001525878906,54.709999084472656,54.95000076293945,55.369998931884766,10387500.0,52.19700622558594
2017-04-07,55.310001373291016,54.61000061035156,54.939998626708984,54.84000015258789,15848800.0,51.6973876953125
2017-04-10,55.25,54.31999969482422,54.9900016784668,54.540000915527344,14607700.0,51.414573669433594
2017-04-11,54.2599983215332,53.27000045776367,54.22999954223633,54.15999984741211,28086800.0,51.05635070800781
2017-04-12,54.02000045776367,53.04999923706055,53.95000076293945,53.119998931884766,25601300.0,50.075950622558594
2017-04-13,52.75,51.349998474121094,51.79999923706055,51.349998474121094,47982000.0,48.40737533569336
2017-04-17,52.7599983215332,51.2599983215332,51.63999938964844,52.720001220703125,31959100.0,49.69887161254883
2017-04-18,52.66999816894531,52.09000015258789,52.36000061035156,52.45000076293945,22257500.0,49.44435119628906
2017-04-19,53.13999938964844,52.04999923706055,52.880001068115234,52.150001525878906,17414600.0,49.161537170410156
2017-04-20,53.59000015258789,52.43000030517578,52.720001220703125,53.5,31552900.0,50.43417739868164
2017-04-21,53.84000015258789,52.95000076293945,53.38999938964844,53.0,26177300.0,49.96282196044922
2017-04-24,54.34000015258789,53.59000015258789,54.150001525878906,53.650001525878906,23856700.0,50.57558059692383
2017-04-25,55.09000015258789,54.290000915527344,54.33000183105469,54.560001373291016,27061300.0,51.43342971801758
2017-04-26,55.06999969482422,54.36000061035156,54.599998474121094,54.540000915527344,15915500.0,51.414573669433594
2017-04-27,54.650001525878906,53.90999984741211,54.540000915527344,54.439998626708984,13978000.0,51.320308685302734
2017-04-28,54.58000183105469,53.72999954223633,54.33000183105469,53.84000015258789,16161900.0,50.75468826293945
2017-05-01,54.75,53.970001220703125,54.099998474121094,54.459999084472656,13915800.0,51.33916091918945
2017-05-02,54.61000061035156,54.060001373291016,54.459999084472656,54.540000915527344,15634900.0,51.414573669433594
2017-05-03,54.88999938964844,53.95000076293945,54.0099983215332,54.849998474121094,15737100.0,52.06959915161133
2017-05-04,55.599998474121094,54.869998931884766,55.27000045776367,55.18000030517578,17054100.0,52.38287353515625
2017-05-05,55.38999938964844,54.880001068115234,55.25,55.11000061035156,13078800.0,52.31642150878906
2017-05-08,55.290000915527344,54.75,55.119998931884766,55.040000915527344,14242800.0,52.24997329711914
2017-05-09,55.369998931884766,54.45000076293945,55.13999938964844,54.68000030517578,14402900.0,51.90821838378906
2017-05-10,54.90999984741211,54.36000061035156,54.43000030517578,54.720001220703125,15897200.0,51.94618606567383
2017-05-11,54.41999816894531,53.060001373291016,54.279998779296875,53.7400016784668,32200100.0,51.015872955322266
2017-05-12,53.31999969482422,52.540000915527344,53.29999923706055,53.02000045776367,29642300.0,50.33236312866211
2017-05-15,53.41999816894531,53.02000045776367,53.060001373291016,53.31999969482422,15245000.0,50.617156982421875
2017-05-16,53.439998626708984,52.95000076293945,53.400001525878906,53.2599983215332,12650100.0,50.5601921081543
2017-05-17,53.2599983215332,51.650001525878906,53.2599983215332,52.2400016784668,33173100.0,49.59189987182617
2017-05-18,52.959999084472656,51.95000076293945,52.310001373291016,52.380001068115234,19790100.0,49.72480773925781
2017-05-19,53.34000015258789,52.38999938964844,52.56999969482422,53.060001373291016,16895000.0,50.37033462524414
2017-05-22,53.31999969482422,52.5,53.27000045776367,53.0099983215332,13947000.0,50.32286834716797
2017-05-23,53.560001373291016,52.849998474121094,53.0099983215332,53.38999938964844,11751700.0,50.6836051940918
2017-05-24,53.61000061035156,52.79999923706055,53.4900016784668,53.09000015258789,11304400.0,50.39881896972656
2017-05-25,53.25,52.56999969482422,53.25,52.779998779296875,16643800.0,50.10452651977539
2017-05-26,52.810001373291016,52.369998931884766,52.630001068115234,52.40999984741211,14247700.0,49.753292083740234
2017-05-30,52.5,51.900001525878906,52.15999984741211,52.15999984741211,19379700.0,49.515960693359375
2017-05-31,52.25,50.83000183105469,52.22999954223633,51.13999938964844,30519700.0,48.54766082763672
2017-06-01,52.209999084472656,51.060001373291016,51.529998779296875,52.08000183105469,21001800.0,49.44001388549805
2017-06-02,52.2400016784668,51.529998779296875,51.66999816894531,51.810001373291016,19477300.0,49.18369674682617
2017-06-05,52.18000030517578,51.66999816894531,51.709999084472656,51.720001220703125,13663800.0,49.098262786865234
2017-06-06,52.029998779296875,51.2400016784668,51.31999969482422,51.810001373291016,14887500.0,49.18369674682617
2017-06-07,52.310001373291016,51.70000076293945,51.84000015258789,52.09000015258789,17022400.0,49.44950866699219
2017-06-08,53.029998779296875,51.880001068115234,52.09000015258789,52.560001373291016,22548400.0,49.89568328857422
2017-06-09,53.95000076293945,52.79999923706055,52.86000061035156,53.79999923706055,25750000.0,51.07282257080078
2017-06-12,54.59000015258789,53.939998626708984,53.97999954223633,54.09000015258789,22791400.0,51.34812545776367
2017-06-13,54.689998626708984,54.279998779296875,54.349998474121094,54.45000076293945,17966000.0,51.68988037109375
2017-06-14,54.63999938964844,53.56999969482422,54.09000015258789,54.529998779296875,16575000.0,51.76581573486328
2017-06-15,54.45000076293945,53.810001373291016,54.040000915527344,53.900001525878906,17232300.0,51.16775894165039
2017-06-16,54.2400016784668,53.650001525878906,53.93000030517578,53.88999938964844,23492700.0,51.15826416015625
2017-06-19,54.63999938964844,54.119998931884766,54.310001373291016,54.2400016784668,15367300.0,51.49052429199219
2017-06-20,54.099998474121094,53.43000030517578,54.060001373291016,53.459999084472656,13622200.0,50.75006103515625
2017-06-21,53.47999954223633,52.79999923706055,53.470001220703125,52.97999954223633,12653700.0,50.29439163208008
2017-06-22,52.88999938964844,52.220001220703125,52.79999923706055,52.4900016784668,15362200.0,49.829227447509766
2017-06-23,52.83000183105469,52.31999969482422,52.70000076293945,52.45000076293945,21868500.0,49.791259765625
2017-06-26,53.43000030517578,52.59000015258789,52.72999954223633,52.900001525878906,12532800.0,50.21844482421875
2017-06-27,53.65999984741211,52.90999984741211,53.02000045776367,53.15999984741211,13496300.0,50.46527099609375
2017-06-28,54.41999816894531,53.52000045776367,53.61000061035156,54.33000183105469,20961700.0,51.57596206665039
2017-06-29,56.599998474121094,55.209999084472656,55.650001525878906,55.779998779296875,32552100.0,52.95245361328125
2017-06-30,56.04999923706055,55.15999984741211,56.029998779296875,55.40999984741211,16750700.0,52.60121536254883
2017-07-03,56.45000076293945,55.709999084472656,55.810001373291016,55.779998779296875,11825000.0,52.95245361328125
2017-07-05,56.02000045776367,55.34000015258789,55.970001220703125,55.779998779296875,14086900.0,52.95245361328125
2017-07-06,56.31999969482422,55.5,55.97999954223633,55.560001373291016,14481200.0,52.74361038208008
2017-07-07,55.83000183105469,55.25,55.779998779296875,55.7400016784668,11503500.0,52.914485931396484
2017-07-10,55.810001373291016,55.34000015258789,55.529998779296875,55.59000015258789,10979000.0,52.772090911865234
2017-07-11,55.709999084472656,54.81999969482422,55.65999984741211,55.040000915527344,14842700.0,52.24997329711914
2017-07-12,55.2400016784668,54.599998474121094,54.93000030517578,55.16999816894531,11951500.0,52.373374938964844
2017-07-13,55.66999816894531,55.060001373291016,55.2599983215332,55.599998474121094,14201800.0,52.781578063964844
2017-07-14,55.20000076293945,54.119998931884766,54.310001373291016,54.9900016784668,17949600.0,52.2025032043457
2017-07-17,54.97999954223633,54.439998626708984,54.900001525878906,54.709999084472656,14953600.0,51.93669891357422
2017-07-18,54.91999816894531,54.22999954223633,54.310001373291016,54.79999923706055,13603300.0,52.022132873535156
2017-07-19,55.209999084472656,54.689998626708984,54.79999923706055,54.939998626708984,12366200.0,52.155033111572266
2017-07-20,55.310001373291016,54.68000030517578,54.959999084472656,54.880001068115234,15123500.0,52.098079681396484
2017-07-21,54.619998931884766,54.099998474121094,54.43000030517578,54.16999816894531,17384500.0,51.42406463623047
2017-07-24,54.40999984741211,54.040000915527344,54.099998474121094,54.27000045776367,18489900.0,51.51900100708008
2017-07-25,55.40999984741211,54.90999984741211,55.0,55.060001373291016,20167800.0,52.26895523071289
2017-07-26,55.33000183105469,54.810001373291016,55.31999969482422,54.90999984741211,19686900.0,52.12656021118164
2017-07-27,54.959999084472656,54.38999938964844,54.86000061035156,54.709999084472656,17352600.0,51.93669891357422
2017-07-28,54.56999969482422,53.18000030517578,54.29999923706055,53.29999923706055,32590600.0,50.598167419433594
2017-07-31,54.220001220703125,53.400001525878906,53.41999816894531,53.939998626708984,20378100.0,51.20573043823242
2017-08-01,54.38999938964844,53.849998474121094,54.22999954223633,54.08000183105469,19350300.0,51.3386344909668
2017-08-02,53.959999084472656,53.45000076293945,53.540000915527344,53.619998931884766,19422100.0,51.271697998046875
2017-08-03,53.65999984741211,53.34000015258789,53.5,53.400001525878906,19374700.0,51.06133270263672
2017-08-04,53.70000076293945,51.90999984741211,53.66999816894531,52.84000015258789,44664600.0,50.52585983276367
2017-08-07,52.95000076293945,52.43000030517578,52.72999954223633,52.540000915527344,22673700.0,50.23899841308594
2017-08-08,53.29999923706055,52.220001220703125,52.31999969482422,52.709999084472656,24877800.0,50.40155029296875
2017-08-09,52.810001373291016,52.13999938964844,52.279998779296875,52.790000915527344,14631600.0,50.478050231933594
2017-08-10,52.720001220703125,51.91999816894531,52.38999938964844,51.95000076293945,18373000.0,49.67483901977539
2017-08-11,52.209999084472656,51.7400016784668,51.83000183105469,51.939998626708984,14714500.0,49.66527557373047
2017-08-14,53.09000015258789,52.34000015258789,52.369998931884766,52.84000015258789,16262100.0,50.52585983276367
2017-08-15,53.36000061035156,52.83000183105469,53.20000076293945,52.849998474121094,11028100.0,50.53541946411133
2017-08-16,53.209999084472656,52.459999084472656,53.0099983215332,52.689998626708984,11224400.0,50.38242721557617
2017-08-17,52.630001068115234,51.790000915527344,52.470001220703125,51.79999923706055,16814300.0,49.53140640258789
2017-08-18,52.13999938964844,51.380001068115234,51.630001068115234,51.68000030517578,17130600.0,49.41666030883789
2017-08-21,51.90999984741211,51.400001525878906,51.7400016784668,51.81999969482422,13503100.0,49.550533294677734
2017-08-22,52.27000045776367,51.91999816894531,51.95000076293945,52.220001220703125,12984100.0,49.933013916015625
2017-08-23,52.47999954223633,51.79999923706055,51.83000183105469,52.029998779296875,10019500.0,49.7513313293457
2017-08-24,52.529998779296875,52.040000915527344,52.189998626708984,52.15999984741211,12345000.0,49.875640869140625
2017-08-25,52.56999969482422,51.7599983215332,52.27000045776367,51.77000045776367,15307800.0,49.50271987915039
2017-08-28,52.02000045776367,51.41999816894531,51.95000076293945,51.630001068115234,12425900.0,49.36885452270508
2017-08-29,51.5,51.130001068115234,51.209999084472656,51.41999816894531,10715500.0,49.16804504394531
2017-08-30,51.7400016784668,51.20000076293945,51.459999084472656,51.36000061035156,11427500.0,49.110679626464844
2017-08-31,51.2400016784668,50.869998931884766,51.0,51.06999969482422,25231100.0,48.83338165283203
2017-09-01,51.4900016784668,50.93000030517578,51.060001373291016,50.970001220703125,16217700.0,48.737754821777344
2017-09-05,50.66999816894531,49.7599983215332,50.630001068115234,50.099998474121094,31251300.0,47.905860900878906
2017-09-06,50.27000045776367,49.560001373291016,50.25,49.880001068115234,26854000.0,47.69549560546875
2017-09-07,49.939998626708984,49.27000045776367,49.939998626708984,49.68000030517578,23367300.0,47.50425338745117
2017-09-08,49.97999954223633,49.43000030517578,49.61000061035156,49.58000183105469,18975700.0,47.408634185791016
2017-09-11,50.79999923706055,49.939998626708984,50.0,50.65999984741211,17987100.0,48.44133377075195
2017-09-12,51.72999954223633,50.84000015258789,50.849998474121094,51.56999969482422,17129500.0,49.31148147583008
2017-09-13,51.5099983215332,51.18000030517578,51.38999938964844,51.459999084472656,12617300.0,49.206298828125
2017-09-14,51.720001220703125,51.08000183105469,51.540000915527344,51.290000915527344,13739400.0,49.04374313354492
2017-09-15,51.68000030517578,51.25,51.279998779296875,51.65999984741211,28494300.0,49.39753341674805
2017-09-18,52.84000015258789,51.61000061035156,51.66999816894531,52.709999084472656,20943400.0,50.40155029296875
2017-09-19,53.59000015258789,52.529998779296875,52.720001220703125,53.36000061035156,17047000.0,51.02309036254883
2017-09-20,54.11000061035156,53.279998779296875,53.38999938964844,53.75,21560400.0,51.3960075378418
2017-09-21,54.2400016784668,53.52000045776367,53.54999923706055,54.060001373291016,16210900.0,51.69242858886719
2017-09-22,54.36000061035156,53.75,53.91999816894531,54.25,18047800.0,51.87410354614258
2017-09-25,54.33000183105469,53.54999923706055,54.06999969482422,54.029998779296875,11595900.0,51.66374206542969
2017-09-26,54.279998779296875,53.7599983215332,54.099998474121094,53.79999923706055,12052500.0,51.44381332397461
2017-09-27,54.529998779296875,54.060001373291016,54.470001220703125,54.209999084472656,15840800.0,51.83586120605469
2017-09-28,54.33000183105469,53.7400016784668,54.290000915527344,54.25,14531700.0,51.87410354614258
2017-09-29,55.22999954223633,54.09000015258789,54.25,55.150001525878906,20872300.0,52.73469543457031
2017-10-02,55.470001220703125,54.86000061035156,55.15999984741211,55.470001220703125,11764400.0,53.040679931640625
2017-10-03,55.619998931884766,54.849998474121094,55.33000183105469,55.58000183105469,17405100.0,53.14586639404297
2017-10-04,55.349998474121094,54.900001525878906,55.310001373291016,54.959999084472656,14697800.0,52.553009033203125
2017-10-05,55.77000045776367,54.779998779296875,55.0,55.38999938964844,14560700.0,52.96417999267578
2017-10-06,55.68000030517578,55.220001220703125,55.47999954223633,55.58000183105469,11151200.0,53.14586639404297
2017-10-09,55.70000076293945,54.91999816894531,55.619998931884766,55.13999938964844,11377000.0,52.725128173828125
2017-10-10,55.720001220703125,55.150001525878906,55.369998931884766,55.61000061035156,12800500.0,53.17454528808594
2017-10-11,55.709999084472656,55.2599983215332,55.439998626708984,55.65999984741211,12843100.0,53.222354888916016
2017-10-12,55.709999084472656,55.060001373291016,55.689998626708984,55.209999084472656,15067500.0,52.79206466674805
2017-10-13,53.709999084472656,52.84000015258789,53.4900016784668,53.689998626708984,35310000.0,51.338626861572266
2017-10-16,53.970001220703125,53.41999816894531,53.650001525878906,53.79999923706055,22802400.0,51.44381332397461
2017-10-17,54.0,53.119998931884766,53.97999954223633,53.189998626708984,18614700.0,50.86052322387695
2017-10-18,54.06999969482422,53.31999969482422,53.40999984741211,53.40999984741211,21604000.0,51.07089614868164
2017-10-19,53.93000030517578,53.0,53.11000061035156,53.75,12669700.0,51.3960075378418
2017-10-20,55.06999969482422,54.040000915527344,54.209999084472656,54.91999816894531,28407700.0,52.5147590637207
2017-10-23,55.040000915527344,54.70000076293945,54.75,54.90999984741211,18102100.0,52.50520324707031
2017-10-24,55.560001373291016,55.0,55.0,55.41999816894531,18779400.0,52.99286651611328
2017-10-25,55.58000183105469,54.869998931884766,55.4900016784668,55.25,17096900.0,52.8303108215332
2017-10-26,56.16999816894531,55.45000076293945,55.45000076293945,55.619998931884766,15979200.0,53.184112548828125
2017-10-27,56.040000915527344,55.130001068115234,55.22999954223633,55.869998931884766,17258600.0,53.42315673828125
2017-10-30,55.959999084472656,55.310001373291016,55.45000076293945,55.849998474121094,12249200.0,53.40403366088867
2017-10-31,56.52000045776367,55.900001525878906,55.95000076293945,56.13999938964844,14619200.0,53.68133544921875
2017-11-01,56.84000015258789,56.189998626708984,56.31999969482422,56.209999084472656,11678300.0,53.74827194213867
2017-11-02,56.52000045776367,55.349998474121094,55.79999923706055,56.47999954223633,15630000.0,54.3837776184082
2017-11-03,56.439998626708984,55.900001525878906,56.25,56.349998474121094,10049200.0,54.25859451293945
2017-11-06,56.43000030517578,56.0,56.099998474121094,56.18000030517578,10377500.0,54.09490966796875
2017-11-07,56.290000915527344,54.66999816894531,56.16999816894531,55.04999923706055,18679100.0,53.0068473815918
2017-11-08,54.9900016784668,54.04999923706055,54.79999923706055,54.2599983215332,24047100.0,52.24616622924805
2017-11-09,54.189998626708984,53.209999084472656,53.900001525878906,54.0,24438800.0,51.995819091796875
2017-11-10,54.130001068115234,53.790000915527344,54.02000045776367,53.810001373291016,13671700.0,51.8128662109375
2017-11-13,53.90999984741211,53.40999984741211,53.52000045776367,53.720001220703125,13447000.0,51.72621154785156
2017-11-14,54.099998474121094,53.31999969482422,53.52000045776367,54.040000915527344,20830100.0,52.03433609008789
2017-11-15,54.119998931884766,53.4900016784668,53.630001068115234,53.75,18238600.0,51.755096435546875
2017-11-16,54.86000061035156,53.86000061035156,53.95000076293945,54.599998474121094,26361800.0,52.573551177978516
2017-11-17,54.459999084472656,53.970001220703125,54.209999084472656,54.150001525878906,15814800.0,52.14025115966797
2017-11-20,54.209999084472656,53.849998474121094,54.119998931884766,54.04999923706055,16943100.0,52.04396057128906
2017-11-21,54.58000183105469,53.9900016784668,54.08000183105469,54.52000045776367,13757000.0,52.49652099609375
2017-11-22,54.619998931884766,54.029998779296875,54.459999084472656,54.060001373291016,11421700.0,52.053592681884766
2017-11-24,54.310001373291016,54.0,54.189998626708984,54.09000015258789,5386500.0,52.082481384277344
2017-11-27,54.459999084472656,53.86000061035156,54.02000045776367,53.95000076293945,11066800.0,51.94767379760742
2017-11-28,55.88999938964844,53.720001220703125,53.869998931884766,55.56999969482422,25685200.0,53.50754928588867
2017-11-29,57.25,55.70000076293945,55.84000015258789,56.68000030517578,29631800.0,54.57634735107422
2017-11-30,57.33000183105469,56.380001068115234,57.029998779296875,56.470001220703125,30984400.0,54.374149322509766
2017-12-01,57.18000030517578,55.439998626708984,56.56999969482422,56.20000076293945,31242400.0,54.114166259765625
2017-12-04,57.9900016784668,57.20000076293945,57.27000045776367,57.38999938964844,28720400.0,55.25999450683594
2017-12-05,59.40999984741211,57.439998626708984,58.65999984741211,58.54999923706055,39754900.0,56.37694549560547
2017-12-06,59.099998474121094,58.119998931884766,58.68000030517578,58.56999969482422,26758300.0,56.39620590209961
2017-12-07,60.0,58.290000915527344,58.45000076293945,59.36000061035156,32990600.0,57.156883239746094
2017-12-08,59.91999816894531,59.150001525878906,59.310001373291016,59.310001373291016,22017100.0,57.10873794555664
2017-12-11,59.29999923706055,58.619998931884766,58.959999084472656,58.869998931884766,15876600.0,56.6850700378418
2017-12-12,60.560001373291016,58.709999084472656,58.709999084472656,60.33000183105469,25040400.0,58.090885162353516
2017-12-13,60.5,59.380001068115234,60.310001373291016,59.400001525878906,18227000.0,57.195396423339844
2017-12-14,59.9900016784668,59.209999084472656,59.54999923706055,59.220001220703125,14731000.0,57.02207946777344
2017-12-15,60.650001525878906,59.349998474121094,59.45000076293945,59.869998931884766,36467500.0,57.647953033447266
2017-12-18,61.130001068115234,60.369998931884766,60.439998626708984,60.91999816894531,19970900.0,58.65898132324219
2017-12-19,61.27000045776367,60.279998779296875,61.20000076293945,60.36000061035156,17062700.0,58.11976623535156
2017-12-20,61.06999969482422,60.060001373291016,60.880001068115234,60.13999938964844,16544500.0,57.907936096191406
2017-12-21,62.119998931884766,60.68000030517578,60.68000030517578,61.61000061035156,22130700.0,59.3233757019043
2017-12-22,62.2400016784668,61.189998626708984,62.0,61.54999923706055,11653200.0,59.265602111816406
2017-12-26,61.720001220703125,60.79999923706055,61.5,61.130001068115234,11662800.0,58.86119842529297
2017-12-27,61.2400016784668,60.65999984741211,61.099998474121094,60.95000076293945,10010800.0,58.687870025634766
2017-12-28,61.310001373291016,60.90999984741211,61.029998779296875,61.29999923706055,10550900.0,59.024879455566406
2017-12-29,61.58000183105469,60.66999816894531,61.459999084472656,60.66999816894531,10711400.0,58.41825866699219
2018-01-02,61.36000061035156,60.70000076293945,61.040000915527344,61.09000015258789,13819300.0,58.82267379760742
2018-01-03,61.77000045776367,61.099998474121094,61.220001220703125,61.560001373291016,14203700.0,59.27523422241211
2018-01-04,63.04999923706055,61.90999984741211,61.97999954223633,62.33000183105469,18740500.0,60.01665496826172
2018-01-05,62.810001373291016,62.09000015258789,62.7599983215332,62.75,14217900.0,60.42107009887695
2018-01-08,62.72999954223633,61.939998626708984,62.65999984741211,62.040000915527344,15569400.0,59.7374153137207
2018-01-09,62.77000045776367,62.06999969482422,62.29999923706055,62.2599983215332,15766500.0,59.949249267578125
2018-01-10,63.400001525878906,62.36000061035156,62.47999954223633,63.119998931884766,18107500.0,60.77733612060547
2018-01-11,63.66999816894531,62.689998626708984,63.650001525878906,63.0099983215332,22075000.0,60.67141342163086
2018-01-12,63.400001525878906,62.04999923706055,63.20000076293945,62.54999923706055,25886100.0,60.228485107421875
2018-01-16,63.150001525878906,62.18000030517578,62.790000915527344,62.5,17907800.0,60.18034362792969
2018-01-17,64.04000091552734,62.4900016784668,62.849998474121094,63.880001068115234,23617200.0,61.509124755859375
2018-01-18,64.30999755859375,63.86000061035156,63.869998931884766,63.95000076293945,16305900.0,61.57653045654297
2018-01-19,64.26000213623047,63.83000183105469,64.1500015258789,64.22000122070312,16524000.0,61.836509704589844
2018-01-22,64.75,63.970001220703125,64.0,64.7300033569336,12245200.0,62.32757568359375
2018-01-23,64.8499984741211,64.22000122070312,64.30999755859375,64.48999786376953,12937100.0,62.09648513793945
2018-01-24,65.62999725341797,64.80000305175781,64.94999694824219,65.4800033569336,20180300.0,63.04975128173828
2018-01-25,65.8499984741211,65.4000015258789,65.69999694824219,65.6500015258789,17568700.0,63.213436126708984
2018-01-26,66.04000091552734,65.25,65.88999938964844,65.93000030517578,16251900.0,63.48303985595703
2018-01-29,66.30999755859375,65.66000366210938,65.77999877929688,65.81999969482422,16105200.0,63.37712478637695
2018-01-30,65.93000030517578,65.27999877929688,65.43000030517578,65.27999877929688,16158900.0,62.85716247558594
2018-01-31,66.0999984741211,65.16000366210938,65.2699966430664,65.77999877929688,18147900.0,63.3386116027832
2018-02-01,66.08999633789062,65.05999755859375,65.37000274658203,65.51000213623047,15717600.0,63.4548454284668
2018-02-02,65.52999877929688,63.83000183105469,65.33000183105469,64.06999969482422,18905300.0,62.060020446777344
2018-02-05,59.88999938964844,57.5,58.70000076293945,58.15999984741211,103394400.0,56.335426330566406
2018-02-06,58.5,55.869998931884766,56.90999984741211,57.279998779296875,83076900.0,55.4830322265625
2018-02-07,58.119998931884766,56.75,56.939998626708984,57.540000915527344,45551000.0,55.73487854003906
2018-02-08,57.439998626708984,55.349998474121094,57.33000183105469,55.400001525878906,43569700.0,53.66201400756836
2018-02-09,56.540000915527344,54.720001220703125,56.13999938964844,56.130001068115234,48904600.0,54.36911392211914
2018-02-12,57.119998931884766,55.880001068115234,56.36000061035156,56.5,24401300.0,54.72750473022461
2018-02-13,58.09000015258789,55.95000076293945,56.060001373291016,58.0,24234200.0,56.180450439453125
2018-02-14,59.599998474121094,57.79999923706055,57.849998474121094,59.54999923706055,23681800.0,57.681819915771484
2018-02-15,60.099998474121094,59.150001525878906,59.81999969482422,60.02000045776367,22397300.0,58.13707733154297
2018-02-16,60.43000030517578,59.66999816894531,59.66999816894531,59.95000076293945,18661900.0,58.069271087646484
2018-02-20,61.27000045776367,59.779998779296875,59.86000061035156,59.95000076293945,18517600.0,58.069271087646484
2018-02-21,60.4900016784668,59.72999954223633,59.86000061035156,59.72999954223633,19987800.0,57.85617446899414
2018-02-22,60.16999816894531,58.68000030517578,59.880001068115234,58.810001373291016,17948600.0,56.96503829956055
2018-02-23,59.2400016784668,58.349998474121094,59.06999969482422,59.16999816894531,21099200.0,57.31373977661133
2018-02-26,60.0,58.95000076293945,59.75,59.970001220703125,16478300.0,58.08864212036133
2018-02-27,60.47999954223633,59.209999084472656,60.029998779296875,59.209999084472656,17024400.0,57.35248565673828
2018-02-28,59.81999969482422,58.31999969482422,59.470001220703125,58.40999984741211,17869100.0,56.57758331298828
2018-03-01,58.939998626708984,57.060001373291016,58.25,57.310001373291016,28491000.0,55.51209259033203
2018-03-02,57.619998931884766,56.41999816894531,56.91999816894531,57.40999984741211,22428500.0,55.60895538330078
2018-03-05,57.970001220703125,56.59000015258789,56.810001373291016,57.59000015258789,20560900.0,55.78330993652344
2018-03-06,57.869998931884766,56.63999938964844,57.709999084472656,57.06999969482422,23975900.0,55.27962112426758
2018-03-07,56.7400016784668,56.0099983215332,56.400001525878906,56.599998474121094,24788700.0,54.82436752319336
2018-03-08,57.02000045776367,56.22999954223633,56.75,56.720001220703125,16828400.0,54.94060516357422
2018-03-09,58.27000045776367,57.0,57.15999984741211,58.22999954223633,19051500.0,56.40323257446289
2018-03-12,58.560001373291016,57.959999084472656,58.27000045776367,58.02000045776367,12414800.0,56.1998176574707
2018-03-13,58.41999816894531,57.41999816894531,58.38999938964844,57.560001373291016,13810600.0,55.75425338745117
2018-03-14,57.900001525878906,56.45000076293945,57.86000061035156,56.630001068115234,12212900.0,54.853424072265625
2018-03-15,57.119998931884766,56.2400016784668,56.77000045776367,56.83000183105469,13277700.0,55.047149658203125
2018-03-16,57.16999816894531,55.869998931884766,56.9900016784668,55.900001525878906,37095000.0,54.14632797241211
2018-03-19,55.9900016784668,54.970001220703125,55.880001068115234,55.47999954223633,17982200.0,53.739501953125
2018-03-20,55.88999938964844,54.65999984741211,55.77000045776367,54.900001525878906,26874600.0,53.17770004272461
2018-03-21,55.58000183105469,54.540000915527344,55.02000045776367,54.790000915527344,18997300.0,53.07115173339844
2018-03-22,54.279998779296875,52.18000030517578,54.209999084472656,52.529998779296875,32656300.0,50.88204574584961
2018-03-23,52.75,50.939998626708984,52.720001220703125,50.97999954223633,30975800.0,49.380672454833984
2018-03-26,52.54999923706055,51.52000045776367,51.95000076293945,52.290000915527344,26718000.0,50.64958190917969
2018-03-27,52.79999923706055,50.689998626708984,52.400001525878906,51.099998474121094,23669300.0,49.496910095214844
2018-03-28,51.93000030517578,50.95000076293945,51.15999984741211,51.47999954223633,23342500.0,49.864990234375
2018-03-29,52.75,51.720001220703125,52.060001373291016,52.40999984741211,17706800.0,50.76581573486328
2018-04-02,52.400001525878906,50.41999816894531,52.369998931884766,51.349998474121094,23359800.0,49.73906326293945
2018-04-03,52.189998626708984,51.060001373291016,51.720001220703125,52.08000183105469,16646400.0,50.4461669921875
2018-04-04,53.040000915527344,51.0099983215332,51.130001068115234,52.90999984741211,15952700.0,51.25012969970703
2018-04-05,53.959999084472656,53.04999923706055,53.34000015258789,53.2599983215332,16488800.0,51.58914566040039
2018-04-06,52.91999816894531,51.959999084472656,52.650001525878906,52.22999954223633,22943800.0,50.591461181640625
2018-04-09,53.33000183105469,52.15999984741211,52.5,52.25,17032000.0,50.61083221435547
2018-04-10,53.060001373291016,52.119998931884766,52.9900016784668,52.619998931884766,14594700.0,50.9692268371582
2018-04-11,52.470001220703125,51.720001220703125,52.31999969482422,51.93000030517578,14673200.0,50.30086898803711
2018-04-12,53.27000045776367,52.029998779296875,52.15999984741211,52.70000076293945,19967800.0,51.04671859741211
2018-04-13,52.29999923706055,50.810001373291016,52.0099983215332,50.88999938964844,32054900.0,49.293495178222656
2018-04-16,51.34000015258789,50.310001373291016,50.59000015258789,50.79999923706055,31879100.0,49.20632553100586
2018-04-17,51.15999984741211,50.4900016784668,50.95000076293945,50.56999969482422,25507100.0,48.98353576660156
2018-04-18,50.970001220703125,50.2599983215332,50.779998779296875,50.38999938964844,21055700.0,48.809181213378906
2018-04-19,51.61000061035156,50.4900016784668,50.5099983215332,51.540000915527344,23678400.0,49.9231071472168
2018-04-20,52.81999969482422,51.81999969482422,51.93000030517578,52.560001373291016,31149300.0,50.91110610961914
2018-04-23,52.84000015258789,52.18000030517578,52.54999923706055,52.61000061035156,17723900.0,50.95954132080078
2018-04-24,53.75,52.18000030517578,52.95000076293945,52.5099983215332,23052100.0,50.862674713134766
2018-04-25,53.4900016784668,51.93000030517578,52.439998626708984,53.11000061035156,20978500.0,51.44385528564453
2018-04-26,53.11000061035156,52.2599983215332,52.9900016784668,52.439998626708984,17025800.0,50.79486846923828
2018-04-27,52.939998626708984,52.209999084472656,52.279998779296875,52.36000061035156,12304300.0,50.717384338378906
2018-04-30,53.04999923706055,51.959999084472656,52.560001373291016,51.959999084472656,17050500.0,50.32992935180664
2018-05-01,52.599998474121094,51.599998474121094,51.7599983215332,52.560001373291016,13903800.0,50.91110610961914
2018-05-02,52.869998931884766,52.060001373291016,52.380001068115234,52.189998626708984,16397200.0,50.55271530151367
2018-05-03,51.790000915527344,50.810001373291016,51.619998931884766,51.540000915527344,19216100.0,50.29897689819336
2018-05-04,52.900001525878906,51.06999969482422,51.16999816894531,52.40999984741211,16660500.0,51.14802551269531
2018-05-07,52.9900016784668,52.380001068115234,52.970001220703125,52.65999984741211,16259100.0,51.392005920410156
2018-05-08,53.709999084472656,52.630001068115234,52.720001220703125,53.189998626708984,20786200.0,51.909244537353516
2018-05-09,53.97999954223633,53.349998474121094,53.45000076293945,53.7599983215332,16286700.0,52.465518951416016
2018-05-10,54.72999954223633,53.630001068115234,54.130001068115234,54.650001525878906,20699000.0,53.33409118652344
2018-05-11,54.93000030517578,54.27000045776367,54.689998626708984,54.45000076293945,14424000.0,53.13890838623047
2018-05-14,54.81999969482422,54.33000183105469,54.779998779296875,54.47999954223633,12809100.0,53.168182373046875
2018-05-15,55.279998779296875,54.380001068115234,54.43000030517578,54.75,14991100.0,53.43168258666992
2018-05-16,55.31999969482422,54.560001373291016,54.70000076293945,55.040000915527344,16450200.0,53.714698791503906
2018-05-17,54.66999816894531,54.029998779296875,54.400001525878906,54.220001220703125,21622400.0,52.91444396972656
2018-05-18,54.41999816894531,53.689998626708984,54.150001525878906,53.70000076293945,21492700.0,52.40696334838867
2018-05-21,54.630001068115234,54.06999969482422,54.08000183105469,54.540000915527344,11491400.0,53.226741790771484
2018-05-22,55.650001525878906,54.439998626708984,54.630001068115234,55.2599983215332,17398200.0,53.929405212402344
2018-05-23,56.18000030517578,54.630001068115234,55.029998779296875,56.18000030517578,23429000.0,54.827247619628906
2018-05-24,55.900001525878906,54.439998626708984,55.869998931884766,54.66999816894531,24673400.0,53.353607177734375
2018-05-25,54.9900016784668,54.529998779296875,54.599998474121094,54.900001525878906,17741900.0,53.57807159423828
2018-05-29,54.2599983215332,52.63999938964844,54.040000915527344,52.95000076293945,31604000.0,51.675025939941406
2018-05-30,54.439998626708984,53.380001068115234,53.65999984741211,54.22999954223633,16416200.0,52.92420196533203
2018-05-31,54.380001068115234,53.79999923706055,54.209999084472656,53.9900016784668,17515900.0,52.68998336791992
2018-06-01,55.02000045776367,54.279998779296875,54.560001373291016,54.689998626708984,14100200.0,53.37312316894531
2018-06-04,55.16999816894531,54.599998474121094,54.790000915527344,54.83000183105469,10593700.0,53.50975799560547
2018-06-05,54.93000030517578,54.290000915527344,54.61000061035156,54.5,11883900.0,53.18770217895508
2018-06-06,55.630001068115234,54.65999984741211,54.720001220703125,55.58000183105469,15848200.0,54.24169921875
2018-06-07,55.9900016784668,55.25,55.77000045776367,55.630001068115234,17299600.0,54.29049301147461
2018-06-08,55.77000045776367,54.97999954223633,55.560001373291016,55.68000030517578,12965900.0,54.339290618896484
2018-06-11,56.11000061035156,55.5,55.790000915527344,55.5099983215332,13518400.0,54.17338180541992
2018-06-12,55.95000076293945,55.09000015258789,55.63999938964844,55.380001068115234,13608300.0,54.046512603759766
2018-06-13,55.93000030517578,55.13999938964844,55.38999938964844,55.15999984741211,14901100.0,53.831809997558594
2018-06-14,55.349998474121094,54.47999954223633,55.33000183105469,54.7400016784668,18189100.0,53.42192840576172
2018-06-15,55.369998931884766,54.380001068115234,54.54999923706055,54.97999954223633,35715800.0,53.65614700317383
2018-06-18,55.22999954223633,54.43000030517578,54.5099983215332,55.08000183105469,17856700.0,53.75373840332031
2018-06-19,55.22999954223633,54.599998474121094,54.68000030517578,55.08000183105469,16654800.0,53.75373840332031
2018-06-20,55.59000015258789,54.439998626708984,55.459999084472656,54.47999954223633,16545600.0,53.168182373046875
2018-06-21,54.7599983215332,53.880001068115234,54.25,54.369998931884766,21191600.0,53.06083297729492
2018-06-22,55.04999923706055,53.779998779296875,54.959999084472656,53.939998626708984,24015000.0,52.64118576049805
2018-06-25,54.13999938964844,53.099998474121094,53.779998779296875,53.959999084472656,21069600.0,52.660701751708984
2018-06-26,53.939998626708984,53.02000045776367,53.900001525878906,53.43000030517578,14409100.0,52.143470764160156
2018-06-27,53.939998626708984,53.060001373291016,53.2400016784668,53.279998779296875,19520900.0,51.99707794189453
2018-06-28,53.86000061035156,53.02000045776367,53.54999923706055,53.630001068115234,13837300.0,52.338653564453125
2018-06-29,57.119998931884766,55.40999984741211,55.619998931884766,55.439998626708984,43888500.0,54.10506820678711
2018-07-02,56.380001068115234,55.06999969482422,55.20000076293945,56.31999969482422,21204900.0,54.9638786315918
2018-07-03,56.630001068115234,55.43000030517578,56.43000030517578,55.560001373291016,12830400.0,54.2221794128418
2018-07-05,56.08000183105469,55.04999923706055,55.91999816894531,55.2400016784668,16788600.0,53.909889221191406
2018-07-06,56.130001068115234,55.029998779296875,55.29999923706055,55.88999938964844,12389100.0,54.54423141479492
2018-07-09,56.970001220703125,56.0099983215332,56.189998626708984,56.77000045776367,16684000.0,55.403045654296875
2018-07-10,57.08000183105469,56.34000015258789,57.060001373291016,56.619998931884766,15581400.0,55.25665283203125
2018-07-11,56.75,55.97999954223633,56.400001525878906,56.06999969482422,15641400.0,54.71989822387695
2018-07-12,56.47999954223633,55.599998474121094,56.459999084472656,56.029998779296875,18236100.0,54.68086242675781
2018-07-13,55.790000915527344,53.630001068115234,54.7400016784668,55.36000061035156,34323400.0,54.02699661254883
2018-07-16,57.22999954223633,55.630001068115234,55.7400016784668,56.9900016784668,25538700.0,55.61774826049805
2018-07-17,57.029998779296875,56.43000030517578,56.95000076293945,56.560001373291016,21649000.0,55.19810485839844
2018-07-18,56.81999969482422,56.13999938964844,56.2599983215332,56.56999969482422,19913900.0,55.20785903930664
2018-07-19,56.880001068115234,56.02000045776367,56.2599983215332,56.33000183105469,22219400.0,54.97364044189453
2018-07-20,56.65999984741211,55.849998474121094,56.06999969482422,56.40999984741211,17250400.0,55.05170822143555
2018-07-23,58.09000015258789,56.29999923706055,56.38999938964844,58.0,24584100.0,56.603424072265625
2018-07-24,58.689998626708984,57.849998474121094,58.0,58.349998474121094,27245000.0,56.94499588012695
2018-07-25,58.5,57.849998474121094,58.099998474121094,58.22999954223633,15531100.0,56.82788848876953
2018-07-26,58.72999954223633,58.20000076293945,58.470001220703125,58.310001373291016,14165300.0,56.90596389770508
2018-07-27,58.900001525878906,58.15999984741211,58.380001068115234,58.630001068115234,17662900.0,57.21826171875
2018-07-30,59.27000045776367,58.29999923706055,58.83000183105469,58.4900016784668,22699900.0,57.08163070678711
2018-07-31,58.709999084472656,57.20000076293945,58.61000061035156,57.290000915527344,21633800.0,55.910526275634766
2018-08-01,58.279998779296875,57.209999084472656,57.959999084472656,57.650001525878906,19192700.0,56.26185607910156
2018-08-02,58.45000076293945,57.08000183105469,57.08000183105469,58.290000915527344,13489100.0,56.886444091796875
2018-08-03,58.93000030517578,58.029998779296875,58.060001373291016,58.83000183105469,13720400.0,57.41344451904297
2018-08-06,59.029998779296875,58.189998626708984,58.58000183105469,58.88999938964844,13360500.0,57.47200012207031
2018-08-07,59.15999984741211,58.70000076293945,58.939998626708984,58.81999969482422,13810900.0,57.403682708740234
2018-08-08,59.5,58.7599983215332,58.7599983215332,59.189998626708984,13778600.0,57.7647705078125
2018-08-09,58.900001525878906,58.400001525878906,58.650001525878906,58.439998626708984,15859500.0,57.450191497802734
2018-08-10,58.41999816894531,57.380001068115234,57.380001068115234,58.04999923706055,16170100.0,57.06679916381836
2018-08-13,58.11000061035156,57.560001373291016,57.65999984741211,57.61000061035156,19541100.0,56.63425064086914
2018-08-14,58.2599983215332,57.66999816894531,57.66999816894531,58.06999969482422,14860400.0,57.08646011352539
2018-08-15,58.25,57.650001525878906,57.68000030517578,57.9900016784668,17378400.0,57.007816314697266
2018-08-16,58.810001373291016,58.04999923706055,58.13999938964844,58.65999984741211,19992500.0,57.666465759277344
2018-08-17,59.040000915527344,58.5099983215332,58.5099983215332,58.86000061035156,13737600.0,57.86307907104492
2018-08-20,59.209999084472656,58.66999816894531,58.810001373291016,59.029998779296875,11403400.0,58.03019714355469
2018-08-21,59.529998779296875,58.939998626708984,59.0,58.959999084472656,17943500.0,57.96138381958008
2018-08-22,59.5,58.83000183105469,59.040000915527344,59.16999816894531,20829600.0,58.167823791503906
2018-08-23,59.04999923706055,58.56999969482422,59.0,58.619998931884766,19655600.0,57.62714385986328
2018-08-24,58.91999816894531,58.66999816894531,58.900001525878906,58.689998626708984,14366600.0,57.69595718383789
2018-08-27,59.47999954223633,58.7599983215332,58.869998931884766,59.099998474121094,19915200.0,58.09901428222656
2018-08-28,59.33000183105469,58.9900016784668,59.189998626708984,59.06999969482422,19330200.0,58.069522857666016
2018-08-29,59.18000030517578,58.81999969482422,59.04999923706055,58.959999084472656,14436600.0,57.96138381958008
2018-08-30,59.08000183105469,58.43000030517578,58.66999816894531,58.459999084472656,14800900.0,57.469852447509766
2018-08-31,58.540000915527344,58.06999969482422,58.27000045776367,58.47999954223633,16720200.0,57.4895133972168
2018-09-04,58.95000076293945,58.06999969482422,58.45000076293945,58.79999923706055,19003700.0,57.80409622192383
2018-09-05,59.20000076293945,58.810001373291016,58.880001068115234,58.95000076293945,22332300.0,57.95155334472656
2018-09-06,59.15999984741211,57.93000030517578,58.90999984741211,57.93000030517578,20756900.0,56.948829650878906
2018-09-07,58.06999969482422,57.349998474121094,57.91999816894531,57.400001525878906,21482400.0,56.42780685424805
2018-09-10,57.84000015258789,57.310001373291016,57.619998931884766,57.459999084472656,15623000.0,56.48678970336914
2018-09-11,57.560001373291016,57.31999969482422,57.400001525878906,57.380001068115234,22160300.0,56.408145904541016
2018-09-12,57.38999938964844,55.79999923706055,57.33000183105469,55.939998626708984,23868800.0,54.99253463745117
2018-09-13,56.25,54.9900016784668,56.0099983215332,55.0,26954800.0,54.06845474243164
2018-09-14,55.560001373291016,54.70000076293945,55.189998626708984,54.72999954223633,20997600.0,53.80302810668945
2018-09-17,54.7599983215332,53.939998626708984,54.75,54.310001373291016,21959500.0,53.39014434814453
2018-09-18,54.70000076293945,54.040000915527344,54.25,54.5,22055200.0,53.57692337036133
2018-09-19,55.45000076293945,54.279998779296875,54.4900016784668,55.220001220703125,17046200.0,54.28472900390625
2018-09-20,55.810001373291016,54.9900016784668,55.630001068115234,55.54999923706055,20308000.0,54.60913848876953
2018-09-21,55.810001373291016,54.91999816894531,55.75,54.9900016784668,36158500.0,54.058624267578125
2018-09-24,55.15999984741211,54.2400016784668,54.79999923706055,54.2599983215332,19604700.0,53.34098815917969
2018-09-25,54.689998626708984,54.20000076293945,54.29999923706055,54.22999954223633,15207400.0,53.31149673461914
2018-09-26,54.45000076293945,53.02000045776367,54.380001068115234,53.15999984741211,22025100.0,52.259620666503906
2018-09-27,53.599998474121094,52.7599983215332,53.279998779296875,52.81999969482422,19991000.0,51.92538070678711
2018-09-28,52.97999954223633,52.40999984741211,52.689998626708984,52.560001373291016,18588600.0,51.66978454589844
2018-10-01,52.79999923706055,52.15999984741211,52.7400016784668,52.25,17209000.0,51.36503601074219
2018-10-02,52.349998474121094,51.880001068115234,52.2400016784668,52.130001068115234,17509600.0,51.247066497802734
2018-10-03,52.91999816894531,52.33000183105469,52.5,52.650001525878906,18444900.0,51.75825881958008
2018-10-04,53.86000061035156,52.72999954223633,52.72999954223633,53.5099983215332,21417500.0,52.60369110107422
2018-10-05,53.86000061035156,52.97999954223633,53.70000076293945,53.189998626708984,14793000.0,52.28911209106445
2018-10-08,53.959999084472656,52.97999954223633,52.97999954223633,53.66999816894531,12858200.0,52.76097869873047
2018-10-09,53.970001220703125,52.97999954223633,53.380001068115234,53.529998779296875,15918300.0,52.62335205078125
2018-10-10,54.06999969482422,52.40999984741211,53.70000076293945,52.43000030517578,21875900.0,51.54198455810547
2018-10-11,52.84000015258789,51.0099983215332,52.380001068115234,51.439998626708984,33147900.0,50.56875228881836
2018-10-12,53.33000183105469,50.869998931884766,52.099998474121094,52.11000061035156,32067300.0,51.2274055480957
2018-10-15,53.9900016784668,52.5099983215332,52.5099983215332,53.2400016784668,34118900.0,52.3382682800293
2018-10-16,53.790000915527344,52.529998779296875,53.310001373291016,53.72999954223633,28227200.0,52.81996536254883
2018-10-17,55.0099983215332,53.189998626708984,53.560001373291016,54.459999084472656,23524200.0,53.537601470947266
2018-10-18,54.400001525878906,52.7599983215332,54.16999816894531,53.099998474121094,22533300.0,52.20063781738281
2018-10-19,53.630001068115234,52.86000061035156,53.08000183105469,52.88999938964844,19521000.0,51.99419021606445
2018-10-22,53.16999816894531,51.560001373291016,53.06999969482422,51.650001525878906,17621500.0,50.77519607543945
2018-10-23,51.95000076293945,50.470001220703125,50.84000015258789,51.560001373291016,25529800.0,50.68671798706055
2018-10-24,51.4900016784668,50.02000045776367,51.310001373291016,50.189998626708984,31161500.0,49.33992385864258
2018-10-25,52.61000061035156,50.41999816894531,50.529998779296875,51.86000061035156,29366100.0,50.98163986206055
2018-10-26,51.93000030517578,50.790000915527344,51.31999969482422,51.25,30053800.0,50.38197326660156
2018-10-29,53.150001525878906,51.59000015258789,51.880001068115234,52.22999954223633,30541300.0,51.34537124633789
2018-10-30,52.90999984741211,51.869998931884766,52.45000076293945,52.689998626708984,24910900.0,51.79758071899414
2018-10-31,54.029998779296875,53.029998779296875,53.040000915527344,53.22999954223633,23667400.0,52.328433990478516
2018-11-01,53.959999084472656,53.150001525878906,53.43000030517578,53.560001373291016,17654800.0,52.65284729003906
2018-11-02,54.630001068115234,53.11000061035156,54.209999084472656,53.61000061035156,18285600.0,52.70199966430664
2018-11-05,54.29999923706055,51.15999984741211,53.72999954223633,53.65999984741211,18990000.0,52.75115203857422
2018-11-06,53.709999084472656,52.959999084472656,53.36000061035156,53.54999923706055,20696800.0,52.64301681518555
2018-11-07,54.18000030517578,52.790000915527344,53.81999969482422,53.58000183105469,20668500.0,52.672508239746094
2018-11-08,53.599998474121094,52.86000061035156,52.900001525878906,53.15999984741211,22429200.0,52.68241882324219
2018-11-09,53.38999938964844,52.72999954223633,53.09000015258789,53.040000915527344,18972200.0,52.56349563598633
2018-11-12,53.58000183105469,52.279998779296875,53.130001068115234,52.349998474121094,19003300.0,51.87969207763672
2018-11-13,53.33000183105469,52.619998931884766,52.619998931884766,52.7400016784668,28102000.0,52.26619338989258
2018-11-14,53.290000915527344,51.4900016784668,53.13999938964844,52.150001525878906,24788400.0,51.68149185180664
2018-11-15,52.90999984741211,51.279998779296875,51.540000915527344,52.81999969482422,23220100.0,52.34547424316406
2018-11-16,53.18000030517578,52.47999954223633,52.650001525878906,52.939998626708984,18872500.0,52.464393615722656
2018-11-19,53.47999954223633,52.599998474121094,52.970001220703125,53.31999969482422,20215500.0,52.840980529785156
2018-11-20,53.2400016784668,52.36000061035156,53.04999923706055,52.540000915527344,22999200.0,52.067989349365234
2018-11-21,53.20000076293945,52.27000045776367,52.619998931884766,52.43000030517578,16946300.0,51.95897674560547
2018-11-23,52.290000915527344,51.61000061035156,51.970001220703125,51.83000183105469,11139400.0,51.3643684387207
2018-11-26,53.18000030517578,52.33000183105469,52.33000183105469,52.880001068115234,20581700.0,52.40493392944336
2018-11-27,53.31999969482422,52.45000076293945,52.689998626708984,53.189998626708984,18044600.0,52.7121467590332
2018-11-28,54.36000061035156,52.58000183105469,53.150001525878906,54.349998474121094,23713300.0,53.861724853515625
2018-11-29,54.41999816894531,53.790000915527344,53.970001220703125,54.040000915527344,14978400.0,53.55451202392578
2018-11-30,54.54999923706055,53.869998931884766,54.08000183105469,54.279998779296875,18939000.0,53.792354583740234
2018-12-03,55.040000915527344,53.599998474121094,54.779998779296875,54.2400016784668,21261700.0,53.752716064453125
2018-12-04,53.9900016784668,51.5099983215332,53.95000076293945,51.779998779296875,33280500.0,51.314815521240234
2018-12-06,51.13999938964844,50.02000045776367,50.650001525878906,51.09000015258789,40310200.0,50.63101577758789
2018-12-07,51.45000076293945,50.04999923706055,50.88999938964844,50.2599983215332,28510500.0,49.8084716796875
2018-12-10,50.06999969482422,48.29999923706055,50.06999969482422,48.79999923706055,34524600.0,48.36158752441406
2018-12-11,49.59000015258789,47.54999923706055,49.40999984741211,47.7599983215332,32388600.0,47.330928802490234
2018-12-12,48.29999923706055,46.849998474121094,48.290000915527344,47.7400016784668,42820000.0,47.31111145019531
2018-12-13,48.119998931884766,46.93000030517578,47.970001220703125,47.029998779296875,35227100.0,46.607486724853516
2018-12-14,47.4900016784668,46.380001068115234,46.54999923706055,46.540000915527344,25913000.0,46.121891021728516
2018-12-17,47.310001373291016,46.119998931884766,46.220001220703125,46.61000061035156,29443300.0,46.19126510620117
2018-12-18,47.52000045776367,46.31999969482422,46.939998626708984,46.52000045776367,26740000.0,46.10206985473633
2018-12-19,47.43000030517578,45.29999923706055,46.38999938964844,45.66999816894531,34287600.0,45.25970458984375
2018-12-20,46.77000045776367,45.33000183105469,45.400001525878906,46.040000915527344,43969900.0,45.62638473510742
2018-12-21,46.529998779296875,44.93000030517578,45.59000015258789,45.119998931884766,55577900.0,44.71464920043945
2018-12-24,45.099998474121094,43.599998474121094,44.470001220703125,43.599998474121094,18049900.0,43.20830154418945
2018-12-26,45.59000015258789,43.02000045776367,43.84000015258789,45.59000015258789,27770000.0,45.18042755126953
2018-12-27,45.529998779296875,43.849998474121094,44.720001220703125,45.529998779296875,27005300.0,45.12096405029297
2018-12-28,46.43000030517578,45.529998779296875,45.68000030517578,45.779998779296875,23635000.0,45.368717193603516
2018-12-31,46.47999954223633,45.56999969482422,45.97999954223633,46.08000183105469,16544500.0,45.6660270690918
