Date,High,Low,Open,Close,Volume,Adj Close
2016-01-04,183.27667236328125,179.60000610351562,182.3866729736328,182.4633331298828,1592700.0,182.4633331298828
2016-01-05,184.67999267578125,181.3333282470703,183.01666259765625,183.98666381835938,1092000.0,183.98666381835938
2016-01-06,185.5800018310547,181.01666259765625,182.43333435058594,184.413330078125,1511100.0,184.413330078125
2016-01-07,185.51666259765625,178.7866668701172,181.82000732421875,178.96665954589844,1767000.0,178.96665954589844
2016-01-08,181.05332946777344,177.6699981689453,179.8866729736328,178.84666442871094,1010100.0,178.84666442871094
2016-01-11,182.42333984375,176.92999267578125,180.18666076660156,179.86000061035156,1380900.0,179.86000061035156
2016-01-12,182.3766632080078,178.3333282470703,181.55332946777344,180.7066650390625,916200.0,180.7066650390625
2016-01-13,190.6699981689453,181.4566650390625,187.47999572753906,181.7133331298828,2844600.0,181.7133331298828
2016-01-14,185.82333374023438,179.3766632080078,183.09666442871094,185.2566680908203,1752300.0,185.2566680908203
2016-01-15,186.0,179.97999572753906,180.0800018310547,185.75,1764300.0,185.75
2016-01-19,188.78334045410156,184.17666625976562,186.17999267578125,185.49667358398438,1597500.0,185.49667358398438
2016-01-20,187.26333618164062,179.33999633789062,184.1133270263672,184.85333251953125,1552200.0,184.85333251953125
2016-01-21,186.63333129882812,180.5433349609375,185.50332641601562,185.1999969482422,2075100.0,185.1999969482422
2016-01-22,193.3333282470703,185.31666564941406,189.6266632080078,188.70333862304688,2242500.0,188.70333862304688
2016-01-25,190.20333862304688,185.5833282470703,187.9600067138672,186.07333374023438,1380000.0,186.07333374023438
2016-01-26,184.99667358398438,180.64332580566406,183.3333282470703,181.74667358398438,1317300.0,181.74667358398438
2016-01-27,182.51666259765625,177.32333374023438,182.0800018310547,178.0066680908203,1100700.0,178.0066680908203
2016-01-28,179.6233367919922,173.5,178.5500030517578,175.52999877929688,1325100.0,175.52999877929688
2016-01-29,180.413330078125,175.8633270263672,175.8633270263672,180.28334045410156,1401600.0,180.28334045410156
2016-02-01,182.11666870117188,179.22000122070312,179.6666717529297,181.05332946777344,987900.0,181.05332946777344
2016-02-02,181.6266632080078,178.02999877929688,179.80667114257812,179.78334045410156,704100.0,179.78334045410156
2016-02-03,181.77000427246094,177.35667419433594,181.16000366210938,181.6999969482422,951600.0,181.6999969482422
2016-02-04,184.64999389648438,179.0399932861328,181.21665954589844,183.97666931152344,1276200.0,183.97666931152344
2016-02-05,184.80999755859375,177.98333740234375,183.6666717529297,178.74667358398438,1937700.0,178.74667358398438
2016-02-08,176.85333251953125,167.34666442871094,176.85333251953125,169.0933380126953,1932600.0,169.0933380126953
2016-02-09,173.5,167.336669921875,169.04666137695312,169.60667419433594,1377600.0,169.60667419433594
2016-02-10,176.30667114257812,170.01333618164062,170.01333618164062,174.80332946777344,1024800.0,174.80332946777344
2016-02-11,175.0,171.44332885742188,171.44332885742188,173.85000610351562,1019100.0,173.85000610351562
2016-02-12,178.17333984375,172.40333557128906,174.38333129882812,177.0933380126953,669600.0,177.0933380126953
2016-02-16,178.6666717529297,175.2133331298828,178.6666717529297,178.3866729736328,1006500.0,178.3866729736328
2016-02-17,180.8333282470703,177.3333282470703,178.51333618164062,180.6199951171875,946800.0,180.6199951171875
2016-02-18,181.64332580566406,179.36666870117188,180.2866668701172,180.8733367919922,751800.0,180.8733367919922
2016-02-19,182.35000610351562,176.82000732421875,179.5500030517578,182.1133270263672,783600.0,182.1133270263672
2016-02-22,184.0,181.13333129882812,183.0,183.836669921875,748200.0,183.836669921875
2016-02-23,184.3333282470703,181.36666870117188,182.38333129882812,182.96665954589844,700800.0,182.96665954589844
2016-02-24,184.99667358398438,181.336669921875,181.336669921875,184.5500030517578,1109400.0,184.5500030517578
2016-02-25,186.5933380126953,182.14999389648438,185.0,186.42666625976562,1308900.0,186.42666625976562
2016-02-26,190.0366668701172,185.6666717529297,186.6666717529297,189.1566619873047,2021100.0,189.1566619873047
2016-02-29,189.9566650390625,187.48666381835938,188.82333374023438,187.68666076660156,1409400.0,187.68666076660156
2016-03-01,191.5,187.1300048828125,188.07666015625,190.49667358398438,1554000.0,190.49667358398438
2016-03-02,191.5,189.11000061035156,189.1233367919922,191.27000427246094,1656900.0,191.27000427246094
2016-03-03,192.0,189.44332885742188,190.00332641601562,191.34666442871094,982500.0,191.34666442871094
2016-03-04,191.98666381835938,189.40333557128906,191.48666381835938,190.21665954589844,1095300.0,190.21665954589844
2016-03-07,192.1233367919922,188.33999633789062,190.14999389648438,190.89666748046875,938700.0,190.89666748046875
2016-03-08,190.93333435058594,188.5366668701172,189.43666076660156,188.95333862304688,817200.0,188.95333862304688
2016-03-09,191.19000244140625,188.35000610351562,190.00999450683594,190.96665954589844,920400.0,190.96665954589844
2016-03-10,191.57333374023438,188.96665954589844,190.63333129882812,191.23333740234375,815400.0,191.23333740234375
2016-03-11,194.76666259765625,191.07333374023438,191.6666717529297,193.48333740234375,1000200.0,193.48333740234375
2016-03-14,198.663330078125,191.72332763671875,193.35333251953125,197.69000244140625,1544400.0,197.69000244140625
2016-03-15,198.23666381835938,194.45333862304688,195.7100067138672,195.8000030517578,1514700.0,195.8000030517578
2016-03-16,198.07666015625,194.22332763671875,194.27000427246094,195.7933349609375,1034400.0,195.7933349609375
2016-03-17,196.6666717529297,187.0066680908203,196.17999267578125,187.4499969482422,1748100.0,187.4499969482422
2016-03-18,194.5066680908203,187.53334045410156,188.663330078125,194.35000610351562,1907100.0,194.35000610351562
2016-03-21,196.40333557128906,192.5,194.0,194.3300018310547,1143000.0,194.3300018310547
2016-03-22,197.28334045410156,192.46665954589844,193.2066650390625,197.00999450683594,1100400.0,197.00999450683594
2016-03-23,198.66000366210938,195.38333129882812,197.07666015625,195.44332885742188,837900.0,195.44332885742188
2016-03-24,194.69000244140625,191.94000244140625,194.44000244140625,194.43666076660156,959700.0,194.43666076660156
2016-03-28,195.5933380126953,193.48666381835938,195.23333740234375,194.72332763671875,615900.0,194.72332763671875
2016-03-29,201.3333282470703,194.0,194.38333129882812,201.02333068847656,1020600.0,201.02333068847656
2016-03-30,202.5833282470703,198.00999450683594,202.5833282470703,199.42666625976562,882300.0,199.42666625976562
2016-03-31,201.8300018310547,198.39666748046875,199.75999450683594,200.35000610351562,676200.0,200.35000610351562
2016-04-01,202.17999267578125,197.01333618164062,198.39666748046875,202.1666717529297,1371300.0,202.1666717529297
2016-04-04,209.31333923339844,201.0933380126953,202.5,207.35333251953125,1527300.0,207.35333251953125
2016-04-05,206.4166717529297,203.1199951171875,205.83999633789062,204.30667114257812,955500.0,204.30667114257812
2016-04-06,209.51333618164062,203.97332763671875,203.97332763671875,208.7066650390625,1132200.0,208.7066650390625
2016-04-07,208.6266632080078,203.0066680908203,208.6266632080078,204.92666625976562,811800.0,204.92666625976562
2016-04-08,208.93333435058594,205.05667114257812,206.97666931152344,206.58999633789062,780600.0,206.58999633789062
2016-04-11,208.97332763671875,206.26666259765625,207.67999267578125,206.73333740234375,688500.0,206.73333740234375
2016-04-12,209.7899932861328,206.48333740234375,208.8000030517578,208.50332641601562,874200.0,208.50332641601562
2016-04-13,210.22332763671875,207.4166717529297,208.9499969482422,209.00332641601562,988500.0,209.00332641601562
2016-04-14,209.53334045410156,207.3333282470703,209.00332641601562,207.69667053222656,482400.0,207.69667053222656
2016-04-15,209.3300018310547,206.67666625976562,208.16000366210938,208.07333374023438,855600.0,208.07333374023438
2016-04-18,209.73333740234375,207.1233367919922,208.19000244140625,208.9933319091797,1116600.0,208.9933319091797
2016-04-19,209.22999572753906,205.7433319091797,209.0,207.90333557128906,1980000.0,207.90333557128906
2016-04-20,218.2933349609375,213.97999572753906,214.99000549316406,214.85333251953125,2092200.0,214.85333251953125
2016-04-21,216.2899932861328,213.02667236328125,214.52000427246094,213.97000122070312,741000.0,213.97000122070312
2016-04-22,213.3333282470703,209.3000030517578,210.5,212.71665954589844,1256700.0,212.71665954589844
2016-04-25,214.11000061035156,210.84666442871094,210.97332763671875,212.913330078125,933300.0,212.913330078125
2016-04-26,213.3333282470703,210.10667419433594,213.3333282470703,210.8333282470703,891300.0,210.8333282470703
2016-04-27,212.2433319091797,209.0366668701172,211.22666931152344,211.00332641601562,746100.0,211.00332641601562
2016-04-28,214.97000122070312,209.27999877929688,209.27999877929688,210.5,1116000.0,210.5
2016-04-29,209.5366668701172,206.6666717529297,209.0,208.7866668701172,845700.0,208.7866668701172
2016-05-02,211.7933349609375,208.7433319091797,209.25999450683594,211.1199951171875,711300.0,211.1199951171875
2016-05-03,209.93666076660156,205.0066680908203,208.92333984375,206.2100067138672,1039200.0,206.2100067138672
2016-05-04,206.49667358398438,203.97666931152344,205.2100067138672,205.0500030517578,790800.0,205.0500030517578
2016-05-05,206.43333435058594,204.22999572753906,205.90333557128906,205.10667419433594,1081500.0,205.10667419433594
2016-05-06,206.58999633789062,203.7433319091797,204.6300048828125,206.32000732421875,1189800.0,206.32000732421875
2016-05-09,209.6666717529297,205.7100067138672,205.7100067138672,207.95333862304688,1121700.0,207.95333862304688
2016-05-10,209.67666625976562,206.99000549316406,208.71665954589844,208.85333251953125,755100.0,208.85333251953125
2016-05-11,209.82333374023438,208.13333129882812,209.163330078125,209.22999572753906,652200.0,209.22999572753906
2016-05-12,211.24000549316406,207.3333282470703,209.82666015625,211.10000610351562,1149000.0,211.10000610351562
2016-05-13,212.49667358398438,208.88333129882812,211.33999633789062,209.60333251953125,677400.0,209.60333251953125
2016-05-16,212.99667358398438,209.3333282470703,209.6999969482422,211.7566680908203,663000.0,211.7566680908203
2016-05-17,211.8433380126953,206.17333984375,211.42333984375,207.1266632080078,1059600.0,207.1266632080078
2016-05-18,210.17999267578125,204.36000061035156,207.27333068847656,208.40333557128906,1237200.0,208.40333557128906
2016-05-19,208.5500030517578,206.0933380126953,207.1266632080078,207.92999267578125,773400.0,207.92999267578125
2016-05-20,211.76333618164062,207.23333740234375,208.2933349609375,210.86000061035156,1172100.0,210.86000061035156
2016-05-23,210.7066650390625,208.14999389648438,210.52999877929688,209.5500030517578,660600.0,209.5500030517578
2016-05-24,213.2899932861328,209.64332580566406,211.0399932861328,212.88999938964844,978000.0,212.88999938964844
2016-05-25,214.93666076660156,212.69332885742188,212.8433380126953,214.34666442871094,712200.0,214.34666442871094
2016-05-26,214.72332763671875,212.0,213.4566650390625,212.39999389648438,974400.0,212.39999389648438
2016-05-27,214.47666931152344,211.42999267578125,213.3300018310547,212.21665954589844,724500.0,212.21665954589844
2016-05-31,213.3000030517578,210.6199951171875,213.0433349609375,211.57000732421875,1860600.0,211.57000732421875
2016-06-01,213.0066680908203,209.163330078125,210.75,212.56333923339844,870000.0,212.56333923339844
2016-06-02,213.3333282470703,210.00332641601562,210.32000732421875,213.14666748046875,834600.0,213.14666748046875
2016-06-03,213.17999267578125,210.85667419433594,213.1366729736328,212.27999877929688,740400.0,212.27999877929688
2016-06-06,212.91000366210938,210.4566650390625,212.17666625976562,211.8733367919922,470700.0,211.8733367919922
2016-06-07,212.34666442871094,210.55667114257812,211.6699981689453,211.9633331298828,487200.0,211.9633331298828
2016-06-08,215.3333282470703,212.02667236328125,212.40333557128906,214.2933349609375,979500.0,214.2933349609375
2016-06-09,217.19332885742188,212.38333129882812,213.07666015625,216.06666564941406,902400.0,216.06666564941406
2016-06-10,215.14999389648438,212.25,213.9066619873047,213.8633270263672,588300.0,213.8633270263672
2016-06-13,216.1666717529297,212.413330078125,212.413330078125,214.6999969482422,840900.0,214.6999969482422
2016-06-14,215.53334045410156,213.55667114257812,213.8300018310547,214.99667358398438,622800.0,214.99667358398438
2016-06-15,216.2566680908203,213.9166717529297,215.53334045410156,215.0366668701172,962700.0,215.0366668701172
2016-06-16,215.36666870117188,211.7933349609375,215.36666870117188,214.50999450683594,732900.0,214.50999450683594
2016-06-17,215.66000366210938,212.8000030517578,214.82000732421875,213.913330078125,1227000.0,213.913330078125
2016-06-20,217.13999938964844,215.30332946777344,216.13999938964844,216.02667236328125,593700.0,216.02667236328125
2016-06-21,217.0,214.36666870117188,216.0800018310547,215.05667114257812,661500.0,215.05667114257812
2016-06-22,217.3333282470703,215.07333374023438,215.26666259765625,217.14999389648438,753000.0,217.14999389648438
2016-06-23,220.64666748046875,217.32333374023438,218.0500030517578,220.44000244140625,876900.0,220.44000244140625
2016-06-24,217.47666931152344,214.0933380126953,214.35000610351562,214.94000244140625,1779600.0,214.94000244140625
2016-06-27,214.17333984375,208.47332763671875,214.01333618164062,209.96665954589844,1219800.0,209.96665954589844
2016-06-28,213.3333282470703,210.1566619873047,210.99667358398438,212.8699951171875,825300.0,212.8699951171875
2016-06-29,219.7899932861328,213.336669921875,213.76666259765625,219.24000549316406,1103100.0,219.24000549316406
2016-06-30,221.1666717529297,218.3433380126953,219.24000549316406,220.47000122070312,990300.0,220.47000122070312
2016-07-01,222.49667358398438,219.67666625976562,220.52333068847656,222.10333251953125,738000.0,222.10333251953125
2016-07-05,222.77667236328125,220.55667114257812,221.6233367919922,221.55667114257812,687900.0,221.55667114257812
2016-07-06,224.5800018310547,221.00332641601562,221.6699981689453,223.47999572753906,878100.0,223.47999572753906
2016-07-07,225.36000061035156,222.72666931152344,222.99667358398438,225.10000610351562,572700.0,225.10000610351562
2016-07-08,226.8333282470703,224.6233367919922,226.17666625976562,226.27999877929688,641400.0,226.27999877929688
2016-07-11,227.19667053222656,224.3433380126953,227.086669921875,224.56666564941406,831000.0,224.56666564941406
2016-07-12,226.25999450683594,224.50332641601562,226.0366668701172,225.10333251953125,844200.0,225.10333251953125
2016-07-13,226.21665954589844,224.1699981689453,226.21665954589844,224.27999877929688,620700.0,224.27999877929688
2016-07-14,226.97000122070312,224.31666564941406,226.16000366210938,225.1999969482422,642300.0,225.1999969482422
2016-07-15,226.2566680908203,222.72000122070312,226.1266632080078,223.4600067138672,1012200.0,223.4600067138672
2016-07-18,224.6300048828125,223.3633270263672,224.30332946777344,223.51333618164062,785100.0,223.51333618164062
2016-07-19,225.27000427246094,221.7100067138672,222.59666442871094,223.96665954589844,1369200.0,223.96665954589844
2016-07-20,240.00332641601562,233.4066619873047,237.36000061035156,234.35000610351562,3480000.0,234.35000610351562
2016-07-21,233.60333251953125,229.5933380126953,232.0,230.31666564941406,1350600.0,230.31666564941406
2016-07-22,229.94000244140625,226.88333129882812,229.47666931152344,229.7899932861328,1389300.0,229.7899932861328
2016-07-25,230.36666870117188,228.20333862304688,228.81666564941406,228.7899932861328,853200.0,228.7899932861328
2016-07-26,230.40333557128906,228.413330078125,229.65333557128906,228.8733367919922,656700.0,228.8733367919922
2016-07-27,230.53334045410156,227.02999877929688,228.76666259765625,227.69332885742188,857700.0,227.69332885742188
2016-07-28,230.4066619873047,227.92666625976562,227.93333435058594,230.02999877929688,771000.0,230.02999877929688
2016-07-29,232.3800048828125,229.68333435058594,230.0,231.9199981689453,823500.0,231.9199981689453
2016-08-01,233.3333282470703,230.77333068847656,231.32333374023438,231.2899932861328,862800.0,231.2899932861328
2016-08-02,231.6233367919922,228.43666076660156,231.6233367919922,230.163330078125,519300.0,230.163330078125
2016-08-03,231.30332946777344,228.67999267578125,230.71665954589844,229.2433319091797,575700.0,229.2433319091797
2016-08-04,232.29666137695312,228.0,229.4633331298828,231.19667053222656,676800.0,231.19667053222656
2016-08-05,231.99000549316406,230.22332763671875,231.51333618164062,231.11000061035156,491100.0,231.11000061035156
2016-08-08,231.336669921875,229.93333435058594,230.77667236328125,230.94667053222656,395100.0,230.94667053222656
2016-08-09,233.5500030517578,231.5366668701172,231.60667419433594,232.22666931152344,569700.0,232.22666931152344
2016-08-10,232.48666381835938,230.31333923339844,232.23333740234375,231.0800018310547,409500.0,231.0800018310547
2016-08-11,232.663330078125,230.60667419433594,231.40333557128906,231.84666442871094,520800.0,231.84666442871094
2016-08-12,231.01666259765625,229.5,231.01666259765625,230.30667114257812,546000.0,230.30667114257812
2016-08-15,232.40333557128906,230.3333282470703,230.8800048828125,230.99667358398438,391200.0,230.99667358398438
2016-08-16,230.336669921875,228.47000122070312,230.336669921875,228.67999267578125,417900.0,228.67999267578125
2016-08-17,229.2133331298828,226.36666870117188,229.2133331298828,227.63333129882812,527400.0,227.63333129882812
2016-08-18,229.13333129882812,226.79666137695312,226.79666137695312,228.5399932861328,411300.0,228.5399932861328
2016-08-19,229.73666381835938,227.48666381835938,228.56333923339844,229.22332763671875,432000.0,229.22332763671875
2016-08-22,230.9566650390625,228.98333740234375,229.336669921875,230.75,463800.0,230.75
2016-08-23,232.99667358398438,231.00332641601562,231.6666717529297,231.98666381835938,620400.0,231.98666381835938
2016-08-24,232.48666381835938,227.99667358398438,231.6199951171875,228.52999877929688,464100.0,228.52999877929688
2016-08-25,229.89666748046875,227.5399932861328,228.3333282470703,228.81666564941406,364500.0,228.81666564941406
2016-08-26,230.54666137695312,227.5433349609375,229.47666931152344,228.42999267578125,699600.0,228.42999267578125
2016-08-29,230.1233367919922,227.77000427246094,228.4933319091797,229.18333435058594,1073100.0,229.18333435058594
2016-08-30,229.73666381835938,227.1300048828125,229.29666137695312,229.17666625976562,435900.0,229.17666625976562
2016-08-31,229.8433380126953,227.72000122070312,229.81666564941406,228.80667114257812,447900.0,228.80667114257812
2016-09-01,230.4166717529297,227.78334045410156,228.95333862304688,229.89666748046875,624000.0,229.89666748046875
2016-09-02,231.14999389648438,229.27667236328125,231.14666748046875,229.4566650390625,426600.0,229.4566650390625
2016-09-06,231.0800018310547,227.17999267578125,229.99667358398438,231.0399932861328,516300.0,231.0399932861328
2016-09-07,231.6366729736328,229.68666076660156,230.00332641601562,230.02333068847656,500700.0,230.02333068847656
2016-09-08,230.8766632080078,228.7133331298828,229.26666259765625,230.38333129882812,517800.0,230.38333129882812
2016-09-09,228.68333435058594,225.3433380126953,228.3733367919922,225.4066619873047,644100.0,225.4066619873047
2016-09-12,228.05999755859375,224.58999633789062,225.11666870117188,227.79666137695312,645900.0,227.79666137695312
2016-09-13,227.27999877929688,223.5933380126953,225.90333557128906,224.07666015625,897000.0,224.07666015625
2016-09-14,225.8333282470703,223.65333557128906,224.25332641601562,224.3733367919922,656100.0,224.3733367919922
2016-09-15,229.32333374023438,223.5,223.61666870117188,228.06333923339844,914400.0,228.06333923339844
2016-09-16,229.27333068847656,227.3866729736328,229.02333068847656,228.7899932861328,1146000.0,228.7899932861328
2016-09-19,231.8333282470703,230.20333862304688,230.5800018310547,231.18333435058594,611400.0,231.18333435058594
2016-09-20,233.64666748046875,231.57000732421875,232.05999755859375,232.9566650390625,843000.0,232.9566650390625
2016-09-21,234.6666717529297,231.3699951171875,232.74667358398438,234.35333251953125,960900.0,234.35333251953125
2016-09-22,239.68666076660156,235.28334045410156,236.07000732421875,239.39999389648438,1018200.0,239.39999389648438
2016-09-23,239.3333282470703,236.36666870117188,239.3333282470703,236.74000549316406,742800.0,236.74000549316406
2016-09-26,236.6666717529297,234.68333435058594,236.06333923339844,235.74667358398438,828600.0,235.74667358398438
2016-09-27,240.31333923339844,235.6699981689453,236.3333282470703,240.06333923339844,852900.0,240.06333923339844
2016-09-28,241.1133270263672,238.14332580566406,239.94000244140625,239.2566680908203,669600.0,239.2566680908203
2016-09-29,241.3333282470703,237.49000549316406,241.3333282470703,239.99667358398438,820800.0,239.99667358398438
2016-09-30,242.3766632080078,239.11666870117188,239.32333374023438,241.61000061035156,975900.0,241.61000061035156
2016-10-03,241.27999877929688,238.28334045410156,240.52000427246094,239.31333923339844,527100.0,239.31333923339844
2016-10-04,240.38333129882812,237.66000366210938,239.32666015625,238.8733367919922,561900.0,238.8733367919922
2016-10-05,240.2433319091797,238.22666931152344,238.9166717529297,239.36666870117188,449700.0,239.36666870117188
2016-10-06,239.6699981689453,238.0500030517578,238.8766632080078,238.72999572753906,581700.0,238.72999572753906
2016-10-07,239.99667358398438,237.7433319091797,239.99667358398438,239.34666442871094,400800.0,239.34666442871094
2016-10-10,242.4166717529297,239.586669921875,239.586669921875,241.5366668701172,416400.0,241.5366668701172
2016-10-11,241.3766632080078,235.4600067138672,241.3766632080078,236.76666259765625,707700.0,236.76666259765625
2016-10-12,237.7433319091797,236.24000549316406,237.3333282470703,236.97666931152344,514500.0,236.97666931152344
2016-10-13,238.60000610351562,235.7133331298828,236.31666564941406,237.81333923339844,782700.0,237.81333923339844
2016-10-14,239.52667236328125,236.89999389648438,239.52667236328125,238.30332946777344,635700.0,238.30332946777344
2016-10-17,239.6266632080078,236.0399932861328,238.42666625976562,236.47999572753906,788400.0,236.47999572753906
2016-10-18,241.10333251953125,236.6699981689453,238.97999572753906,240.57666015625,1554900.0,240.57666015625
2016-10-19,235.43666076660156,226.8633270263672,235.3333282470703,227.0433349609375,3684600.0,227.0433349609375
2016-10-20,229.82000732421875,226.0066680908203,227.3300018310547,227.27333068847656,1680300.0,227.27333068847656
2016-10-21,227.47666931152344,225.30667114257812,226.81666564941406,226.0066680908203,1223100.0,226.0066680908203
2016-10-24,229.16000366210938,227.26333618164062,228.35333251953125,228.3333282470703,912600.0,228.3333282470703
2016-10-25,228.663330078125,225.52999877929688,228.3333282470703,226.5,754800.0,226.5
2016-10-26,225.55999755859375,221.69000244140625,225.55999755859375,221.9066619873047,881400.0,221.9066619873047
2016-10-27,223.18666076660156,219.24000549316406,222.49667358398438,221.07666015625,985500.0,221.07666015625
2016-10-28,225.18333435058594,220.58999633789062,220.80999755859375,222.18333435058594,1035300.0,222.18333435058594
2016-10-31,224.47999572753906,219.4566650390625,221.92999267578125,224.02667236328125,878100.0,224.02667236328125
2016-11-01,224.64666748046875,221.75,224.47999572753906,223.24000549316406,772800.0,223.24000549316406
2016-11-02,224.77667236328125,222.0066680908203,223.4600067138672,222.19000244140625,796800.0,222.19000244140625
2016-11-03,224.72999572753906,222.5833282470703,223.336669921875,224.43333435058594,875700.0,224.43333435058594
2016-11-04,226.25999450683594,223.52667236328125,223.9566650390625,223.80667114257812,1026900.0,223.80667114257812
2016-11-07,227.5933380126953,225.6133270263672,226.00999450683594,226.14332580566406,708900.0,226.14332580566406
2016-11-08,229.38999938964844,225.69000244140625,226.2899932861328,228.3766632080078,650400.0,228.3766632080078
2016-11-09,222.61666870117188,216.913330078125,221.23666381835938,217.15333557128906,2621100.0,217.15333557128906
2016-11-10,218.13999938964844,210.2133331298828,217.3733367919922,211.83999633789062,2361000.0,211.83999633789062
2016-11-11,214.0933380126953,205.60000610351562,211.49000549316406,207.25332641601562,2118900.0,207.25332641601562
2016-11-14,210.6666717529297,206.22666931152344,207.0,208.1999969482422,1794900.0,208.1999969482422
2016-11-15,214.01666259765625,209.07000732421875,209.07000732421875,213.51666259765625,997200.0,213.51666259765625
2016-11-16,215.1666717529297,212.3333282470703,213.86000061035156,214.45333862304688,880200.0,214.45333862304688
2016-11-17,218.6699981689453,214.43666076660156,214.43666076660156,218.1999969482422,837000.0,218.1999969482422
2016-11-18,219.3333282470703,217.56666564941406,218.04666137695312,218.29666137695312,789000.0,218.29666137695312
2016-11-21,221.2133331298828,218.32666015625,219.4066619873047,220.69667053222656,1278600.0,220.69667053222656
2016-11-22,219.56333923339844,212.52667236328125,219.3333282470703,213.40333557128906,2002200.0,213.40333557128906
2016-11-23,215.46665954589844,212.49667358398438,213.7066650390625,215.0933380126953,1106700.0,215.0933380126953
2016-11-25,220.43333435058594,215.25,216.14332580566406,218.836669921875,735300.0,218.836669921875
2016-11-28,219.54666137695312,215.58999633789062,218.97999572753906,215.89666748046875,1157700.0,215.89666748046875
2016-11-29,218.2566680908203,216.0,216.32666015625,216.77000427246094,939000.0,216.77000427246094
2016-11-30,217.74000549316406,212.25332641601562,216.75999450683594,214.5800018310547,2665200.0,214.5800018310547
2016-12-01,214.6666717529297,209.3699951171875,214.15333557128906,210.77667236328125,1342200.0,210.77667236328125
2016-12-02,214.61666870117188,210.3733367919922,211.663330078125,212.2133331298828,1266900.0,212.2133331298828
2016-12-05,212.83999633789062,211.42999267578125,212.43333435058594,212.31666564941406,880500.0,212.31666564941406
2016-12-06,212.30332946777344,206.29666137695312,212.00332641601562,207.19667053222656,1320600.0,207.19667053222656
2016-12-07,207.38999938964844,203.57000732421875,206.83999633789062,206.336669921875,1861500.0,206.336669921875
2016-12-08,207.6666717529297,204.7933349609375,205.99000549316406,206.48666381835938,902400.0,206.48666381835938
2016-12-09,209.2933349609375,206.26666259765625,206.6133270263672,208.40333557128906,869400.0,208.40333557128906
2016-12-12,211.68333435058594,207.93666076660156,207.93666076660156,211.24667358398438,1188600.0,211.24667358398438
2016-12-13,217.39999389648438,211.91000366210938,212.0,211.99000549316406,1954500.0,211.99000549316406
2016-12-14,214.67333984375,211.3433380126953,212.54666137695312,212.19667053222656,1173000.0,212.19667053222656
2016-12-15,213.86666870117188,210.7066650390625,212.3800048828125,213.0,1033200.0,213.0
2016-12-16,214.2933349609375,211.38999938964844,213.1666717529297,213.79666137695312,1660800.0,213.79666137695312
2016-12-19,213.82666015625,211.75,213.19000244140625,212.6366729736328,872700.0,212.6366729736328
2016-12-20,213.2899932861328,210.00999450683594,212.82666015625,211.336669921875,791400.0,211.336669921875
2016-12-21,211.5366668701172,210.0,211.36000061035156,210.09666442871094,537900.0,210.09666442871094
2016-12-22,213.14999389648438,209.98666381835938,210.57333374023438,212.52667236328125,875100.0,212.52667236328125
2016-12-23,214.89332580566406,212.77333068847656,213.02667236328125,213.5833282470703,566400.0,213.5833282470703
2016-12-27,215.73333740234375,213.08999633789062,214.34666442871094,213.1699981689453,358200.0,213.1699981689453
2016-12-28,214.1366729736328,211.2433319091797,213.26666259765625,211.85000610351562,483600.0,211.85000610351562
2016-12-29,213.0,211.52333068847656,211.52333068847656,212.18333435058594,472800.0,212.18333435058594
2016-12-30,212.79666137695312,210.75,212.77333068847656,211.38999938964844,801900.0,211.38999938964844
2017-01-03,214.05999755859375,211.6666717529297,211.97999572753906,213.92999267578125,792900.0,213.92999267578125
2017-01-04,212.6666717529297,208.24000549316406,212.6666717529297,209.8300018310547,1361700.0,209.8300018310547
2017-01-05,212.57000732421875,209.14999389648438,210.06333923339844,210.97000122070312,1110600.0,210.97000122070312
2017-01-06,213.6199951171875,211.3333282470703,211.3333282470703,212.0366668701172,883500.0,212.0366668701172
2017-01-09,214.4199981689453,211.72999572753906,211.72999572753906,213.76666259765625,1159200.0,213.76666259765625
2017-01-10,221.3333282470703,213.913330078125,214.17666625976562,220.73333740234375,1189800.0,220.73333740234375
2017-01-11,229.54666137695312,223.3633270263672,225.3000030517578,226.05332946777344,1895700.0,226.05332946777344
2017-01-12,225.85667419433594,220.35000610351562,225.85667419433594,221.6266632080078,1247100.0,221.6266632080078
2017-01-13,224.9933319091797,220.8633270263672,222.6666717529297,221.57000732421875,873900.0,221.57000732421875
2017-01-17,222.44667053222656,218.3333282470703,221.50332641601562,221.24667358398438,786900.0,221.24667358398438
2017-01-18,222.6666717529297,220.0500030517578,221.26333618164062,221.02333068847656,589500.0,221.02333068847656
2017-01-19,221.3800048828125,218.03334045410156,220.80667114257812,219.35333251953125,750900.0,219.35333251953125
2017-01-20,220.4066619873047,218.0800018310547,220.4066619873047,218.9166717529297,774300.0,218.9166717529297
2017-01-23,220.66000366210938,217.19000244140625,219.17999267578125,218.3433380126953,816900.0,218.3433380126953
2017-01-24,223.25999450683594,217.89332580566406,219.22000122070312,222.01666259765625,1409100.0,222.01666259765625
2017-01-25,233.47332763671875,224.0066680908203,225.0,233.3333282470703,3402600.0,233.3333282470703
2017-01-26,233.0,228.14332580566406,232.10333251953125,229.18666076660156,1661700.0,229.18666076660156
2017-01-27,231.75332641601562,227.3800048828125,228.1266632080078,230.42999267578125,1264200.0,230.42999267578125
2017-01-30,230.14999389648438,227.8866729736328,229.13333129882812,230.0433349609375,939000.0,230.0433349609375
2017-01-31,232.51333618164062,228.18666076660156,229.41000366210938,230.89666748046875,1155300.0,230.89666748046875
2017-02-01,232.6666717529297,229.32666015625,230.01666259765625,232.33999633789062,1075200.0,232.33999633789062
2017-02-02,233.663330078125,230.34666442871094,231.04666137695312,233.3866729736328,1047600.0,233.3866729736328
2017-02-03,234.31666564941406,232.58999633789062,233.3333282470703,234.0433349609375,972600.0,234.0433349609375
2017-02-06,235.35000610351562,232.23666381835938,233.35000610351562,234.98666381835938,972300.0,234.98666381835938
2017-02-07,235.44000244140625,233.8333282470703,234.69332885742188,234.74667358398438,1138500.0,234.74667358398438
2017-02-08,234.8800048828125,233.10667419433594,233.836669921875,234.22332763671875,1033500.0,234.22332763671875
2017-02-09,236.51333618164062,233.4166717529297,233.98666381835938,235.1266632080078,809100.0,235.1266632080078
2017-02-10,236.22332763671875,234.48333740234375,235.30667114257812,235.17333984375,806400.0,235.17333984375
2017-02-13,237.09666442871094,233.66000366210938,235.0,236.89999389648438,775500.0,236.89999389648438
2017-02-14,239.3333282470703,236.75,237.47332763671875,238.30667114257812,924900.0,238.30667114257812
2017-02-15,239.76666259765625,236.836669921875,237.2100067138672,238.913330078125,908400.0,238.913330078125
2017-02-16,240.5800018310547,237.53334045410156,238.14332580566406,240.49000549316406,868500.0,240.49000549316406
2017-02-17,242.45333862304688,239.2133331298828,239.47666931152344,241.55332946777344,1162800.0,241.55332946777344
2017-02-21,244.38999938964844,241.19000244140625,241.6666717529297,244.05667114257812,1445100.0,244.05667114257812
2017-02-22,244.7066650390625,242.8633270263672,243.26666259765625,244.02667236328125,835500.0,244.02667236328125
2017-02-23,245.5433349609375,243.52333068847656,243.76666259765625,245.11666870117188,805500.0,245.11666870117188
2017-02-24,246.26666259765625,243.77667236328125,244.46665954589844,245.6199951171875,843900.0,245.6199951171875
2017-02-27,246.3333282470703,244.20333862304688,245.7899932861328,244.67666625976562,890400.0,244.67666625976562
2017-02-28,246.3433380126953,243.20333862304688,244.0,245.6666717529297,1185600.0,245.6666717529297
2017-03-01,248.19667053222656,244.36000061035156,245.60000610351562,247.02999877929688,946500.0,247.02999877929688
2017-03-02,248.60000610351562,246.57333374023438,247.0,247.52333068847656,804300.0,247.52333068847656
2017-03-03,248.75999450683594,246.30667114257812,246.81333923339844,248.26333618164062,642600.0,248.26333618164062
2017-03-06,247.65333557128906,244.81666564941406,246.89332580566406,245.23333740234375,1199700.0,245.23333740234375
2017-03-07,245.44667053222656,243.04666137695312,244.22666931152344,243.38333129882812,1154700.0,243.38333129882812
2017-03-08,244.836669921875,242.26333618164062,243.6666717529297,242.70333862304688,962700.0,242.70333862304688
2017-03-09,245.6566619873047,242.3766632080078,242.3766632080078,245.33999633789062,949200.0,245.33999633789062
2017-03-10,246.6666717529297,244.2133331298828,246.6666717529297,244.72000122070312,734700.0,244.72000122070312
2017-03-13,245.43666076660156,242.4600067138672,244.3766632080078,244.6300048828125,786300.0,244.6300048828125
2017-03-14,246.76666259765625,242.81333923339844,242.9499969482422,246.69332885742188,1363500.0,246.69332885742188
2017-03-15,250.47666931152344,245.3300018310547,245.6199951171875,248.88999938964844,1704900.0,248.88999938964844
2017-03-16,250.1699981689453,246.5,249.68333435058594,247.8433380126953,813600.0,247.8433380126953
2017-03-17,250.73333740234375,248.55999755859375,249.38333129882812,249.94332885742188,2004900.0,249.94332885742188
2017-03-20,251.85000610351562,249.0066680908203,249.19000244140625,250.00999450683594,1124400.0,250.00999450683594
2017-03-21,252.663330078125,248.46665954589844,251.1666717529297,248.64999389648438,1187700.0,248.64999389648438
2017-03-22,250.05667114257812,247.50332641601562,249.2100067138672,249.43666076660156,547200.0,249.43666076660156
2017-03-23,250.49000549316406,248.17999267578125,249.13333129882812,248.72666931152344,567000.0,248.72666931152344
2017-03-24,253.836669921875,249.22332763671875,249.92333984375,252.6666717529297,1336200.0,252.6666717529297
2017-03-27,256.3733215332031,251.06666564941406,251.80999755859375,255.77333068847656,1176600.0,255.77333068847656
2017-03-28,256.760009765625,254.75999450683594,255.77333068847656,254.82333374023438,843000.0,254.82333374023438
2017-03-29,255.8433380126953,253.1666717529297,254.33999633789062,255.22666931152344,738900.0,255.22666931152344
2017-03-30,256.3299865722656,254.14332580566406,255.3000030517578,255.4199981689453,533100.0,255.4199981689453
2017-03-31,256.6600036621094,254.77333068847656,255.1233367919922,255.49000549316406,920400.0,255.49000549316406
2017-04-03,257.19000244140625,253.48333740234375,255.2133331298828,254.90333557128906,962100.0,254.90333557128906
2017-04-04,255.75332641601562,253.1133270263672,255.3300018310547,254.1133270263672,598800.0,254.1133270263672
2017-04-05,258.63665771484375,253.15333557128906,253.6266632080078,254.26666259765625,1098000.0,254.26666259765625
2017-04-06,255.31666564941406,253.44332885742188,254.04666137695312,254.2566680908203,780900.0,254.2566680908203
2017-04-07,256.11334228515625,253.69667053222656,254.67666625976562,255.7066650390625,750600.0,255.7066650390625
2017-04-10,256.4700012207031,255.0,255.00332641601562,255.67999267578125,684000.0,255.67999267578125
2017-04-11,256.51666259765625,253.5433349609375,255.36666870117188,254.94332885742188,824100.0,254.94332885742188
2017-04-12,255.0,253.6233367919922,253.9566650390625,254.75332641601562,741000.0,254.75332641601562
2017-04-13,256.2166748046875,254.16000366210938,255.14332580566406,254.92999267578125,756600.0,254.92999267578125
2017-04-17,257.7533264160156,255.11000061035156,256.3066711425781,256.09332275390625,1158600.0,256.09332275390625
2017-04-18,256.0,251.1266632080078,256.0,253.1133270263672,1765800.0,253.1133270263672
2017-04-19,272.3999938964844,263.6600036621094,266.6666564941406,269.23333740234375,3396000.0,269.23333740234375
2017-04-20,271.8033447265625,267.6166687011719,268.8333435058594,271.48333740234375,1183200.0,271.48333740234375
2017-04-21,271.51666259765625,269.1000061035156,270.5566711425781,271.1433410644531,1232400.0,271.1433410644531
2017-04-24,274.6766662597656,271.0566711425781,272.3333435058594,274.05999755859375,1137000.0,274.05999755859375
2017-04-25,277.6833190917969,273.48333740234375,274.0666809082031,275.7466735839844,1458000.0,275.7466735839844
2017-04-26,278.65667724609375,275.1700134277344,275.30999755859375,278.00665283203125,932700.0,278.00665283203125
2017-04-27,280.25,278.00665283203125,278.2099914550781,278.85333251953125,882300.0,278.85333251953125
2017-04-28,281.4866638183594,277.586669921875,278.8900146484375,278.6233215332031,1170900.0,278.6233215332031
2017-05-01,280.663330078125,278.7933349609375,279.52667236328125,279.8566589355469,735600.0,279.8566589355469
2017-05-02,281.8166809082031,279.07000732421875,279.07000732421875,281.5899963378906,618600.0,281.5899963378906
2017-05-03,282.5833435058594,280.2866516113281,281.5799865722656,281.77667236328125,543300.0,281.77667236328125
2017-05-04,282.8399963378906,281.59332275390625,282.10333251953125,282.40667724609375,542100.0,282.40667724609375
2017-05-05,283.6666564941406,281.9166564941406,283.1300048828125,283.5133361816406,490500.0,283.5133361816406
2017-05-08,283.8800048828125,279.6666564941406,283.3333435058594,280.2633361816406,1347300.0,280.2633361816406
2017-05-09,281.7799987792969,279.086669921875,279.8066711425781,281.0566711425781,928200.0,281.0566711425781
2017-05-10,281.6666564941406,279.5799865722656,281.3699951171875,281.0199890136719,942600.0,281.0199890136719
2017-05-11,282.2733459472656,279.3999938964844,281.3133239746094,281.6433410644531,696900.0,281.6433410644531
2017-05-12,282.76666259765625,281.1066589355469,282.09332275390625,281.239990234375,633000.0,281.239990234375
2017-05-15,283.76666259765625,280.6233215332031,280.6233215332031,283.5566711425781,609000.0,283.5566711425781
2017-05-16,288.2533264160156,284.49334716796875,285.77667236328125,286.489990234375,906000.0,286.489990234375
2017-05-17,286.6233215332031,283.5433349609375,285.09332275390625,283.6600036621094,1169400.0,283.6600036621094
2017-05-18,287.1300048828125,283.6433410644531,284.2699890136719,286.6600036621094,796200.0,286.6600036621094
2017-05-19,291.5133361816406,286.7833251953125,287.7099914550781,290.1099853515625,1245300.0,290.1099853515625
2017-05-22,299.1233215332031,292.0299987792969,292.3333435058594,297.3466796875,1331400.0,297.3466796875
2017-05-23,300.70001220703125,297.6666564941406,299.1833190917969,299.0133361816406,922500.0,299.0133361816406
2017-05-24,300.6666564941406,297.5433349609375,299.07000732421875,299.9566650390625,804600.0,299.9566650390625
2017-05-25,303.8033447265625,300.00665283203125,301.2866516113281,302.5233459472656,599400.0,302.5233459472656
2017-05-26,304.9200134277344,302.75,304.4800109863281,303.4533386230469,626400.0,303.4533386230469
2017-05-30,305.1600036621094,301.0333251953125,302.0333251953125,304.80999755859375,929100.0,304.80999755859375
2017-05-31,307.27667236328125,303.5433349609375,305.95001220703125,304.8933410644531,937800.0,304.8933410644531
2017-06-01,306.4266662597656,303.9366760253906,305.0299987792969,306.3599853515625,758400.0,306.3599853515625
2017-06-02,309.1666564941406,306.4200134277344,307.74334716796875,308.2300109863281,731100.0,308.2300109863281
2017-06-05,308.6533203125,305.82000732421875,307.086669921875,307.336669921875,655800.0,307.336669921875
2017-06-06,309.90667724609375,306.0333251953125,306.0466613769531,308.1199951171875,576000.0,308.1199951171875
2017-06-07,310.913330078125,308.0733337402344,309.6266784667969,310.6666564941406,715200.0,310.6666564941406
2017-06-08,312.3833312988281,308.8333435058594,311.6666564941406,309.95001220703125,806100.0,309.95001220703125
2017-06-09,311.76666259765625,302.0733337402344,311.5966796875,305.4466552734375,1056300.0,305.4466552734375
2017-06-12,304.79998779296875,292.1666564941406,303.6666564941406,301.0966796875,1955700.0,301.0966796875
2017-06-13,305.0966796875,300.1199951171875,301.7366638183594,302.74334716796875,907500.0,302.74334716796875
2017-06-14,306.0,300.97332763671875,305.8900146484375,301.9433288574219,954900.0,301.9433288574219
2017-06-15,300.5566711425781,297.3500061035156,300.2466735839844,299.64666748046875,979800.0,299.64666748046875
2017-06-16,305.86334228515625,300.19000244140625,300.32000732421875,304.9466552734375,1723200.0,304.9466552734375
2017-06-19,312.44000244140625,306.20001220703125,306.32000732421875,312.3833312988281,1225500.0,312.3833312988281
2017-06-20,316.32666015625,312.7366638183594,312.8999938964844,313.4533386230469,1107600.0,313.4533386230469
2017-06-21,318.1266784667969,313.67333984375,314.0899963378906,317.75665283203125,1085700.0,317.75665283203125
2017-06-22,321.17999267578125,316.8333435058594,318.26666259765625,318.0533447265625,816000.0,318.0533447265625
2017-06-23,318.1300048828125,314.6499938964844,316.9633483886719,316.3133239746094,2406000.0,316.3133239746094
2017-06-26,318.2633361816406,312.54998779296875,317.4533386230469,313.4800109863281,925500.0,313.4800109863281
2017-06-27,314.6433410644531,310.01666259765625,313.75665283203125,312.0033264160156,1152600.0,312.0033264160156
2017-06-28,316.0333251953125,310.6600036621094,312.92333984375,315.4366760253906,1081200.0,315.4366760253906
2017-06-29,314.90667724609375,307.8566589355469,314.90667724609375,310.1666564941406,940200.0,310.1666564941406
2017-06-30,313.2966613769531,307.4966735839844,311.6166687011719,311.7900085449219,747300.0,311.7900085449219
2017-07-03,313.8500061035156,306.8566589355469,313.6533203125,307.2200012207031,488400.0,307.2200012207031
2017-07-05,313.42999267578125,309.3800048828125,309.3800048828125,312.6966552734375,1139100.0,312.6966552734375
2017-07-06,313.30999755859375,309.6666564941406,310.82666015625,311.6000061035156,651600.0,311.6000061035156
2017-07-07,316.0633239746094,312.5433349609375,312.80999755859375,314.75665283203125,695700.0,314.75665283203125
2017-07-10,316.94000244140625,312.6666564941406,314.5,315.75,964800.0,315.75
2017-07-11,316.4700012207031,312.3833312988281,316.4700012207031,314.163330078125,986700.0,314.163330078125
2017-07-12,318.5199890136719,315.7166748046875,316.6666564941406,316.11334228515625,822600.0,316.11334228515625
2017-07-13,317.7266540527344,312.6166687011719,317.19000244140625,312.8466796875,932400.0,312.8466796875
2017-07-14,318.02667236328125,313.47332763671875,313.47332763671875,317.25,852900.0,317.25
2017-07-17,318.8699951171875,314.6766662597656,318.3066711425781,316.0299987792969,1221600.0,316.0299987792969
2017-07-18,316.86334228515625,313.4566650390625,316.086669921875,315.54998779296875,960900.0,315.54998779296875
2017-07-19,322.48333740234375,317.5466613769531,317.60333251953125,322.2633361816406,1463700.0,322.2633361816406
2017-07-20,324.88665771484375,320.9200134277344,323.010009765625,323.9100036621094,1992900.0,323.9100036621094
2017-07-21,322.65667724609375,308.5666809082031,321.6433410644531,309.15667724609375,3073800.0,309.15667724609375
2017-07-24,317.7966613769531,308.92999267578125,308.92999267578125,316.3900146484375,1505400.0,316.3900146484375
2017-07-25,317.88665771484375,313.7166748046875,317.24334716796875,314.97332763671875,1069800.0,314.97332763671875
2017-07-26,316.72332763671875,313.1499938964844,315.3599853515625,314.63665771484375,797400.0,314.63665771484375
2017-07-27,315.3333435058594,307.0,314.69000244140625,310.6166687011719,1316100.0,310.6166687011719
2017-07-28,314.3333435058594,309.0199890136719,310.1666564941406,313.73333740234375,1461000.0,313.73333740234375
2017-07-31,315.3299865722656,311.1333312988281,314.5033264160156,312.7533264160156,1140600.0,312.7533264160156
2017-08-01,315.0,311.3766784667969,312.989990234375,313.65667724609375,813600.0,313.65667724609375
2017-08-02,313.7866516113281,309.0,313.1333312988281,310.989990234375,909600.0,310.989990234375
2017-08-03,313.1166687011719,309.3566589355469,309.77667236328125,311.38665771484375,843000.0,311.38665771484375
2017-08-04,312.739990234375,307.8933410644531,312.739990234375,310.3566589355469,974700.0,310.3566589355469
2017-08-07,312.3800048828125,309.2066650390625,309.9033203125,312.2099914550781,908100.0,312.2099914550781
2017-08-08,312.6166687011719,309.8333435058594,311.04998779296875,311.4599914550781,683400.0,311.4599914550781
2017-08-09,315.25,310.3333435058594,311.4633483886719,314.48333740234375,793500.0,314.48333740234375
2017-08-10,314.36334228515625,309.2966613769531,313.1600036621094,309.7933349609375,762000.0,309.7933349609375
2017-08-11,314.6666564941406,310.09332275390625,310.09332275390625,314.0833435058594,724800.0,314.0833435058594
2017-08-14,322.4200134277344,317.0,317.0,321.5199890136719,979500.0,321.5199890136719
2017-08-15,330.14666748046875,321.6700134277344,322.40667724609375,328.4566650390625,1763700.0,328.4566650390625
2017-08-16,330.5133361816406,327.0033264160156,328.69000244140625,329.6333312988281,840300.0,329.6333312988281
2017-08-17,331.0,324.07000732421875,329.25,324.3666687011719,970500.0,324.3666687011719
2017-08-18,330.76666259765625,322.86334228515625,324.510009765625,328.10333251953125,1154400.0,328.10333251953125
2017-08-21,328.3333435058594,324.8033447265625,327.3500061035156,327.5666809082031,1155900.0,327.5666809082031
2017-08-22,332.6666564941406,327.5666809082031,327.6333312988281,332.20001220703125,951600.0,332.20001220703125
2017-08-23,331.2733459472656,327.73333740234375,331.2733459472656,328.8900146484375,616500.0,328.8900146484375
2017-08-24,330.5400085449219,327.73333740234375,328.9866638183594,330.1933288574219,693300.0,330.1933288574219
2017-08-25,330.989990234375,325.4466552734375,330.3500061035156,326.2099914550781,821100.0,326.2099914550781
2017-08-28,329.5566711425781,326.8566589355469,327.32666015625,328.6666564941406,553500.0,328.6666564941406
2017-08-29,329.6766662597656,325.6700134277344,327.23333740234375,329.1333312988281,822300.0,329.1333312988281
2017-08-30,332.163330078125,327.0,327.3699951171875,332.0133361816406,636600.0,332.0133361816406
2017-08-31,335.2200012207031,330.7933349609375,332.0033264160156,334.8900146484375,1382400.0,334.8900146484375
2017-09-01,336.2066650390625,332.4566650390625,333.9666748046875,335.5833435058594,536100.0,335.5833435058594
2017-09-05,342.02667236328125,335.6666564941406,335.9800109863281,340.4800109863281,1038600.0,340.4800109863281
2017-09-06,343.0,337.010009765625,341.25665283203125,340.7900085449219,660300.0,340.7900085449219
2017-09-07,345.95001220703125,340.7633361816406,340.79998779296875,345.489990234375,523200.0,345.489990234375
2017-09-08,351.5899963378906,341.6666564941406,344.2833251953125,347.5299987792969,939600.0,347.5299987792969
2017-09-11,351.3333435058594,345.3666687011719,347.7166748046875,348.49334716796875,1111200.0,348.49334716796875
2017-09-12,349.4100036621094,347.26666259765625,348.1933288574219,348.3333435058594,589800.0,348.3333435058594
2017-09-13,347.9633483886719,345.34332275390625,347.3900146484375,347.6266784667969,423600.0,347.6266784667969
2017-09-14,348.36334228515625,345.8500061035156,346.9200134277344,346.8333435058594,642900.0,346.8333435058594
2017-09-15,347.6666564941406,345.4166564941406,346.5133361816406,346.010009765625,1110000.0,346.010009765625
2017-09-18,349.6433410644531,345.5199890136719,347.0566711425781,348.7633361816406,738900.0,348.7633361816406
2017-09-19,351.0,346.8766784667969,347.6233215332031,348.489990234375,604200.0,348.489990234375
2017-09-20,350.6666564941406,346.6700134277344,348.4533386230469,348.7900085449219,487500.0,348.7900085449219
2017-09-21,349.60333251953125,343.25,349.38665771484375,343.4033203125,720000.0,343.4033203125
2017-09-22,344.2900085449219,340.73333740234375,343.5,343.8399963378906,493800.0,343.8399963378906
2017-09-25,344.9333190917969,337.85333251953125,344.9266662597656,339.11334228515625,685500.0,339.11334228515625
2017-09-26,342.23333740234375,337.7966613769531,340.6499938964844,338.8800048828125,523200.0,338.8800048828125
2017-09-27,341.9533386230469,339.510009765625,339.5833435058594,341.3599853515625,636300.0,341.3599853515625
2017-09-28,343.07000732421875,340.2133483886719,341.4466552734375,341.9599914550781,535800.0,341.9599914550781
2017-09-29,349.586669921875,342.0899963378906,342.7166748046875,348.6266784667969,683400.0,348.6266784667969
2017-10-02,354.8999938964844,349.19000244140625,349.70001220703125,353.49334716796875,855600.0,353.49334716796875
2017-10-03,358.6666564941406,354.22332763671875,354.8766784667969,357.9633483886719,1001100.0,357.9633483886719
2017-10-04,363.3299865722656,358.7266540527344,359.1966552734375,361.6333312988281,834600.0,361.6333312988281
2017-10-05,364.8500061035156,358.0,364.1433410644531,363.2266540527344,1176600.0,363.2266540527344
2017-10-06,367.5,360.20001220703125,362.0899963378906,361.4700012207031,890000.0,361.4700012207031
2017-10-09,363.5400085449219,353.8800048828125,363.5400085449219,354.6099853515625,861500.0,354.6099853515625
2017-10-10,357.44000244140625,352.79998779296875,356.9100036621094,354.989990234375,568300.0,354.989990234375
2017-10-11,360.5199890136719,356.1199951171875,357.2900085449219,360.2900085449219,537800.0,360.2900085449219
2017-10-12,364.92999267578125,361.2799987792969,363.8900146484375,362.5299987792969,842800.0,362.5299987792969
2017-10-13,365.7699890136719,361.70001220703125,363.0,362.2900085449219,714600.0,362.2900085449219
2017-10-16,361.67999267578125,352.9100036621094,358.2300109863281,353.54998779296875,1223100.0,353.54998779296875
2017-10-17,356.57000732421875,353.260009765625,356.010009765625,355.0,878700.0,355.0
2017-10-18,358.25,353.8900146484375,357.2699890136719,354.3699951171875,676800.0,354.3699951171875
2017-10-19,357.57000732421875,350.0,355.4200134277344,357.4599914550781,1061700.0,357.4599914550781
2017-10-20,374.8900146484375,356.9100036621094,357.4800109863281,369.5799865722656,2021000.0,369.5799865722656
2017-10-23,378.32000732421875,372.45001220703125,372.5,373.5199890136719,1340200.0,373.5199890136719
2017-10-24,373.3500061035156,369.3299865722656,372.6400146484375,371.489990234375,978600.0,371.489990234375
2017-10-25,373.7099914550781,368.4800109863281,371.6300048828125,372.4200134277344,706300.0,372.4200134277344
2017-10-26,382.1499938964844,371.6300048828125,373.5,372.3599853515625,1047200.0,372.3599853515625
2017-10-27,374.6400146484375,369.510009765625,373.9800109863281,373.7799987792969,762200.0,373.7799987792969
2017-10-30,376.57000732421875,370.4800109863281,373.989990234375,376.0899963378906,617000.0,376.0899963378906
2017-10-31,379.8900146484375,374.69000244140625,376.04998779296875,375.3599853515625,841600.0,375.3599853515625
2017-11-01,378.3900146484375,373.8699951171875,377.30999755859375,376.0400085449219,668800.0,376.0400085449219
2017-11-02,384.20001220703125,377.0,377.94000244140625,379.75,716400.0,379.75
2017-11-03,386.5899963378906,380.1499938964844,380.6499938964844,384.25,599000.0,384.25
2017-11-06,385.94000244140625,383.0,383.1400146484375,384.8299865722656,592900.0,384.8299865722656
2017-11-07,391.2300109863281,386.0,386.17999267578125,391.0400085449219,632300.0,391.0400085449219
2017-11-08,393.510009765625,387.1700134277344,391.0,392.3399963378906,490100.0,392.3399963378906
2017-11-09,392.3399963378906,388.8800048828125,391.55999755859375,390.0,791200.0,390.0
2017-11-10,391.1499938964844,386.1600036621094,389.80999755859375,389.1499938964844,686100.0,389.1499938964844
2017-11-13,392.7799987792969,386.32000732421875,388.8500061035156,392.1199951171875,845900.0,392.1199951171875
2017-11-14,393.2900085449219,389.2799987792969,391.0299987792969,390.9700012207031,576700.0,390.9700012207031
2017-11-15,392.8800048828125,387.0,390.25,389.69000244140625,578700.0,389.69000244140625
2017-11-16,394.8999938964844,390.5,390.6199951171875,393.79998779296875,653500.0,393.79998779296875
2017-11-17,400.0,390.5,394.75,392.4800109863281,617100.0,392.4800109863281
2017-11-20,394.2900085449219,390.2900085449219,392.4800109863281,393.0299987792969,697700.0,393.0299987792969
2017-11-21,398.95001220703125,395.0199890136719,396.2200012207031,398.489990234375,782900.0,398.489990234375
2017-11-22,398.489990234375,394.67999267578125,398.0,396.5899963378906,488100.0,396.5899963378906
2017-11-24,398.7699890136719,396.1700134277344,396.5899963378906,398.1499938964844,339000.0,398.1499938964844
2017-11-27,405.04998779296875,398.989990234375,399.0,403.70001220703125,780400.0,403.70001220703125
2017-11-28,404.4800109863281,400.2799987792969,404.4800109863281,402.2300109863281,850200.0,402.2300109863281
2017-11-29,404.5799865722656,391.0199890136719,402.3699951171875,394.29998779296875,1027000.0,394.29998779296875
2017-11-30,401.0,393.5199890136719,398.0,399.7799987792969,1854800.0,399.7799987792969
2017-12-01,402.0,388.25,398.6000061035156,396.6600036621094,1376400.0,396.6600036621094
2017-12-04,400.0,369.0899963378906,399.8299865722656,369.95001220703125,2158900.0,369.95001220703125
2017-12-05,377.54998779296875,365.6099853515625,369.69000244140625,369.5,1864300.0,369.5
2017-12-06,379.69000244140625,365.6000061035156,368.7900085449219,379.0400085449219,1051700.0,379.0400085449219
2017-12-07,384.9200134277344,378.70001220703125,381.7099914550781,383.7799987792969,765900.0,383.7799987792969
2017-12-08,389.3999938964844,378.5899963378906,386.6099853515625,379.6099853515625,788100.0,379.6099853515625
2017-12-11,379.70001220703125,371.5899963378906,378.3399963378906,373.54998779296875,1321500.0,373.54998779296875
2017-12-12,374.7699890136719,368.510009765625,373.54998779296875,370.489990234375,1280300.0,370.489990234375
2017-12-13,373.07000732421875,368.5299987792969,370.489990234375,371.0799865722656,1070000.0,371.0799865722656
2017-12-14,373.8699951171875,359.75,370.0,360.55999755859375,1202600.0,360.55999755859375
2017-12-15,373.3299865722656,361.2200012207031,364.1300048828125,369.8699951171875,1473100.0,369.8699951171875
2017-12-18,374.1700134277344,368.0400085449219,372.0799865722656,371.8999938964844,799000.0,371.8999938964844
2017-12-19,375.29998779296875,366.45001220703125,371.489990234375,367.3500061035156,732400.0,367.3500061035156
2017-12-20,369.5899963378906,363.80999755859375,367.1300048828125,367.2099914550781,487500.0,367.2099914550781
2017-12-21,368.5,361.07000732421875,368.0899963378906,361.3299865722656,751000.0,361.3299865722656
2017-12-22,364.5400085449219,359.7799987792969,361.0,363.1600036621094,807100.0,363.1600036621094
2017-12-26,368.8500061035156,360.0400085449219,361.8900146484375,365.8299865722656,442100.0,365.8299865722656
2017-12-27,369.1499938964844,365.1300048828125,366.0,368.0899963378906,407000.0,368.0899963378906
2017-12-28,369.7300109863281,366.70001220703125,368.1600036621094,368.8699951171875,380600.0,368.8699951171875
2017-12-29,369.57000732421875,364.7799987792969,368.57000732421875,364.94000244140625,528200.0,364.94000244140625
2018-01-02,375.80999755859375,365.1099853515625,367.8900146484375,375.25,827900.0,375.25
2018-01-03,384.1700134277344,375.010009765625,377.1199951171875,383.82000732421875,788500.0,383.82000732421875
2018-01-04,389.4800109863281,375.0899963378906,385.7300109863281,376.9200134277344,898800.0,376.9200134277344
2018-01-05,380.8800048828125,375.79998779296875,380.8800048828125,379.010009765625,699500.0,379.010009765625
2018-01-08,392.6400146484375,377.2099914550781,378.7200012207031,391.8599853515625,992500.0,391.8599853515625
2018-01-09,404.1199951171875,393.0,393.7300109863281,397.6000061035156,1401100.0,397.6000061035156
2018-01-10,426.9800109863281,408.45001220703125,423.510009765625,423.760009765625,2043600.0,423.760009765625
2018-01-11,423.95001220703125,416.2300109863281,422.0,421.3699951171875,1274800.0,421.3699951171875
2018-01-12,421.92999267578125,415.760009765625,419.1300048828125,419.0400085449219,932400.0,419.0400085449219
2018-01-16,426.67999267578125,417.0,422.0,420.07000732421875,1007300.0,420.07000732421875
2018-01-17,432.2300109863281,422.5199890136719,423.6000061035156,431.1000061035156,896500.0,431.1000061035156
2018-01-18,434.8999938964844,426.4200134277344,431.3800048828125,432.07000732421875,791400.0,432.07000732421875
2018-01-19,436.57000732421875,428.4800109863281,433.9599914550781,433.2300109863281,751500.0,433.2300109863281
2018-01-22,435.0,427.5,435.0,433.94000244140625,825600.0,433.94000244140625
2018-01-23,441.5199890136719,431.80999755859375,433.739990234375,439.54998779296875,566400.0,439.54998779296875
2018-01-24,442.2099914550781,432.2699890136719,441.739990234375,437.4800109863281,1008200.0,437.4800109863281
2018-01-25,452.0,440.010009765625,441.82000732421875,449.80999755859375,1312400.0,449.80999755859375
2018-01-26,440.25,417.0,437.8699951171875,440.239990234375,1819900.0,440.239990234375
2018-01-29,445.8999938964844,433.010009765625,441.7699890136719,436.3399963378906,876600.0,436.3399963378906
2018-01-30,433.94000244140625,423.5899963378906,433.20001220703125,427.8399963378906,1072900.0,427.8399963378906
2018-01-31,436.3299865722656,427.32000732421875,430.0,431.6700134277344,825900.0,431.6700134277344
2018-02-01,433.1300048828125,423.3599853515625,432.6099853515625,425.9200134277344,706500.0,425.9200134277344
2018-02-02,426.20001220703125,416.2699890136719,423.010009765625,416.9599914550781,939600.0,416.9599914550781
2018-02-05,417.0,399.010009765625,415.6700134277344,399.010009765625,1255300.0,399.010009765625
2018-02-06,412.57000732421875,385.510009765625,390.67999267578125,408.3299865722656,1571900.0,408.3299865722656
2018-02-07,410.8800048828125,396.3399963378906,407.1199951171875,399.5299987792969,770600.0,399.5299987792969
2018-02-08,400.6499938964844,381.6000061035156,400.4800109863281,381.8699951171875,1293400.0,381.8699951171875
2018-02-09,396.8299865722656,380.0,386.92999267578125,392.9100036621094,1301200.0,392.9100036621094
2018-02-12,401.8800048828125,391.6099853515625,395.5,398.510009765625,845200.0,398.510009765625
2018-02-13,402.8999938964844,394.0,396.6600036621094,402.0,478700.0,402.0
2018-02-14,411.2099914550781,397.510009765625,397.510009765625,409.8900146484375,507600.0,409.8900146484375
2018-02-15,418.80999755859375,410.0,413.0,418.55999755859375,521400.0,418.55999755859375
2018-02-16,421.1300048828125,414.4599914550781,418.55999755859375,415.9800109863281,549700.0,415.9800109863281
2018-02-20,427.3800048828125,415.4599914550781,415.510009765625,421.760009765625,894200.0,421.760009765625
2018-02-21,426.80999755859375,416.29998779296875,421.2900085449219,416.55999755859375,592400.0,416.55999755859375
2018-02-22,425.95001220703125,418.3900146484375,419.7200012207031,419.7900085449219,577800.0,419.7900085449219
2018-02-23,427.75,418.9700012207031,421.30999755859375,427.510009765625,472300.0,427.510009765625
2018-02-26,432.94000244140625,426.05999755859375,430.0,432.0,460200.0,432.0
2018-02-27,435.3999938964844,429.4100036621094,433.0,430.9800109863281,649800.0,430.9800109863281
2018-02-28,436.2099914550781,426.2099914550781,431.4599914550781,426.45001220703125,613200.0,426.45001220703125
2018-03-01,428.8500061035156,409.8900146484375,428.44000244140625,412.1300048828125,925000.0,412.1300048828125
2018-03-02,418.3500061035156,406.1700134277344,409.57000732421875,417.3900146484375,546000.0,417.3900146484375
2018-03-05,426.1099853515625,412.3599853515625,413.2200012207031,424.25,579300.0,424.25
2018-03-06,432.1099853515625,423.4599914550781,426.010009765625,426.5,584600.0,426.5
2018-03-07,432.1600036621094,421.3699951171875,422.70001220703125,430.4599914550781,772800.0,430.4599914550781
2018-03-08,433.3299865722656,428.9700012207031,430.8800048828125,432.3599853515625,443800.0,432.3599853515625
2018-03-09,444.9599914550781,434.0,434.0,440.4599914550781,785100.0,440.4599914550781
2018-03-12,445.1000061035156,438.0299987792969,440.5299987792969,438.95001220703125,744600.0,438.95001220703125
2018-03-13,444.70001220703125,437.9599914550781,441.6199951171875,440.2200012207031,565600.0,440.2200012207031
2018-03-14,444.8999938964844,439.1000061035156,442.3800048828125,440.7699890136719,627600.0,440.7699890136719
2018-03-15,444.1600036621094,437.04998779296875,440.0,441.95001220703125,485000.0,441.95001220703125
2018-03-16,444.5,433.80999755859375,443.3699951171875,435.8599853515625,960400.0,435.8599853515625
2018-03-19,436.1000061035156,421.5899963378906,433.2799987792969,426.8599853515625,638900.0,426.8599853515625
2018-03-20,433.1400146484375,427.05999755859375,428.739990234375,430.19000244140625,601500.0,430.19000244140625
2018-03-21,431.70001220703125,422.5299987792969,430.4100036621094,424.989990234375,492600.0,424.989990234375
2018-03-22,424.1300048828125,413.6199951171875,420.95001220703125,413.8999938964844,667900.0,413.8999938964844
2018-03-23,416.9800109863281,398.80999755859375,414.510009765625,399.1499938964844,1012600.0,399.1499938964844
2018-03-26,415.4700012207031,403.75,407.7799987792969,415.1199951171875,1138600.0,415.1199951171875
2018-03-27,418.8299865722656,402.0799865722656,416.30999755859375,405.2200012207031,656600.0,405.2200012207031
2018-03-28,408.6199951171875,397.2099914550781,406.3900146484375,402.3900146484375,728500.0,402.3900146484375
2018-03-29,421.9200134277344,401.3299865722656,403.6700134277344,412.8299865722656,960200.0,412.8299865722656
2018-04-02,414.8699951171875,394.3699951171875,412.260009765625,400.8900146484375,756000.0,400.8900146484375
2018-04-03,405.739990234375,396.6099853515625,402.739990234375,403.4700012207031,621600.0,403.4700012207031
2018-04-04,404.2099914550781,393.57000732421875,398.0,401.9200134277344,1627600.0,401.9200134277344
2018-04-05,410.1000061035156,403.4800109863281,406.3900146484375,406.1199951171875,1004100.0,406.1199951171875
2018-04-06,406.79998779296875,394.0,403.5199890136719,396.54998779296875,627600.0,396.54998779296875
2018-04-09,413.45001220703125,400.05999755859375,400.8900146484375,405.6499938964844,543000.0,405.6499938964844
2018-04-10,421.30999755859375,410.010009765625,411.6099853515625,418.70001220703125,758100.0,418.70001220703125
2018-04-11,416.92999267578125,410.7699890136719,414.8299865722656,412.1199951171875,495200.0,412.1199951171875
2018-04-12,418.4200134277344,412.8599853515625,414.07000732421875,415.04998779296875,758200.0,415.04998779296875
2018-04-13,420.6600036621094,411.80999755859375,418.0,414.6300048828125,470100.0,414.6300048828125
2018-04-16,422.9200134277344,417.67999267578125,419.70001220703125,418.3800048828125,606600.0,418.3800048828125
2018-04-17,436.70001220703125,420.010009765625,423.4200134277344,435.45001220703125,1257300.0,435.45001220703125
2018-04-18,473.7900085449219,448.9100036621094,453.75,471.0299987792969,3474500.0,471.0299987792969
2018-04-19,468.0,458.17999267578125,467.010009765625,462.7099914550781,1714800.0,462.7099914550781
2018-04-20,460.19000244140625,453.6000061035156,459.8599853515625,456.2699890136719,1320500.0,456.2699890136719
2018-04-23,459.0,446.010009765625,457.0,447.8399963378906,919400.0,447.8399963378906
2018-04-24,451.4599914550781,430.0,448.8399963378906,436.4700012207031,1134700.0,436.4700012207031
2018-04-25,439.79998779296875,429.0400085449219,436.0,437.9599914550781,768800.0,437.9599914550781
2018-04-26,448.5299987792969,437.1099853515625,439.6600036621094,446.19000244140625,731500.0,446.19000244140625
2018-04-27,451.4200134277344,442.9599914550781,449.8399963378906,447.0299987792969,546200.0,447.0299987792969
2018-04-30,450.6700134277344,440.69000244140625,448.6099853515625,440.7799987792969,666400.0,440.7799987792969
2018-05-01,448.05999755859375,440.010009765625,440.010009765625,447.54998779296875,607100.0,447.54998779296875
2018-05-02,453.42999267578125,445.25,447.2300109863281,449.010009765625,810200.0,449.010009765625
2018-05-03,450.8500061035156,438.07000732421875,446.0,448.239990234375,812300.0,448.239990234375
2018-05-04,461.32000732421875,443.0199890136719,447.04998779296875,460.4200134277344,751400.0,460.4200134277344
2018-05-07,468.3800048828125,460.5899963378906,461.0,465.3999938964844,719300.0,465.3999938964844
2018-05-08,464.0400085449219,459.5299987792969,463.0,462.6000061035156,810100.0,462.6000061035156
2018-05-09,465.8699951171875,459.239990234375,463.7900085449219,462.2699890136719,686100.0,462.2699890136719
2018-05-10,468.6400146484375,462.7200012207031,464.010009765625,468.3999938964844,509200.0,468.3999938964844
2018-05-11,472.7799987792969,464.25,468.0899963378906,468.3500061035156,615400.0,468.3500061035156
2018-05-14,471.75,463.989990234375,469.55999755859375,466.19000244140625,674900.0,466.19000244140625
2018-05-15,463.9200134277344,453.1099853515625,461.6000061035156,456.8299865722656,782900.0,456.8299865722656
2018-05-16,465.4200134277344,454.67999267578125,457.989990234375,461.0400085449219,513900.0,461.0400085449219
2018-05-17,462.7699890136719,455.7699890136719,461.0299987792969,457.9200134277344,654600.0,457.9200134277344
2018-05-18,459.55999755859375,453.7799987792969,458.7799987792969,458.7900085449219,599100.0,458.7900085449219
2018-05-21,467.3999938964844,459.6600036621094,462.1000061035156,463.3800048828125,553000.0,463.3800048828125
2018-05-22,464.8500061035156,453.7900085449219,464.0,454.6099853515625,712400.0,454.6099853515625
2018-05-23,459.2200012207031,450.0,450.0,458.7099914550781,546500.0,458.7099914550781
2018-05-24,461.25,454.25,459.2200012207031,457.7900085449219,472000.0,457.7900085449219
2018-05-25,461.05999755859375,452.75,459.3599853515625,456.55999755859375,651700.0,456.55999755859375
2018-05-29,455.1000061035156,449.6400146484375,453.2900085449219,454.6300048828125,871200.0,454.6300048828125
2018-05-30,465.55999755859375,455.17999267578125,456.20001220703125,459.6600036621094,1081000.0,459.6600036621094
2018-05-31,466.45001220703125,458.55999755859375,460.0,459.6700134277344,2046900.0,459.6700134277344
2018-06-01,480.0,459.42999267578125,461.80999755859375,479.25,1219600.0,479.25
2018-06-04,484.1199951171875,472.5799865722656,480.0,477.92999267578125,1011600.0,477.92999267578125
2018-06-05,493.4100036621094,476.19000244140625,478.0,492.3699951171875,1759200.0,492.3699951171875
2018-06-06,494.07000732421875,484.3800048828125,493.0,493.3800048828125,973300.0,493.3800048828125
2018-06-07,493.0,476.2300109863281,493.0,485.3399963378906,880600.0,485.3399963378906
2018-06-08,488.3999938964844,480.4100036621094,485.0,484.6000061035156,611400.0,484.6000061035156
2018-06-11,494.3500061035156,483.8999938964844,484.6000061035156,490.7099914550781,781200.0,490.7099914550781
2018-06-12,496.2300109863281,488.6300048828125,491.69000244140625,494.9200134277344,711000.0,494.9200134277344
2018-06-13,496.9200134277344,487.5,495.0,490.4700012207031,766500.0,490.4700012207031
2018-06-14,496.6099853515625,492.3699951171875,492.3699951171875,495.5199890136719,1058900.0,495.5199890136719
2018-06-15,496.0,489.6400146484375,494.489990234375,490.489990234375,1096900.0,490.489990234375
2018-06-18,491.989990234375,485.3500061035156,488.7200012207031,490.6700134277344,683400.0,490.6700134277344
2018-06-19,488.80999755859375,483.1600036621094,486.8699951171875,488.6000061035156,611200.0,488.6000061035156
2018-06-20,494.0,486.489990234375,491.0,487.45001220703125,400100.0,487.45001220703125
2018-06-21,491.5199890136719,483.0,488.75,487.0799865722656,565700.0,487.0799865722656
2018-06-22,489.5899963378906,482.1600036621094,488.7200012207031,483.2099914550781,570000.0,483.2099914550781
2018-06-25,482.6600036621094,467.9800109863281,480.3500061035156,473.4800109863281,884500.0,473.4800109863281
2018-06-26,485.8699951171875,473.57000732421875,473.57000732421875,482.7799987792969,619200.0,482.7799987792969
2018-06-27,490.9800109863281,476.1099853515625,488.0,476.3900146484375,627000.0,476.3900146484375
2018-06-28,485.3500061035156,472.1700134277344,476.3999938964844,483.7099914550781,489900.0,483.7099914550781
2018-06-29,485.5299987792969,478.260009765625,484.010009765625,478.4800109863281,639800.0,478.4800109863281
2018-07-02,488.55999755859375,471.79998779296875,476.4800109863281,488.1000061035156,617600.0,488.1000061035156
2018-07-03,490.3399963378906,481.989990234375,490.3399963378906,485.5799865722656,383100.0,485.5799865722656
2018-07-05,491.739990234375,483.94000244140625,489.2200012207031,487.3900146484375,716700.0,487.3900146484375
2018-07-06,498.05999755859375,486.3500061035156,488.9800109863281,495.4599914550781,600700.0,495.4599914550781
2018-07-09,501.6499938964844,492.44000244140625,498.7300109863281,499.4200134277344,751400.0,499.4200134277344
2018-07-10,502.8699951171875,495.3699951171875,500.0,502.1099853515625,898200.0,502.1099853515625
2018-07-11,506.9200134277344,500.2900085449219,501.489990234375,504.2200012207031,881700.0,504.2200012207031
2018-07-12,525.1199951171875,506.7799987792969,506.79998779296875,525.0,1452700.0,525.0
2018-07-13,532.2999877929688,522.4000244140625,523.52001953125,524.3400268554688,1074400.0,524.3400268554688
2018-07-16,524.3300170898438,512.4199829101562,524.3300170898438,518.0599975585938,798700.0,518.0599975585938
2018-07-17,524.8599853515625,515.0,516.469970703125,523.780029296875,792000.0,523.780029296875
2018-07-18,528.4400024414062,518.8400268554688,525.0,527.9099731445312,632000.0,527.9099731445312
2018-07-19,527.8699951171875,520.2999877929688,524.97998046875,521.2899780273438,1022300.0,521.2899780273438
2018-07-20,538.97998046875,516.3499755859375,536.1500244140625,516.780029296875,2252900.0,516.780029296875
2018-07-23,520.530029296875,513.2999877929688,516.780029296875,519.8699951171875,953200.0,519.8699951171875
2018-07-24,527.6400146484375,517.7100219726562,521.6500244140625,523.219970703125,929600.0,523.219970703125
2018-07-25,539.2999877929688,524.7999877929688,524.7999877929688,537.969970703125,865500.0,537.969970703125
2018-07-26,537.0499877929688,518.0,537.0,526.9600219726562,772200.0,526.9600219726562
2018-07-27,530.0399780273438,511.4700012207031,530.0,519.2100219726562,739500.0,519.2100219726562
2018-07-30,518.7100219726562,498.6600036621094,518.7100219726562,503.0,999000.0,503.0
2018-07-31,512.0,501.6000061035156,504.70001220703125,508.19000244140625,669200.0,508.19000244140625
2018-08-01,518.280029296875,509.9200134277344,510.42999267578125,516.2899780273438,739400.0,516.2899780273438
2018-08-02,525.0,510.0,511.1000061035156,521.9000244140625,572000.0,521.9000244140625
2018-08-03,524.1699829101562,515.7100219726562,523.8499755859375,522.5999755859375,531100.0,522.5999755859375
2018-08-06,523.8300170898438,517.72998046875,522.4000244140625,520.7999877929688,450200.0,520.7999877929688
2018-08-07,523.0,515.1799926757812,519.97998046875,517.9000244140625,460400.0,517.9000244140625
2018-08-08,521.7100219726562,516.6199951171875,518.7999877929688,519.280029296875,351900.0,519.280029296875
2018-08-09,528.75,520.5700073242188,520.5700073242188,522.6900024414062,369200.0,522.6900024414062
2018-08-10,527.8599853515625,518.9600219726562,521.1599731445312,521.02001953125,386100.0,521.02001953125
2018-08-13,529.75,520.219970703125,522.6099853515625,520.3599853515625,396800.0,520.3599853515625
2018-08-14,530.3099975585938,522.239990234375,522.239990234375,529.0,523400.0,529.0
2018-08-15,529.6699829101562,518.1500244140625,525.0,522.77001953125,523200.0,522.77001953125
2018-08-16,528.0599975585938,520.760009765625,526.219970703125,523.9000244140625,384600.0,523.9000244140625
2018-08-17,527.3300170898438,516.1699829101562,523.0,524.9199829101562,551600.0,524.9199829101562
2018-08-20,528.52001953125,518.8200073242188,527.0399780273438,525.3599853515625,383900.0,525.3599853515625
2018-08-21,534.8300170898438,526.0,526.0,529.0499877929688,444500.0,529.0499877929688
2018-08-22,535.47998046875,527.5800170898438,529.0,535.0,348000.0,535.0
2018-08-23,541.8800048828125,534.4500122070312,535.5,537.2100219726562,427500.0,537.2100219726562
2018-08-24,542.1300048828125,538.1300048828125,539.0,541.52001953125,400200.0,541.52001953125
2018-08-27,545.5999755859375,541.0,543.6599731445312,545.219970703125,390200.0,545.219970703125
2018-08-28,550.2100219726562,540.760009765625,546.25,544.9099731445312,366100.0,544.9099731445312
2018-08-29,555.2999877929688,546.010009765625,546.5999755859375,554.010009765625,408700.0,554.010009765625
2018-08-30,558.4600219726562,549.010009765625,551.9099731445312,555.1699829101562,605300.0,555.1699829101562
2018-08-31,560.3900146484375,553.5,554.8499755859375,560.0,690100.0,560.0
2018-09-04,560.489990234375,552.3499755859375,559.0,556.030029296875,573700.0,556.030029296875
2018-09-05,557.1099853515625,533.9600219726562,556.780029296875,536.719970703125,905000.0,536.719970703125
2018-09-06,548.239990234375,534.2899780273438,538.6400146484375,541.8599853515625,652700.0,541.8599853515625
2018-09-07,545.2999877929688,536.9000244140625,541.4199829101562,537.9600219726562,455700.0,537.9600219726562
2018-09-10,545.25,539.0,540.3200073242188,541.8800048828125,404200.0,541.8800048828125
2018-09-11,550.6900024414062,541.3900146484375,541.9500122070312,546.4000244140625,397800.0,546.4000244140625
2018-09-12,550.77001953125,540.9000244140625,549.4299926757812,549.5599975585938,343600.0,549.5599975585938
2018-09-13,558.969970703125,548.72998046875,553.3599853515625,558.8200073242188,453700.0,558.8200073242188
2018-09-14,572.9600219726562,559.7000122070312,560.0,568.3599853515625,851600.0,568.3599853515625
2018-09-17,566.9500122070312,555.3200073242188,566.9500122070312,558.6500244140625,546300.0,558.6500244140625
2018-09-18,567.5,558.510009765625,558.5999755859375,564.8200073242188,489800.0,564.8200073242188
2018-09-19,562.5599975585938,552.6300048828125,561.6500244140625,556.469970703125,505300.0,556.469970703125
2018-09-20,561.969970703125,556.8300170898438,559.6400146484375,561.1799926757812,451300.0,561.1799926757812
2018-09-21,564.8699951171875,556.469970703125,562.27001953125,556.77001953125,1071800.0,556.77001953125
2018-09-24,569.6900024414062,553.0800170898438,556.3599853515625,569.27001953125,413900.0,569.27001953125
2018-09-25,575.4099731445312,566.27001953125,569.27001953125,574.1900024414062,519000.0,574.1900024414062
2018-09-26,575.280029296875,565.469970703125,574.0,569.5399780273438,582200.0,569.5399780273438
2018-09-27,572.219970703125,568.0,570.0,569.6900024414062,537300.0,569.6900024414062
2018-09-28,574.4400024414062,569.1900024414062,570.0,574.0,687800.0,574.0
2018-10-01,581.1199951171875,571.969970703125,575.1500244140625,574.739990234375,743900.0,574.739990234375
2018-10-02,575.6500244140625,565.280029296875,574.4000244140625,571.47998046875,784300.0,571.47998046875
2018-10-03,574.1500244140625,561.0599975585938,572.8699951171875,561.469970703125,505500.0,561.469970703125
2018-10-04,562.2100219726562,551.0,561.469970703125,554.4400024414062,769200.0,554.4400024414062
2018-10-05,559.6799926757812,540.3300170898438,554.030029296875,548.7100219726562,794700.0,548.7100219726562
2018-10-08,548.0,513.1599731445312,546.4299926757812,526.469970703125,1358100.0,526.469970703125
2018-10-09,537.989990234375,523.7100219726562,527.6799926757812,531.2100219726562,1009300.0,531.2100219726562
2018-10-10,537.5,511.2799987792969,534.989990234375,512.2100219726562,1223700.0,512.2100219726562
2018-10-11,520.260009765625,500.0,509.5,508.2200012207031,1307700.0,508.2200012207031
2018-10-12,537.4400024414062,521.2000122070312,522.010009765625,532.02001953125,1033100.0,532.02001953125
2018-10-15,529.0700073242188,517.4400024414062,529.0700073242188,519.2899780273438,739300.0,519.2899780273438
2018-10-16,544.3800048828125,525.510009765625,525.510009765625,542.9099731445312,728000.0,542.9099731445312
2018-10-17,548.1099853515625,538.4000244140625,544.030029296875,542.9099731445312,796100.0,542.9099731445312
2018-10-18,545.8699951171875,520.010009765625,544.72998046875,522.2899780273438,1502700.0,522.2899780273438
2018-10-19,539.97998046875,502.3800048828125,538.8599853515625,504.260009765625,2144600.0,504.260009765625
2018-10-22,513.5800170898438,502.2099914550781,504.6499938964844,511.4100036621094,872700.0,511.4100036621094
2018-10-23,509.04998779296875,485.45001220703125,498.9200134277344,506.92999267578125,1377400.0,506.92999267578125
2018-10-24,509.7099914550781,482.1600036621094,505.75,483.1099853515625,963200.0,483.1099853515625
2018-10-25,498.29998779296875,482.760009765625,489.2900085449219,492.9200134277344,1144000.0,492.9200134277344
2018-10-26,494.04998779296875,475.44000244140625,482.0,486.8900146484375,1135700.0,486.8900146484375
2018-10-29,498.0,467.07000732421875,495.3800048828125,477.8599853515625,904600.0,477.8599853515625
2018-10-30,491.7099914550781,472.4700012207031,477.0400085449219,490.82000732421875,1131500.0,490.82000732421875
2018-10-31,526.3300170898438,508.0,513.8599853515625,521.1799926757812,1615200.0,521.1799926757812
2018-11-01,523.5,504.6600036621094,522.8300170898438,518.6099853515625,1032500.0,518.6099853515625
2018-11-02,529.0,510.5899963378906,520.0,516.219970703125,658700.0,516.219970703125
2018-11-05,519.989990234375,502.8800048828125,516.8200073242188,507.3999938964844,792500.0,507.3999938964844
2018-11-06,520.489990234375,506.010009765625,506.6499938964844,519.6900024414062,765800.0,519.6900024414062
2018-11-07,546.0599975585938,523.2999877929688,523.3699951171875,545.6799926757812,1295300.0,545.6799926757812
2018-11-08,544.989990234375,536.3099975585938,542.3499755859375,540.02001953125,535800.0,540.02001953125
2018-11-09,535.6400146484375,525.0,534.6699829101562,532.5599975585938,636600.0,532.5599975585938
2018-11-12,532.97998046875,503.510009765625,531.2999877929688,504.0,835300.0,504.0
2018-11-13,517.0,500.0400085449219,506.5,503.44000244140625,594600.0,503.44000244140625
2018-11-14,510.0199890136719,493.2799987792969,508.0,498.6400146484375,607500.0,498.6400146484375
2018-11-15,514.4000244140625,485.4800109863281,497.1000061035156,513.6400146484375,772500.0,513.6400146484375
2018-11-16,524.0499877929688,507.1099853515625,508.0400085449219,518.5399780273438,797000.0,518.5399780273438
2018-11-19,519.4600219726562,480.0199890136719,517.47998046875,482.6700134277344,1114600.0,482.6700134277344
2018-11-20,492.8699951171875,462.010009765625,470.0,485.239990234375,1044700.0,485.239990234375
2018-11-21,498.8599853515625,485.510009765625,492.25,491.6199951171875,598900.0,491.6199951171875
2018-11-23,493.3999938964844,487.6400146484375,488.2099914550781,489.57000732421875,246600.0,489.57000732421875
2018-11-26,503.8500061035156,489.0,495.94000244140625,503.2799987792969,640500.0,503.2799987792969
2018-11-27,500.0799865722656,493.04998779296875,498.260009765625,496.8599853515625,581000.0,496.8599853515625
2018-11-28,522.27001953125,499.0400085449219,499.3999938964844,521.9000244140625,957000.0,521.9000244140625
2018-11-29,521.9099731445312,510.8900146484375,515.8900146484375,520.969970703125,538600.0,520.969970703125
2018-11-30,534.0,517.3900146484375,520.969970703125,530.8699951171875,988100.0,530.8699951171875
2018-12-03,548.97998046875,535.8800048828125,541.8599853515625,548.9299926757812,1088000.0,548.9299926757812
2018-12-04,547.3499755859375,516.4299926757812,542.1900024414062,518.8200073242188,977600.0,518.8200073242188
2018-12-06,519.0999755859375,496.7900085449219,505.3500061035156,519.0900268554688,1007400.0,519.0900268554688
2018-12-07,515.8300170898438,488.1300048828125,513.6599731445312,491.69000244140625,923900.0,491.69000244140625
2018-12-10,500.82000732421875,482.25,491.19000244140625,498.1099853515625,739200.0,498.1099853515625
2018-12-11,512.5399780273438,498.7300109863281,506.54998779296875,508.05999755859375,686700.0,508.05999755859375
2018-12-12,526.1500244140625,514.1599731445312,515.97998046875,515.6300048828125,809700.0,515.6300048828125
2018-12-13,525.4000244140625,508.05999755859375,522.3699951171875,512.25,619300.0,512.25
2018-12-14,507.92999267578125,491.3800048828125,505.6099853515625,491.80999755859375,755000.0,491.80999755859375
2018-12-17,492.0400085449219,474.6199951171875,490.489990234375,481.75,982000.0,481.75
2018-12-18,488.0400085449219,477.25,486.32000732421875,482.3599853515625,711800.0,482.3599853515625
2018-12-19,493.3900146484375,465.8399963378906,483.3399963378906,471.9200134277344,749500.0,471.9200134277344
2018-12-20,472.6499938964844,452.0799865722656,468.0,459.8800048828125,1173300.0,459.8800048828125
2018-12-21,465.0,445.3800048828125,460.8699951171875,446.0199890136719,1829300.0,446.0199890136719
2018-12-24,443.57000732421875,430.239990234375,441.510009765625,434.8900146484375,680600.0,434.8900146484375
2018-12-26,462.4800109863281,435.0,435.8399963378906,461.9800109863281,884200.0,461.9800109863281
2018-12-27,468.989990234375,449.1700134277344,454.6600036621094,468.70001220703125,751200.0,468.70001220703125
2018-12-28,479.07000732421875,465.5400085449219,472.1199951171875,471.20001220703125,706900.0,471.20001220703125
2018-12-31,483.260009765625,473.3599853515625,477.1400146484375,478.9200134277344,623400.0,478.9200134277344
