Date,High,Low,Open,Close,Volume,Adj Close
2016-01-04,78.20999908447266,76.83000183105469,77.7699966430664,77.7300033569336,2639100.0,73.5584487915039
2016-01-05,78.55000305175781,77.05000305175781,78.16000366210938,78.1500015258789,1911800.0,73.95591735839844
2016-01-06,77.0999984741211,72.5199966430664,76.5,73.55999755859375,4604700.0,69.61224365234375
2016-01-07,73.5199966430664,71.45999908447266,72.0999984741211,71.70999908447266,3449900.0,67.86151885986328
2016-01-08,72.55999755859375,69.43000030517578,72.37999725341797,70.4800033569336,4736000.0,66.69754791259766
2016-01-11,71.37000274658203,69.66999816894531,71.12999725341797,70.94999694824219,2984300.0,67.14231872558594
2016-01-12,72.94999694824219,70.31999969482422,72.5199966430664,71.44000244140625,2509500.0,67.60602569580078
2016-01-13,72.30000305175781,68.80999755859375,71.61000061035156,69.08000183105469,3126900.0,65.3726806640625
2016-01-14,72.83999633789062,68.87999725341797,69.77999877929688,71.94999694824219,4609000.0,68.08866119384766
2016-01-15,69.25,66.13999938964844,69.25,67.95999908447266,6103700.0,64.31277465820312
2016-01-19,69.69999694824219,66.95999908447266,69.06999969482422,67.45999908447266,2911900.0,63.83961486816406
2016-01-20,70.36000061035156,67.0199966430664,67.41000366210938,69.56999969482422,4448200.0,65.83636474609375
2016-01-21,70.04000091552734,67.58000183105469,69.94999694824219,68.12000274658203,3935700.0,64.46417999267578
2016-01-22,70.45999908447266,68.16999816894531,69.55000305175781,68.72000122070312,2286000.0,65.03199768066406
2016-01-25,69.16999816894531,67.83000183105469,69.16999816894531,68.0,2588600.0,64.35063934326172
2016-01-26,68.91999816894531,67.44999694824219,68.05999755859375,68.73999786376953,1793800.0,65.05091094970703
2016-01-27,69.19000244140625,67.23999786376953,68.80000305175781,67.5,2358700.0,63.877479553222656
2016-01-28,71.0,68.13999938964844,68.51000213623047,69.44999694824219,4235200.0,65.72281646728516
2016-01-29,72.44999694824219,70.02999877929688,70.02999877929688,71.79000091552734,3917100.0,67.9372329711914
2016-02-01,73.30999755859375,71.05999755859375,71.19999694824219,72.62000274658203,2722100.0,68.72270202636719
2016-02-02,72.23999786376953,70.12000274658203,71.5999984741211,70.55000305175781,3460200.0,66.7637939453125
2016-02-03,71.80000305175781,69.33000183105469,71.33000183105469,71.41000366210938,3320100.0,67.57763671875
2016-02-04,72.06999969482422,70.55999755859375,71.36000061035156,71.47000122070312,2199700.0,67.63440704345703
2016-02-05,71.18000030517578,68.04000091552734,70.86000061035156,68.97000122070312,2978200.0,65.26858520507812
2016-02-08,68.36000061035156,65.0,67.98999786376953,66.08000183105469,2505500.0,62.5336799621582
2016-02-09,66.4000015258789,64.19000244140625,65.08000183105469,65.58000183105469,2947800.0,62.060508728027344
2016-02-10,66.68000030517578,65.0999984741211,66.0,65.4800033569336,3311100.0,61.96587371826172
2016-02-11,65.3499984741211,63.099998474121094,64.41999816894531,64.20999908447266,3975300.0,60.76403045654297
2016-02-12,66.62000274658203,64.25,64.91000366210938,66.05000305175781,2049100.0,62.50529479980469
2016-02-16,68.47000122070312,66.66000366210938,66.80999755859375,67.58000183105469,2805500.0,63.953182220458984
2016-02-17,69.31999969482422,67.79000091552734,68.12000274658203,69.25,3234700.0,65.53355407714844
2016-02-18,69.55999755859375,67.7300033569336,69.55999755859375,67.7699966430664,2609200.0,64.13296508789062
2016-02-19,71.43000030517578,69.37999725341797,69.5199966430664,69.7699966430664,4112500.0,66.02565002441406
2016-02-22,71.45999908447266,69.48999786376953,70.19000244140625,70.33999633789062,3659000.0,66.56505584716797
2016-02-23,70.3499984741211,68.94999694824219,69.72000122070312,69.2300033569336,1952800.0,65.5146255493164
2016-02-24,70.52999877929688,68.19000244140625,68.76000213623047,70.4800033569336,1988000.0,66.69754791259766
2016-02-25,72.45999908447266,70.13999938964844,70.5199966430664,72.43000030517578,2933700.0,68.54289245605469
2016-02-26,74.16000366210938,72.48999786376953,72.86000061035156,73.80999755859375,2989900.0,69.84882354736328
2016-02-29,74.62000274658203,73.08999633789062,73.38999938964844,73.30000305175781,2550100.0,69.36620330810547
2016-03-01,75.94000244140625,73.08000183105469,73.5,75.56999969482422,2937600.0,71.51437377929688
2016-03-02,75.9000015258789,73.83000183105469,75.33999633789062,74.55000305175781,2421000.0,70.54911804199219
2016-03-03,75.0,73.9000015258789,74.55000305175781,74.87000274658203,1401500.0,70.85194396972656
2016-03-04,75.25,73.81999969482422,75.22000122070312,74.33000183105469,1624200.0,70.34093475341797
2016-03-07,75.08000183105469,73.58999633789062,73.7699966430664,75.04000091552734,2236200.0,71.30059051513672
2016-03-08,75.08999633789062,73.2699966430664,74.73999786376953,73.33999633789062,3281900.0,69.68528747558594
2016-03-09,74.4000015258789,73.05999755859375,73.55000305175781,73.80999755859375,1643100.0,70.13188171386719
2016-03-10,75.95999908447266,73.83000183105469,74.12999725341797,75.2300033569336,2965200.0,71.48111724853516
2016-03-11,76.5,75.22000122070312,75.69000244140625,76.16999816894531,2139200.0,72.37428283691406
2016-03-14,77.0,75.55999755859375,75.66000366210938,76.91999816894531,1562300.0,73.08692169189453
2016-03-15,77.4800033569336,76.52999877929688,77.05999755859375,77.16000366210938,2347300.0,73.31494140625
2016-03-16,77.86000061035156,76.5,77.0999984741211,77.80999755859375,2351600.0,73.93254852294922
2016-03-17,79.5,77.4800033569336,78.56999969482422,79.26000213623047,2661800.0,75.31029510498047
2016-03-18,80.01000213623047,78.83000183105469,79.56999969482422,79.41999816894531,2673400.0,75.46233367919922
2016-03-21,79.80000305175781,78.94999694824219,79.19000244140625,79.76000213623047,1553700.0,75.78538513183594
2016-03-22,80.43000030517578,79.11000061035156,80.05000305175781,80.18000030517578,1495500.0,76.18445587158203
2016-03-23,80.01000213623047,79.31999969482422,79.8499984741211,79.36000061035156,2011100.0,75.40530395507812
2016-03-24,78.9000015258789,77.48999786376953,78.73999786376953,78.87999725341797,2156600.0,74.9492416381836
2016-03-28,79.58999633789062,78.88999938964844,79.47000122070312,79.12999725341797,1573100.0,75.18677520751953
2016-03-29,82.05000305175781,78.75,79.12999725341797,81.94000244140625,3298200.0,77.85675048828125
2016-03-30,83.51000213623047,81.86000061035156,82.55999755859375,82.19000244140625,2658800.0,78.09429168701172
2016-03-31,83.05999755859375,80.94000244140625,81.80999755859375,82.5999984741211,3857700.0,78.4838638305664
2016-04-01,83.13999938964844,81.69000244140625,82.27999877929688,82.93000030517578,2908600.0,78.79740905761719
2016-04-04,82.9800033569336,81.83000183105469,82.9800033569336,82.76000213623047,2048300.0,78.63589477539062
2016-04-05,82.7300033569336,81.55999755859375,81.81999969482422,81.69000244140625,1880600.0,77.61920928955078
2016-04-06,82.69999694824219,81.26000213623047,81.54000091552734,82.62000274658203,2183400.0,78.50286102294922
2016-04-07,82.5,80.44999694824219,82.06999969482422,81.22000122070312,2500200.0,77.17262268066406
2016-04-08,82.44999694824219,80.69000244140625,82.04000091552734,81.12000274658203,1713300.0,77.07760620117188
2016-04-11,82.30000305175781,81.29000091552734,82.29000091552734,81.37999725341797,1630300.0,77.32466888427734
2016-04-12,82.0,80.29000091552734,81.69999694824219,81.4000015258789,2399000.0,77.34365844726562
2016-04-13,82.81999969482422,81.63999938964844,82.18000030517578,82.80999755859375,2562600.0,78.68339538574219
2016-04-14,82.30000305175781,80.72000122070312,81.6500015258789,81.61000061035156,2762800.0,77.54319763183594
2016-04-15,81.88999938964844,80.3499984741211,81.0199966430664,81.63999938964844,2880800.0,77.57170104980469
2016-04-18,82.41999816894531,81.11000061035156,81.66999816894531,82.05999755859375,2707000.0,77.97077941894531
2016-04-19,83.06999969482422,81.79000091552734,82.5,82.7699966430664,2929600.0,78.6453857421875
2016-04-20,83.0,80.79000091552734,82.36000061035156,82.66999816894531,4079100.0,78.55036926269531
2016-04-21,83.83000183105469,80.20999908447266,82.70999908447266,80.81999969482422,3995300.0,76.79256439208984
2016-04-22,81.80999755859375,80.08999633789062,80.76000213623047,80.6500015258789,2223100.0,76.63103485107422
2016-04-25,80.91999816894531,79.52999877929688,80.72000122070312,80.22000122070312,2231900.0,76.22246551513672
2016-04-26,81.4000015258789,79.75,80.58000183105469,80.25,2711100.0,76.25096893310547
2016-04-27,81.16000366210938,79.69999694824219,80.3499984741211,80.97000122070312,3784200.0,76.93509674072266
2016-04-28,80.37999725341797,77.95999908447266,79.94000244140625,78.16000366210938,3234200.0,74.26512145996094
2016-04-29,77.94999694824219,75.68000030517578,77.83000183105469,76.4000015258789,4548100.0,72.59281921386719
2016-05-02,77.18000030517578,75.77999877929688,76.4000015258789,76.58999633789062,3720600.0,72.7733383178711
2016-05-03,76.29000091552734,75.36000061035156,75.7300033569336,75.7300033569336,3325600.0,71.9561996459961
2016-05-04,76.23999786376953,74.62000274658203,75.41999816894531,74.9000015258789,3457000.0,71.16757202148438
2016-05-05,75.83000183105469,74.80000305175781,75.04000091552734,75.05000305175781,2872400.0,71.3100814819336
2016-05-06,75.30000305175781,74.2300033569336,74.83999633789062,74.94000244140625,2352600.0,71.20557403564453
2016-05-09,75.4000015258789,74.31999969482422,75.0,74.63999938964844,2440400.0,70.92051696777344
2016-05-10,75.9800033569336,74.55000305175781,74.94000244140625,75.94999694824219,2751000.0,72.16524505615234
2016-05-11,76.08999633789062,75.30999755859375,75.41999816894531,75.61000061035156,1913300.0,71.84217834472656
2016-05-12,76.02999877929688,74.08999633789062,75.83000183105469,74.9000015258789,2332900.0,71.16757202148438
2016-05-13,74.9800033569336,74.20999908447266,74.7300033569336,74.33999633789062,2151800.0,70.63548278808594
2016-05-16,73.91000366210938,72.0,72.19000244140625,73.45999908447266,4115700.0,69.79933166503906
2016-05-17,73.91000366210938,72.91999816894531,73.6500015258789,73.13999938964844,3356700.0,69.49527740478516
2016-05-18,74.76000213623047,72.95999908447266,73.25,73.97000122070312,2334600.0,70.2839126586914
2016-05-19,74.05000305175781,72.98999786376953,73.66000366210938,73.31999969482422,1821600.0,69.66629791259766
2016-05-20,77.0,75.0199966430664,75.2699966430664,76.68000030517578,3495100.0,72.8588638305664
2016-05-23,77.3499984741211,76.1500015258789,76.6500015258789,76.81999969482422,3228500.0,72.99188995361328
2016-05-24,79.58000183105469,77.5199966430664,77.61000061035156,79.2699966430664,3592700.0,75.31980895996094
2016-05-25,80.80999755859375,79.19999694824219,79.5999984741211,80.62000274658203,2949600.0,76.6025161743164
2016-05-26,81.19000244140625,80.27999877929688,80.44000244140625,81.0199966430664,1853500.0,76.98258972167969
2016-05-27,83.38999938964844,81.18000030517578,81.19999694824219,82.97000122070312,3736100.0,78.83541870117188
2016-05-31,83.04000091552734,82.0199966430664,82.62999725341797,82.80999755859375,2574300.0,78.68339538574219
2016-06-01,83.2300033569336,82.0199966430664,82.54000091552734,83.12999725341797,2197600.0,78.9874496459961
2016-06-02,84.30999755859375,82.75,83.04000091552734,83.62999725341797,2818100.0,79.4625244140625
2016-06-03,83.37999725341797,82.5199966430664,83.27999877929688,83.0999984741211,1646900.0,78.9589614868164
2016-06-06,83.43000030517578,82.1500015258789,83.2300033569336,82.31999969482422,1516500.0,78.501220703125
2016-06-07,83.26000213623047,82.30000305175781,82.8499984741211,82.97000122070312,1695000.0,79.12105560302734
2016-06-08,83.54000091552734,82.68000030517578,82.88999938964844,83.38999938964844,1260000.0,79.5215835571289
2016-06-09,83.69000244140625,82.12999725341797,82.66999816894531,83.62999725341797,1574400.0,79.75043487548828
2016-06-10,82.62000274658203,81.79000091552734,82.29000091552734,82.37000274658203,1647200.0,78.54891204833984
2016-06-13,82.8499984741211,81.19999694824219,81.55000305175781,81.9800033569336,1419000.0,78.17698669433594
2016-06-14,82.25,81.20999908447266,81.68000030517578,81.97000122070312,1477700.0,78.16744995117188
2016-06-15,83.20999908447266,81.91999816894531,82.58999633789062,82.4800033569336,1632400.0,78.6537857055664
2016-06-16,82.80999755859375,81.36000061035156,81.75,82.66999816894531,1314700.0,78.83496856689453
2016-06-17,82.9000015258789,81.73999786376953,82.51000213623047,82.88999938964844,2362500.0,79.04476165771484
2016-06-20,84.75,83.56999969482422,83.97000122070312,84.27999877929688,2642700.0,80.37029266357422
2016-06-21,85.0,84.06999969482422,84.68000030517578,84.66000366210938,1329300.0,80.73265838623047
2016-06-22,85.88999938964844,84.36000061035156,84.45999908447266,85.6500015258789,2475700.0,81.6767349243164
2016-06-23,87.19000244140625,86.1500015258789,86.27999877929688,87.18000030517578,2606900.0,83.1357650756836
2016-06-24,85.80000305175781,82.27999877929688,82.98999786376953,82.27999877929688,5740700.0,78.46307373046875
2016-06-27,81.83000183105469,79.1500015258789,81.3499984741211,79.95999908447266,3000500.0,76.25069427490234
2016-06-28,81.69000244140625,80.51000213623047,81.0,81.66999816894531,2390700.0,77.88137817382812
2016-06-29,83.69000244140625,81.2699966430664,82.52999877929688,82.19999694824219,4104600.0,78.38677978515625
2016-06-30,84.05999755859375,82.18000030517578,82.80999755859375,84.05999755859375,2845600.0,80.1604995727539
2016-07-01,83.94999694824219,82.79000091552734,83.94999694824219,82.9800033569336,1731700.0,79.13057708740234
2016-07-05,82.72000122070312,80.9800033569336,82.70999908447266,81.88999938964844,1834400.0,78.0911636352539
2016-07-06,82.16999816894531,80.68000030517578,81.5,81.95999908447266,1981400.0,78.15792083740234
2016-07-07,83.20999908447266,81.52999877929688,82.16999816894531,82.04000091552734,1828800.0,78.23419952392578
2016-07-08,85.27999877929688,82.62999725341797,82.88999938964844,84.87999725341797,2667100.0,80.94245147705078
2016-07-11,86.68000030517578,85.0,85.47000122070312,86.33000183105469,1921900.0,82.3251953125
2016-07-12,88.30999755859375,87.0,87.26000213623047,88.23999786376953,2358400.0,84.1465835571289
2016-07-13,89.37000274658203,88.22000122070312,88.48999786376953,88.62000274658203,2075200.0,84.50895690917969
2016-07-14,89.75,87.81999969482422,89.51000213623047,87.87999725341797,2462500.0,83.80328369140625
2016-07-15,88.83999633789062,87.62999725341797,88.19000244140625,88.55000305175781,1834100.0,84.44221496582031
2016-07-18,89.69000244140625,88.41999816894531,89.62000274658203,89.33000183105469,1809000.0,85.18601989746094
2016-07-19,90.0,88.16000366210938,88.77999877929688,89.5,1698100.0,85.34814453125
2016-07-20,91.5,89.45999908447266,90.0,91.20999908447266,2536300.0,86.97881317138672
2016-07-21,91.33999633789062,89.0,91.12999725341797,89.31999969482422,2162500.0,85.17646789550781
2016-07-22,90.33999633789062,88.98999786376953,89.69000244140625,90.05000305175781,1280300.0,85.87262725830078
2016-07-25,90.69999694824219,89.63999938964844,90.05999755859375,90.63999938964844,1295900.0,86.43525695800781
2016-07-26,92.18000030517578,90.36000061035156,91.19999694824219,91.5999984741211,2570400.0,87.35072326660156
2016-07-27,92.29000091552734,90.97000122070312,92.19999694824219,91.95999908447266,2647400.0,87.69401550292969
2016-07-28,93.80000305175781,91.5999984741211,92.94000244140625,93.08000183105469,2824500.0,88.76206970214844
2016-07-29,93.05000305175781,89.66999816894531,93.05000305175781,89.7699966430664,3259500.0,85.60560607910156
2016-08-01,90.95999908447266,89.79000091552734,90.16999816894531,90.79000091552734,1660500.0,86.57830047607422
2016-08-02,91.08999633789062,88.95999908447266,90.61000061035156,89.7300033569336,2235300.0,85.56746673583984
2016-08-03,90.80000305175781,89.19000244140625,89.33999633789062,90.79000091552734,2202800.0,86.57830047607422
2016-08-04,92.0,90.36000061035156,90.83000183105469,91.93000030517578,2130500.0,87.66542053222656
2016-08-05,93.30000305175781,91.75,92.0,93.25,1507300.0,88.9241714477539
2016-08-08,93.30000305175781,92.48999786376953,93.16000366210938,92.72000122070312,1565400.0,88.41876220703125
2016-08-09,93.44999694824219,92.62999725341797,92.97000122070312,93.29000091552734,1333400.0,88.96231842041016
2016-08-10,93.19000244140625,88.12999725341797,93.05999755859375,89.11000061035156,7045700.0,84.97622680664062
2016-08-11,89.87000274658203,88.58000183105469,89.1500015258789,88.88999938964844,4719700.0,84.76644134521484
2016-08-12,90.19000244140625,88.51000213623047,89.05999755859375,89.18000030517578,2088000.0,85.0429916381836
2016-08-15,91.37000274658203,89.0999984741211,89.16999816894531,90.73999786376953,2124000.0,86.5306167602539
2016-08-16,90.94000244140625,89.83999633789062,90.43000030517578,89.86000061035156,2037000.0,85.69143676757812
2016-08-17,90.68000030517578,89.5,89.56999969482422,90.20999908447266,1961600.0,86.02519226074219
2016-08-18,91.0999984741211,90.0,90.5,90.93000030517578,1654300.0,86.71179962158203
2016-08-19,93.5999984741211,91.45999908447266,92.25,93.19000244140625,2756400.0,88.86695098876953
2016-08-22,93.69999694824219,92.4000015258789,92.80999755859375,93.19999694824219,1540100.0,88.87649536132812
2016-08-23,94.87999725341797,93.47000122070312,94.3499984741211,93.87999725341797,2530900.0,89.52494812011719
2016-08-24,94.16999816894531,92.33999633789062,93.9000015258789,92.69000244140625,1611600.0,88.39014434814453
2016-08-25,93.94999694824219,92.5999984741211,92.79000091552734,93.44000244140625,1689700.0,89.10536193847656
2016-08-26,94.1500015258789,92.76000213623047,93.41000366210938,93.80999755859375,1689200.0,89.45819854736328
2016-08-29,95.7699966430664,93.01000213623047,93.86000061035156,94.33999633789062,1699600.0,89.963623046875
2016-08-30,94.75,92.73999786376953,94.55000305175781,92.9800033569336,2224600.0,88.66670227050781
2016-08-31,93.4800033569336,92.30999755859375,93.0,93.31999969482422,1734100.0,88.99092864990234
2016-09-01,94.7699966430664,92.79000091552734,93.5999984741211,94.62999725341797,1899400.0,90.24015808105469
2016-09-02,95.41000366210938,93.69000244140625,95.23999786376953,94.36000061035156,1619400.0,89.98267364501953
2016-09-06,94.8499984741211,93.12000274658203,93.87999725341797,93.69999694824219,1975600.0,89.35330200195312
2016-09-07,94.4800033569336,93.38999938964844,93.44999694824219,94.04000091552734,2465100.0,89.67752838134766
2016-09-08,94.23999786376953,93.16000366210938,93.5,93.56999969482422,1196000.0,89.22933959960938
2016-09-09,92.91999816894531,91.05000305175781,92.63999938964844,91.18000030517578,2696500.0,86.95020294189453
2016-09-12,93.58999633789062,89.80000305175781,89.8499984741211,93.2699966430664,1855700.0,89.23685455322266
2016-09-13,93.16999816894531,90.98999786376953,92.45999908447266,91.54000091552734,2368900.0,87.58167266845703
2016-09-14,92.13999938964844,90.93000030517578,91.77999877929688,91.56999969482422,2595300.0,87.61035919189453
2016-09-15,93.69999694824219,91.56999969482422,91.56999969482422,93.36000061035156,2642600.0,89.3229751586914
2016-09-16,93.83999633789062,91.94000244140625,93.18000030517578,92.95999908447266,2091000.0,88.94026184082031
2016-09-19,93.8499984741211,91.9000015258789,93.77999877929688,92.1500015258789,1609100.0,88.16529846191406
2016-09-20,93.11000061035156,91.72000122070312,92.6500015258789,91.9800033569336,1869800.0,88.00263977050781
2016-09-21,93.30999755859375,91.80000305175781,92.5199966430664,93.29000091552734,1846500.0,89.25598907470703
2016-09-22,93.87999725341797,92.08999633789062,93.58000183105469,92.69000244140625,2650500.0,88.68193054199219
2016-09-23,92.94999694824219,91.72000122070312,92.43000030517578,91.77999877929688,1724600.0,87.81129455566406
2016-09-26,91.73999786376953,90.97000122070312,91.51000213623047,91.41000366210938,1702700.0,87.45728302001953
2016-09-27,92.63999938964844,90.55999755859375,90.55999755859375,92.51000213623047,1680100.0,88.50971221923828
2016-09-28,93.19999694824219,92.18000030517578,92.72000122070312,92.94000244140625,1227500.0,88.92113494873047
2016-09-29,94.0999984741211,92.4800033569336,92.9000015258789,93.2300033569336,3104000.0,89.19857788085938
2016-09-30,95.38999938964844,93.41999816894531,93.66999816894531,94.70999908447266,3194300.0,90.61457824707031
2016-10-03,95.33000183105469,94.08000183105469,94.1500015258789,94.58999633789062,2012500.0,90.4997787475586
2016-10-04,95.4000015258789,94.26000213623047,94.55999755859375,94.83000183105469,2687000.0,90.72940063476562
2016-10-05,96.5,94.4000015258789,94.70999908447266,96.16999816894531,3194300.0,92.0114517211914
2016-10-06,100.47000122070312,97.81999969482422,98.8499984741211,100.19000244140625,10274600.0,95.85762023925781
2016-10-07,100.88999938964844,98.81999969482422,99.86000061035156,100.3499984741211,5797100.0,96.01069641113281
2016-10-10,102.44000244140625,100.61000061035156,100.97000122070312,102.1500015258789,3484500.0,97.73286437988281
2016-10-11,101.63999938964844,98.63999938964844,101.61000061035156,99.58999633789062,4912600.0,95.28355407714844
2016-10-12,99.08999633789062,96.80999755859375,98.19000244140625,98.68000030517578,3960800.0,94.41291809082031
2016-10-13,98.12000274658203,96.91000366210938,98.12000274658203,97.7300033569336,3451400.0,93.50399017333984
2016-10-14,99.16000366210938,98.12999725341797,98.31999969482422,98.22000122070312,2680900.0,93.97280883789062
2016-10-17,99.11000061035156,97.4800033569336,97.88999938964844,98.05999755859375,2206900.0,93.81971740722656
2016-10-18,99.69000244140625,98.55000305175781,99.05000305175781,99.47000122070312,3465200.0,95.16876220703125
2016-10-19,100.18000030517578,99.19999694824219,99.66999816894531,99.72000122070312,4282400.0,95.40795135498047
2016-10-20,100.95999908447266,95.87000274658203,100.0,96.94000244140625,7921300.0,92.7481460571289
2016-10-21,99.12999725341797,96.73999786376953,96.76000213623047,97.61000061035156,4329900.0,93.38917541503906
2016-10-24,99.30000305175781,98.01000213623047,98.44999694824219,98.9800033569336,2064700.0,94.69994354248047
2016-10-25,99.16999816894531,97.91000366210938,99.13999938964844,98.08000183105469,2217700.0,93.83885192871094
2016-10-26,98.68000030517578,97.38999938964844,97.7300033569336,97.87000274658203,2355600.0,93.63795471191406
2016-10-27,98.9000015258789,96.5199966430664,98.58999633789062,96.69999694824219,2327800.0,92.5185317993164
2016-10-28,97.80000305175781,96.0199966430664,97.22000122070312,96.20999908447266,1603700.0,92.04972076416016
2016-10-31,97.41000366210938,96.36000061035156,96.91000366210938,96.86000061035156,2006800.0,92.67162322998047
2016-11-01,97.43000030517578,95.08999633789062,97.16000366210938,96.05000305175781,2533800.0,91.89665985107422
2016-11-02,96.62999725341797,94.80000305175781,95.87000274658203,95.8499984741211,2846100.0,91.7052993774414
2016-11-03,95.94000244140625,94.94000244140625,95.87000274658203,95.23999786376953,2343800.0,91.12166595458984
2016-11-04,96.16999816894531,93.69000244140625,94.3499984741211,95.0,2226900.0,90.89204406738281
2016-11-07,98.58000183105469,96.45999908447266,96.4800033569336,98.51000213623047,3657100.0,94.2502670288086
2016-11-08,99.6500015258789,97.91000366210938,98.51000213623047,99.12000274658203,1503100.0,94.83389282226562
2016-11-09,98.23999786376953,96.27999877929688,96.79000091552734,98.01000213623047,1964300.0,93.77189636230469
2016-11-10,99.44000244140625,94.88999938964844,98.12999725341797,95.97000122070312,2707300.0,91.82009887695312
2016-11-11,97.63999938964844,95.0999984741211,95.81999969482422,97.48999786376953,1693300.0,93.27437591552734
2016-11-14,98.91999816894531,97.51000213623047,97.80000305175781,98.51000213623047,1769100.0,94.2502670288086
2016-11-15,101.45999908447266,99.16999816894531,99.91999816894531,101.12000274658203,1996400.0,96.7474136352539
2016-11-16,101.29000091552734,100.08000183105469,100.7699966430664,101.23999786376953,1291900.0,96.86222076416016
2016-11-17,103.8499984741211,100.72000122070312,101.58000183105469,103.80000305175781,1839400.0,99.3115234375
2016-11-18,107.25,103.13999938964844,103.44000244140625,104.70999908447266,3709500.0,100.18216705322266
2016-11-21,106.29000091552734,104.66000366210938,104.91000366210938,106.23999786376953,2135900.0,101.64601135253906
2016-11-22,107.37000274658203,106.06999969482422,106.87999725341797,106.70999908447266,1979600.0,102.09568786621094
2016-11-23,107.05999755859375,105.69999694824219,106.69999694824219,106.94999694824219,1455300.0,102.32530975341797
2016-11-25,107.72000122070312,106.30999755859375,106.94999694824219,107.54000091552734,789600.0,102.88980102539062
2016-11-28,108.04000091552734,106.69000244140625,107.41999816894531,106.7699966430664,2046300.0,102.15309143066406
2016-11-29,108.19999694824219,106.56999969482422,107.29000091552734,107.56999969482422,2270900.0,102.91848754882812
2016-11-30,107.98999786376953,106.0,107.55000305175781,106.0199966430664,1876700.0,101.43551635742188
2016-12-01,105.72000122070312,97.79000091552734,105.6500015258789,98.58000183105469,6759500.0,94.3172378540039
2016-12-02,101.5199966430664,98.3499984741211,99.19000244140625,100.48999786376953,2844200.0,96.14463806152344
2016-12-05,102.80000305175781,100.58000183105469,101.41999816894531,102.4000015258789,2987300.0,97.9720687866211
2016-12-06,103.9800033569336,101.87999725341797,103.9800033569336,103.05000305175781,2420400.0,98.59395599365234
2016-12-07,106.55000305175781,102.69000244140625,102.98999786376953,106.55000305175781,2780000.0,101.94261169433594
2016-12-08,107.63999938964844,105.75,106.0999984741211,107.1500015258789,1261300.0,102.51665496826172
2016-12-09,107.19999694824219,103.2300033569336,106.55999755859375,104.08999633789062,2227600.0,99.58898162841797
2016-12-12,104.37999725341797,103.01000213623047,103.38999938964844,103.62999725341797,1261600.0,99.5793685913086
2016-12-13,104.86000061035156,103.70999908447266,104.16000366210938,104.05999755859375,1370600.0,99.99256896972656
2016-12-14,105.47000122070312,103.66999816894531,103.9800033569336,104.44000244140625,1409200.0,100.35771942138672
2016-12-15,106.68000030517578,104.01000213623047,104.62000274658203,106.12000274658203,1437400.0,101.97203826904297
2016-12-16,106.87999725341797,104.27999877929688,106.0999984741211,104.44999694824219,2516100.0,100.3673095703125
2016-12-19,108.5999984741211,106.52999877929688,106.7300033569336,106.98999786376953,2222700.0,102.80802917480469
2016-12-20,108.19000244140625,106.51000213623047,108.19000244140625,106.8499984741211,1310300.0,102.67350769042969
2016-12-21,107.5,106.41000366210938,106.68000030517578,106.4800033569336,1167600.0,102.31798553466797
2016-12-22,108.19000244140625,106.8499984741211,106.87000274658203,107.69000244140625,1386500.0,103.48068237304688
2016-12-23,108.12000274658203,107.05999755859375,107.41999816894531,108.05999755859375,1000300.0,103.8362045288086
2016-12-27,109.55000305175781,108.27999877929688,108.54000091552734,109.02999877929688,793700.0,104.7682876586914
2016-12-28,110.3499984741211,107.51000213623047,109.9000015258789,107.56999969482422,1096300.0,103.3653564453125
2016-12-29,107.5199966430664,106.37999725341797,107.4800033569336,107.1500015258789,908000.0,102.96177673339844
2016-12-30,109.97000122070312,105.30000305175781,107.88999938964844,105.7300033569336,897900.0,101.5972900390625
2017-01-03,108.55999755859375,105.79000091552734,106.68000030517578,107.26000213623047,1937200.0,103.06748962402344
2017-01-04,108.11000061035156,106.91000366210938,107.61000061035156,107.31999969482422,1297400.0,103.12513732910156
2017-01-05,108.77999877929688,107.06999969482422,107.5199966430664,107.08000183105469,1634300.0,102.8945083618164
2017-01-06,107.87999725341797,106.08000183105469,106.87999725341797,107.5999984741211,1203600.0,103.39418029785156
2017-01-09,109.8499984741211,107.79000091552734,107.80000305175781,108.86000061035156,1438800.0,104.60494995117188
2017-01-10,108.98999786376953,107.77999877929688,108.97000122070312,108.47000122070312,1317700.0,104.23018646240234
2017-01-11,109.0,107.7699966430664,108.68000030517578,108.98999786376953,1271800.0,104.7298583984375
2017-01-12,108.73999786376953,106.80000305175781,108.73999786376953,108.16999816894531,996200.0,103.94190216064453
2017-01-13,111.0999984741211,108.62999725341797,108.70999908447266,110.54000091552734,1498600.0,106.21928405761719
2017-01-17,110.5999984741211,108.45999908447266,110.33000183105469,109.0999984741211,1502700.0,104.83556365966797
2017-01-18,111.29000091552734,109.33000183105469,109.95999908447266,111.23999786376953,1715600.0,106.89191436767578
2017-01-19,112.41000366210938,110.5,111.38999938964844,110.83999633789062,1870400.0,106.50755310058594
2017-01-20,112.83000183105469,111.33999633789062,111.91000366210938,112.3499984741211,1727500.0,107.95853424072266
2017-01-23,114.11000061035156,112.20999908447266,113.01000213623047,112.7699966430664,2520200.0,108.36211395263672
2017-01-24,114.8499984741211,113.0999984741211,113.0999984741211,114.63999938964844,1729300.0,110.15901947021484
2017-01-25,117.20999908447266,114.5199966430664,116.54000091552734,116.91999816894531,3497500.0,112.34989166259766
2017-01-26,116.16000366210938,112.86000061035156,115.02999877929688,114.33000183105469,3789200.0,109.86112213134766
2017-01-27,119.13999938964844,115.3499984741211,115.62000274658203,118.23999786376953,3618000.0,113.61830139160156
2017-01-30,117.0,114.72000122070312,116.77999877929688,116.0,2617300.0,111.46585845947266
2017-01-31,116.36000061035156,114.5199966430664,115.95999908447266,114.86000061035156,2384500.0,110.37042999267578
2017-02-01,117.76000213623047,115.5199966430664,115.91000366210938,117.73999786376953,2115500.0,113.13784790039062
2017-02-02,117.94999694824219,116.13999938964844,117.5,117.2300033569336,1203400.0,112.64778137207031
2017-02-03,118.16999816894531,116.91000366210938,117.5,117.6500015258789,1128700.0,113.0513687133789
2017-02-06,118.0,116.83999633789062,118.0,117.16000366210938,1138900.0,112.58052062988281
2017-02-07,117.87999725341797,116.1500015258789,117.87999725341797,117.0,3554100.0,112.4267807006836
2017-02-08,117.51000213623047,115.69999694824219,117.5,115.87000274658203,2334400.0,111.3409423828125
2017-02-09,116.45999908447266,115.73999786376953,116.45999908447266,116.0,1357200.0,111.46585845947266
2017-02-10,116.58000183105469,114.94999694824219,116.56999969482422,115.98999786376953,1542800.0,111.45625305175781
2017-02-13,117.66999816894531,116.16999816894531,117.0199966430664,116.26000213623047,943400.0,111.7156982421875
2017-02-14,116.2699966430664,114.69000244140625,116.0,115.62999725341797,1214400.0,111.11032104492188
2017-02-15,116.37000274658203,115.02999877929688,115.88999938964844,116.2300033569336,1344400.0,111.6868667602539
2017-02-16,116.83000183105469,113.19999694824219,116.80000305175781,114.56999969482422,3108700.0,110.09176635742188
2017-02-17,114.9000015258789,113.6500015258789,114.29000091552734,114.9000015258789,2112100.0,110.40885162353516
2017-02-21,117.95999908447266,114.81999969482422,114.9000015258789,117.81999969482422,2375700.0,113.2147216796875
2017-02-22,118.58999633789062,117.01000213623047,117.62999725341797,118.58000183105469,1610600.0,113.94500732421875
2017-02-23,119.30999755859375,116.5199966430664,119.27999877929688,117.7300033569336,1350900.0,113.12822723388672
2017-02-24,118.80999755859375,115.69999694824219,116.62999725341797,118.79000091552734,1268100.0,114.14680480957031
2017-02-27,119.4000015258789,117.7699966430664,118.2699966430664,119.29000091552734,1631300.0,114.62725067138672
2017-02-28,119.41999816894531,118.1500015258789,119.02999877929688,118.54000091552734,2334300.0,113.90658569335938
2017-03-01,119.91000366210938,118.30999755859375,118.97000122070312,119.66999816894531,2329200.0,114.99240112304688
2017-03-02,119.5199966430664,118.0999984741211,118.94000244140625,118.4800033569336,1103200.0,113.84892272949219
2017-03-03,118.83999633789062,117.51000213623047,118.33000183105469,118.62000274658203,1008500.0,113.98345947265625
2017-03-06,118.44999694824219,116.4000015258789,117.29000091552734,118.36000061035156,1405800.0,114.16670989990234
2017-03-07,118.9000015258789,117.16999816894531,118.37000274658203,117.43000030517578,1437200.0,113.2696533203125
2017-03-08,118.29000091552734,117.25,117.7699966430664,117.7300033569336,826700.0,113.55902862548828
2017-03-09,118.08999633789062,116.94000244140625,117.5,117.55000305175781,722900.0,113.38541412353516
2017-03-10,120.87999725341797,118.37000274658203,118.37000274658203,120.5999984741211,1899100.0,116.32736206054688
2017-03-13,122.6500015258789,120.0,120.5999984741211,122.4000015258789,1804000.0,118.06358337402344
2017-03-14,122.55000305175781,121.16999816894531,122.06999969482422,122.3499984741211,1256100.0,118.0153579711914
2017-03-15,124.48999786376953,122.25,122.54000091552734,124.16999816894531,2620300.0,119.7708740234375
2017-03-16,126.20999908447266,124.16999816894531,124.5,125.97000122070312,2150400.0,121.50711059570312
2017-03-17,127.44000244140625,126.16000366210938,126.87000274658203,126.4800033569336,1971800.0,121.9990463256836
2017-03-20,127.66000366210938,126.33000183105469,126.63999938964844,126.86000061035156,1413400.0,122.3655776977539
2017-03-21,127.63999938964844,124.0,127.26000213623047,124.2699966430664,1854500.0,119.8673324584961
2017-03-22,125.43000030517578,123.95999908447266,124.08000183105469,125.4000015258789,1222900.0,120.95730590820312
2017-03-23,126.27999877929688,124.81999969482422,125.25,125.3499984741211,1162300.0,120.9090805053711
2017-03-24,129.35000610351562,126.72000122070312,127.16000366210938,127.47000122070312,1998300.0,122.95396423339844
2017-03-27,128.38999938964844,125.6500015258789,126.0199966430664,127.80000305175781,1343100.0,123.27226257324219
2017-03-28,128.5500030517578,127.13999938964844,127.48999786376953,127.75,1239300.0,123.22405242919922
2017-03-29,128.0,127.16000366210938,127.75,127.87999725341797,966800.0,123.34944152832031
2017-03-30,129.14999389648438,127.9000015258789,127.9000015258789,128.6999969482422,926700.0,124.14038848876953
2017-03-31,129.0,128.00999450683594,128.2899932861328,128.36000061035156,1275600.0,123.81243896484375
2017-04-03,128.97999572753906,127.55000305175781,128.6199951171875,128.4199981689453,1149000.0,123.87029266357422
2017-04-04,128.92999267578125,127.63999938964844,127.9800033569336,128.88999938964844,996000.0,124.32366180419922
2017-04-05,130.1300048828125,127.66999816894531,129.5,127.7699966430664,1375300.0,123.24333190917969
2017-04-06,128.91000366210938,126.83999633789062,127.69000244140625,128.86000061035156,1310000.0,124.29471588134766
2017-04-07,129.82000732421875,128.1999969482422,128.8300018310547,129.3000030517578,695700.0,124.7191390991211
2017-04-10,129.75,128.35000610351562,129.07000732421875,128.8000030517578,1026400.0,124.2368392944336
2017-04-11,128.77999877929688,125.33000183105469,128.36000061035156,127.2300033569336,1566900.0,122.72246551513672
2017-04-12,127.66999816894531,125.51000213623047,127.45999908447266,126.16000366210938,1290900.0,121.69037628173828
2017-04-13,127.27999877929688,124.91000366210938,125.80000305175781,125.16999816894531,1362900.0,120.73544311523438
2017-04-17,127.45999908447266,125.73999786376953,125.73999786376953,127.33000183105469,1173700.0,122.81893157958984
2017-04-18,127.80999755859375,125.97000122070312,126.77999877929688,127.43000030517578,2110900.0,122.9153823852539
2017-04-19,136.39999389648438,132.5,133.86000061035156,136.1699981689453,5801000.0,131.3457489013672
2017-04-20,139.7100067138672,136.41000366210938,137.0,139.36000061035156,3145900.0,134.42271423339844
2017-04-21,140.22999572753906,137.5500030517578,139.14999389648438,139.97999572753906,3260900.0,135.020751953125
2017-04-24,142.8800048828125,141.1300048828125,142.5800018310547,142.50999450683594,2218700.0,137.46112060546875
2017-04-25,145.9600067138672,142.50999450683594,143.7100067138672,145.75999450683594,2400000.0,140.595947265625
2017-04-26,146.11000061035156,144.0,145.57000732421875,145.50999450683594,1907800.0,140.35482788085938
2017-04-27,148.0,146.10000610351562,146.27999877929688,147.0,1589800.0,141.79205322265625
2017-04-28,147.16000366210938,144.5399932861328,146.5,144.85000610351562,2049700.0,139.71823120117188
2017-05-01,149.33999633789062,145.72000122070312,145.92999267578125,149.22000122070312,2093100.0,143.9333953857422
2017-05-02,149.99000549316406,147.6699981689453,149.8000030517578,149.32000732421875,2069500.0,144.02987670898438
2017-05-03,150.3000030517578,148.52000427246094,149.5500030517578,150.0800018310547,1937800.0,144.76292419433594
2017-05-04,150.66000366210938,148.9199981689453,149.92999267578125,150.61000061035156,1511400.0,145.2741241455078
2017-05-05,151.0,148.4199981689453,150.9600067138672,150.30999755859375,1572700.0,144.9847869873047
2017-05-08,150.7899932861328,148.99000549316406,150.02999877929688,149.1199951171875,1496200.0,143.83692932128906
2017-05-09,150.75,149.42999267578125,149.50999450683594,150.5399932861328,1584400.0,145.20663452148438
2017-05-10,151.5,149.08999633789062,151.1300048828125,149.14999389648438,1876700.0,143.86587524414062
2017-05-11,150.1199951171875,147.94000244140625,148.88999938964844,149.9199981689453,1792500.0,144.6085968017578
2017-05-12,150.1300048828125,148.0800018310547,149.7100067138672,149.5800018310547,1575500.0,144.28065490722656
2017-05-15,151.67999267578125,149.9600067138672,150.07000732421875,151.27000427246094,1854900.0,145.91078186035156
2017-05-16,152.57000732421875,150.5399932861328,151.8699951171875,152.55999755859375,2259400.0,147.15505981445312
2017-05-17,151.0,147.25999450683594,150.83999633789062,147.27000427246094,2291900.0,142.052490234375
2017-05-18,150.1199951171875,145.1300048828125,146.67999267578125,149.80999755859375,2771700.0,144.50250244140625
2017-05-19,153.10000610351562,150.63999938964844,151.55999755859375,152.39999389648438,3468900.0,147.000732421875
2017-05-22,153.3800048828125,151.14999389648438,152.75,152.91000366210938,1923500.0,147.49267578125
2017-05-23,154.08999633789062,151.19000244140625,153.3300018310547,153.42999267578125,1516300.0,147.99424743652344
2017-05-24,154.25999450683594,152.2899932861328,154.0500030517578,152.8800048828125,1454000.0,147.46372985839844
2017-05-25,154.3699951171875,152.5399932861328,153.67999267578125,153.89999389648438,1906100.0,148.44757080078125
2017-05-26,155.44000244140625,153.08999633789062,153.49000549316406,155.1199951171875,2005600.0,149.62435913085938
2017-05-30,157.77000427246094,155.0,155.4499969482422,156.8699951171875,2077000.0,151.31236267089844
2017-05-31,157.49000549316406,154.72000122070312,157.0399932861328,155.1699981689453,2894400.0,149.67259216308594
2017-06-01,156.52999877929688,154.9499969482422,155.25999450683594,156.44000244140625,1465800.0,150.89759826660156
2017-06-02,158.8300018310547,157.00999450683594,157.14999389648438,158.74000549316406,1845700.0,153.11611938476562
2017-06-05,160.5,158.07000732421875,158.88999938964844,160.2899932861328,1820300.0,155.0507354736328
2017-06-06,164.1199951171875,159.67999267578125,160.24000549316406,161.00999450683594,2406700.0,155.74720764160156
2017-06-07,162.69000244140625,160.99000549316406,162.05999755859375,162.3000030517578,2081300.0,156.99505615234375
2017-06-08,164.99000549316406,162.47000122070312,163.44000244140625,164.97000122070312,2261100.0,159.57777404785156
2017-06-09,167.0500030517578,154.3800048828125,165.35000610351562,157.77999877929688,3834000.0,152.62278747558594
2017-06-12,155.86000061035156,148.75,155.50999450683594,154.50999450683594,5473900.0,149.4596710205078
2017-06-13,157.91000366210938,152.89999389648438,156.66000366210938,155.1199951171875,2760800.0,150.04971313476562
2017-06-14,155.9600067138672,150.41000366210938,155.35000610351562,152.75,2830700.0,147.75718688964844
2017-06-15,150.75999450683594,147.60000610351562,149.5800018310547,148.47999572753906,4160900.0,143.6267852783203
2017-06-16,150.97000122070312,147.66000366210938,148.8300018310547,148.2100067138672,4113400.0,143.36561584472656
2017-06-19,151.9499969482422,149.89999389648438,150.19000244140625,151.0,3081400.0,146.06439208984375
2017-06-20,152.94000244140625,149.52999877929688,151.5,150.11000061035156,2459500.0,145.2034912109375
2017-06-21,151.25,149.14999389648438,150.30999755859375,150.9199981689453,1885500.0,145.9870147705078
2017-06-22,152.4199981689453,149.52000427246094,151.50999450683594,150.0399932861328,1581400.0,145.13577270507812
2017-06-23,152.82000732421875,149.52000427246094,149.80999755859375,151.77999877929688,3074100.0,146.81890869140625
2017-06-26,153.61000061035156,148.36000061035156,152.4600067138672,148.99000549316406,2606600.0,144.12010192871094
2017-06-27,148.57000732421875,144.44000244140625,148.25999450683594,144.6199951171875,3408900.0,139.89292907714844
2017-06-28,148.1699981689453,142.8000030517578,145.1699981689453,147.8300018310547,2910200.0,142.99803161621094
2017-06-29,146.5,140.00999450683594,146.0800018310547,142.35000610351562,3111200.0,137.6971435546875
2017-06-30,143.57000732421875,140.8300018310547,143.3699951171875,141.42999267578125,2938700.0,136.80718994140625
2017-07-03,143.3800048828125,139.24000549316406,142.7100067138672,139.2899932861328,1569700.0,134.73716735839844
2017-07-05,142.6999969482422,139.94000244140625,140.4199981689453,142.52999877929688,2618900.0,137.87123107910156
2017-07-06,144.72000122070312,140.6699981689453,141.44000244140625,143.88999938964844,2796700.0,139.18679809570312
2017-07-07,149.67999267578125,146.44000244140625,147.0,148.1300048828125,2956300.0,143.2882080078125
2017-07-10,151.00999450683594,147.86000061035156,148.72999572753906,150.83999633789062,2279000.0,145.90963745117188
2017-07-11,154.82000732421875,151.00999450683594,151.30999755859375,153.72000122070312,2753800.0,148.69549560546875
2017-07-12,156.35000610351562,152.9199981689453,155.41000366210938,154.5800018310547,1782700.0,149.52737426757812
2017-07-13,156.30999755859375,154.16000366210938,155.0500030517578,154.94000244140625,1461100.0,149.87559509277344
2017-07-14,157.61000061035156,154.9600067138672,155.69000244140625,157.3000030517578,1459800.0,152.15847778320312
2017-07-17,158.30999755859375,155.75,157.77999877929688,156.97999572753906,1657900.0,151.8489227294922
2017-07-18,159.58999633789062,156.24000549316406,157.0,159.35000610351562,1832000.0,154.1414794921875
2017-07-19,164.5500030517578,160.25,160.5,164.22999572753906,2711700.0,158.86195373535156
2017-07-20,165.1199951171875,161.82000732421875,164.97999572753906,164.8000030517578,2375900.0,159.413330078125
2017-07-21,163.9199981689453,162.2899932861328,163.9199981689453,163.52999877929688,1847400.0,158.18484497070312
2017-07-24,164.67999267578125,163.14999389648438,163.5,164.1199951171875,1445700.0,158.75555419921875
2017-07-25,164.82000732421875,162.47999572753906,164.0800018310547,164.4600067138672,2082800.0,159.08445739746094
2017-07-26,168.44000244140625,165.22000122070312,165.39999389648438,168.33999633789062,3310800.0,162.83761596679688
2017-07-27,170.0,161.27000427246094,168.9199981689453,164.75999450683594,5665200.0,159.3746337890625
2017-07-28,164.97000122070312,160.77999877929688,164.25,161.60000610351562,2740000.0,156.3179473876953
2017-07-31,163.0,158.7899932861328,162.60000610351562,159.4600067138672,2437700.0,154.24786376953125
2017-08-01,160.49000549316406,157.1699981689453,160.44000244140625,157.4600067138672,2592500.0,152.31324768066406
2017-08-02,158.97999572753906,149.77000427246094,158.97000122070312,151.5500030517578,4787200.0,146.59642028808594
2017-08-03,151.49000549316406,148.25999450683594,149.5,148.89999389648438,3146100.0,144.03302001953125
2017-08-04,152.25999450683594,148.36000061035156,149.35000610351562,150.0500030517578,2153800.0,145.1454315185547
2017-08-07,155.89999389648438,150.0399932861328,150.4499969482422,155.83999633789062,2751800.0,150.74620056152344
2017-08-08,157.86000061035156,154.0500030517578,155.85000610351562,155.75,2753200.0,150.65914916992188
2017-08-09,156.36000061035156,153.3699951171875,155.4600067138672,155.1999969482422,1956400.0,150.1271209716797
2017-08-10,154.19000244140625,149.0399932861328,153.86000061035156,149.44000244140625,2613400.0,144.5553741455078
2017-08-11,154.42999267578125,149.82000732421875,149.85000610351562,154.25999450683594,1790900.0,149.2178497314453
2017-08-14,158.9199981689453,156.2100067138672,156.60000610351562,158.5500030517578,2126300.0,153.3676300048828
2017-08-15,160.61000061035156,157.77000427246094,158.58999633789062,160.2100067138672,1817400.0,154.97335815429688
2017-08-16,165.19000244140625,160.63999938964844,161.4499969482422,163.22000122070312,5098800.0,157.88497924804688
2017-08-17,163.57000732421875,158.3000030517578,162.5,158.4600067138672,1960500.0,153.28057861328125
2017-08-18,161.8699951171875,158.35000610351562,160.1999969482422,160.49000549316406,1924600.0,155.24420166015625
2017-08-21,161.4600067138672,157.02000427246094,161.1199951171875,158.39999389648438,1554800.0,153.2225341796875
2017-08-22,164.1699981689453,159.2100067138672,159.2100067138672,163.80999755859375,2522300.0,158.4556884765625
2017-08-23,163.97000122070312,160.74000549316406,163.13999938964844,161.6999969482422,1815800.0,156.41464233398438
2017-08-24,162.8000030517578,158.08999633789062,162.2100067138672,158.82000732421875,1473700.0,153.62879943847656
2017-08-25,159.97000122070312,156.52000427246094,159.3000030517578,157.86000061035156,1271900.0,152.70018005371094
2017-08-28,161.0399932861328,157.74000549316406,158.3300018310547,160.6699981689453,1258200.0,155.41830444335938
2017-08-29,162.83999633789062,158.10000610351562,158.6199951171875,162.32000732421875,1232100.0,157.014404296875
2017-08-30,165.0,161.77000427246094,162.42999267578125,164.99000549316406,1571300.0,159.59710693359375
2017-08-31,167.32000732421875,165.17999267578125,165.6199951171875,165.97999572753906,1792400.0,160.5547637939453
2017-09-01,169.14999389648438,165.44000244140625,166.02000427246094,166.86000061035156,1570600.0,161.40597534179688
2017-09-05,166.39999389648438,162.52000427246094,165.69000244140625,164.10000610351562,1538300.0,158.73622131347656
2017-09-06,165.85000610351562,163.0399932861328,165.25,165.00999450683594,1942100.0,159.616455078125
2017-09-07,168.6999969482422,164.83999633789062,165.3300018310547,168.58999633789062,1357000.0,163.07945251464844
2017-09-08,168.6999969482422,165.3000030517578,167.74000549316406,165.75,1729600.0,160.332275390625
2017-09-11,170.64999389648438,167.41000366210938,167.50999450683594,169.9600067138672,1882800.0,164.40469360351562
2017-09-12,172.55999755859375,168.92999267578125,170.22000122070312,171.6699981689453,1689700.0,166.49960327148438
2017-09-13,172.49000549316406,169.8800048828125,172.2899932861328,171.52000427246094,1427100.0,166.35414123535156
2017-09-14,174.3699951171875,170.2899932861328,170.83999633789062,172.5800018310547,1942200.0,167.38221740722656
2017-09-15,174.1300048828125,171.85000610351562,172.61000061035156,172.99000549316406,2691100.0,167.77987670898438
2017-09-18,178.17999267578125,173.9499969482422,174.41000366210938,177.30999755859375,2820000.0,171.96974182128906
2017-09-19,178.02999877929688,176.0,177.57000732421875,177.1199951171875,2147100.0,171.78546142578125
2017-09-20,177.63999938964844,170.39999389648438,177.41000366210938,173.02000427246094,2341900.0,167.8089599609375
2017-09-21,173.5399932861328,170.1300048828125,173.1699981689453,172.27999877929688,2165700.0,167.0912628173828
2017-09-22,176.9600067138672,171.39999389648438,171.7100067138672,176.72999572753906,1582800.0,171.40724182128906
2017-09-25,176.0,170.0,176.0,170.1699981689453,2213000.0,165.0447998046875
2017-09-26,172.66000366210938,167.52000427246094,172.32000732421875,169.44000244140625,2549800.0,164.33677673339844
2017-09-27,180.6300048828125,173.05999755859375,175.10000610351562,179.38999938964844,3040300.0,173.9871063232422
2017-09-28,182.0800018310547,177.69000244140625,178.58999633789062,181.82000732421875,2061700.0,176.34393310546875
2017-09-29,185.22999572753906,181.4199981689453,182.89999389648438,185.0399932861328,1789300.0,179.4669189453125
2017-10-02,187.57000732421875,183.4499969482422,185.0399932861328,185.9499969482422,2101500.0,180.34951782226562
2017-10-03,186.6999969482422,182.82000732421875,186.50999450683594,184.8699951171875,1482600.0,179.30206298828125
2017-10-04,185.27000427246094,182.10000610351562,183.97000122070312,185.02000427246094,2364600.0,179.44754028320312
2017-10-05,185.57000732421875,180.7899932861328,185.27000427246094,182.82000732421875,1589300.0,177.3137969970703
2017-10-06,185.02999877929688,182.36000061035156,182.5800018310547,184.8300018310547,1016800.0,179.26324462890625
2017-10-09,185.9499969482422,183.72999572753906,185.0,184.66000366210938,1113100.0,179.09837341308594
2017-10-10,186.35000610351562,181.9499969482422,186.1300048828125,184.89999389648438,1570800.0,179.33114624023438
2017-10-11,186.2100067138672,183.9499969482422,184.22000122070312,186.17999267578125,1627900.0,180.5725860595703
2017-10-12,189.11000061035156,186.11000061035156,186.11000061035156,186.99000549316406,2138700.0,181.3582000732422
2017-10-13,190.30999755859375,187.52000427246094,188.63999938964844,189.89999389648438,1557100.0,184.18055725097656
2017-10-16,193.85000610351562,190.33999633789062,191.0,192.36000061035156,2836300.0,186.56646728515625
2017-10-17,195.49000549316406,191.89999389648438,195.08999633789062,194.5500030517578,3837000.0,188.69052124023438
2017-10-18,200.91000366210938,193.1199951171875,197.0800018310547,200.49000549316406,5396300.0,194.4516143798828
2017-10-19,201.0,194.92999267578125,198.38999938964844,200.97999572753906,3019500.0,194.9268798828125
2017-10-20,206.33999633789062,202.44000244140625,202.5,205.33999633789062,3105200.0,199.15554809570312
2017-10-23,208.41000366210938,204.0500030517578,206.22000122070312,205.88999938964844,2842600.0,199.68896484375
2017-10-24,206.75999450683594,203.27000427246094,206.6699981689453,205.83999633789062,1975600.0,199.6404571533203
2017-10-25,205.8000030517578,199.0,205.8000030517578,203.07000732421875,2662000.0,196.9539031982422
2017-10-26,208.64999389648438,204.27999877929688,204.6999969482422,206.77999877929688,1869200.0,200.5521697998047
2017-10-27,208.39999389648438,204.5,208.05999755859375,208.0,1984700.0,201.7354278564453
2017-10-30,208.1999969482422,204.5,206.8699951171875,206.1999969482422,1389500.0,199.9896240234375
2017-10-31,210.08999633789062,206.52000427246094,207.3300018310547,208.57000732421875,1646400.0,202.28826904296875
2017-11-01,210.4499969482422,200.5399932861328,210.4499969482422,202.9199981689453,2806400.0,196.8084259033203
2017-11-02,207.02000427246094,201.50999450683594,203.0,206.82000732421875,2365800.0,200.59097290039062
2017-11-03,207.9499969482422,205.02000427246094,207.1999969482422,207.07000732421875,1882800.0,200.8334503173828
2017-11-06,207.8699951171875,204.39999389648438,207.57000732421875,206.6699981689453,2248400.0,200.44549560546875
2017-11-07,209.85000610351562,206.5,206.5800018310547,209.19000244140625,1360200.0,202.8896026611328
2017-11-08,211.41000366210938,206.8800048828125,209.1999969482422,211.24000549316406,1565000.0,204.8778533935547
2017-11-09,209.8300018310547,203.25,209.3800048828125,206.2899932861328,2125100.0,200.07693481445312
2017-11-10,207.64999389648438,204.55999755859375,205.86000061035156,207.38999938964844,1715600.0,201.14378356933594
2017-11-13,209.3699951171875,204.55999755859375,205.3699951171875,209.22999572753906,1457600.0,202.9283905029297
2017-11-14,209.39999389648438,206.5500030517578,208.75999450683594,208.63999938964844,1005200.0,202.35617065429688
2017-11-15,210.85000610351562,206.0500030517578,210.0,207.86000061035156,2177800.0,201.5996551513672
2017-11-16,214.72000122070312,208.5,208.50999450683594,213.22000122070312,2259500.0,206.7982177734375
2017-11-17,217.0,209.5500030517578,216.8699951171875,210.47000122070312,1960200.0,204.1310577392578
2017-11-20,216.2100067138672,211.5500030517578,211.72000122070312,215.10000610351562,1949400.0,208.62159729003906
2017-11-21,219.6999969482422,216.5399932861328,217.14999389648438,218.91000366210938,2149400.0,212.3168487548828
2017-11-22,219.5,214.24000549316406,219.1999969482422,215.1699981689453,1882900.0,208.68946838378906
2017-11-24,217.52000427246094,215.6300048828125,216.0800018310547,216.8300018310547,808700.0,210.2994842529297
2017-11-27,213.4600067138672,208.0,212.57000732421875,210.92999267578125,2732700.0,204.57717895507812
2017-11-28,215.38999938964844,209.72999572753906,211.6300048828125,213.13999938964844,2496600.0,206.72064208984375
2017-11-29,211.8699951171875,189.25999450683594,211.64999389648438,194.63999938964844,7981000.0,188.77780151367188
2017-11-30,198.72999572753906,191.30999755859375,197.41000366210938,192.3300018310547,5047700.0,186.53738403320312
2017-12-01,191.27000427246094,180.69000244140625,190.0,187.80999755859375,5659600.0,182.1534881591797
2017-12-04,189.83999633789062,179.5,189.69000244140625,180.74000549316406,5351800.0,175.2964630126953
2017-12-05,186.77000427246094,175.8000030517578,180.0,180.52999877929688,5164800.0,175.57850646972656
2017-12-06,184.32000732421875,177.5,179.0500030517578,184.22999572753906,3991600.0,179.177001953125
2017-12-07,190.1199951171875,185.77000427246094,187.08999633789062,189.16000366210938,3334600.0,183.9718017578125
2017-12-08,193.0,186.02999877929688,191.25,186.4600067138672,3476300.0,181.34585571289062
2017-12-11,188.1999969482422,184.0,187.72000122070312,185.55999755859375,2803000.0,180.47052001953125
2017-12-12,185.3699951171875,181.13999938964844,184.5500030517578,181.57000732421875,2207200.0,176.58998107910156
2017-12-13,184.82000732421875,181.27999877929688,181.75,181.30999755859375,3228700.0,176.3371124267578
2017-12-14,184.42999267578125,180.99000549316406,181.3000030517578,182.10000610351562,2956700.0,177.10543823242188
2017-12-15,187.4600067138672,181.80999755859375,183.2899932861328,186.32000732421875,3977900.0,181.20970153808594
2017-12-18,190.80999755859375,186.6999969482422,187.64999389648438,189.07000732421875,3414000.0,183.88424682617188
2017-12-19,189.4199981689453,185.64999389648438,188.1300048828125,186.11000061035156,2391400.0,181.00543212890625
2017-12-20,191.83999633789062,187.3000030517578,190.89999389648438,188.8300018310547,3290600.0,183.65084838867188
2017-12-21,189.14999389648438,184.75,188.7899932861328,185.63999938964844,2671900.0,180.54833984375
2017-12-22,187.99000549316406,184.10000610351562,185.25,186.69000244140625,1580400.0,181.5695343017578
2017-12-26,186.69000244140625,182.30999755859375,184.25999450683594,184.30999755859375,1706500.0,179.25482177734375
2017-12-27,187.02999877929688,184.0,184.75999450683594,185.3699951171875,1610500.0,180.28575134277344
2017-12-28,187.0,184.89999389648438,185.94000244140625,185.5399932861328,1310100.0,180.45106506347656
2017-12-29,186.72000122070312,184.02000427246094,185.5800018310547,184.07000732421875,1381000.0,179.0214080810547
2018-01-02,189.52000427246094,183.8699951171875,185.14999389648438,189.27999877929688,2037300.0,184.0885009765625
2018-01-03,193.82000732421875,189.6199951171875,190.67999267578125,192.5,2583300.0,187.22019958496094
2018-01-04,196.85000610351562,193.14999389648438,195.0,193.3800048828125,2227200.0,188.07606506347656
2018-01-05,197.17999267578125,194.4499969482422,194.89999389648438,196.39999389648438,1713000.0,191.0132293701172
2018-01-08,199.49000549316406,196.25,196.3300018310547,197.8800048828125,2762700.0,192.45263671875
2018-01-09,199.75,193.3699951171875,198.22000122070312,197.57000732421875,2955000.0,192.15113830566406
2018-01-10,195.22999572753906,190.2899932861328,194.33999633789062,191.66000366210938,3510800.0,186.4032440185547
2018-01-11,192.82000732421875,188.41000366210938,192.05999755859375,189.1199951171875,2816400.0,183.93289184570312
2018-01-12,191.3800048828125,188.3000030517578,189.1199951171875,188.50999450683594,2788100.0,183.3396453857422
2018-01-16,195.82000732421875,188.39999389648438,192.17999267578125,190.38999938964844,4251100.0,185.16806030273438
2018-01-17,205.66000366210938,193.75,194.52999877929688,205.0800018310547,6416500.0,199.4551544189453
2018-01-18,206.35000610351562,199.75999450683594,203.0,205.4499969482422,4198800.0,199.8149871826172
2018-01-19,207.5500030517578,203.10000610351562,205.85000610351562,207.52999877929688,2615000.0,201.8379669189453
2018-01-22,209.83999633789062,207.1999969482422,208.39999389648438,209.19000244140625,2823100.0,203.45242309570312
2018-01-23,215.13999938964844,210.0,211.02999877929688,215.07000732421875,4339700.0,209.171142578125
2018-01-24,214.19000244140625,206.55999755859375,214.19000244140625,209.72999572753906,5464900.0,203.9776153564453
2018-01-25,218.47999572753906,199.0,216.0,199.25,8278800.0,193.7850341796875
2018-01-26,206.4199981689453,200.27999877929688,201.9499969482422,202.57000732421875,4761600.0,197.01402282714844
2018-01-29,202.27999877929688,193.27999877929688,201.24000549316406,195.97000122070312,4006000.0,190.5950164794922
2018-01-30,195.2899932861328,189.25,192.10000610351562,191.0800018310547,3794600.0,185.83914184570312
2018-01-31,193.8300018310547,190.25,192.91000366210938,191.52000427246094,2838400.0,186.26705932617188
2018-02-01,194.1300048828125,188.1999969482422,190.0,189.11000061035156,3053500.0,183.9231719970703
2018-02-02,186.82000732421875,178.3699951171875,186.7100067138672,179.05999755859375,5527600.0,174.14883422851562
2018-02-05,182.89999389648438,170.32000732421875,175.5,170.35000610351562,5895300.0,165.677734375
2018-02-06,179.0,167.32000732421875,168.5,178.33999633789062,5890300.0,173.44854736328125
2018-02-07,179.42999267578125,171.60000610351562,175.8300018310547,171.6300048828125,3403300.0,166.92262268066406
2018-02-08,173.07000732421875,162.2100067138672,172.66000366210938,162.22999572753906,4934400.0,157.7804412841797
2018-02-09,167.2899932861328,156.8300018310547,165.82000732421875,165.8699951171875,5937100.0,161.32058715820312
2018-02-12,174.47999572753906,167.27000427246094,168.41000366210938,172.9499969482422,4150700.0,168.2063751220703
2018-02-13,172.72999572753906,168.1199951171875,171.57000732421875,172.55999755859375,2841600.0,167.8271026611328
2018-02-14,183.08999633789062,171.0,171.39999389648438,183.00999450683594,5837000.0,177.99049377441406
2018-02-15,185.77999877929688,179.1199951171875,182.97000122070312,185.7100067138672,4179200.0,180.61642456054688
2018-02-16,191.2100067138672,184.64999389648438,184.75999450683594,187.91000366210938,4335600.0,182.75608825683594
2018-02-20,196.0500030517578,186.41000366210938,186.92999267578125,193.44000244140625,3296500.0,188.13441467285156
2018-02-21,195.0,189.1999969482422,194.5500030517578,189.22999572753906,3271300.0,184.03988647460938
2018-02-22,190.44000244140625,186.92999267578125,190.16000366210938,188.36000061035156,1752900.0,183.19374084472656
2018-02-23,193.6699981689453,188.61000061035156,190.24000549316406,193.10000610351562,2227300.0,187.80374145507812
2018-02-26,198.97000122070312,193.14999389648438,194.57000732421875,198.42999267578125,2363100.0,192.98751831054688
2018-02-27,199.7899932861328,193.3699951171875,198.14999389648438,193.47000122070312,2822300.0,188.16358947753906
2018-02-28,196.6699981689453,191.3300018310547,194.44000244140625,191.86000061035156,3608300.0,186.5977325439453
2018-03-01,195.63999938964844,188.1199951171875,192.49000549316406,190.07000732421875,3003600.0,184.8568572998047
2018-03-02,194.88999938964844,182.16000366210938,185.0500030517578,194.52999877929688,2775800.0,189.19451904296875
2018-03-05,200.02000427246094,191.24000549316406,192.8300018310547,198.6999969482422,3292400.0,193.25013732910156
2018-03-06,209.5,199.50999450683594,200.13999938964844,207.94000244140625,7636300.0,202.7468719482422
2018-03-07,212.36000061035156,204.13999938964844,205.8300018310547,211.74000549316406,5625600.0,206.4519805908203
2018-03-08,214.94000244140625,210.9499969482422,214.0,212.74000549316406,3780400.0,207.42701721191406
2018-03-09,226.0800018310547,213.94000244140625,214.27999877929688,224.9499969482422,6656800.0,219.3320770263672
2018-03-12,230.0,223.0,225.5,228.64999389648438,4928800.0,222.93966674804688
2018-03-13,234.8800048828125,222.42999267578125,230.0399932861328,223.97000122070312,4946200.0,218.37655639648438
2018-03-14,226.1300048828125,221.05999755859375,223.0,222.63999938964844,3291900.0,217.07977294921875
2018-03-15,227.0,222.5500030517578,224.0,223.0800018310547,2446200.0,217.50877380371094
2018-03-16,225.0,221.2899932861328,224.17999267578125,221.9199981689453,2495800.0,216.3777313232422
2018-03-19,219.0399932861328,212.0500030517578,218.36000061035156,217.5800018310547,4098100.0,212.14614868164062
2018-03-20,221.19000244140625,217.9499969482422,218.49000549316406,219.1300048828125,2223800.0,213.65740966796875
2018-03-21,227.82000732421875,221.00999450683594,221.8699951171875,224.27999877929688,3567500.0,218.67880249023438
2018-03-22,222.92999267578125,214.64999389648438,220.5,214.82000732421875,3249500.0,209.455078125
2018-03-23,215.47000122070312,202.55999755859375,214.0500030517578,202.6300048828125,5223500.0,197.5695037841797
2018-03-26,215.02000427246094,207.27000427246094,210.64999389648438,214.9600067138672,3458800.0,209.59156799316406
2018-03-27,219.4600067138672,200.66000366210938,219.22999572753906,202.6199951171875,4292300.0,197.5597381591797
2018-03-28,201.75,194.25999450683594,199.6300048828125,196.2100067138672,3523900.0,191.3098602294922
2018-03-29,207.5,196.97999572753906,198.10000610351562,203.16000366210938,3578200.0,198.08627319335938
2018-04-02,202.88999938964844,191.35000610351562,201.49000549316406,193.8699951171875,3550500.0,189.0282745361328
2018-04-03,199.57000732421875,193.94000244140625,197.9199981689453,197.97000122070312,2682400.0,193.02587890625
2018-04-04,202.66000366210938,190.5,190.5,201.6699981689453,3699700.0,196.63348388671875
2018-04-05,203.41000366210938,192.2100067138672,202.67999267578125,195.02000427246094,3533900.0,190.14956665039062
2018-04-06,196.27000427246094,189.08999633789062,190.91000366210938,190.64999389648438,3123900.0,185.88870239257812
2018-04-09,199.72000122070312,192.11000061035156,192.8300018310547,193.1199951171875,2656700.0,188.2969970703125
2018-04-10,202.05999755859375,196.1300048828125,198.91000366210938,200.1699981689453,2707700.0,195.17091369628906
2018-04-11,203.4600067138672,197.7100067138672,198.25,200.86000061035156,2449800.0,195.8437042236328
2018-04-12,206.94000244140625,202.25,203.82000732421875,206.02000427246094,3084300.0,200.87484741210938
2018-04-13,208.5800018310547,202.77000427246094,208.5500030517578,203.74000549316406,2161400.0,198.6517791748047
2018-04-16,205.91000366210938,201.60000610351562,205.25,203.5500030517578,1941100.0,198.46652221679688
2018-04-17,212.85000610351562,206.25999450683594,207.22000122070312,212.3300018310547,6084500.0,207.02725219726562
2018-04-18,204.55999755859375,196.5,200.24000549316406,203.77000427246094,9114900.0,198.68104553222656
2018-04-19,201.13999938964844,188.7899932861328,198.5800018310547,190.38999938964844,8773400.0,185.6351776123047
2018-04-20,195.05999755859375,189.99000549316406,190.7100067138672,191.91000366210938,4980700.0,187.11721801757812
2018-04-23,196.39999389648438,190.44000244140625,193.5,191.86000061035156,3488900.0,187.06846618652344
2018-04-24,195.44000244140625,182.61000061035156,193.8699951171875,185.82000732421875,5034700.0,181.1793212890625
2018-04-25,189.5800018310547,181.6699981689453,185.99000549316406,186.6699981689453,3124800.0,182.00808715820312
2018-04-26,192.99000549316406,188.82000732421875,190.88999938964844,190.39999389648438,3611300.0,185.6449432373047
2018-04-27,192.69000244140625,185.60000610351562,192.27999877929688,187.25999450683594,3044800.0,182.58334350585938
2018-04-30,188.88999938964844,183.9600067138672,187.35000610351562,185.05999755859375,2990200.0,180.4382781982422
2018-05-01,190.5800018310547,183.74000549316406,184.13999938964844,190.38999938964844,2833700.0,185.6351776123047
2018-05-02,191.9499969482422,188.2899932861328,190.2899932861328,189.52000427246094,2194800.0,184.7869110107422
2018-05-03,190.52999877929688,185.61000061035156,187.75,189.42999267578125,2181500.0,184.69915771484375
2018-05-04,196.8800048828125,187.6300048828125,188.0,195.47000122070312,3282700.0,190.5883026123047
2018-05-07,196.9499969482422,192.72000122070312,196.11000061035156,193.47999572753906,3304700.0,188.64801025390625
2018-05-08,195.75,192.05999755859375,192.60000610351562,194.86000061035156,2148100.0,189.99354553222656
2018-05-09,200.02000427246094,195.14999389648438,195.60000610351562,199.72000122070312,2390900.0,194.732177734375
2018-05-10,204.38999938964844,200.6699981689453,201.22999572753906,204.00999450683594,1890300.0,198.91502380371094
2018-05-11,204.75999450683594,200.88999938964844,202.4199981689453,201.5500030517578,1945500.0,196.5164794921875
2018-05-14,209.9199981689453,203.1999969482422,205.10000610351562,204.02999877929688,3343700.0,198.93453979492188
2018-05-15,204.3000030517578,199.77000427246094,203.41000366210938,202.19000244140625,1921400.0,197.14048767089844
2018-05-16,208.19000244140625,202.66000366210938,203.41000366210938,206.91000366210938,2254500.0,201.7425994873047
2018-05-17,206.3699951171875,201.72999572753906,205.66000366210938,203.3300018310547,2607700.0,198.25201416015625
2018-05-18,197.8800048828125,192.17999267578125,195.25,195.49000549316406,5250100.0,190.60780334472656
2018-05-21,200.94000244140625,196.5,199.33999633789062,199.8699951171875,2534600.0,194.87841796875
2018-05-22,205.32000732421875,202.0,202.25,202.97999572753906,2778800.0,197.91075134277344
2018-05-23,203.97000122070312,199.8000030517578,199.97999572753906,203.30999755859375,1968800.0,198.23251342773438
2018-05-24,204.9499969482422,200.7899932861328,203.5500030517578,204.3699951171875,2124000.0,199.2660369873047
2018-05-25,203.88999938964844,201.17999267578125,202.97999572753906,202.02999877929688,2263700.0,196.98448181152344
2018-05-29,202.91000366210938,198.25999450683594,200.27999877929688,200.27999877929688,2049500.0,195.27816772460938
2018-05-30,204.74000549316406,200.6999969482422,202.1300048828125,201.8300018310547,2812100.0,196.7894744873047
2018-05-31,202.10000610351562,197.85000610351562,200.66000366210938,198.17999267578125,3078300.0,193.23060607910156
2018-06-01,203.77999877929688,198.69000244140625,200.0,202.67999267578125,3437100.0,197.6182403564453
2018-06-04,205.9499969482422,200.58999633789062,202.47000122070312,204.58999633789062,2805900.0,199.4805450439453
2018-06-05,205.47000122070312,201.42999267578125,204.66000366210938,201.83999633789062,2507900.0,197.86305236816406
2018-06-06,202.52000427246094,196.8800048828125,202.47999572753906,199.61000061035156,3925400.0,195.677001953125
2018-06-07,192.77999877929688,184.80999755859375,192.25999450683594,188.8300018310547,12775200.0,185.10939025878906
2018-06-08,188.2899932861328,185.39999389648438,186.1300048828125,188.02999877929688,5272600.0,184.32516479492188
2018-06-11,187.8300018310547,183.19000244140625,187.64999389648438,183.7100067138672,5443400.0,180.09030151367188
2018-06-12,187.02000427246094,183.35000610351562,184.89999389648438,186.92999267578125,3661500.0,183.246826171875
2018-06-13,188.5,184.02999877929688,184.2100067138672,184.58999633789062,4489500.0,180.95294189453125
2018-06-14,186.5500030517578,180.97000122070312,185.1699981689453,181.1699981689453,4386600.0,177.60032653808594
2018-06-15,180.89999389648438,178.0,179.25999450683594,178.41000366210938,4355300.0,174.89471435546875
2018-06-18,176.6999969482422,174.0,176.6300048828125,174.1999969482422,4518700.0,170.7676544189453
2018-06-19,174.8300018310547,170.50999450683594,170.89999389648438,173.35000610351562,3736200.0,169.9344024658203
2018-06-20,176.2899932861328,173.19000244140625,175.47999572753906,174.5399932861328,2775900.0,171.1009521484375
2018-06-21,179.25,175.38999938964844,178.1699981689453,176.0500030517578,3282700.0,172.58120727539062
2018-06-22,177.60000610351562,172.94000244140625,177.49000549316406,174.6999969482422,2950300.0,171.2578125
2018-06-25,173.0,167.6199951171875,172.2100067138672,171.00999450683594,3618000.0,167.64051818847656
2018-06-26,175.75,171.74000549316406,175.52000427246094,173.92999267578125,3505800.0,170.5029754638672
2018-06-27,175.49000549316406,169.7899932861328,175.0,169.8000030517578,2685800.0,166.454345703125
2018-06-28,171.13999938964844,166.3699951171875,168.00999450683594,170.8699951171875,3354600.0,167.50326538085938
2018-06-29,174.83999633789062,172.24000549316406,172.5500030517578,172.85000610351562,3201600.0,169.44427490234375
2018-07-02,173.27000427246094,168.61000061035156,169.99000549316406,173.0500030517578,2115300.0,169.64031982421875
2018-07-03,173.5,166.88999938964844,173.19000244140625,167.25,2048400.0,163.95458984375
2018-07-05,172.3000030517578,169.2899932861328,169.30999755859375,171.82000732421875,2386200.0,168.43455505371094
2018-07-06,174.08999633789062,169.0,171.3000030517578,173.86000061035156,2354300.0,170.43435668945312
2018-07-09,177.1199951171875,172.3000030517578,175.72999572753906,177.02000427246094,2055900.0,173.53208923339844
2018-07-10,177.92999267578125,175.10000610351562,177.02000427246094,176.39999389648438,1977100.0,172.92430114746094
2018-07-11,175.99000549316406,168.82000732421875,174.5,169.25999450683594,3450900.0,165.92498779296875
2018-07-12,173.4199981689453,169.72000122070312,170.11000061035156,171.32000732421875,2687100.0,167.9444122314453
2018-07-13,174.1999969482422,171.27000427246094,172.25999450683594,171.7899932861328,2132300.0,168.40513610839844
2018-07-16,172.89999389648438,170.77000427246094,171.1199951171875,171.7899932861328,1873500.0,168.40513610839844
2018-07-17,178.0399932861328,170.52999877929688,170.52999877929688,177.24000549316406,2419400.0,173.7477569580078
2018-07-18,183.8800048828125,179.0500030517578,183.0399932861328,181.32000732421875,3297100.0,177.7473907470703
2018-07-19,181.47000122070312,177.8300018310547,180.11000061035156,178.22999572753906,2015200.0,174.71824645996094
2018-07-20,178.44000244140625,175.89999389648438,178.17999267578125,177.80999755859375,1720800.0,174.30653381347656
2018-07-23,176.5,171.52999877929688,176.3000030517578,174.83999633789062,2295400.0,171.39503479003906
2018-07-24,179.19000244140625,173.0,176.17999267578125,173.38999938964844,2300200.0,169.97361755371094
2018-07-25,174.3800048828125,170.44000244140625,173.49000549316406,172.8000030517578,2232300.0,169.39523315429688
2018-07-26,177.63999938964844,172.0,172.25999450683594,177.25999450683594,3841600.0,173.76736450195312
2018-07-27,193.4499969482422,184.55999755859375,185.0,190.02000427246094,8073700.0,186.2759552001953
2018-07-30,190.0,185.8800048828125,189.49000549316406,187.83999633789062,3412000.0,184.13890075683594
2018-07-31,196.6999969482422,189.74000549316406,190.07000732421875,190.63999938964844,3417700.0,186.88372802734375
2018-08-01,190.8000030517578,185.83999633789062,189.8699951171875,186.2899932861328,2559000.0,182.61944580078125
2018-08-02,188.0800018310547,183.6199951171875,183.77999877929688,187.10000610351562,1819200.0,183.4134979248047
2018-08-03,188.08999633789062,185.8300018310547,186.8000030517578,187.2899932861328,1507500.0,183.5997314453125
2018-08-06,188.5800018310547,186.16000366210938,186.2100067138672,188.30999755859375,1793000.0,184.59962463378906
2018-08-07,188.97999572753906,183.64999389648438,188.75,185.91000366210938,2727700.0,182.24693298339844
2018-08-08,190.5,184.7100067138672,185.0500030517578,190.02000427246094,2128800.0,186.2759552001953
2018-08-09,187.63999938964844,182.74000549316406,186.67999267578125,184.49000549316406,3289800.0,180.85491943359375
2018-08-10,181.42999267578125,177.44000244140625,180.57000732421875,178.10000610351562,2962300.0,174.5908203125
2018-08-13,179.10000610351562,176.0500030517578,178.86000061035156,178.14999389648438,2184300.0,174.6398162841797
2018-08-14,179.64999389648438,176.4199981689453,178.5800018310547,176.69000244140625,1920100.0,173.20860290527344
2018-08-15,174.82000732421875,170.88999938964844,174.44000244140625,172.8300018310547,2915400.0,169.42466735839844
2018-08-16,176.6999969482422,172.3000030517578,173.8800048828125,174.2899932861328,2600400.0,170.8558807373047
2018-08-17,171.1199951171875,166.32000732421875,170.86000061035156,169.91000366210938,4219300.0,166.56219482421875
2018-08-20,172.00999450683594,166.97000122070312,169.57000732421875,171.27999877929688,2537400.0,167.9051971435547
2018-08-21,175.5,171.5800018310547,172.25999450683594,174.38999938964844,2719400.0,170.9539031982422
2018-08-22,175.08999633789062,172.6999969482422,173.42999267578125,173.0800018310547,1718100.0,169.66973876953125
2018-08-23,174.4499969482422,172.3000030517578,172.58999633789062,172.77000427246094,2222000.0,169.3658447265625
2018-08-24,174.14999389648438,171.44000244140625,174.0399932861328,172.4600067138672,2012300.0,169.06195068359375
2018-08-27,178.0800018310547,172.9499969482422,173.0,176.2100067138672,3168700.0,172.73806762695312
2018-08-28,174.32000732421875,170.8000030517578,173.22999572753906,174.13999938964844,3547600.0,170.70884704589844
2018-08-29,174.94000244140625,171.8699951171875,173.27999877929688,172.6199951171875,2319600.0,169.21878051757812
2018-08-30,174.6199951171875,172.14999389648438,172.5,172.47000122070312,2155000.0,169.07174682617188
2018-08-31,174.6699981689453,171.72000122070312,172.27999877929688,173.08999633789062,2212200.0,169.6795196533203
2018-09-04,172.9199981689453,168.33999633789062,171.75,171.9600067138672,2606000.0,168.57179260253906
2018-09-05,172.32000732421875,169.1699981689453,170.61000061035156,172.0399932861328,2923300.0,168.6501922607422
2018-09-06,170.85000610351562,159.99000549316406,170.3000030517578,160.0500030517578,5666100.0,156.89645385742188
2018-09-07,161.4199981689453,158.52000427246094,158.60000610351562,159.5800018310547,3193200.0,156.43572998046875
2018-09-10,161.4499969482422,158.25,161.42999267578125,159.4600067138672,2292700.0,156.31809997558594
2018-09-11,156.1999969482422,153.19000244140625,155.0,155.39999389648438,3501200.0,153.396240234375
2018-09-12,151.8000030517578,149.02000427246094,150.25,150.3699951171875,5001800.0,148.4311065673828
2018-09-13,154.41000366210938,151.02000427246094,152.0,153.1199951171875,3150400.0,151.14564514160156
2018-09-14,155.74000549316406,151.88999938964844,153.75999450683594,153.4600067138672,2485200.0,151.4812774658203
2018-09-17,154.4199981689453,151.82000732421875,152.83999633789062,152.10000610351562,1940900.0,150.13880920410156
2018-09-18,155.47000122070312,152.36000061035156,152.36000061035156,153.64999389648438,1527000.0,151.6688232421875
2018-09-19,155.36000061035156,152.72000122070312,155.36000061035156,153.19000244140625,2101400.0,151.21475219726562
2018-09-20,157.0399932861328,154.3300018310547,154.86000061035156,155.27999877929688,2450200.0,153.27780151367188
2018-09-21,156.5500030517578,153.50999450683594,153.50999450683594,155.67999267578125,4191000.0,153.67263793945312
2018-09-24,155.2899932861328,152.50999450683594,154.9600067138672,154.74000549316406,1980000.0,152.74476623535156
2018-09-25,155.00999450683594,150.50999450683594,155.00999450683594,151.2899932861328,3430200.0,149.3392333984375
2018-09-26,151.75999450683594,147.5399932861328,148.0500030517578,148.80999755859375,3451400.0,146.8912353515625
2018-09-27,151.74000549316406,148.5399932861328,150.2100067138672,150.57000732421875,2238400.0,148.6285400390625
2018-09-28,153.3000030517578,149.13999938964844,150.47999572753906,151.6999969482422,2155200.0,149.74395751953125
2018-10-01,151.86000061035156,149.17999267578125,150.6300048828125,150.24000549316406,2359500.0,148.3027801513672
2018-10-02,154.85000610351562,149.27999877929688,149.5,151.0800018310547,2803300.0,149.1319580078125
2018-10-03,153.30999755859375,150.22000122070312,151.83999633789062,152.1699981689453,1674500.0,150.20790100097656
2018-10-04,151.0,147.6300048828125,150.97000122070312,149.00999450683594,2698200.0,147.08863830566406
2018-10-05,150.4499969482422,146.8000030517578,148.77000427246094,147.89999389648438,2336500.0,145.99295043945312
2018-10-08,149.11000061035156,145.3000030517578,147.1999969482422,146.0800018310547,2440400.0,144.19642639160156
2018-10-09,146.0,141.35000610351562,145.6199951171875,144.47000122070312,3902100.0,142.60719299316406
2018-10-10,143.6699981689453,138.75999450683594,142.39999389648438,139.77999877929688,4553900.0,137.9776611328125
2018-10-11,142.8800048828125,135.99000549316406,140.77999877929688,137.6199951171875,3971600.0,135.84552001953125
2018-10-12,146.63999938964844,140.77000427246094,142.97999572753906,143.61000061035156,3765400.0,141.75828552246094
2018-10-15,144.19000244140625,140.36000061035156,142.0,142.50999450683594,2699800.0,140.67245483398438
2018-10-16,146.4499969482422,143.27000427246094,144.22000122070312,145.27000427246094,4536300.0,143.39688110351562
2018-10-17,153.9600067138672,146.1999969482422,152.5,147.17999267578125,8786100.0,145.2822265625
2018-10-18,146.5399932861328,143.41000366210938,145.67999267578125,145.08999633789062,4326300.0,143.2191925048828
2018-10-19,148.5500030517578,144.4199981689453,145.6199951171875,145.1999969482422,4117500.0,143.32777404785156
2018-10-22,147.58999633789062,143.63999938964844,146.72999572753906,144.27000427246094,2741200.0,142.40975952148438
2018-10-23,147.66000366210938,139.5800018310547,139.60000610351562,146.38999938964844,3865400.0,144.50242614746094
2018-10-24,145.22999572753906,139.14999389648438,144.25,139.30999755859375,3910200.0,137.5137176513672
2018-10-25,144.0500030517578,139.38999938964844,141.0,142.55999755859375,3134600.0,140.72181701660156
2018-10-26,142.25999450683594,136.55999755859375,138.4600067138672,139.10000610351562,3769900.0,137.3064422607422
2018-10-29,142.52000427246094,133.4199981689453,140.77999877929688,135.77999877929688,3766700.0,134.02923583984375
2018-10-30,141.0800018310547,134.86000061035156,135.8300018310547,139.27000427246094,4018100.0,137.4742431640625
2018-10-31,143.07000732421875,140.22000122070312,141.66000366210938,141.72999572753906,2805500.0,139.9025115966797
2018-11-01,152.0399932861328,142.5,142.63999938964844,151.86000061035156,5792100.0,149.9019012451172
2018-11-02,154.10000610351562,150.07000732421875,152.92999267578125,151.50999450683594,2911600.0,149.55641174316406
2018-11-05,151.5,145.47000122070312,151.32000732421875,147.61000061035156,2217800.0,145.70669555664062
2018-11-06,152.38999938964844,146.5,146.77999877929688,152.07000732421875,3236800.0,150.10919189453125
2018-11-07,154.0,151.1699981689453,153.99000549316406,151.69000244140625,2577500.0,149.7340850830078
2018-11-08,153.30999755859375,149.24000549316406,149.8699951171875,151.67999267578125,1245900.0,149.72421264648438
2018-11-09,150.86000061035156,146.88999938964844,149.57000732421875,147.85000610351562,1872200.0,145.94361877441406
2018-11-12,146.00999450683594,142.07000732421875,145.5500030517578,142.91000366210938,2439100.0,141.0673065185547
2018-11-13,147.1300048828125,143.11000061035156,145.07000732421875,143.9499969482422,2885600.0,142.09390258789062
2018-11-14,147.66000366210938,141.5800018310547,145.6199951171875,142.74000549316406,2439900.0,140.8994903564453
2018-11-15,147.77999877929688,141.60000610351562,142.1699981689453,146.39999389648438,3211000.0,144.51229858398438
2018-11-16,150.66000366210938,141.6199951171875,142.52000427246094,148.0,3791100.0,146.09165954589844
2018-11-19,148.5800018310547,143.5500030517578,146.88999938964844,143.74000549316406,2539900.0,141.88661193847656
2018-11-20,149.11000061035156,139.8699951171875,140.24000549316406,143.4499969482422,5228200.0,141.60032653808594
2018-11-21,147.5800018310547,144.33999633789062,145.9199981689453,144.52000427246094,2289500.0,142.6565399169922
2018-11-23,147.2100067138672,142.88999938964844,142.88999938964844,143.94000244140625,866900.0,142.0840301513672
2018-11-26,146.9600067138672,144.1699981689453,146.5,146.8000030517578,1565100.0,144.9071502685547
2018-11-27,147.7899932861328,144.88999938964844,145.41000366210938,146.8300018310547,2009800.0,144.93675231933594
2018-11-28,153.9199981689453,145.00999450683594,147.58999633789062,153.83999633789062,3195700.0,151.8563690185547
2018-11-29,154.9199981689453,151.82000732421875,152.32000732421875,152.75,1932100.0,150.78042602539062
2018-11-30,157.17999267578125,150.8300018310547,153.0,156.9600067138672,3687800.0,154.93614196777344
2018-12-03,162.8699951171875,158.25,161.0,161.02000427246094,3683700.0,158.94378662109375
2018-12-04,159.0,148.50999450683594,158.52999877929688,149.69000244140625,5228200.0,148.7762451171875
2018-12-06,147.41000366210938,142.0500030517578,145.0,145.72999572753906,5566400.0,144.8404083251953
2018-12-07,145.69000244140625,137.44000244140625,145.6199951171875,138.02999877929688,3084600.0,137.18740844726562
2018-12-10,139.22000122070312,135.16000366210938,137.30999755859375,137.82000732421875,2734000.0,136.97869873046875
2018-12-11,144.77000427246094,137.38999938964844,140.41000366210938,138.2899932861328,2213500.0,137.44581604003906
2018-12-12,141.75999450683594,137.39999389648438,141.07000732421875,138.4499969482422,3016900.0,137.60484313964844
2018-12-13,140.55999755859375,137.72999572753906,139.50999450683594,138.75999450683594,1669600.0,137.91294860839844
2018-12-14,137.47000122070312,133.9199981689453,136.1300048828125,135.3699951171875,3384900.0,134.5436553955078
2018-12-17,139.17999267578125,133.94000244140625,135.02999877929688,135.67999267578125,2468000.0,134.8517608642578
2018-12-18,142.35000610351562,136.27999877929688,137.02999877929688,137.92999267578125,2500100.0,137.0880126953125
2018-12-19,140.42999267578125,129.92999267578125,135.58999633789062,131.1199951171875,3624400.0,130.31959533691406
2018-12-20,132.9499969482422,126.6500015258789,132.1199951171875,128.30999755859375,4369800.0,127.52674865722656
2018-12-21,131.99000549316406,126.73999786376953,129.11000061035156,127.16000366210938,3913100.0,126.38377380371094
2018-12-24,127.41999816894531,123.22000122070312,126.56999969482422,123.27999877929688,1305200.0,122.52745819091797
2018-12-26,130.94000244140625,122.63999938964844,124.97000122070312,130.83999633789062,3238800.0,130.0413055419922
2018-12-27,133.2899932861328,127.51000213623047,127.91000366210938,133.27999877929688,1813700.0,132.46641540527344
2018-12-28,138.0399932861328,133.32000732421875,133.60000610351562,135.4199981689453,2287600.0,134.59335327148438
2018-12-31,137.89999389648438,134.30999755859375,136.77999877929688,136.1699981689453,1597200.0,135.33877563476562
