Date,High,Low,Open,Close,Volume,Adj Close
2016-01-04,87.2699966430664,85.55000305175781,86.27999877929688,87.18000030517578,2657300.0,76.51903533935547
2016-01-05,88.33999633789062,86.25,87.81999969482422,87.63999938964844,2333600.0,76.92278289794922
2016-01-06,85.56999969482422,82.66000366210938,85.11000061035156,83.51000213623047,3824000.0,73.2978286743164
2016-01-07,82.56999969482422,79.62000274658203,82.37999725341797,80.08999633789062,5271000.0,70.2960433959961
2016-01-08,81.52999877929688,79.1500015258789,80.5199966430664,79.58999633789062,4011900.0,69.85718536376953
2016-01-11,78.9800033569336,75.52999877929688,78.83000183105469,76.33000183105469,6072700.0,66.99584197998047
2016-01-12,78.2699966430664,75.83999633789062,77.44000244140625,78.1500015258789,4539500.0,68.5932846069336
2016-01-13,79.75,74.81999969482422,79.75,74.94000244140625,5040500.0,65.77584075927734
2016-01-14,77.66999816894531,73.94000244140625,74.91000366210938,76.37000274658203,4797900.0,67.03096008300781
2016-01-15,75.93000030517578,74.13999938964844,74.72000122070312,74.9800033569336,4970400.0,65.81092834472656
2016-01-19,75.97000122070312,72.18000030517578,75.0199966430664,73.9800033569336,5176100.0,64.9332275390625
2016-01-20,73.41000366210938,69.0999984741211,71.73999786376953,72.33999633789062,5215700.0,63.49375915527344
2016-01-21,74.79000091552734,71.55000305175781,72.43000030517578,74.58999633789062,4437500.0,65.4686279296875
2016-01-22,80.0,77.12999725341797,77.43000030517578,78.48999786376953,6191400.0,68.89169311523438
2016-01-25,78.58000183105469,75.80000305175781,78.5,75.83999633789062,4050100.0,66.5657730102539
2016-01-26,77.66999816894531,75.55000305175781,76.44000244140625,77.62000274658203,3629700.0,68.12810516357422
2016-01-27,78.62000274658203,76.0199966430664,77.20999908447266,76.70999908447266,2994100.0,67.32937622070312
2016-01-28,80.19000244140625,77.16000366210938,78.75,77.38999938964844,3831900.0,67.92620849609375
2016-01-29,78.51000213623047,76.08000183105469,77.51000213623047,77.97000122070312,5172200.0,68.43529510498047
2016-02-01,77.95999908447266,76.0,77.58999633789062,77.25,5507600.0,67.80333709716797
2016-02-02,76.27999877929688,73.81999969482422,75.2300033569336,75.19999694824219,5035900.0,66.00402069091797
2016-02-03,76.44999694824219,71.5,75.38999938964844,75.4800033569336,6170100.0,66.24980163574219
2016-02-04,80.45999908447266,75.81999969482422,75.81999969482422,79.66000366210938,5614900.0,69.91863250732422
2016-02-05,81.3499984741211,78.62999725341797,78.83999633789062,79.75,5351900.0,69.99762725830078
2016-02-08,78.33999633789062,73.13999938964844,78.30999755859375,75.72000122070312,5161600.0,66.46043395996094
2016-02-09,76.47000122070312,74.06999969482422,75.0,75.72000122070312,3705200.0,66.46043395996094
2016-02-10,77.61000061035156,74.55000305175781,75.58999633789062,75.0199966430664,2236800.0,65.84602355957031
2016-02-11,74.73999786376953,72.1500015258789,73.30000305175781,73.43000030517578,4018800.0,64.45049285888672
2016-02-12,76.52999877929688,73.44000244140625,74.87000274658203,76.45999908447266,3533100.0,67.10995483398438
2016-02-16,78.38999938964844,76.9000015258789,77.61000061035156,77.93000030517578,3706600.0,68.40019226074219
2016-02-17,81.04000091552734,78.55000305175781,79.0,79.0999984741211,3789400.0,69.42710876464844
2016-02-18,80.25,78.72000122070312,79.5,80.19999694824219,3711600.0,70.39259338378906
2016-02-19,80.0,77.93000030517578,79.66000366210938,78.13999938964844,3250100.0,68.58450317382812
2016-02-22,81.38999938964844,78.13999938964844,78.13999938964844,80.55999755859375,2729500.0,70.70857238769531
2016-02-23,80.30999755859375,76.58999633789062,80.08999633789062,77.0,2662100.0,67.58391571044922
2016-02-24,78.41000366210938,75.04000091552734,76.0,78.25,3358200.0,68.6810531616211
2016-02-25,78.55999755859375,76.33000183105469,77.45999908447266,78.18000030517578,2537300.0,69.31051635742188
2016-02-26,81.16000366210938,79.47000122070312,80.63999938964844,80.16999816894531,3526800.0,71.07473754882812
2016-02-29,82.01000213623047,79.94000244140625,80.5199966430664,80.20999908447266,4193300.0,71.11019897460938
2016-03-01,81.61000061035156,79.75,81.08999633789062,80.88999938964844,3816800.0,71.71306610107422
2016-03-02,81.56999969482422,79.38999938964844,81.36000061035156,80.43000030517578,3638600.0,71.30525207519531
2016-03-03,80.9000015258789,79.72000122070312,80.16999816894531,79.9000015258789,3602800.0,70.83536529541016
2016-03-04,83.23999786376953,79.75,80.38999938964844,82.0,5472400.0,72.6971206665039
2016-03-07,84.26000213623047,81.93000030517578,82.12000274658203,84.23999786376953,3567300.0,74.68299865722656
2016-03-08,84.08000183105469,80.54000091552734,83.19000244140625,80.58000183105469,6366400.0,71.438232421875
2016-03-09,82.91999816894531,80.88999938964844,81.94999694824219,82.58999633789062,7156100.0,73.22019958496094
2016-03-10,85.04000091552734,82.36000061035156,82.68000030517578,84.9800033569336,4738600.0,75.33905792236328
2016-03-11,87.83000183105469,86.25,86.48999786376953,87.4800033569336,4436600.0,77.55542755126953
2016-03-14,87.44999694824219,84.63999938964844,86.80999755859375,84.75,4337400.0,75.13513946533203
2016-03-15,84.6500015258789,82.5199966430664,83.69999694824219,84.22000122070312,4304400.0,74.66527557373047
2016-03-16,86.41999816894531,83.30000305175781,83.30000305175781,86.33000183105469,3289100.0,76.53588104248047
2016-03-17,89.18000030517578,86.54000091552734,86.55000305175781,88.5999984741211,4898200.0,78.54835510253906
2016-03-18,89.98999786376953,86.79000091552734,89.72000122070312,87.62000274658203,9606400.0,77.6795425415039
2016-03-21,88.16000366210938,85.52999877929688,87.62000274658203,86.19999694824219,3486000.0,76.4206314086914
2016-03-22,86.69999694824219,84.8499984741211,85.79000091552734,86.06999969482422,2974800.0,76.30538940429688
2016-03-23,85.91999816894531,84.26000213623047,85.8499984741211,84.70999908447266,3714200.0,75.09967803955078
2016-03-24,85.4000015258789,83.29000091552734,83.61000061035156,85.37000274658203,2736400.0,75.68479919433594
2016-03-28,85.58000183105469,84.66000366210938,85.52999877929688,85.11000061035156,1805400.0,75.45430755615234
2016-03-29,85.30999755859375,83.6500015258789,84.37999725341797,85.19000244140625,2851500.0,75.52523803710938
2016-03-30,86.91000366210938,85.38999938964844,85.9000015258789,85.9000015258789,2704600.0,76.1546859741211
2016-03-31,87.2300033569336,85.4000015258789,86.06999969482422,85.58000183105469,2413200.0,75.87098693847656
2016-04-01,86.91000366210938,83.58000183105469,84.5,86.83000183105469,2740600.0,76.97916412353516
2016-04-04,87.68000030517578,85.97000122070312,86.73999786376953,86.16000366210938,2082000.0,76.38517761230469
2016-04-05,85.29000091552734,84.23999786376953,84.87000274658203,84.87000274658203,2559400.0,75.24153900146484
2016-04-06,86.33999633789062,84.02999877929688,85.11000061035156,86.2300033569336,2850600.0,76.4472427368164
2016-04-07,86.0999984741211,84.11000061035156,85.38999938964844,84.38999938964844,2166500.0,74.81597900390625
2016-04-08,86.7699966430664,82.23999786376953,85.7699966430664,83.87000274658203,6172900.0,74.35496520996094
2016-04-11,86.6500015258789,84.47000122070312,84.69000244140625,85.19000244140625,2582200.0,75.52523803710938
2016-04-12,88.16000366210938,85.44999694824219,85.81999969482422,87.87999725341797,3383400.0,77.91004180908203
2016-04-13,89.66999816894531,87.61000061035156,88.69000244140625,88.4000015258789,3205200.0,78.37104034423828
2016-04-14,89.37000274658203,87.9000015258789,89.37000274658203,88.4000015258789,1800200.0,78.37104034423828
2016-04-15,89.30999755859375,88.06999969482422,88.75,88.1500015258789,2541100.0,78.14942932128906
2016-04-18,88.79000091552734,85.33000183105469,88.1500015258789,88.4800033569336,2143100.0,78.44197082519531
2016-04-19,91.23999786376953,89.12999725341797,89.12999725341797,91.0999984741211,3483400.0,80.76473236083984
2016-04-20,91.41000366210938,90.12999725341797,90.80999755859375,90.44000244140625,2584300.0,80.17961883544922
2016-04-21,93.75,90.48999786376953,90.88999938964844,90.69000244140625,4673300.0,80.4012680053711
2016-04-22,93.1500015258789,88.30999755859375,93.1500015258789,90.19999694824219,5242000.0,79.96683502197266
2016-04-25,90.0,87.94999694824219,89.16999816894531,88.25,3272300.0,78.23807525634766
2016-04-26,90.06999969482422,88.58000183105469,88.8499984741211,89.63999938964844,2597900.0,79.47038269042969
2016-04-27,90.27999877929688,88.01000213623047,89.55000305175781,89.16000366210938,3680800.0,79.04483795166016
2016-04-28,89.0,86.11000061035156,88.36000061035156,86.36000061035156,3555700.0,76.5624771118164
2016-04-29,86.05999755859375,81.5999984741211,85.66000366210938,82.66999816894531,6077700.0,73.29112243652344
2016-05-02,84.18000030517578,82.0,83.0,83.81999969482422,3874400.0,74.3106460571289
2016-05-03,83.33999633789062,81.1500015258789,82.61000061035156,82.97000122070312,3860200.0,73.55708312988281
2016-05-04,82.9800033569336,81.18000030517578,82.0999984741211,81.4000015258789,3237400.0,72.16519927978516
2016-05-05,82.93000030517578,81.30000305175781,81.91999816894531,81.62000274658203,2786500.0,72.3602294921875
2016-05-06,82.5,81.20999908447266,81.44000244140625,82.0999984741211,1922000.0,72.78578186035156
2016-05-09,82.5,80.05000305175781,81.54000091552734,81.16000366210938,2623400.0,71.95243835449219
2016-05-10,82.62999725341797,81.0,81.36000061035156,82.31999969482422,2940900.0,72.98081970214844
2016-05-11,83.0,81.26000213623047,82.33000183105469,81.87000274658203,2386900.0,72.58187866210938
2016-05-12,83.5,81.08000183105469,83.2300033569336,81.25,2590700.0,72.03221130371094
2016-05-13,82.3499984741211,80.38999938964844,81.02999877929688,80.72000122070312,2549300.0,71.5623550415039
2016-05-16,83.79000091552734,80.80000305175781,81.05000305175781,83.2699966430664,3504300.0,73.82304382324219
2016-05-17,85.0,83.0,83.05999755859375,83.88999938964844,3539900.0,74.37271118164062
2016-05-18,83.7699966430664,81.20999908447266,83.1500015258789,81.62000274658203,2727100.0,72.3602294921875
2016-05-19,81.66000366210938,80.01000213623047,81.56999969482422,80.83000183105469,3164500.0,71.65986633300781
2016-05-20,81.58999633789062,80.06999969482422,80.69999694824219,80.44000244140625,2224200.0,72.07201385498047
2016-05-23,81.0199966430664,79.83999633789062,80.12000274658203,80.0999984741211,2187700.0,71.76738739013672
2016-05-24,80.58000183105469,79.80000305175781,80.38999938964844,80.44999694824219,3141800.0,72.08097076416016
2016-05-25,82.98999786376953,81.0999984741211,81.20999908447266,82.70999908447266,3050300.0,74.10586547851562
2016-05-26,83.69999694824219,81.33999633789062,82.98999786376953,81.37000274658203,1774200.0,72.90528106689453
2016-05-27,81.97000122070312,80.69999694824219,81.12000274658203,81.4000015258789,1913800.0,72.93213653564453
2016-05-31,82.19999694824219,81.0,81.87000274658203,81.36000061035156,3238200.0,72.89630889892578
2016-06-01,82.75,80.08999633789062,80.69999694824219,82.5,2625100.0,73.91770935058594
2016-06-02,81.98999786376953,80.0999984741211,81.88999938964844,80.58000183105469,3652400.0,72.19745635986328
2016-06-03,80.38999938964844,78.6500015258789,80.30999755859375,79.76000213623047,3455900.0,71.46273803710938
2016-06-06,81.95999908447266,79.97000122070312,80.41000366210938,81.51000213623047,3380100.0,73.03072357177734
2016-06-07,82.87000274658203,81.16999816894531,81.87000274658203,82.30999755859375,3514900.0,73.74746704101562
2016-06-08,83.51000213623047,82.12999725341797,82.7300033569336,82.3499984741211,2700400.0,73.78331756591797
2016-06-09,81.61000061035156,79.7699966430664,81.61000061035156,79.91999816894531,4533700.0,71.60609436035156
2016-06-10,81.16000366210938,78.93000030517578,79.11000061035156,80.47000122070312,3743000.0,72.09888458251953
2016-06-13,80.54000091552734,78.86000061035156,79.66000366210938,79.22000122070312,3670600.0,70.97891998291016
2016-06-14,80.62000274658203,77.38999938964844,79.0,78.6500015258789,5036700.0,70.46821594238281
2016-06-15,80.25,78.83000183105469,79.04000091552734,79.11000061035156,3209400.0,70.88037109375
2016-06-16,79.2300033569336,77.70999908447266,78.31999969482422,79.08999633789062,2969500.0,70.86244201660156
2016-06-17,80.23999786376953,78.94999694824219,79.18000030517578,80.05000305175781,3674900.0,71.72258758544922
2016-06-20,82.5999984741211,79.58000183105469,80.87999725341797,79.61000061035156,4025700.0,71.32835388183594
2016-06-21,80.2699966430664,78.5,79.86000061035156,78.91000366210938,3326800.0,70.70118713378906
2016-06-22,79.80000305175781,78.8499984741211,79.56999969482422,78.97000122070312,1543900.0,70.75492858886719
2016-06-23,79.62000274658203,78.08999633789062,78.62999725341797,79.05000305175781,3999800.0,70.82661437988281
2016-06-24,77.38999938964844,74.73999786376953,77.38999938964844,74.91000366210938,7179600.0,67.11729431152344
2016-06-27,73.94000244140625,69.81999969482422,73.7699966430664,71.31999969482422,8556000.0,63.90074157714844
2016-06-28,74.30999755859375,70.62999725341797,72.79000091552734,72.33999633789062,4994600.0,64.81462860107422
2016-06-29,74.33000183105469,72.97000122070312,73.75,74.01000213623047,2796300.0,66.31090545654297
2016-06-30,74.62999725341797,73.20999908447266,74.51000213623047,74.41999816894531,3750700.0,66.67826080322266
2016-07-01,75.77999877929688,74.08999633789062,74.5999984741211,74.69000244140625,2845700.0,66.92017364501953
2016-07-05,73.98999786376953,72.45999908447266,73.87999725341797,72.8499984741211,3557700.0,65.2715835571289
2016-07-06,73.13999938964844,71.4800033569336,72.70999908447266,73.11000061035156,4557800.0,65.5045394897461
2016-07-07,75.19999694824219,73.45999908447266,73.63999938964844,74.5199966430664,3462700.0,66.76786041259766
2016-07-08,77.2699966430664,75.29000091552734,75.45999908447266,76.73999786376953,2928100.0,68.75691223144531
2016-07-11,77.7699966430664,75.81999969482422,77.1500015258789,75.95999908447266,3653200.0,68.05806732177734
2016-07-12,78.08999633789062,76.58999633789062,76.62000274658203,77.45999908447266,3516900.0,69.40201568603516
2016-07-13,77.8499984741211,76.1500015258789,77.5199966430664,76.76000213623047,3017200.0,68.77483367919922
2016-07-14,78.4000015258789,77.27999877929688,78.0,77.61000061035156,2861500.0,69.53640747070312
2016-07-15,78.3499984741211,77.44000244140625,77.97000122070312,77.91000366210938,2303000.0,69.8051986694336
2016-07-18,78.66000366210938,77.3499984741211,77.55000305175781,78.5,1891200.0,70.33381652832031
2016-07-19,79.1500015258789,77.83999633789062,78.19999694824219,78.73999786376953,2393800.0,70.54885864257812
2016-07-20,79.86000061035156,78.20999908447266,78.55999755859375,79.4800033569336,2120500.0,71.21188354492188
2016-07-21,80.23999786376953,78.9800033569336,79.13999938964844,79.08999633789062,2200300.0,70.86244201660156
2016-07-22,79.37999725341797,78.12999725341797,79.08999633789062,78.16000366210938,3137300.0,70.02920532226562
2016-07-25,78.87999725341797,77.70999908447266,77.98999786376953,78.87000274658203,2258800.0,70.66532897949219
2016-07-26,79.2699966430664,78.31999969482422,78.7699966430664,78.8499984741211,1684900.0,70.64741516113281
2016-07-27,79.16000366210938,77.79000091552734,78.97000122070312,78.13999938964844,2328800.0,70.01127624511719
2016-07-28,79.41000366210938,77.58000183105469,77.9000015258789,79.0199966430664,2795600.0,70.79972839355469
2016-07-29,76.25,73.7699966430664,76.25,75.26000213623047,7180300.0,67.43089294433594
2016-08-01,75.43000030517578,74.26000213623047,75.26000213623047,74.88999938964844,3864900.0,67.09935760498047
2016-08-02,74.88999938964844,71.75,74.52999877929688,71.97000122070312,5507100.0,64.48311614990234
2016-08-03,73.86000061035156,71.55000305175781,72.05999755859375,73.55999755859375,2898400.0,65.90772247314453
2016-08-04,74.9000015258789,73.41000366210938,73.45999908447266,74.33999633789062,3147700.0,66.60657501220703
2016-08-05,75.36000061035156,74.33999633789062,74.63999938964844,74.5,2988900.0,66.74993896484375
2016-08-08,75.62999725341797,74.58999633789062,74.7699966430664,75.41999816894531,3085100.0,67.5742416381836
2016-08-09,75.73999786376953,74.38999938964844,75.63999938964844,74.55000305175781,2534100.0,66.79474639892578
2016-08-10,75.44999694824219,74.33000183105469,74.9000015258789,74.4000015258789,2287100.0,66.66034698486328
2016-08-11,76.9000015258789,74.41999816894531,74.7300033569336,76.62999725341797,3449700.0,68.6583480834961
2016-08-12,76.5,74.98999786376953,75.51000213623047,75.33000183105469,2574500.0,68.25064086914062
2016-08-15,77.87999725341797,75.48999786376953,75.48999786376953,77.48999786376953,3263900.0,70.20765686035156
2016-08-16,78.11000061035156,76.75,77.7300033569336,76.80000305175781,3478000.0,69.5824966430664
2016-08-17,77.45999908447266,76.30000305175781,76.54000091552734,77.19000244140625,3111000.0,69.93584442138672
2016-08-18,78.2699966430664,76.76000213623047,77.43000030517578,78.11000061035156,3108300.0,70.76937866210938
2016-08-19,80.33000183105469,77.77999877929688,77.77999877929688,79.87000274658203,4193300.0,72.3639907836914
2016-08-22,79.5,78.37000274658203,79.2699966430664,78.43000030517578,2687600.0,71.05931091308594
2016-08-23,79.9800033569336,78.30000305175781,79.19000244140625,78.97000122070312,2487400.0,71.5485610961914
2016-08-24,79.37000274658203,77.94000244140625,78.70999908447266,78.08999633789062,2139800.0,70.75126647949219
2016-08-25,79.70999908447266,77.95999908447266,78.0999984741211,78.94000244140625,2341900.0,71.52139282226562
2016-08-26,80.33000183105469,78.75,79.37000274658203,79.16999816894531,2841800.0,71.72977447509766
2016-08-29,79.75,79.08000183105469,79.08000183105469,79.66999816894531,1769100.0,72.18277740478516
2016-08-30,80.44999694824219,78.51000213623047,79.66999816894531,79.94000244140625,2059500.0,72.42740631103516
2016-08-31,80.33000183105469,78.33000183105469,79.52999877929688,78.88999938964844,2838000.0,71.47608184814453
2016-09-01,79.2699966430664,78.22000122070312,78.87000274658203,78.4800033569336,2415900.0,71.10462188720703
2016-09-02,80.02999877929688,79.12999725341797,79.2300033569336,79.72000122070312,1677500.0,72.22808074951172
2016-09-06,79.97000122070312,78.4000015258789,79.66000366210938,79.47000122070312,2501000.0,72.00157165527344
2016-09-07,80.29000091552734,79.13999938964844,79.20999908447266,79.5,2937100.0,72.02875518798828
2016-09-08,79.76000213623047,78.27999877929688,79.58999633789062,78.52999877929688,3396900.0,71.14990997314453
2016-09-09,78.9800033569336,76.16999816894531,78.22000122070312,76.19000244140625,3804000.0,69.02982330322266
2016-09-12,77.25,75.55000305175781,75.7300033569336,76.75,3050400.0,69.53720092773438
2016-09-13,76.29000091552734,74.0199966430664,75.83000183105469,74.47000122070312,3696000.0,67.4714584350586
2016-09-14,75.73999786376953,74.08000183105469,74.52999877929688,75.45999908447266,7890600.0,68.36841583251953
2016-09-15,76.66999816894531,75.33000183105469,75.45999908447266,76.5199966430664,4585100.0,69.32881164550781
2016-09-16,77.30999755859375,75.55999755859375,75.91999816894531,77.12000274658203,5193600.0,69.87242889404297
2016-09-19,78.79000091552734,77.76000213623047,77.87000274658203,78.44000244140625,2881300.0,71.0683822631836
2016-09-20,78.98999786376953,77.47000122070312,78.70999908447266,77.54000091552734,2835700.0,70.25296020507812
2016-09-21,78.80000305175781,77.5199966430664,78.0999984741211,78.13999938964844,3230900.0,70.79656982421875
2016-09-22,79.33999633789062,78.01000213623047,78.6500015258789,78.18000030517578,1873900.0,70.83280944824219
2016-09-23,78.36000061035156,77.38999938964844,77.83999633789062,77.38999938964844,2132400.0,70.1170425415039
2016-09-26,77.33999633789062,76.33000183105469,77.33999633789062,76.48999786376953,2373300.0,69.3016357421875
2016-09-27,77.86000061035156,75.76000213623047,76.1500015258789,77.77999877929688,3777700.0,70.47039794921875
2016-09-28,80.06999969482422,77.19000244140625,78.2300033569336,80.0,4113900.0,72.48177337646484
2016-09-29,81.75,79.8499984741211,79.9800033569336,80.47000122070312,4314100.0,72.90760040283203
2016-09-30,81.44000244140625,80.29000091552734,80.83999633789062,80.66000366210938,3776700.0,73.07975006103516
2016-10-03,81.01000213623047,79.97000122070312,80.8499984741211,80.83999633789062,3204400.0,73.24282836914062
2016-10-04,81.94999694824219,79.44000244140625,81.11000061035156,79.83999633789062,3076600.0,72.33680725097656
2016-10-05,82.44999694824219,80.37999725341797,80.4800033569336,81.33000183105469,3249700.0,73.68678283691406
2016-10-06,84.58999633789062,81.19999694824219,81.31999969482422,84.08999633789062,5045100.0,76.1874008178711
2016-10-07,83.94000244140625,80.95999908447266,83.83999633789062,81.44000244140625,3353000.0,73.78644561767578
2016-10-10,83.31999969482422,81.98999786376953,82.20999908447266,82.26000213623047,2269000.0,74.52938079833984
2016-10-11,81.7699966430664,79.8499984741211,81.5,80.30000305175781,3283000.0,72.75357818603516
2016-10-12,80.45999908447266,79.16000366210938,80.25,80.0,2106900.0,72.48177337646484
2016-10-13,80.19999694824219,78.12000274658203,78.94000244140625,79.9000015258789,2854000.0,72.39116668701172
2016-10-14,81.4000015258789,79.55000305175781,80.87000274658203,79.55000305175781,2735300.0,72.07406616210938
2016-10-17,80.12000274658203,78.9800033569336,79.5,79.52999877929688,3454100.0,72.05594635009766
2016-10-18,81.5,80.08000183105469,80.83000183105469,80.18000030517578,4150700.0,72.64484405517578
2016-10-19,81.83999633789062,79.6500015258789,80.41000366210938,81.6500015258789,2887700.0,73.97669982910156
2016-10-20,82.3499984741211,81.04000091552734,81.12000274658203,81.55999755859375,2089200.0,73.8951644897461
2016-10-21,81.9800033569336,80.69999694824219,80.97000122070312,81.87000274658203,2772600.0,74.176025390625
2016-10-24,82.95999908447266,81.33000183105469,81.94999694824219,81.62000274658203,1798000.0,73.94951629638672
2016-10-25,81.79000091552734,79.80999755859375,81.6500015258789,79.95999908447266,3571800.0,72.44552612304688
2016-10-26,80.51000213623047,79.16000366210938,79.37000274658203,80.3499984741211,2242300.0,72.79887390136719
2016-10-27,81.16000366210938,79.93000030517578,81.13999938964844,80.25,1567800.0,72.7082748413086
2016-10-28,81.41999816894531,79.54000091552734,80.5199966430664,80.27999877929688,2118700.0,72.7354507446289
2016-10-31,80.23999786376953,79.4000015258789,80.08000183105469,79.55000305175781,4374300.0,72.07406616210938
2016-11-01,80.55000305175781,77.2300033569336,80.01000213623047,78.20999908447266,4303200.0,70.8599853515625
2016-11-02,78.13999938964844,76.70999908447266,77.94000244140625,77.38999938964844,3749400.0,70.1170425415039
2016-11-03,78.58000183105469,77.56999969482422,77.69999694824219,78.30999755859375,2764300.0,70.95059204101562
2016-11-04,79.19999694824219,77.63999938964844,78.48999786376953,78.44999694824219,2701300.0,71.07743072509766
2016-11-07,80.12999725341797,78.94999694824219,79.63999938964844,79.16000366210938,1938200.0,71.72071838378906
2016-11-08,79.4000015258789,77.87000274658203,78.88999938964844,78.94999694824219,2006900.0,71.53044891357422
2016-11-09,81.7300033569336,77.8499984741211,78.27999877929688,80.94000244140625,2918900.0,73.33342742919922
2016-11-10,84.37000274658203,81.12000274658203,81.33999633789062,83.3499984741211,4628100.0,75.51695251464844
2016-11-11,83.72000122070312,80.9000015258789,83.20999908447266,82.19999694824219,3754200.0,74.47500610351562
2016-11-14,82.6500015258789,80.68000030517578,82.2300033569336,82.4000015258789,3533800.0,74.65623474121094
2016-11-15,83.48999786376953,82.0999984741211,82.0999984741211,83.41999816894531,3564400.0,75.58036804199219
2016-11-16,83.94000244140625,82.63999938964844,83.23999786376953,83.19999694824219,2970400.0,75.38104248046875
2016-11-17,83.80999755859375,82.70999908447266,83.7699966430664,83.01000213623047,2380300.0,75.20890045166016
2016-11-18,83.33999633789062,82.5999984741211,82.72000122070312,83.12000274658203,1901000.0,75.30856323242188
2016-11-21,85.19999694824219,83.54000091552734,83.69999694824219,85.16000366210938,3355300.0,77.15685272216797
2016-11-22,85.87000274658203,84.88999938964844,85.62000274658203,85.7699966430664,2860500.0,77.70951843261719
2016-11-23,86.66999816894531,85.0,85.37000274658203,86.63999938964844,2853100.0,78.49774932861328
2016-11-25,86.7300033569336,85.70999908447266,85.79000091552734,86.66999816894531,1853800.0,79.30294799804688
2016-11-28,86.9800033569336,85.38999938964844,86.70999908447266,85.58000183105469,3687200.0,78.30561065673828
2016-11-29,85.12000274658203,83.05999755859375,84.76000213623047,83.72000122070312,4271200.0,76.60370635986328
2016-11-30,90.98999786376953,85.79000091552734,85.79000091552734,90.31999969482422,8648700.0,82.64269256591797
2016-12-01,92.68000030517578,90.63999938964844,90.97000122070312,91.18000030517578,6803300.0,83.42960357666016
2016-12-02,91.0,88.66000366210938,90.8499984741211,89.13999938964844,3804900.0,81.56299591064453
2016-12-05,90.58000183105469,87.9800033569336,90.01000213623047,88.5999984741211,4147500.0,81.06889343261719
2016-12-06,88.22000122070312,87.05000305175781,88.22000122070312,87.77999877929688,3601100.0,80.31859588623047
2016-12-07,89.5999984741211,87.5199966430664,87.98999786376953,89.41000366210938,2239000.0,81.81005096435547
2016-12-08,90.80999755859375,88.9000015258789,89.44999694824219,90.54000091552734,2741600.0,82.843994140625
2016-12-09,90.69999694824219,88.05999755859375,90.4800033569336,88.41999816894531,3021400.0,80.9041976928711
2016-12-12,89.91999816894531,88.91999816894531,89.08999633789062,89.58999633789062,3411700.0,81.97474670410156
2016-12-13,89.9000015258789,88.48999786376953,89.41000366210938,89.62000274658203,2414600.0,82.002197265625
2016-12-14,89.80000305175781,87.69999694824219,89.13999938964844,88.08999633789062,3031000.0,80.60224914550781
2016-12-15,89.04000091552734,86.31999969482422,87.5,88.83000183105469,3684400.0,81.27935028076172
2016-12-16,89.12000274658203,88.30000305175781,89.11000061035156,88.68000030517578,5756000.0,81.14210510253906
2016-12-19,89.1500015258789,87.30999755859375,88.94000244140625,88.13999938964844,1931700.0,80.64799499511719
2016-12-20,88.95999908447266,87.80000305175781,88.44999694824219,88.12999725341797,1708200.0,80.63883972167969
2016-12-21,88.22000122070312,87.45999908447266,88.22000122070312,87.7699966430664,2155500.0,80.30944061279297
2016-12-22,88.16000366210938,86.91999816894531,88.01000213623047,87.52999877929688,1458500.0,80.08985137939453
2016-12-23,87.7300033569336,86.95999908447266,87.44999694824219,87.69999694824219,839500.0,80.24540710449219
2016-12-27,88.25,86.88999938964844,87.80999755859375,87.0999984741211,1139000.0,79.69640350341797
2016-12-28,87.69999694824219,85.93000030517578,87.37000274658203,86.37999725341797,1283300.0,79.03759765625
2016-12-29,87.0199966430664,85.73999786376953,86.44000244140625,86.01000213623047,1437500.0,78.69905090332031
2016-12-30,86.29000091552734,85.13999938964844,86.29000091552734,85.77999877929688,1831400.0,78.48860168457031
2017-01-03,87.80000305175781,85.87000274658203,87.0199966430664,86.87999725341797,2560300.0,79.49508666992188
2017-01-04,89.27999877929688,87.2300033569336,87.25,88.79000091552734,3022900.0,81.24275207519531
2017-01-05,89.58999633789062,87.91000366210938,88.4000015258789,88.68000030517578,2330800.0,81.14210510253906
2017-01-06,88.87999725341797,87.37999725341797,88.81999969482422,88.16999816894531,1937600.0,80.67545318603516
2017-01-09,88.5,86.79000091552734,87.80999755859375,86.88999938964844,3122300.0,79.5042495727539
2017-01-10,87.54000091552734,86.30000305175781,87.0199966430664,86.87999725341797,2707900.0,79.49508666992188
2017-01-11,88.45999908447266,86.55999755859375,87.18000030517578,88.44000244140625,2841000.0,80.92250061035156
2017-01-12,90.0,88.19999694824219,88.44999694824219,89.62000274658203,3429400.0,82.002197265625
2017-01-13,90.69999694824219,89.25,89.7300033569336,89.7300033569336,1920000.0,82.10285949707031
2017-01-17,90.22000122070312,89.37000274658203,89.63999938964844,89.97000122070312,2757500.0,82.32244873046875
2017-01-18,90.70999908447266,89.61000061035156,89.98999786376953,90.05000305175781,2030500.0,82.39563751220703
2017-01-19,90.47000122070312,89.05999755859375,90.23999786376953,89.76000213623047,2095200.0,82.13029479980469
2017-01-20,91.94999694824219,90.16000366210938,90.91999816894531,90.88999938964844,3372700.0,83.16424560546875
2017-01-23,91.19999694824219,90.2300033569336,90.58999633789062,91.16000366210938,2396700.0,83.41130065917969
2017-01-24,95.88999938964844,91.75,91.87999725341797,95.12999725341797,4948400.0,87.04383850097656
2017-01-25,96.83000183105469,94.19000244140625,95.0999984741211,96.37999725341797,4606500.0,88.18759155273438
2017-01-26,97.63999938964844,94.87999725341797,95.81999969482422,95.38999938964844,4841400.0,87.28173828125
2017-01-27,95.68000030517578,94.4800033569336,95.31999969482422,95.30000305175781,2579300.0,87.19939422607422
2017-01-30,94.97000122070312,93.63999938964844,94.97000122070312,94.30000305175781,2846600.0,86.2844009399414
2017-01-31,93.87999725341797,92.80999755859375,93.7699966430664,93.2699966430664,3850100.0,85.3419418334961
2017-02-01,95.37999725341797,93.68000030517578,93.75,95.06999969482422,2506300.0,86.98893737792969
2017-02-02,95.19000244140625,93.4000015258789,94.86000061035156,93.75,4174800.0,85.7811508178711
2017-02-03,95.91999816894531,93.0,93.75,94.69000244140625,5093800.0,86.64124298095703
2017-02-06,95.41999816894531,94.12000274658203,94.20999908447266,94.94000244140625,2788400.0,86.8699951171875
2017-02-07,94.20999908447266,91.4000015258789,93.16999816894531,92.3499984741211,4435000.0,84.50013732910156
2017-02-08,92.5,91.33000183105469,92.4000015258789,91.66000366210938,4523100.0,83.86880493164062
2017-02-09,92.80999755859375,91.66000366210938,91.66000366210938,92.23999786376953,3110500.0,84.39950561523438
2017-02-10,92.79000091552734,91.37000274658203,92.0,91.86000061035156,3765200.0,84.05180358886719
2017-02-13,92.77999877929688,91.76000213623047,92.66999816894531,92.22000122070312,2646700.0,84.3812026977539
2017-02-14,93.25,92.05999755859375,92.30000305175781,93.1500015258789,1983300.0,85.23213958740234
2017-02-15,93.27999877929688,92.3499984741211,93.0199966430664,93.08999633789062,1765000.0,85.17723846435547
2017-02-16,93.54000091552734,92.41999816894531,93.0,92.69000244140625,1698400.0,84.81124877929688
2017-02-17,93.5,92.25,92.47000122070312,92.91000366210938,2401800.0,85.01255798339844
2017-02-21,94.70999908447266,92.86000061035156,93.23999786376953,94.5199966430664,2704500.0,86.48568725585938
2017-02-22,94.79000091552734,93.66999816894531,94.0199966430664,94.01000213623047,2244400.0,86.01905059814453
2017-02-23,94.6500015258789,92.5999984741211,94.22000122070312,93.12999725341797,2015100.0,85.2138442993164
2017-02-24,92.5,91.36000061035156,92.2300033569336,92.43000030517578,2639200.0,84.57333374023438
2017-02-27,92.63999938964844,90.58000183105469,91.31999969482422,91.33000183105469,2683900.0,83.56684875488281
2017-02-28,91.68000030517578,89.86000061035156,91.0199966430664,91.23999786376953,4352800.0,83.4844970703125
2017-03-01,94.83000183105469,92.55000305175781,92.61000061035156,93.88999938964844,3413400.0,85.90924835205078
2017-03-02,93.51000213623047,92.22000122070312,92.94000244140625,92.29000091552734,2671900.0,85.21672821044922
2017-03-03,92.66999816894531,91.73999786376953,92.30000305175781,92.23999786376953,1672600.0,85.17056274414062
2017-03-06,92.31999969482422,91.4000015258789,91.94999694824219,91.55000305175781,2361900.0,84.53345489501953
2017-03-07,91.5,90.26000213623047,91.33000183105469,91.2300033569336,2455300.0,84.23796844482422
2017-03-08,91.5,89.5199966430664,91.19000244140625,89.79000091552734,2968300.0,82.90833282470703
2017-03-09,89.91000366210938,88.61000061035156,89.9000015258789,89.5,3085600.0,82.64054870605469
2017-03-10,90.08999633789062,88.80999755859375,90.06999969482422,89.79000091552734,2666400.0,82.90833282470703
2017-03-13,90.31999969482422,89.54000091552734,89.83999633789062,90.18000030517578,1673600.0,83.26844024658203
2017-03-14,89.41000366210938,87.9000015258789,89.19999694824219,88.58000183105469,3030500.0,81.79106903076172
2017-03-15,91.4000015258789,89.23999786376953,89.66999816894531,90.88999938964844,3070100.0,83.92401885986328
2017-03-16,91.18000030517578,90.08999633789062,91.12000274658203,90.3499984741211,1900800.0,83.42540740966797
2017-03-17,90.9800033569336,90.01000213623047,90.6500015258789,90.08000183105469,2405900.0,83.17610931396484
2017-03-20,90.47000122070312,89.33000183105469,90.12999725341797,90.30000305175781,1694100.0,83.3792495727539
2017-03-21,90.87999725341797,87.94999694824219,90.23999786376953,88.1500015258789,2728600.0,81.39403533935547
2017-03-22,88.68000030517578,87.58999633789062,88.16999816894531,88.1500015258789,2252200.0,81.39403533935547
2017-03-23,89.05999755859375,87.31999969482422,88.05000305175781,88.30000305175781,2165500.0,81.53253173828125
2017-03-24,88.80999755859375,87.04000091552734,88.3499984741211,87.55999755859375,1698100.0,80.84923553466797
2017-03-27,88.87999725341797,85.66000366210938,86.73999786376953,88.62000274658203,2467100.0,81.8280029296875
2017-03-28,91.66000366210938,88.6500015258789,88.6500015258789,90.9000015258789,3151600.0,83.93325805664062
2017-03-29,91.52999877929688,90.2699966430664,90.6500015258789,90.7300033569336,1996100.0,83.77629089355469
2017-03-30,91.91999816894531,90.61000061035156,90.86000061035156,91.2699966430664,1487700.0,84.27489471435547
2017-03-31,91.5199966430664,90.61000061035156,90.9800033569336,91.19000244140625,1850300.0,84.20103454589844
2017-04-03,91.75,89.23999786376953,91.48999786376953,90.26000213623047,1643900.0,83.3423080444336
2017-04-04,90.87999725341797,89.72000122070312,90.37000274658203,90.69000244140625,2083800.0,83.73934936523438
2017-04-05,92.02999877929688,88.33000183105469,91.38999938964844,88.4000015258789,4072900.0,81.6248550415039
2017-04-06,89.44000244140625,88.0,88.55999755859375,89.19000244140625,2492900.0,82.35432434082031
2017-04-07,89.36000061035156,87.75,88.91999816894531,88.79000091552734,2198100.0,81.98497772216797
2017-04-10,89.9000015258789,88.36000061035156,89.55000305175781,88.52999877929688,1822600.0,81.7448959350586
2017-04-11,88.69000244140625,87.37000274658203,88.45999908447266,88.0199966430664,2212700.0,81.27399444580078
2017-04-12,88.2300033569336,86.05000305175781,88.08000183105469,86.33999633789062,2838400.0,79.72274780273438
2017-04-13,87.13999938964844,84.68000030517578,86.25,84.91000366210938,3579000.0,78.40234375
2017-04-17,85.5199966430664,84.91000366210938,85.27999877929688,85.27999877929688,2377500.0,78.74398040771484
2017-04-18,86.25,84.7300033569336,84.91999816894531,85.83999633789062,2726800.0,79.26106262207031
2017-04-19,86.98999786376953,85.2300033569336,86.30000305175781,85.52999877929688,2426800.0,78.9748306274414
2017-04-20,86.81999969482422,85.47000122070312,86.01000213623047,85.51000213623047,2569800.0,78.95636749267578
2017-04-21,86.27999877929688,85.33999633789062,85.5199966430664,85.41999816894531,2529200.0,78.87326049804688
2017-04-24,86.87999725341797,86.16000366210938,86.61000061035156,86.5199966430664,2194700.0,79.88894653320312
2017-04-25,87.7300033569336,86.56999969482422,86.9800033569336,87.01000213623047,2020200.0,80.34139251708984
2017-04-26,87.56999969482422,86.43000030517578,86.7699966430664,87.05999755859375,1863800.0,80.38756561279297
2017-04-27,87.4800033569336,86.08999633789062,86.91999816894531,87.41999816894531,3117300.0,80.719970703125
2017-04-28,86.4000015258789,84.0999984741211,86.4000015258789,84.76000213623047,4563700.0,78.26383972167969
2017-05-01,85.19000244140625,83.4000015258789,85.0,83.45999908447266,3379500.0,77.06348419189453
2017-05-02,83.72000122070312,82.47000122070312,83.23999786376953,83.54000091552734,5118800.0,77.13733673095703
2017-05-03,83.6500015258789,81.75,83.0,81.87999725341797,3729300.0,75.60456085205078
2017-05-04,81.9800033569336,80.54000091552734,81.87999725341797,81.41999816894531,3873200.0,75.1798095703125
2017-05-05,84.16999816894531,81.51000213623047,81.66999816894531,84.16000366210938,3830800.0,77.70982360839844
2017-05-08,82.62000274658203,80.5,81.61000061035156,80.77999877929688,5066800.0,74.5888671875
2017-05-09,82.12000274658203,80.8499984741211,80.94000244140625,81.91000366210938,3279900.0,75.63227081298828
2017-05-10,83.04000091552734,81.91999816894531,82.18000030517578,82.45999908447266,3111800.0,76.1401138305664
2017-05-11,83.0999984741211,81.47000122070312,82.4800033569336,81.97000122070312,2192700.0,75.68767547607422
2017-05-12,82.05000305175781,80.88999938964844,81.43000030517578,81.04000091552734,1980900.0,74.82894897460938
2017-05-15,83.68000030517578,81.63999938964844,81.80999755859375,82.52999877929688,2948100.0,76.20475769042969
2017-05-16,83.36000061035156,82.3499984741211,82.69999694824219,83.05999755859375,2690900.0,76.6941146850586
2017-05-17,83.05999755859375,79.87999725341797,83.05999755859375,79.9800033569336,3411800.0,73.8501968383789
2017-05-18,80.79000091552734,79.02999877929688,79.55000305175781,80.41000366210938,3130500.0,74.24723815917969
2017-05-19,81.83999633789062,80.54000091552734,80.83999633789062,81.0999984741211,3608200.0,74.88434600830078
2017-05-22,82.04000091552734,79.76000213623047,81.75,80.30000305175781,2569000.0,74.14566802978516
2017-05-23,80.98999786376953,80.16000366210938,80.6500015258789,80.56999969482422,1557600.0,74.39495849609375
2017-05-24,82.58000183105469,81.01000213623047,81.55999755859375,81.62999725341797,2542600.0,75.37372589111328
2017-05-25,82.2699966430664,80.0,81.75,80.66999816894531,2906500.0,74.4873046875
2017-05-26,80.97000122070312,80.0199966430664,80.62000274658203,80.7300033569336,1841700.0,74.54270935058594
2017-05-30,80.87000274658203,80.26000213623047,80.54000091552734,80.55999755859375,2086000.0,74.38573455810547
2017-05-31,80.5999984741211,79.47000122070312,80.33000183105469,80.5199966430664,3092600.0,74.34879302978516
2017-06-01,80.80999755859375,79.56999969482422,79.73999786376953,80.55000305175781,3605200.0,75.21723175048828
2017-06-02,80.95999908447266,79.75,80.45999908447266,80.04000091552734,4657600.0,74.7409896850586
2017-06-05,79.9800033569336,78.8499984741211,79.77999877929688,78.91000366210938,2901900.0,73.68582153320312
2017-06-06,79.27999877929688,78.01000213623047,78.44000244140625,79.13999938964844,3710500.0,73.90057373046875
2017-06-07,80.3499984741211,78.91999816894531,79.25,79.23999786376953,2934600.0,73.99397277832031
2017-06-08,80.16999816894531,79.05999755859375,79.23999786376953,79.4800033569336,2379800.0,74.21807098388672
2017-06-09,82.2300033569336,79.55999755859375,79.5999984741211,81.87999725341797,3394500.0,76.45917510986328
2017-06-12,82.97000122070312,81.45999908447266,81.86000061035156,81.77999877929688,2419200.0,76.36579895019531
2017-06-13,83.22000122070312,81.06999969482422,81.30999755859375,82.94999694824219,2714600.0,77.45834350585938
2017-06-14,83.16999816894531,80.68000030517578,83.16999816894531,80.93000030517578,4056800.0,75.57206726074219
2017-06-15,80.75,79.52999877929688,80.18000030517578,80.13999938964844,2326000.0,74.83436584472656
2017-06-16,80.9000015258789,79.75,80.12000274658203,80.87999725341797,3133400.0,75.52538299560547
2017-06-19,81.86000061035156,81.12999725341797,81.47000122070312,81.30000305175781,1535500.0,75.91758728027344
2017-06-20,80.63999938964844,78.87999725341797,80.38999938964844,80.0999984741211,2052400.0,74.79702758789062
2017-06-21,80.5999984741211,79.26000213623047,80.41999816894531,79.56999969482422,2440100.0,74.30210876464844
2017-06-22,80.55000305175781,79.58000183105469,79.88999938964844,80.01000213623047,1994700.0,74.71298217773438
2017-06-23,80.61000061035156,79.5999984741211,80.0999984741211,80.16999816894531,2426200.0,74.86239624023438
2017-06-26,81.37000274658203,80.19000244140625,80.56999969482422,80.88999938964844,2879300.0,75.53472137451172
2017-06-27,82.83000183105469,81.11000061035156,81.3499984741211,82.06999969482422,2845400.0,76.63660430908203
2017-06-28,84.0,82.58000183105469,82.68000030517578,83.80000305175781,2870800.0,78.2520751953125
2017-06-29,84.81999969482422,83.30000305175781,84.37999725341797,83.7699966430664,3253000.0,78.22406005859375
2017-06-30,85.08000183105469,83.9000015258789,84.47000122070312,84.38999938964844,2600600.0,78.80300903320312
2017-07-03,85.91999816894531,84.87000274658203,85.05000305175781,85.36000061035156,1428100.0,79.70878601074219
2017-07-05,85.75,82.9000015258789,85.6500015258789,83.36000061035156,2367600.0,77.84119415283203
2017-07-06,84.25,82.88999938964844,82.91000366210938,83.05000305175781,2487600.0,77.55171966552734
2017-07-07,84.44999694824219,82.54000091552734,83.29000091552734,83.93000030517578,2257700.0,78.37346649169922
2017-07-10,84.5999984741211,83.2300033569336,83.5,84.19999694824219,1918900.0,78.62557983398438
2017-07-11,84.75,83.7300033569336,84.19999694824219,84.45999908447266,2083600.0,78.86837005615234
2017-07-12,85.9800033569336,84.86000061035156,84.94000244140625,85.72000122070312,3004100.0,80.04495239257812
2017-07-13,85.98999786376953,85.0,85.75,85.4800033569336,1890200.0,79.82084655761719
2017-07-14,86.62999725341797,85.62000274658203,85.77999877929688,85.87000274658203,1760500.0,80.18502807617188
2017-07-17,86.29000091552734,85.54000091552734,85.94999694824219,85.6500015258789,1442300.0,79.97958374023438
2017-07-18,86.08000183105469,84.94999694824219,85.58000183105469,85.25,1496300.0,79.60607147216797
2017-07-19,87.33999633789062,85.26000213623047,85.26000213623047,87.16000366210938,2109400.0,81.38963317871094
2017-07-20,87.94999694824219,86.87000274658203,87.18000030517578,87.0199966430664,3159000.0,81.25888061523438
2017-07-21,87.16000366210938,86.20999908447266,87.16000366210938,86.87000274658203,2152200.0,81.11882019042969
2017-07-24,87.43000030517578,86.69000244140625,86.83999633789062,87.25,1853500.0,81.47366333007812
2017-07-25,88.56999969482422,87.55999755859375,88.0199966430664,87.94999694824219,1993200.0,82.12731170654297
2017-07-26,88.80999755859375,87.0,88.41000366210938,87.33999633789062,1806700.0,81.55770111083984
2017-07-27,87.72000122070312,86.0999984741211,87.55000305175781,86.52999877929688,2959900.0,80.80133056640625
2017-07-28,90.68000030517578,88.04000091552734,88.51000213623047,89.88999938964844,3977300.0,83.93888092041016
2017-07-31,91.2699966430664,89.62000274658203,90.37000274658203,90.08999633789062,2670300.0,84.12564086914062
2017-08-01,90.27999877929688,88.37999725341797,90.27999877929688,89.26000213623047,2642700.0,83.35059356689453
2017-08-02,89.30000305175781,87.8499984741211,88.75,88.37000274658203,2620600.0,82.51951599121094
2017-08-03,89.2699966430664,88.2699966430664,88.4800033569336,88.75,4259900.0,82.87435150146484
2017-08-04,89.38999938964844,88.66999816894531,89.16000366210938,88.77999877929688,1514200.0,82.90235900878906
2017-08-07,89.4000015258789,88.86000061035156,89.12999725341797,89.12000274658203,1832300.0,83.21985626220703
2017-08-08,89.45999908447266,88.37000274658203,88.98999786376953,88.7300033569336,2375200.0,82.85568237304688
2017-08-09,89.4800033569336,88.38999938964844,88.61000061035156,89.19999694824219,2593400.0,83.29456329345703
2017-08-10,89.0199966430664,87.58000183105469,88.58000183105469,87.5999984741211,2176700.0,81.80049133300781
2017-08-11,87.9800033569336,86.95999908447266,86.95999908447266,87.19000244140625,1893200.0,81.41763305664062
2017-08-14,88.25,87.25,87.37999725341797,88.02999877929688,1606100.0,82.2020263671875
2017-08-15,88.51000213623047,87.83000183105469,88.05999755859375,87.94999694824219,1548400.0,82.12731170654297
2017-08-16,88.36000061035156,87.30000305175781,87.94999694824219,87.66000366210938,2052900.0,81.85652160644531
2017-08-17,87.88999938964844,86.19000244140625,87.51000213623047,86.2300033569336,2470900.0,80.52120208740234
2017-08-18,87.62999725341797,85.3499984741211,86.0999984741211,87.33999633789062,2683700.0,81.55770111083984
2017-08-21,88.4000015258789,87.16999816894531,87.33000183105469,88.0999984741211,2454500.0,82.26737976074219
2017-08-22,89.30999755859375,88.38999938964844,88.6500015258789,88.7699966430664,1550300.0,82.89303588867188
2017-08-23,90.0,88.33999633789062,88.38999938964844,89.36000061035156,1410000.0,83.44397735595703
2017-08-24,89.7699966430664,88.9800033569336,89.4000015258789,89.51000213623047,1294400.0,83.58403778076172
2017-08-25,91.41000366210938,89.98999786376953,90.30000305175781,90.26000213623047,2309400.0,84.28437805175781
2017-08-28,90.93000030517578,89.68000030517578,90.56999969482422,90.31999969482422,1392400.0,84.34041595458984
2017-08-29,89.83000183105469,88.9000015258789,89.66999816894531,89.5999984741211,1803200.0,83.66807556152344
2017-08-30,90.94999694824219,89.37000274658203,89.41999816894531,90.33000183105469,2194200.0,84.3497543334961
2017-08-31,91.06999969482422,89.41000366210938,90.86000061035156,90.58999633789062,2609400.0,84.59254455566406
2017-09-01,90.98999786376953,89.83000183105469,90.0999984741211,90.25,1529100.0,85.12071228027344
2017-09-05,90.83999633789062,88.80999755859375,90.58000183105469,89.38999938964844,2453000.0,84.30958557128906
2017-09-06,92.27999877929688,89.02999877929688,89.80000305175781,91.72000122070312,2674700.0,86.50716400146484
2017-09-07,92.2699966430664,90.97000122070312,91.76000213623047,91.72000122070312,2360100.0,86.50716400146484
2017-09-08,92.08000183105469,91.33000183105469,91.56999969482422,91.5999984741211,1747000.0,86.39398193359375
2017-09-11,93.97000122070312,92.12000274658203,92.29000091552734,93.66000366210938,2426200.0,88.33690643310547
2017-09-12,94.69999694824219,93.38999938964844,93.5,94.58000183105469,2182700.0,89.20462036132812
2017-09-13,94.73999786376953,94.08000183105469,94.5,94.16999816894531,1588500.0,88.81790924072266
2017-09-14,94.83000183105469,93.94000244140625,94.0,94.43000030517578,1559500.0,89.06314086914062
2017-09-15,95.72000122070312,94.0,94.29000091552734,95.16999816894531,7251700.0,89.76107788085938
2017-09-18,95.88999938964844,95.05999755859375,95.48999786376953,95.58000183105469,3637500.0,90.14778137207031
2017-09-19,96.69000244140625,95.44000244140625,95.88999938964844,96.55999755859375,1971600.0,91.07209014892578
2017-09-20,97.05999755859375,95.51000213623047,96.68000030517578,96.05000305175781,2375600.0,90.59107971191406
2017-09-21,96.25,95.54000091552734,95.94000244140625,95.79000091552734,2309000.0,90.3458480834961
2017-09-22,97.0,95.61000061035156,95.75,96.87000274658203,1531600.0,91.36447143554688
2017-09-25,98.08999633789062,96.79000091552734,96.87999725341797,97.91999816894531,2508700.0,92.35478973388672
2017-09-26,100.0999984741211,97.98999786376953,98.11000061035156,99.76000213623047,3017400.0,94.09021759033203
2017-09-27,100.69000244140625,99.25,100.01000213623047,99.77999877929688,2989300.0,94.10906982421875
2017-09-28,100.27999877929688,99.56999969482422,100.01000213623047,99.77999877929688,2652300.0,94.10906982421875
2017-09-29,99.97000122070312,98.77999877929688,99.80999755859375,99.05000305175781,2185400.0,93.42057800292969
2017-10-02,100.72000122070312,98.56999969482422,98.56999969482422,100.55000305175781,2268800.0,94.83531188964844
2017-10-03,100.73999786376953,98.91999816894531,100.6500015258789,99.76000213623047,2535300.0,94.09021759033203
2017-10-04,100.36000061035156,98.79000091552734,99.94999694824219,98.87999725341797,1932200.0,93.2602310180664
2017-10-05,99.61000061035156,99.05000305175781,99.43000030517578,99.4800033569336,2182100.0,93.82612609863281
2017-10-06,99.2300033569336,98.16999816894531,98.81999969482422,98.9000015258789,2506900.0,93.27908325195312
2017-10-09,99.20999908447266,98.66999816894531,99.20999908447266,99.04000091552734,1476300.0,93.41114044189453
2017-10-10,98.62999725341797,97.68000030517578,98.37999725341797,98.05999755859375,2181800.0,92.48683166503906
2017-10-11,97.91000366210938,97.0199966430664,97.83000183105469,97.26000213623047,2425200.0,91.73230743408203
2017-10-12,97.62000274658203,96.19999694824219,96.87999725341797,97.52999877929688,1999300.0,91.98695373535156
2017-10-13,98.86000061035156,97.5,98.5999984741211,97.68000030517578,1474900.0,92.12843322753906
2017-10-16,98.37999725341797,97.33000183105469,98.27999877929688,97.69999694824219,1196600.0,92.14729309082031
2017-10-17,98.4000015258789,97.44999694824219,97.88999938964844,98.20999908447266,1527100.0,92.62830352783203
2017-10-18,98.5999984741211,97.80999755859375,98.04000091552734,98.26000213623047,1540300.0,92.67546844482422
2017-10-19,99.77999877929688,97.61000061035156,97.91000366210938,99.38999938964844,1941200.0,93.74125671386719
2017-10-20,100.0,98.61000061035156,99.95999908447266,98.94000244140625,2142200.0,93.31681823730469
2017-10-23,99.41000366210938,98.5,98.9000015258789,98.55999755859375,1570100.0,92.95841217041016
2017-10-24,101.47000122070312,98.98999786376953,99.05000305175781,100.94000244140625,2973700.0,95.20315551757812
2017-10-25,100.62000274658203,99.06999969482422,100.56999969482422,99.75,2435100.0,94.0807876586914
2017-10-26,101.70999908447266,99.66999816894531,100.41999816894531,101.2300033569336,3166900.0,95.47667694091797
2017-10-27,100.69999694824219,97.7300033569336,99.0,99.01000213623047,3433900.0,93.38284301757812
2017-10-30,107.83000183105469,98.81999969482422,99.12000274658203,106.0,8374600.0,99.9755630493164
2017-10-31,105.33999633789062,102.98999786376953,104.7699966430664,103.52999877929688,4100700.0,97.64595031738281
2017-11-01,105.22000122070312,103.16000366210938,104.20999908447266,103.43000030517578,3111700.0,97.5516357421875
2017-11-02,104.25,102.94999694824219,103.55999755859375,103.54000091552734,2547900.0,97.65538787841797
2017-11-03,105.91999816894531,102.36000061035156,103.04000091552734,105.58000183105469,2075400.0,99.57943725585938
2017-11-06,106.98999786376953,105.48999786376953,105.81999969482422,106.48999786376953,1763400.0,100.43771362304688
2017-11-07,107.19999694824219,105.20999908447266,106.56999969482422,105.91999816894531,1778300.0,99.90011596679688
2017-11-08,106.0199966430664,104.91999816894531,105.62999725341797,105.86000061035156,1615100.0,99.84353637695312
2017-11-09,105.9800033569336,103.9000015258789,105.30000305175781,104.19000244140625,2271600.0,98.2684326171875
2017-11-10,104.79000091552734,103.44999694824219,104.18000030517578,104.26000213623047,1533200.0,98.33446502685547
2017-11-13,104.72000122070312,103.01000213623047,103.62000274658203,104.19000244140625,1547800.0,98.2684326171875
2017-11-14,104.75,103.13999938964844,103.16999816894531,103.73999786376953,1796600.0,97.84400939941406
2017-11-15,103.44999694824219,101.77999877929688,103.19000244140625,102.5,1438000.0,96.67449188232422
2017-11-16,103.5999984741211,102.23999786376953,103.04000091552734,103.19999694824219,2331500.0,97.33470916748047
2017-11-17,104.6500015258789,102.5199966430664,103.05000305175781,103.9000015258789,1544200.0,97.99492645263672
2017-11-20,104.41000366210938,103.41000366210938,103.86000061035156,104.2699966430664,1940400.0,98.3438949584961
2017-11-21,104.91999816894531,103.62000274658203,104.63999938964844,103.81999969482422,1916000.0,97.91947174072266
2017-11-22,104.3499984741211,103.2699966430664,104.08999633789062,103.41999816894531,1436900.0,97.54219818115234
2017-11-24,104.66999816894531,103.87000274658203,104.0,104.33999633789062,929700.0,98.409912109375
2017-11-27,104.79000091552734,103.55999755859375,104.62999725341797,104.37999725341797,1627300.0,98.44764709472656
2017-11-28,105.29000091552734,103.47000122070312,104.16999816894531,104.94000244140625,2009200.0,98.9758071899414
2017-11-29,105.88999938964844,104.79000091552734,105.19999694824219,105.01000213623047,1704000.0,99.04183959960938
2017-11-30,105.86000061035156,104.16000366210938,105.51000213623047,104.69999694824219,2758000.0,98.74944305419922
2017-12-01,105.48999786376953,102.95999908447266,105.16000366210938,104.0999984741211,2332700.0,98.18355560302734
2017-12-04,105.0999984741211,103.01000213623047,103.45999908447266,103.80999755859375,2143500.0,98.76390075683594
2017-12-05,105.94000244140625,103.68000030517578,103.86000061035156,104.58000183105469,2171100.0,99.49647521972656
2017-12-06,105.22000122070312,104.41000366210938,104.41000366210938,104.69000244140625,2102100.0,99.60112762451172
2017-12-07,106.58000183105469,104.7699966430664,104.95999908447266,106.51000213623047,1604300.0,101.3326644897461
2017-12-08,107.62999725341797,106.62000274658203,106.80000305175781,107.13999938964844,1720800.0,101.9320297241211
2017-12-11,108.05000305175781,107.11000061035156,107.33000183105469,107.51000213623047,1462900.0,102.28404998779297
2017-12-12,108.12999725341797,106.79000091552734,107.66000366210938,106.98999786376953,2484400.0,101.78932189941406
2017-12-13,107.5999984741211,106.44000244140625,107.26000213623047,107.5,2463100.0,102.2745361328125
2017-12-14,107.97000122070312,105.12999725341797,107.70999908447266,105.43000030517578,2380200.0,100.30516052246094
2017-12-15,106.47000122070312,105.12999725341797,106.0,106.02999877929688,3640800.0,100.8759994506836
2017-12-18,110.06999969482422,107.01000213623047,107.5199966430664,109.55999755859375,2502000.0,104.2343978881836
2017-12-19,110.0,108.86000061035156,109.47000122070312,108.94999694824219,2030000.0,103.654052734375
2017-12-20,111.47000122070312,109.2699966430664,109.55000305175781,109.91999816894531,1815200.0,104.57689666748047
2017-12-21,110.94000244140625,109.23999786376953,109.8499984741211,110.27999877929688,1680600.0,104.91939544677734
2017-12-22,110.23999786376953,109.43000030517578,109.54000091552734,109.9800033569336,1202100.0,104.63398742675781
2017-12-26,110.23999786376953,109.51000213623047,110.23999786376953,109.93000030517578,462100.0,104.58641052246094
2017-12-27,110.12000274658203,109.58999633789062,109.93000030517578,110.02999877929688,677100.0,104.68154907226562
2017-12-28,111.26000213623047,110.1500015258789,110.37999725341797,111.16000366210938,1058100.0,105.75662994384766
2017-12-29,111.62000274658203,110.19999694824219,111.62000274658203,110.31999969482422,1019700.0,104.95746612548828
2018-01-02,112.26000213623047,110.69000244140625,111.05000305175781,112.2300033569336,1127800.0,106.77462005615234
2018-01-03,112.41999816894531,110.69999694824219,111.81999969482422,112.26000213623047,1437300.0,106.80315399169922
2018-01-04,113.44000244140625,111.80999755859375,112.80000305175781,112.80000305175781,1631000.0,107.31690979003906
2018-01-05,114.45999908447266,112.33000183105469,113.25,114.37000274658203,1082000.0,108.81060028076172
2018-01-08,114.4000015258789,113.04000091552734,114.4000015258789,114.11000061035156,1283200.0,108.56322479248047
2018-01-09,116.33999633789062,114.20999908447266,114.33000183105469,115.1500015258789,1794000.0,109.55267333984375
2018-01-10,115.37000274658203,114.16000366210938,114.70999908447266,115.02999877929688,1236000.0,109.43850708007812
2018-01-11,117.94000244140625,115.12999725341797,116.48999786376953,117.69999694824219,1892000.0,111.97872924804688
2018-01-12,118.0,116.38999938964844,117.6500015258789,117.68000030517578,2070100.0,111.9596939086914
2018-01-16,118.12999725341797,115.11000061035156,117.97000122070312,115.88999938964844,1996300.0,110.25670623779297
2018-01-17,117.04000091552734,115.72000122070312,116.26000213623047,116.87999725341797,1694800.0,111.1985855102539
2018-01-18,117.31999969482422,115.5,116.26000213623047,116.88999938964844,2248400.0,111.20809936523438
2018-01-19,119.98999786376953,117.1500015258789,117.38999938964844,119.91999816894531,2864000.0,114.09080505371094
2018-01-22,119.69999694824219,118.5199966430664,118.9800033569336,118.94000244140625,2067800.0,113.15845489501953
2018-01-23,119.05000305175781,117.6500015258789,118.5199966430664,118.43000030517578,1479400.0,112.67324829101562
2018-01-24,120.43000030517578,118.43000030517578,119.18000030517578,118.94000244140625,1701400.0,113.15845489501953
2018-01-25,120.94999694824219,119.5999984741211,119.5999984741211,120.73999786376953,1585000.0,114.87095642089844
2018-01-26,121.77999877929688,120.18000030517578,121.30000305175781,121.48999786376953,2157200.0,115.58448791503906
2018-01-29,121.94999694824219,120.69000244140625,121.62000274658203,120.91000366210938,1228200.0,115.03269958496094
2018-01-30,121.13999938964844,118.37999725341797,119.91000366210938,118.8499984741211,3319100.0,113.07282257080078
2018-01-31,120.3499984741211,118.8499984741211,119.23999786376953,119.83999633789062,3213900.0,114.01470184326172
2018-02-01,119.73999786376953,116.88999938964844,119.0999984741211,117.55999755859375,3431700.0,111.84552764892578
2018-02-02,117.83999633789062,111.52999877929688,117.55999755859375,112.16999816894531,4224600.0,106.71753692626953
2018-02-05,112.98999786376953,107.44999694824219,111.73999786376953,108.7699966430664,3146600.0,103.48279571533203
2018-02-06,114.3499984741211,106.0,106.08999633789062,113.81999969482422,4939500.0,108.28733825683594
2018-02-07,114.2300033569336,110.19999694824219,113.12999725341797,110.2699966430664,3163700.0,104.9098892211914
2018-02-08,110.55999755859375,105.51000213623047,110.08999633789062,105.79000091552734,2543600.0,100.64765930175781
2018-02-09,107.83000183105469,102.81999969482422,107.1500015258789,106.98999786376953,3151800.0,101.78932189941406
2018-02-12,110.70999908447266,108.13999938964844,108.2300033569336,109.69999694824219,2260700.0,104.36759948730469
2018-02-13,110.58999633789062,108.04000091552734,109.37000274658203,109.63999938964844,1852800.0,104.31050872802734
2018-02-14,112.63999938964844,108.23999786376953,108.70999908447266,112.0,1757500.0,106.55579376220703
2018-02-15,114.44999694824219,108.73999786376953,113.30000305175781,109.97000122070312,3118300.0,104.62446594238281
2018-02-16,110.4800033569336,108.26000213623047,109.80000305175781,108.61000061035156,2782400.0,103.33057403564453
2018-02-20,109.62999725341797,107.41000366210938,108.0,108.58999633789062,2295800.0,103.31155395507812
2018-02-21,111.26000213623047,108.3499984741211,108.66000366210938,109.08999633789062,1984500.0,103.78724670410156
2018-02-22,111.70999908447266,109.48999786376953,109.80000305175781,110.83000183105469,1509700.0,105.44267272949219
2018-02-23,112.13999938964844,110.30000305175781,111.48999786376953,111.5999984741211,1516600.0,106.17523956298828
2018-02-26,111.9800033569336,109.61000061035156,111.8499984741211,110.51000213623047,2469300.0,105.13822937011719
2018-02-27,110.94000244140625,109.18000030517578,110.51000213623047,109.66000366210938,2054400.0,104.32954406738281
2018-02-28,110.29000091552734,108.16999816894531,110.19999694824219,108.22000122070312,2226600.0,102.95954132080078
2018-03-01,110.52999877929688,107.33000183105469,108.29000091552734,108.12999725341797,3693800.0,102.87391662597656
2018-03-02,107.54000091552734,105.04000091552734,106.62000274658203,107.20999908447266,2403900.0,102.95073699951172
2018-03-05,109.02999877929688,105.93000030517578,106.7699966430664,108.66999816894531,2413600.0,104.35272979736328
2018-03-06,111.12999725341797,108.61000061035156,109.26000213623047,109.73999786376953,1794600.0,105.38021850585938
2018-03-07,109.97000122070312,107.7699966430664,108.94000244140625,109.37999725341797,2144000.0,105.03451538085938
2018-03-08,110.3499984741211,108.45999908447266,109.91999816894531,109.37000274658203,2181300.0,105.0249252319336
2018-03-09,112.48999786376953,109.86000061035156,110.33000183105469,112.27999877929688,1860100.0,107.81932067871094
2018-03-12,112.83000183105469,110.83000183105469,112.68000030517578,111.13999938964844,2025000.0,106.72460174560547
2018-03-13,112.58999633789062,109.95999908447266,111.63999938964844,110.33999633789062,2233200.0,105.95638275146484
2018-03-14,111.19999694824219,108.36000061035156,111.19999694824219,108.75,1592600.0,104.42955780029297
2018-03-15,109.41999816894531,107.05000305175781,109.3499984741211,107.47000122070312,2014900.0,103.20040893554688
2018-03-16,108.55999755859375,106.58000183105469,107.48999786376953,107.18000030517578,4500700.0,102.92192840576172
2018-03-19,107.31999969482422,105.5,107.20999908447266,106.7699966430664,2581700.0,102.52821350097656
2018-03-20,108.58999633789062,106.93000030517578,107.48999786376953,107.47000122070312,2591900.0,103.20040893554688
2018-03-21,112.36000061035156,106.79000091552734,107.48999786376953,111.20999908447266,3352000.0,106.79182434082031
2018-03-22,110.68000030517578,106.44000244140625,109.69999694824219,106.5999984741211,2968800.0,102.3649673461914
2018-03-23,107.5,104.41000366210938,106.66999816894531,104.55000305175781,2569200.0,100.39640808105469
2018-03-26,106.48999786376953,103.44000244140625,105.80999755859375,105.08999633789062,3045200.0,100.91495513916016
2018-03-27,106.3499984741211,103.72000122070312,105.75,104.13999938964844,2433000.0,100.00269317626953
2018-03-28,105.44000244140625,102.31999969482422,104.12000274658203,103.1500015258789,2304200.0,99.05203247070312
2018-03-29,106.20999908447266,103.29000091552734,103.29000091552734,105.68000030517578,2258700.0,101.48152160644531
2018-04-02,105.94999694824219,102.36000061035156,105.41000366210938,103.70999908447266,1750200.0,99.58978271484375
2018-04-03,104.41000366210938,102.43000030517578,103.93000030517578,104.13999938964844,1724500.0,100.00269317626953
2018-04-04,102.97000122070312,96.19000244140625,101.11000061035156,102.7300033569336,4713600.0,98.64871978759766
2018-04-05,105.48999786376953,103.20999908447266,103.38999938964844,104.8499984741211,2069700.0,100.68448638916016
2018-04-06,104.0,99.91999816894531,103.51000213623047,100.79000091552734,2404100.0,96.78580474853516
2018-04-09,101.83000183105469,99.4000015258789,101.52999877929688,99.43000030517578,3719900.0,95.47982025146484
2018-04-10,103.77999877929688,100.83000183105469,101.41999816894531,102.33999633789062,3192000.0,98.27420806884766
2018-04-11,102.61000061035156,101.08000183105469,101.8499984741211,102.20999908447266,1708100.0,98.14937591552734
2018-04-12,104.52999877929688,102.81999969482422,103.19999694824219,103.69999694824219,4214900.0,99.5801773071289
2018-04-13,104.58000183105469,102.62999725341797,104.05999755859375,103.04000091552734,1750200.0,98.94640350341797
2018-04-16,105.25,103.51000213623047,104.18000030517578,104.54000091552734,2314500.0,100.3868179321289
2018-04-17,106.5199966430664,104.62000274658203,105.31999969482422,106.04000091552734,1788500.0,101.82721710205078
2018-04-18,109.44999694824219,106.7300033569336,107.23999786376953,108.87000274658203,3163200.0,104.54478454589844
2018-04-19,108.45999908447266,106.66000366210938,108.41000366210938,107.5999984741211,2390300.0,103.32524108886719
2018-04-20,108.30999755859375,106.70999908447266,107.75,107.68000030517578,2673900.0,103.40206909179688
2018-04-23,108.52999877929688,107.23999786376953,107.5,108.31999969482422,2178500.0,104.01664733886719
2018-04-24,109.52999877929688,104.80999755859375,108.70999908447266,105.94000244140625,2491100.0,101.73119354248047
2018-04-25,105.9800033569336,104.0999984741211,105.5,105.38999938964844,3471600.0,101.20304107666016
2018-04-26,107.13999938964844,105.0999984741211,105.7699966430664,106.48999786376953,2058200.0,102.25933837890625
2018-04-27,109.54000091552734,105.0,109.1500015258789,106.66999816894531,3208100.0,102.43218994140625
2018-04-30,107.73999786376953,105.31999969482422,106.66999816894531,105.7300033569336,2200500.0,101.52953338623047
2018-05-01,105.75,103.05999755859375,105.5,103.79000091552734,2341600.0,99.6666030883789
2018-05-02,105.63999938964844,103.72000122070312,104.13999938964844,104.75,2599800.0,100.58847045898438
2018-05-03,104.87999725341797,102.68000030517578,104.68000030517578,103.94999694824219,2170900.0,99.82025146484375
2018-05-04,104.9800033569336,102.45999908447266,103.52999877929688,104.79000091552734,2129500.0,100.62688446044922
2018-05-07,106.08999633789062,104.16000366210938,104.98999786376953,104.5999984741211,1903600.0,100.44441986083984
2018-05-08,104.66000366210938,103.45999908447266,104.5,104.54000091552734,3054800.0,100.3868179321289
2018-05-09,110.4000015258789,105.23999786376953,105.23999786376953,109.9000015258789,3547000.0,105.53387451171875
2018-05-10,113.51000213623047,109.7300033569336,109.87999725341797,112.41999816894531,3472000.0,107.95375061035156
2018-05-11,113.52999877929688,111.97000122070312,112.47000122070312,112.56999969482422,2234400.0,108.09778594970703
2018-05-14,113.33000183105469,111.56999969482422,112.87000274658203,111.9800033569336,1854400.0,107.53123474121094
2018-05-15,112.48999786376953,111.1500015258789,111.6500015258789,112.16999816894531,1534200.0,107.71368408203125
2018-05-16,116.37999725341797,113.77999877929688,113.94000244140625,115.30999755859375,3360100.0,110.72894287109375
2018-05-17,116.27999877929688,114.93000030517578,115.0999984741211,116.19000244140625,2311500.0,111.57398223876953
2018-05-18,116.87000274658203,115.91000366210938,116.11000061035156,116.22000122070312,1903900.0,111.602783203125
2018-05-21,117.70999908447266,116.2300033569336,117.0,117.52999877929688,1770800.0,112.86073303222656
2018-05-22,118.79000091552734,116.05000305175781,117.77999877929688,116.16999816894531,1715300.0,111.55477142333984
2018-05-23,115.81999969482422,113.16999816894531,115.19999694824219,115.66000366210938,1572700.0,111.0650405883789
2018-05-24,119.38999938964844,115.5,115.63999938964844,117.0199966430664,2659100.0,112.3709945678711
2018-05-25,116.22000122070312,113.05000305175781,115.80000305175781,113.76000213623047,2545300.0,109.24051666259766
2018-05-29,114.47000122070312,110.97000122070312,112.68000030517578,111.44999694824219,2548000.0,107.02228546142578
2018-05-30,114.13999938964844,111.75,112.41999816894531,113.87999725341797,1866400.0,109.35574340820312
2018-05-31,113.83000183105469,111.88999938964844,113.83000183105469,112.12000274658203,2126900.0,107.6656723022461
2018-06-01,115.26000213623047,112.44999694824219,114.41999816894531,113.12000274658203,1667300.0,108.62594604492188
2018-06-04,114.3499984741211,113.06999969482422,113.58000183105469,113.38999938964844,1377500.0,108.88521575927734
2018-06-05,115.7300033569336,112.9800033569336,112.9800033569336,115.44000244140625,1851000.0,110.8537826538086
2018-06-06,118.06999969482422,115.55999755859375,116.51000213623047,118.04000091552734,2368100.0,113.35047149658203
2018-06-07,118.8499984741211,117.4000015258789,118.01000213623047,118.54000091552734,2256900.0,113.83061981201172
2018-06-08,118.30000305175781,116.51000213623047,117.0999984741211,118.08999633789062,1837900.0,114.3632583618164
2018-06-11,118.70999908447266,116.94999694824219,118.4800033569336,117.52999877929688,1508400.0,113.82093048095703
2018-06-12,117.7300033569336,116.69000244140625,117.5999984741211,117.66999816894531,989300.0,113.95651245117188
2018-06-13,117.63999938964844,115.41999816894531,117.5999984741211,115.52999877929688,2296900.0,111.88404846191406
2018-06-14,115.94000244140625,113.88999938964844,115.94000244140625,114.1500015258789,1490800.0,110.54759979248047
2018-06-15,117.8499984741211,114.19000244140625,117.31999969482422,115.31999969482422,3493600.0,111.68067932128906
2018-06-18,115.54000091552734,114.13999938964844,114.13999938964844,114.70999908447266,1637100.0,111.08992004394531
2018-06-19,113.41000366210938,110.3499984741211,112.97000122070312,111.25,2403400.0,107.73912048339844
2018-06-20,111.58999633789062,109.04000091552734,111.58999633789062,110.0,2978300.0,106.528564453125
2018-06-21,110.08999633789062,107.62999725341797,110.05000305175781,108.0199966430664,2810000.0,104.61104583740234
2018-06-22,111.75,109.36000061035156,109.94999694824219,111.0199966430664,2510800.0,107.51637268066406
2018-06-25,110.8499984741211,106.91000366210938,110.75,107.62000274658203,1814500.0,104.22367095947266
2018-06-26,108.80999755859375,107.1500015258789,108.05000305175781,108.30000305175781,1896900.0,104.88221740722656
2018-06-27,111.75,108.4800033569336,109.19999694824219,109.04000091552734,2279100.0,105.59886169433594
2018-06-28,109.55000305175781,107.63999938964844,108.94999694824219,109.3499984741211,1619200.0,105.89907836914062
2018-06-29,112.08999633789062,109.58999633789062,110.0,109.8499984741211,2003600.0,106.38330078125
2018-07-02,109.2300033569336,107.26000213623047,108.98999786376953,107.55000305175781,2360800.0,104.1558837890625
2018-07-03,108.91000366210938,106.63999938964844,108.47000122070312,106.76000213623047,878800.0,103.39081573486328
2018-07-05,108.16999816894531,106.94999694824219,107.20999908447266,107.83000183105469,1430400.0,104.42705535888672
2018-07-06,108.98999786376953,106.70999908447266,107.44000244140625,108.56999969482422,1967600.0,105.14369201660156
2018-07-09,110.77999877929688,108.58999633789062,109.2699966430664,110.52999877929688,2444900.0,107.04183959960938
2018-07-10,111.83999633789062,109.4000015258789,110.91999816894531,110.19000244140625,1981600.0,106.71257019042969
2018-07-11,109.0,105.41000366210938,109.0,106.68000030517578,3300600.0,103.31333923339844
2018-07-12,107.62999725341797,105.66000366210938,107.5,106.72000122070312,2094600.0,103.35208129882812
2018-07-13,107.87999725341797,106.41000366210938,106.86000061035156,107.37999725341797,1694500.0,103.99124908447266
2018-07-16,107.66000366210938,105.81999969482422,106.8499984741211,106.22000122070312,2232100.0,102.86785888671875
2018-07-17,108.38999938964844,106.29000091552734,106.29000091552734,108.11000061035156,1709400.0,104.69820404052734
2018-07-18,109.23999786376953,107.66000366210938,107.87999725341797,108.61000061035156,1514100.0,105.18243408203125
2018-07-19,109.02999877929688,107.86000061035156,108.51000213623047,108.55999755859375,1378700.0,105.1340103149414
2018-07-20,108.61000061035156,107.52999877929688,108.13999938964844,107.93000030517578,1283300.0,104.52388763427734
2018-07-23,108.51000213623047,107.05000305175781,108.41000366210938,107.58000183105469,1460700.0,104.18494415283203
2018-07-24,109.4000015258789,107.56999969482422,107.56999969482422,108.37000274658203,2452900.0,104.95001220703125
2018-07-25,109.61000061035156,107.56999969482422,108.25,109.41999816894531,1408400.0,105.96687316894531
2018-07-26,111.19999694824219,109.37999725341797,109.37999725341797,110.94999694824219,1642000.0,107.4485855102539
2018-07-27,111.25,108.9800033569336,111.19000244140625,109.48999786376953,1098000.0,106.03465270996094
2018-07-30,110.25,109.01000213623047,109.51000213623047,109.11000061035156,1282500.0,105.66665649414062
2018-07-31,110.97000122070312,109.18000030517578,109.61000061035156,110.79000091552734,1872400.0,107.29363250732422
2018-08-01,111.5,110.02999877929688,110.7699966430664,110.11000061035156,1511000.0,106.63509368896484
2018-08-02,109.04000091552734,107.56999969482422,108.75,108.47000122070312,1874000.0,105.04685974121094
2018-08-03,112.79000091552734,108.6500015258789,110.61000061035156,112.1500015258789,2851100.0,108.61071014404297
2018-08-06,113.62000274658203,111.5,112.08000183105469,113.01000213623047,1713300.0,109.44357299804688
2018-08-07,114.37999725341797,112.80999755859375,113.7300033569336,113.4000015258789,1179400.0,109.8212661743164
2018-08-08,113.43000030517578,111.87000274658203,113.0,113.06999969482422,1469000.0,109.50167846679688
2018-08-09,114.44999694824219,113.22000122070312,113.33000183105469,113.37999725341797,1116800.0,109.80189514160156
2018-08-10,113.01000213623047,111.91000366210938,112.55000305175781,112.56999969482422,1766500.0,109.0174560546875
2018-08-13,114.33999633789062,111.54000091552734,113.18000030517578,111.58000183105469,1743600.0,108.05870819091797
2018-08-14,113.8499984741211,112.16999816894531,112.4000015258789,113.19000244140625,1319800.0,109.6178970336914
2018-08-15,111.88999938964844,108.80000305175781,111.69000244140625,110.76000213623047,2469600.0,107.26457977294922
2018-08-16,112.66000366210938,111.51000213623047,111.55000305175781,111.94999694824219,1642300.0,108.41702270507812
2018-08-17,113.37000274658203,111.61000061035156,111.87999725341797,113.0999984741211,1769000.0,109.53073120117188
2018-08-20,114.94999694824219,113.44000244140625,113.8499984741211,113.98999786376953,1405000.0,110.39263916015625
2018-08-21,115.94000244140625,114.20999908447266,114.20999908447266,114.94000244140625,1486000.0,111.31266784667969
2018-08-22,116.13999938964844,114.47000122070312,115.73999786376953,114.7699966430664,1151700.0,111.14803314208984
2018-08-23,114.88999938964844,113.30000305175781,114.88999938964844,114.02999877929688,1132100.0,110.43138885498047
2018-08-24,115.4000015258789,113.75,114.80999755859375,115.12000274658203,1091700.0,111.48699951171875
2018-08-27,116.62999725341797,114.68000030517578,115.29000091552734,115.94999694824219,1693800.0,112.29078674316406
2018-08-28,116.54000091552734,114.05999755859375,116.05999755859375,114.97000122070312,1875100.0,111.34172058105469
2018-08-29,115.36000061035156,113.93000030517578,115.19999694824219,114.9800033569336,1305700.0,111.35140228271484
2018-08-30,114.5199966430664,112.54000091552734,114.51000213623047,113.6500015258789,1983600.0,110.06338500976562
2018-08-31,113.7699966430664,112.33999633789062,113.36000061035156,112.77999877929688,1651800.0,109.22083282470703
2018-09-04,112.25,110.54000091552734,111.94999694824219,111.01000213623047,2010900.0,108.46846771240234
2018-09-05,111.75,110.04000091552734,110.5,111.66999816894531,2652800.0,109.11334991455078
2018-09-06,113.23999786376953,111.36000061035156,112.0,112.23999786376953,2136900.0,109.67030334472656
2018-09-07,110.72000122070312,107.55999755859375,110.68000030517578,108.62999725341797,2708800.0,106.14295196533203
2018-09-10,110.69000244140625,106.66000366210938,109.58999633789062,106.87999725341797,3232700.0,104.43302154541016
2018-09-11,107.16999816894531,104.9000015258789,106.11000061035156,106.54000091552734,2638600.0,104.1008071899414
2018-09-12,107.41999816894531,106.04000091552734,106.38999938964844,106.08999633789062,3217300.0,103.66110229492188
2018-09-13,107.48999786376953,104.93000030517578,107.04000091552734,104.95999908447266,2654500.0,102.55697631835938
2018-09-14,106.05999755859375,103.8499984741211,105.02999877929688,105.30999755859375,3381600.0,102.89896392822266
2018-09-17,105.02999877929688,103.08999633789062,104.05999755859375,103.45999908447266,3579400.0,101.09131622314453
2018-09-18,103.5999984741211,100.7300033569336,103.1500015258789,102.0999984741211,3874500.0,99.76245880126953
2018-09-19,102.93000030517578,99.11000061035156,99.68000030517578,102.70999908447266,4317900.0,100.35848999023438
2018-09-20,105.36000061035156,103.75,104.04000091552734,104.48999786376953,3520800.0,102.09774017333984
2018-09-21,105.63999938964844,104.75,105.0,105.20999908447266,4733800.0,102.80125427246094
2018-09-24,105.4800033569336,103.33000183105469,105.37999725341797,104.3499984741211,1752900.0,101.9609375
2018-09-25,105.08000183105469,103.77999877929688,104.25,104.80000305175781,2078400.0,102.40064239501953
2018-09-26,105.44999694824219,104.0,104.44999694824219,104.29000091552734,2375400.0,101.90231323242188
2018-09-27,104.38999938964844,102.5999984741211,103.83000183105469,102.77999877929688,1900700.0,100.4268798828125
2018-09-28,102.83999633789062,100.93000030517578,102.26000213623047,102.51000213623047,2441100.0,100.16307067871094
2018-10-01,104.98999786376953,102.94999694824219,102.94999694824219,104.04000091552734,2411900.0,101.65804290771484
2018-10-02,106.31999969482422,104.29000091552734,104.41000366210938,105.7300033569336,2443000.0,103.3093490600586
2018-10-03,106.61000061035156,104.58000183105469,105.95999908447266,105.77999877929688,2321600.0,103.35820007324219
2018-10-04,105.95999908447266,103.12999725341797,105.95999908447266,103.91999816894531,2641600.0,101.54078674316406
2018-10-05,104.61000061035156,103.18000030517578,103.94999694824219,103.5,2565500.0,101.13040161132812
2018-10-08,104.75,102.55000305175781,102.88999938964844,104.22000122070312,1929700.0,101.83391571044922
2018-10-09,103.83000183105469,99.51000213623047,103.75,99.70999908447266,3310000.0,97.42717742919922
2018-10-10,100.48999786376953,97.48999786376953,100.48999786376953,97.62000274658203,5274500.0,95.38502502441406
2018-10-11,99.6500015258789,96.80999755859375,97.55000305175781,97.02999877929688,3704400.0,94.80853271484375
2018-10-12,99.23999786376953,97.02999877929688,98.0999984741211,97.5,3335100.0,95.26777648925781
2018-10-15,98.37000274658203,96.93000030517578,97.5199966430664,96.94000244140625,2051000.0,94.72059631347656
2018-10-16,97.87000274658203,97.02999877929688,97.37000274658203,97.62999725341797,2636900.0,95.3947982788086
2018-10-17,98.33000183105469,95.88999938964844,97.63999938964844,96.22000122070312,2408400.0,94.01708221435547
2018-10-18,97.33999633789062,94.20999908447266,96.05000305175781,94.79000091552734,3205700.0,92.61981201171875
2018-10-19,96.0,92.87999725341797,95.44999694824219,93.58999633789062,3203000.0,91.44728088378906
2018-10-22,94.48999786376953,91.25,94.2699966430664,91.94000244140625,3513700.0,89.83506774902344
2018-10-23,90.7300033569336,88.91000366210938,90.08000183105469,90.0,3388000.0,87.93948364257812
2018-10-24,90.63999938964844,86.41000366210938,90.41999816894531,86.56999969482422,3708100.0,84.5880126953125
2018-10-25,90.08000183105469,87.58000183105469,87.63999938964844,89.19999694824219,3399100.0,87.15779876708984
2018-10-26,90.5199966430664,87.5,88.12999725341797,89.2300033569336,3358800.0,87.18711853027344
2018-10-29,91.41999816894531,88.19000244140625,90.7300033569336,88.44999694824219,3172900.0,86.42496490478516
2018-10-30,90.0,85.5999984741211,89.06999969482422,88.81999969482422,5161400.0,86.7864990234375
2018-10-31,91.16999816894531,88.68000030517578,90.02999877929688,89.2699966430664,4470200.0,87.22618865966797
2018-11-01,92.91999816894531,90.11000061035156,91.19000244140625,92.52999877929688,3317500.0,90.41156005859375
2018-11-02,94.27999877929688,92.25,93.77999877929688,93.0999984741211,3815800.0,90.968505859375
2018-11-05,93.97000122070312,92.62999725341797,93.54000091552734,93.48999786376953,1882300.0,91.34957885742188
2018-11-06,95.55000305175781,94.01000213623047,94.22000122070312,95.08000183105469,2539400.0,92.90318298339844
2018-11-07,96.94000244140625,94.52999877929688,95.58000183105469,96.8499984741211,3615800.0,94.63265228271484
2018-11-08,96.58999633789062,94.9000015258789,95.86000061035156,96.52999877929688,3906500.0,94.31997680664062
2018-11-09,96.51000213623047,94.9000015258789,95.2699966430664,96.05999755859375,3141600.0,93.8607406616211
2018-11-12,96.8499984741211,94.98999786376953,96.16000366210938,95.23999786376953,3014800.0,93.05951690673828
2018-11-13,96.05000305175781,91.77999877929688,95.08999633789062,92.06999969482422,4514000.0,89.96208953857422
2018-11-14,93.86000061035156,90.97000122070312,92.19000244140625,91.87999725341797,4797300.0,89.77643585205078
2018-11-15,94.04000091552734,91.72000122070312,91.87999725341797,93.44000244140625,3332700.0,91.30072021484375
2018-11-16,96.30999755859375,92.86000061035156,93.19000244140625,95.43000030517578,3096400.0,93.24516296386719
2018-11-19,94.9000015258789,92.55000305175781,94.62000274658203,92.77999877929688,2780300.0,90.65583038330078
2018-11-20,93.2699966430664,91.06999969482422,92.5,91.4000015258789,3156200.0,89.30743408203125
2018-11-21,93.68000030517578,91.73999786376953,92.08000183105469,92.37999725341797,2158000.0,90.2649917602539
2018-11-23,91.80999755859375,90.61000061035156,91.0199966430664,90.83999633789062,1079200.0,88.76024627685547
2018-11-26,92.5,91.30999755859375,91.62999725341797,92.0999984741211,1946300.0,89.99140167236328
2018-11-27,92.16999816894531,90.22000122070312,91.33000183105469,91.18000030517578,2359700.0,89.09246826171875
2018-11-28,92.08000183105469,89.52999877929688,91.5,92.0199966430664,2074700.0,89.9132308959961
2018-11-29,93.87000274658203,91.93000030517578,92.44000244140625,93.0199966430664,2503700.0,90.89033508300781
2018-11-30,93.5199966430664,91.5199966430664,92.23999786376953,93.30999755859375,3189400.0,91.17369842529297
2018-12-03,96.7699966430664,93.01000213623047,95.98999786376953,94.31999969482422,3184800.0,92.16057586669922
2018-12-04,94.5199966430664,89.30999755859375,94.06999969482422,90.56999969482422,4164800.0,88.49642944335938
2018-12-06,88.86000061035156,86.37000274658203,88.79000091552734,88.2300033569336,3870600.0,86.21000671386719
2018-12-07,89.97000122070312,84.16999816894531,88.27999877929688,84.37000274658203,3944400.0,83.3834457397461
2018-12-10,84.94999694824219,82.41000366210938,84.12999725341797,84.43000030517578,3363700.0,83.44274139404297
2018-12-11,86.75,84.08999633789062,86.16000366210938,84.81999969482422,2536000.0,83.82818603515625
2018-12-12,87.1500015258789,85.23999786376953,86.93000030517578,85.44000244140625,2577700.0,84.4409408569336
2018-12-13,85.80000305175781,83.26000213623047,85.33999633789062,83.68000030517578,2501500.0,82.7015151977539
2018-12-14,84.44000244140625,81.94999694824219,82.77999877929688,82.33999633789062,2396200.0,81.37718200683594
2018-12-17,84.27999877929688,81.05000305175781,81.5,82.19000244140625,2719800.0,81.22894287109375
2018-12-18,84.23999786376953,82.0199966430664,82.98999786376953,82.45999908447266,2675800.0,81.49578094482422
2018-12-19,84.37000274658203,80.22000122070312,82.41999816894531,80.66000366210938,2872900.0,79.71683502197266
2018-12-20,81.83000183105469,78.31999969482422,80.12999725341797,79.56999969482422,3778900.0,78.63957214355469
2018-12-21,81.30000305175781,78.80999755859375,79.4800033569336,79.01000213623047,4470400.0,78.08612060546875
2018-12-24,80.61000061035156,77.88999938964844,78.91999816894531,78.5199966430664,1634400.0,77.60184478759766
2018-12-26,81.47000122070312,77.5199966430664,78.62999725341797,81.41999816894531,2786000.0,80.46794128417969
2018-12-27,83.43000030517578,79.62999725341797,80.08999633789062,83.43000030517578,2097800.0,82.45443725585938
2018-12-28,84.12999725341797,81.9800033569336,83.68000030517578,82.37999725341797,1865600.0,81.41670989990234
2018-12-31,83.69999694824219,82.05999755859375,82.6500015258789,83.16000366210938,1699900.0,82.1875991821289
