Date,High,Low,Open,Close,Volume,Adj Close
2016-01-04,54.54999923706055,52.61000061035156,53.310001373291016,54.18000030517578,1920000.0,46.47545623779297
2016-01-05,54.33000183105469,52.790000915527344,53.7599983215332,53.560001373291016,1769900.0,45.943634033203125
2016-01-06,52.25,49.9900016784668,51.93000030517578,50.47999954223633,2532700.0,43.30160903930664
2016-01-07,49.9900016784668,48.2599983215332,49.31999969482422,48.5099983215332,2715500.0,41.61174392700195
2016-01-08,49.09000015258789,46.81999969482422,48.439998626708984,47.79999923706055,1899600.0,41.002716064453125
2016-01-11,48.20000076293945,44.97999954223633,48.029998779296875,45.7400016784668,3234800.0,39.235652923583984
2016-01-12,47.310001373291016,44.400001525878906,46.75,46.029998779296875,3775400.0,39.484413146972656
2016-01-13,47.369998931884766,44.88999938964844,46.959999084472656,44.939998626708984,3092300.0,38.54941177368164
2016-01-14,47.25,44.369998931884766,45.209999084472656,46.630001068115234,3544700.0,39.99909591674805
2016-01-15,45.369998931884766,43.65999984741211,44.619998931884766,45.150001525878906,3530500.0,38.729557037353516
2016-01-19,45.36000061035156,42.29999923706055,45.349998474121094,43.150001525878906,3008400.0,37.01395797729492
2016-01-20,43.5,40.02000045776367,41.58000183105469,42.849998474121094,4259300.0,36.756614685058594
2016-01-21,46.279998779296875,42.29999923706055,42.41999816894531,45.279998779296875,4068900.0,38.841068267822266
2016-01-22,49.15999984741211,45.79999923706055,48.029998779296875,47.029998779296875,4462100.0,40.34220504760742
2016-01-25,46.619998931884766,43.900001525878906,45.72999954223633,43.93000030517578,2595300.0,37.683040618896484
2016-01-26,46.529998779296875,44.04999923706055,45.439998626708984,45.84000015258789,2645800.0,39.32143783569336
2016-01-27,48.2599983215332,45.060001373291016,45.310001373291016,46.06999969482422,4579200.0,39.51872634887695
2016-01-28,50.970001220703125,46.52000045776367,46.540000915527344,49.47999954223633,5093400.0,42.44380569458008
2016-01-29,50.970001220703125,48.79999923706055,49.650001525878906,50.79999923706055,3859900.0,43.576114654541016
2016-02-01,50.15999984741211,48.52000045776367,49.52000045776367,49.93000030517578,2914200.0,42.829830169677734
2016-02-02,48.810001373291016,46.290000915527344,48.470001220703125,46.630001068115234,2879500.0,39.99909591674805
2016-02-03,49.40999984741211,45.900001525878906,47.91999816894531,49.369998931884766,2796400.0,42.349464416503906
2016-02-04,52.02000045776367,49.90999984741211,49.939998626708984,51.31999969482422,5036300.0,44.02216720581055
2016-02-05,51.72999954223633,49.04999923706055,50.86000061035156,50.279998779296875,3234700.0,43.13005447387695
2016-02-08,49.869998931884766,48.18000030517578,49.08000183105469,49.63999938964844,2234500.0,42.5810661315918
2016-02-09,51.060001373291016,46.7400016784668,50.560001373291016,48.02000045776367,2682000.0,41.19143295288086
2016-02-10,48.08000183105469,46.220001220703125,46.66999816894531,46.2599983215332,2267300.0,40.258079528808594
2016-02-11,46.41999816894531,44.29999923706055,45.459999084472656,45.75,3070600.0,39.814247131347656
2016-02-12,48.540000915527344,46.369998931884766,47.08000183105469,47.40999984741211,2162900.0,41.25888442993164
2016-02-16,48.75,47.45000076293945,48.290000915527344,48.63999938964844,2550800.0,42.32929229736328
2016-02-17,53.15999984741211,49.5099983215332,49.65999984741211,52.91999816894531,3623400.0,46.053985595703125
2016-02-18,53.650001525878906,50.18000030517578,53.220001220703125,51.900001525878906,3162100.0,45.16633224487305
2016-02-19,51.59000015258789,50.0,50.779998779296875,51.58000183105469,1726100.0,44.887855529785156
2016-02-22,54.31999969482422,52.70000076293945,53.060001373291016,53.88999938964844,2637600.0,46.89814376831055
2016-02-23,54.0,50.560001373291016,53.47999954223633,51.08000183105469,2163600.0,44.45271682739258
2016-02-24,51.5,49.040000915527344,49.939998626708984,51.31999969482422,1561900.0,44.66158676147461
2016-02-25,51.70000076293945,49.650001525878906,51.529998779296875,51.5,1700400.0,44.81822204589844
2016-02-26,54.25,52.11000061035156,53.150001525878906,53.13999938964844,2615200.0,46.24544906616211
2016-02-29,54.290000915527344,52.310001373291016,53.189998626708984,52.970001220703125,2478900.0,46.09750747680664
2016-03-01,55.04999923706055,52.65999984741211,53.939998626708984,54.7599983215332,2395700.0,47.6552619934082
2016-03-02,57.369998931884766,53.56999969482422,53.9900016784668,57.34000015258789,2308700.0,49.90053176879883
2016-03-03,59.2599983215332,56.77000045776367,57.16999816894531,58.97999954223633,2872400.0,51.3277473449707
2016-03-04,63.540000915527344,58.439998626708984,59.43000030517578,61.959999084472656,4541000.0,53.921112060546875
2016-03-07,63.47999954223633,61.0099983215332,61.0099983215332,62.95000076293945,3451200.0,54.78267288208008
2016-03-08,62.38999938964844,60.02000045776367,62.27000045776367,60.70000076293945,2211000.0,52.824588775634766
2016-03-09,63.310001373291016,60.529998779296875,62.02000045776367,62.220001220703125,2409000.0,54.14738082885742
2016-03-10,62.310001373291016,59.93000030517578,61.81999969482422,61.959999084472656,2510400.0,53.921112060546875
2016-03-11,63.720001220703125,62.31999969482422,62.38999938964844,63.38999938964844,1685000.0,55.16558837890625
2016-03-14,62.939998626708984,60.58000183105469,61.959999084472656,61.130001068115234,2927400.0,53.19880294799805
2016-03-15,61.54999923706055,58.56999969482422,60.04999923706055,61.52000045776367,2155200.0,53.53820037841797
2016-03-16,63.11000061035156,61.43000030517578,62.43000030517578,62.439998626708984,1638300.0,54.338836669921875
2016-03-17,63.75,61.459999084472656,62.75,63.130001068115234,2470900.0,54.9393196105957
2016-03-18,64.05999755859375,60.56999969482422,63.52000045776367,60.83000183105469,3203600.0,52.93772888183594
2016-03-21,61.38999938964844,59.619998931884766,60.40999984741211,60.97999954223633,1885000.0,53.068267822265625
2016-03-22,61.400001525878906,59.400001525878906,59.95000076293945,59.86000061035156,1716800.0,52.09357833862305
2016-03-23,60.65999984741211,57.70000076293945,59.59000015258789,57.84000015258789,2432100.0,50.33565902709961
2016-03-24,58.189998626708984,56.349998474121094,56.58000183105469,58.099998474121094,2685800.0,50.56191635131836
2016-03-28,58.77000045776367,57.47999954223633,58.470001220703125,58.400001525878906,1268800.0,50.822998046875
2016-03-29,58.459999084472656,56.18000030517578,57.13999938964844,58.11000061035156,2157900.0,50.57062530517578
2016-03-30,59.849998474121094,57.459999084472656,59.150001525878906,58.310001373291016,1728200.0,50.74468231201172
2016-03-31,59.7400016784668,57.880001068115234,58.060001373291016,58.720001220703125,1634500.0,51.10148620605469
2016-04-01,57.54999923706055,55.959999084472656,57.02000045776367,56.630001068115234,2269200.0,49.28265380859375
2016-04-04,57.939998626708984,55.959999084472656,56.93000030517578,56.790000915527344,1827000.0,49.42188262939453
2016-04-05,57.84000015258789,56.0,56.04999923706055,56.779998779296875,1366600.0,49.41318893432617
2016-04-06,58.279998779296875,56.220001220703125,57.400001525878906,57.16999816894531,1800700.0,49.75257873535156
2016-04-07,57.56999969482422,55.75,56.810001373291016,56.16999816894531,1975700.0,48.88232421875
2016-04-08,58.83000183105469,56.9900016784668,57.75,57.22999954223633,1959400.0,49.8047981262207
2016-04-11,58.9900016784668,57.369998931884766,57.619998931884766,57.900001525878906,1377900.0,50.387874603271484
2016-04-12,61.08000183105469,58.279998779296875,58.4900016784668,60.099998474121094,3709900.0,52.30243682861328
2016-04-13,60.630001068115234,58.88999938964844,60.380001068115234,60.13999938964844,1702700.0,52.337242126464844
2016-04-14,60.86000061035156,59.060001373291016,60.709999084472656,59.689998626708984,1220900.0,51.94562911987305
2016-04-15,58.79999923706055,56.709999084472656,58.79999923706055,58.15999984741211,2987500.0,50.614139556884766
2016-04-18,60.029998779296875,55.83000183105469,56.0099983215332,59.869998931884766,2457300.0,52.10227966308594
2016-04-19,63.470001220703125,60.20000076293945,60.58000183105469,63.060001373291016,2598600.0,54.87839126586914
2016-04-20,64.33000183105469,62.369998931884766,62.7400016784668,63.56999969482422,2045500.0,55.32223129272461
2016-04-21,64.33999633789062,62.939998626708984,63.90999984741211,63.709999084472656,1662500.0,55.44405746459961
2016-04-22,65.55000305175781,63.25,63.7400016784668,64.08000183105469,2648300.0,55.76606369018555
2016-04-25,64.27999877929688,62.5,63.439998626708984,62.95000076293945,1356600.0,54.78267288208008
2016-04-26,63.810001373291016,62.369998931884766,63.68000030517578,63.04999923706055,1565700.0,54.869693756103516
2016-04-27,65.0,63.529998779296875,63.959999084472656,64.94999694824219,1749500.0,56.52317810058594
2016-04-28,66.08999633789062,63.83000183105469,64.63999938964844,64.91999816894531,2428400.0,56.49707794189453
2016-04-29,66.26000213623047,64.16000366210938,64.23999786376953,66.12000274658203,3092900.0,57.54138946533203
2016-05-02,65.69999694824219,61.849998474121094,65.69999694824219,63.04999923706055,3956800.0,54.869693756103516
2016-05-03,62.27000045776367,60.63999938964844,61.84000015258789,61.68000030517578,2731700.0,53.67744445800781
2016-05-04,62.41999816894531,59.25,62.20000076293945,60.029998779296875,2270900.0,52.24151611328125
2016-05-05,61.7599983215332,59.52000045776367,61.66999816894531,60.09000015258789,1047000.0,52.29373550415039
2016-05-06,61.599998474121094,59.630001068115234,59.70000076293945,60.689998626708984,1504600.0,52.81589126586914
2016-05-09,60.58000183105469,57.83000183105469,60.47999954223633,58.27000045776367,1740300.0,50.709869384765625
2016-05-10,59.88999938964844,58.47999954223633,58.81999969482422,59.70000076293945,1311000.0,51.95433807373047
2016-05-11,60.22999954223633,57.970001220703125,58.619998931884766,59.4900016784668,1543700.0,52.37516784667969
2016-05-12,60.63999938964844,58.290000915527344,60.029998779296875,58.650001525878906,1218400.0,51.6356315612793
2016-05-13,59.650001525878906,57.97999954223633,58.380001068115234,58.08000183105469,1068700.0,51.13379669189453
2016-05-16,60.33000183105469,59.209999084472656,59.400001525878906,59.33000183105469,952000.0,52.23429870605469
2016-05-17,60.970001220703125,58.91999816894531,59.119998931884766,59.939998626708984,1605300.0,52.77134704589844
2016-05-18,60.349998474121094,57.65999984741211,59.849998474121094,57.880001068115234,1717600.0,50.95771789550781
2016-05-19,57.81999969482422,56.349998474121094,57.099998474121094,57.45000076293945,1600600.0,50.579139709472656
2016-05-20,59.400001525878906,57.61000061035156,57.65999984741211,58.810001373291016,1540400.0,51.7764892578125
2016-05-23,58.52000045776367,57.41999816894531,58.22999954223633,58.2599983215332,1275500.0,51.292266845703125
2016-05-24,58.68000030517578,57.310001373291016,58.0,58.529998779296875,1319500.0,51.52997589111328
2016-05-25,60.959999084472656,58.529998779296875,59.2400016784668,60.380001068115234,1289000.0,53.15872573852539
2016-05-26,61.349998474121094,59.709999084472656,61.11000061035156,60.619998931884766,1276500.0,53.37002182006836
2016-05-27,60.65999984741211,59.81999969482422,60.40999984741211,60.59000015258789,1100400.0,53.343605041503906
2016-05-31,61.75,60.459999084472656,60.7599983215332,61.150001525878906,2259200.0,53.83663558959961
2016-06-01,60.060001373291016,58.290000915527344,59.849998474121094,59.810001373291016,2379100.0,52.656898498535156
2016-06-02,59.59000015258789,58.40999984741211,59.29999923706055,58.869998931884766,1245400.0,51.82931137084961
2016-06-03,59.709999084472656,58.09000015258789,58.90999984741211,58.790000915527344,2064300.0,51.75888442993164
2016-06-06,64.93000030517578,59.810001373291016,60.15999984741211,64.73999786376953,2971600.0,56.997276306152344
2016-06-07,67.69999694824219,64.98999786376953,65.0,67.3499984741211,3601300.0,59.29512405395508
2016-06-08,69.13999938964844,66.58999633789062,67.62999725341797,67.36000061035156,2713600.0,59.3039436340332
2016-06-09,67.5999984741211,65.4000015258789,66.47000122070312,67.23999786376953,1395100.0,59.198280334472656
2016-06-10,66.38999938964844,64.52999877929688,66.22000122070312,64.7699966430664,1512200.0,57.02368927001953
2016-06-13,65.77999877929688,63.88999938964844,64.55999755859375,64.23999786376953,1696300.0,56.557071685791016
2016-06-14,64.86000061035156,63.38999938964844,63.86000061035156,64.83000183105469,1372100.0,57.076515197753906
2016-06-15,66.19999694824219,63.79999923706055,64.30999755859375,65.36000061035156,1671600.0,57.543128967285156
2016-06-16,64.69999694824219,62.439998626708984,64.27999877929688,64.54000091552734,1841500.0,56.821197509765625
2016-06-17,66.5,64.91000366210938,65.0999984741211,66.22000122070312,2136800.0,58.3002815246582
2016-06-20,67.83999633789062,65.62000274658203,67.20999908447266,65.62999725341797,1188000.0,57.78083419799805
2016-06-21,67.51000213623047,65.26000213623047,65.91999816894531,66.9800033569336,1715500.0,58.96938705444336
2016-06-22,68.12999725341797,66.81999969482422,67.51000213623047,66.93000030517578,1550400.0,58.92535400390625
2016-06-23,69.19999694824219,67.61000061035156,68.18000030517578,69.16999816894531,1389900.0,60.8974609375
2016-06-24,67.25,65.72000122070312,66.27999877929688,66.08999633789062,2124000.0,58.18582534790039
2016-06-27,65.54000091552734,62.2400016784668,65.11000061035156,62.65999984741211,2634900.0,55.166046142578125
2016-06-28,64.73999786376953,63.630001068115234,64.1500015258789,64.0,2164100.0,56.34577941894531
2016-06-29,66.63999938964844,64.95999908447266,65.04000091552734,66.22000122070312,1888000.0,58.3002815246582
2016-06-30,67.12999725341797,65.16000366210938,66.11000061035156,67.12999725341797,1690000.0,59.10143280029297
2016-07-01,68.9800033569336,67.0199966430664,67.12999725341797,68.55000305175781,1230900.0,60.35162353515625
2016-07-05,67.44000244140625,64.47000122070312,66.95999908447266,65.25,1619700.0,57.4462890625
2016-07-06,65.44000244140625,63.91999816894531,64.91999816894531,65.0199966430664,1702700.0,57.2437858581543
2016-07-07,67.80000305175781,64.62000274658203,65.88999938964844,65.18000030517578,1566300.0,57.38465881347656
2016-07-08,66.9800033569336,65.44000244140625,66.19999694824219,66.44999694824219,1040700.0,58.502769470214844
2016-07-11,68.08000183105469,66.0199966430664,66.91999816894531,66.16999816894531,1307800.0,58.25625228881836
2016-07-12,70.0,67.7699966430664,67.94000244140625,69.7699966430664,2144200.0,61.42570114135742
2016-07-13,70.0,67.66999816894531,69.69999694824219,68.72000122070312,1543100.0,60.50128173828125
2016-07-14,70.27999877929688,68.36000061035156,69.79000091552734,68.37000274658203,1609900.0,60.19314956665039
2016-07-15,69.97000122070312,68.36000061035156,68.98999786376953,68.72000122070312,1576000.0,60.50128173828125
2016-07-18,68.5199966430664,67.2300033569336,68.33999633789062,68.19000244140625,1365500.0,60.03467559814453
2016-07-19,68.2699966430664,66.29000091552734,67.48999786376953,66.58000183105469,1512200.0,58.617225646972656
2016-07-20,66.80000305175781,64.68000030517578,65.98999786376953,65.7300033569336,1717900.0,57.86888885498047
2016-07-21,66.62999725341797,63.880001068115234,65.7699966430664,64.0999984741211,1575000.0,56.43382263183594
2016-07-22,64.95999908447266,63.369998931884766,64.51000213623047,64.87000274658203,1980800.0,57.111732482910156
2016-07-25,64.5,62.88999938964844,64.1500015258789,62.91999816894531,1509900.0,55.39494323730469
2016-07-26,64.30999755859375,62.459999084472656,62.61000061035156,64.2300033569336,1322000.0,56.548274993896484
2016-07-27,64.76000213623047,62.27000045776367,64.30000305175781,62.970001220703125,2013400.0,55.43897247314453
2016-07-28,63.5099983215332,60.41999816894531,61.9900016784668,61.150001525878906,2525000.0,53.83663558959961
2016-07-29,62.16999816894531,60.40999984741211,60.459999084472656,61.970001220703125,1559100.0,54.558563232421875
2016-08-01,61.70000076293945,60.119998931884766,61.619998931884766,60.75,2302000.0,53.484466552734375
2016-08-02,62.290000915527344,59.93000030517578,61.59000015258789,61.72999954223633,2025000.0,54.34726333618164
2016-08-03,63.290000915527344,61.349998474121094,61.66999816894531,63.029998779296875,2137600.0,55.49179458618164
2016-08-04,63.83000183105469,62.25,62.970001220703125,62.369998931884766,1284000.0,54.91072463989258
2016-08-05,63.4900016784668,62.11000061035156,62.43000030517578,63.220001220703125,1206500.0,55.6590690612793
2016-08-08,65.19000244140625,63.779998779296875,64.01000213623047,64.72000122070312,1597700.0,56.979679107666016
2016-08-09,64.8499984741211,63.150001525878906,64.8499984741211,63.79999923706055,1124800.0,56.16969680786133
2016-08-10,64.08999633789062,62.90999984741211,63.880001068115234,63.08000183105469,1625000.0,55.53581237792969
2016-08-11,63.09000015258789,62.0099983215332,62.52000045776367,62.459999084472656,1390100.0,55.607032775878906
2016-08-12,62.7599983215332,61.560001373291016,62.7599983215332,61.869998931884766,1147100.0,55.081764221191406
2016-08-15,63.33000183105469,61.93000030517578,62.040000915527344,62.599998474121094,1185500.0,55.73167419433594
2016-08-16,63.5,62.18000030517578,62.779998779296875,62.95000076293945,1371800.0,56.04327392578125
2016-08-17,62.88999938964844,61.59000015258789,62.810001373291016,62.369998931884766,1184600.0,55.52690505981445
2016-08-18,65.31999969482422,62.84000015258789,62.84000015258789,64.66999816894531,2019000.0,57.574562072753906
2016-08-19,64.55999755859375,63.369998931884766,64.0,64.23999786376953,1143200.0,57.191734313964844
2016-08-22,63.380001068115234,62.08000183105469,63.380001068115234,62.58000183105469,1074800.0,55.713871002197266
2016-08-23,63.63999938964844,62.209999084472656,62.560001373291016,63.2599983215332,1449100.0,56.31925964355469
2016-08-24,63.52000045776367,62.66999816894531,62.66999816894531,63.16999816894531,1352800.0,56.2391357421875
2016-08-25,63.68000030517578,62.45000076293945,63.25,62.61000061035156,995200.0,55.740577697753906
2016-08-26,63.400001525878906,61.86000061035156,62.779998779296875,62.43000030517578,2026400.0,55.580326080322266
2016-08-29,63.470001220703125,62.0,62.060001373291016,62.56999969482422,792400.0,55.70496368408203
2016-08-30,63.459999084472656,61.02000045776367,62.56999969482422,61.36000061035156,981900.0,54.627723693847656
2016-08-31,61.470001220703125,60.09000015258789,61.0,60.459999084472656,1248500.0,53.82646560668945
2016-09-01,60.47999954223633,59.459999084472656,60.0,60.29999923706055,1889000.0,53.684024810791016
2016-09-02,61.81999969482422,60.08000183105469,61.0099983215332,60.189998626708984,1449400.0,53.586090087890625
2016-09-06,62.869998931884766,60.790000915527344,61.380001068115234,62.68000030517578,2096600.0,55.802894592285156
2016-09-07,63.36000061035156,61.9900016784668,62.959999084472656,62.81999969482422,1399000.0,55.92753219604492
2016-09-08,63.7599983215332,61.540000915527344,63.29999923706055,62.880001068115234,2289400.0,55.980953216552734
2016-09-09,62.72999954223633,59.81999969482422,62.02000045776367,59.83000183105469,1544200.0,53.265594482421875
2016-09-12,60.060001373291016,58.79999923706055,59.369998931884766,59.7599983215332,1730300.0,53.203269958496094
2016-09-13,59.29999923706055,56.65999984741211,58.869998931884766,57.18000030517578,2606500.0,50.90634536743164
2016-09-14,58.90999984741211,56.630001068115234,56.939998626708984,57.279998779296875,1848300.0,50.9953727722168
2016-09-15,58.43000030517578,57.150001525878906,57.34000015258789,57.77000045776367,1342000.0,51.431610107421875
2016-09-16,58.189998626708984,56.650001525878906,56.81999969482422,57.61000061035156,2670300.0,51.28916549682617
2016-09-19,58.349998474121094,57.290000915527344,58.040000915527344,57.31999969482422,1347000.0,51.030982971191406
2016-09-20,57.47999954223633,56.189998626708984,57.47999954223633,56.459999084472656,1770100.0,50.26533889770508
2016-09-21,59.06999969482422,56.970001220703125,57.0099983215332,59.02000045776367,1629900.0,52.544464111328125
2016-09-22,60.459999084472656,59.25,60.08000183105469,59.619998931884766,1063900.0,53.07863235473633
2016-09-23,59.97999954223633,57.29999923706055,59.060001373291016,57.59000015258789,1505000.0,51.271358489990234
2016-09-26,58.20000076293945,57.349998474121094,57.7400016784668,57.529998779296875,1477300.0,51.21793746948242
2016-09-27,58.52000045776367,56.5,56.869998931884766,58.27000045776367,2148100.0,51.87675476074219
2016-09-28,62.939998626708984,58.61000061035156,58.7599983215332,62.779998779296875,2905300.0,55.891929626464844
2016-09-29,66.87999725341797,63.130001068115234,63.27000045776367,65.26000213623047,5202100.0,58.099822998046875
2016-09-30,67.91000366210938,65.45999908447266,66.0199966430664,67.30000305175781,3040400.0,59.9160041809082
2016-10-03,68.08000183105469,65.97000122070312,67.43000030517578,67.47000122070312,1931600.0,60.067344665527344
2016-10-04,68.16000366210938,66.45999908447266,67.69000244140625,67.04000091552734,1448800.0,59.68452835083008
2016-10-05,69.30000305175781,67.61000061035156,67.7300033569336,68.68000030517578,1862000.0,61.14459228515625
2016-10-06,70.1500015258789,68.5999984741211,69.05999755859375,69.13999938964844,1334900.0,61.554115295410156
2016-10-07,69.44000244140625,68.29000091552734,69.41000366210938,68.58000183105469,1757700.0,61.055564880371094
2016-10-10,70.38999938964844,69.16000366210938,69.37999725341797,69.72000122070312,1398800.0,62.07048797607422
2016-10-11,69.3499984741211,68.3499984741211,69.22000122070312,69.26000213623047,1372900.0,61.66095733642578
2016-10-12,69.36000061035156,68.41999816894531,68.9000015258789,69.05999755859375,938400.0,61.48290252685547
2016-10-13,69.75,68.08999633789062,68.72000122070312,69.44999694824219,917700.0,61.83010482788086
2016-10-14,69.97000122070312,68.54000091552734,69.80999755859375,68.66999816894531,806600.0,61.13568115234375
2016-10-17,69.04000091552734,65.61000061035156,68.5,66.79000091552734,2504800.0,59.46196365356445
2016-10-18,68.38999938964844,66.7699966430664,68.04000091552734,67.16999816894531,1321000.0,59.80025863647461
2016-10-19,69.37999725341797,67.19999694824219,67.93000030517578,68.23999786376953,1848200.0,60.752864837646484
2016-10-20,67.5999984741211,66.5,67.51000213623047,66.9800033569336,1502500.0,59.6311149597168
2016-10-21,66.7300033569336,65.48999786376953,66.2699966430664,66.4800033569336,1601900.0,59.18596649169922
2016-10-24,66.6500015258789,64.7699966430664,66.52999877929688,66.41999816894531,2078700.0,59.13254928588867
2016-10-25,67.06999969482422,65.45999908447266,66.2699966430664,65.51000213623047,1151000.0,58.3223876953125
2016-10-26,65.2300033569336,63.54999923706055,64.83999633789062,64.87999725341797,1859000.0,57.761512756347656
2016-10-27,65.63999938964844,63.70000076293945,65.30999755859375,64.16000366210938,1454800.0,57.12051773071289
2016-10-28,64.87999725341797,62.959999084472656,64.0,63.439998626708984,1349800.0,56.47950744628906
2016-10-31,63.58000183105469,62.709999084472656,63.189998626708984,63.11000061035156,1994900.0,56.18571853637695
2016-11-01,64.22000122070312,62.79999923706055,63.790000915527344,63.68000030517578,1880100.0,56.69317626953125
2016-11-02,63.27000045776367,60.38999938964844,62.790000915527344,62.380001068115234,2761500.0,55.53581237792969
2016-11-03,62.93000030517578,61.59000015258789,62.68000030517578,62.4900016784668,1335200.0,55.63373947143555
2016-11-04,62.81999969482422,60.5099983215332,62.099998474121094,62.41999816894531,2953200.0,55.57141876220703
2016-11-07,63.459999084472656,61.79999923706055,63.2599983215332,62.459999084472656,1720900.0,55.607032775878906
2016-11-08,62.79999923706055,61.18000030517578,61.720001220703125,62.47999954223633,1400700.0,56.25530242919922
2016-11-09,64.37999725341797,62.15999984741211,62.459999084472656,63.560001373291016,2247400.0,57.22770309448242
2016-11-10,64.2300033569336,62.63999938964844,63.119998931884766,63.689998626708984,2396000.0,57.344749450683594
2016-11-11,63.400001525878906,61.209999084472656,63.02000045776367,62.16999816894531,1387600.0,55.97618865966797
2016-11-14,64.0,61.77000045776367,61.900001525878906,63.779998779296875,2287000.0,57.425785064697266
2016-11-15,66.86000061035156,64.30000305175781,64.30000305175781,66.63999938964844,2149300.0,60.000850677490234
2016-11-16,66.61000061035156,65.19000244140625,66.29000091552734,65.94000244140625,1275400.0,59.37059783935547
2016-11-17,67.94000244140625,66.43000030517578,66.51000213623047,67.18000030517578,2127800.0,60.4870491027832
2016-11-18,68.86000061035156,67.41000366210938,67.52999877929688,68.25,1441200.0,61.450462341308594
2016-11-21,70.0999984741211,68.05000305175781,69.69999694824219,69.12000274658203,2664300.0,62.23378372192383
2016-11-22,70.0999984741211,68.62000274658203,69.7300033569336,69.47000122070312,1989700.0,62.54890060424805
2016-11-23,70.25,68.83999633789062,68.94000244140625,70.2300033569336,1471900.0,63.233192443847656
2016-11-25,70.01000213623047,69.33999633789062,69.7699966430664,69.5999984741211,739300.0,62.66596221923828
2016-11-28,70.2699966430664,68.37000274658203,70.19000244140625,68.43000030517578,1916500.0,61.61252212524414
2016-11-29,67.9000015258789,65.7300033569336,66.55000305175781,67.56999969482422,2082000.0,60.83820724487305
2016-11-30,76.16000366210938,69.3499984741211,69.3499984741211,75.6500015258789,5427700.0,68.11322021484375
2016-12-01,79.66000366210938,75.81999969482422,77.41999816894531,77.8499984741211,4134900.0,70.09402465820312
2016-12-02,79.9000015258789,77.30999755859375,77.45999908447266,79.44999694824219,2217500.0,71.53462982177734
2016-12-05,82.0,79.86000061035156,80.01000213623047,81.30999755859375,2336300.0,73.20932006835938
2016-12-06,80.61000061035156,78.12000274658203,80.01000213623047,79.91999816894531,2303000.0,71.95780181884766
2016-12-07,82.08000183105469,79.02999877929688,79.87999725341797,80.86000061035156,1764000.0,72.80416107177734
2016-12-08,81.76000213623047,80.33999633789062,80.75,81.37999725341797,1412900.0,73.27234649658203
2016-12-09,82.72000122070312,80.72000122070312,81.8499984741211,81.75,1759300.0,73.60547637939453
2016-12-12,85.77999877929688,82.61000061035156,84.20999908447266,83.18000030517578,2008100.0,74.89302062988281
2016-12-13,84.0199966430664,81.87999725341797,83.70999908447266,83.45999908447266,1922500.0,75.14512634277344
2016-12-14,83.5,81.13999938964844,82.02999877929688,81.2699966430664,1815500.0,73.17330932617188
2016-12-15,81.02999877929688,79.88999938964844,80.55999755859375,80.44999694824219,2186700.0,72.43499755859375
2016-12-16,81.01000213623047,78.5,80.04000091552734,78.69999694824219,2855000.0,70.8593521118164
2016-12-19,79.0,77.70999908447266,78.7300033569336,78.44999694824219,2298500.0,70.63424682617188
2016-12-20,80.04000091552734,78.58999633789062,79.23999786376953,78.83999633789062,1326300.0,70.98539733886719
2016-12-21,80.4000015258789,79.16000366210938,79.33999633789062,79.5,1171200.0,71.57965850830078
2016-12-22,79.86000061035156,78.54000091552734,79.63999938964844,78.6500015258789,1099100.0,70.8143310546875
2016-12-23,79.25,78.11000061035156,78.52999877929688,78.33999633789062,635100.0,70.53520965576172
2016-12-27,80.94000244140625,78.79000091552734,78.9000015258789,79.95999908447266,1245900.0,71.99381256103516
2016-12-28,80.8499984741211,78.30000305175781,80.0999984741211,78.38999938964844,1067000.0,70.58023071289062
2016-12-29,79.0,77.66000366210938,78.26000213623047,78.16999816894531,636600.0,70.38215637207031
2016-12-30,78.88999938964844,77.08999633789062,78.20999908447266,77.4000015258789,840200.0,69.6888656616211
2017-01-03,79.66999816894531,77.6500015258789,78.5199966430664,78.76000213623047,1452300.0,70.91337585449219
2017-01-04,79.76000213623047,78.44999694824219,79.12000274658203,78.54000091552734,1286600.0,70.71529388427734
2017-01-05,79.30999755859375,77.80999755859375,78.91000366210938,78.80000305175781,1235800.0,70.94938659667969
2017-01-06,81.30000305175781,78.1500015258789,79.13999938964844,81.06999969482422,1638900.0,72.99324035644531
2017-01-09,81.0999984741211,78.75,81.04000091552734,79.30000305175781,1919200.0,71.39958190917969
2017-01-10,80.31999969482422,78.77999877929688,79.5,78.83999633789062,1310200.0,70.98539733886719
2017-01-11,80.75,78.9000015258789,79.22000122070312,79.62999725341797,1614300.0,71.69669342041016
2017-01-12,80.47000122070312,78.5199966430664,80.47000122070312,79.01000213623047,1616200.0,71.13847351074219
2017-01-13,79.30000305175781,77.8499984741211,79.01000213623047,78.30999755859375,1456100.0,70.50818634033203
2017-01-17,79.83999633789062,77.9000015258789,78.95999908447266,79.80000305175781,1127700.0,71.8497543334961
2017-01-18,79.22000122070312,77.95999908447266,78.87999725341797,78.48999786376953,1612200.0,70.6702651977539
2017-01-19,79.19999694824219,77.3499984741211,78.62000274658203,77.72000122070312,960200.0,69.97698211669922
2017-01-20,79.47000122070312,77.52999877929688,78.69000244140625,77.98999786376953,1448900.0,70.2200927734375
2017-01-23,77.61000061035156,76.08000183105469,77.27999877929688,76.80000305175781,1310500.0,69.14864349365234
2017-01-24,80.33999633789062,77.36000061035156,77.44999694824219,79.91000366210938,2107400.0,71.94880676269531
2017-01-25,81.19999694824219,79.77999877929688,79.77999877929688,81.11000061035156,2036600.0,73.02924346923828
2017-01-26,79.8499984741211,74.95999908447266,78.83000183105469,75.11000061035156,5261700.0,67.62701416015625
2017-01-27,75.0999984741211,71.95999908447266,74.0,72.68000030517578,2836600.0,65.4391098022461
2017-01-30,72.06999969482422,69.97000122070312,71.94000244140625,70.44999694824219,2493400.0,63.43126678466797
2017-01-31,71.69000244140625,70.0999984741211,70.58999633789062,71.16000366210938,2122100.0,64.0705337524414
2017-02-01,72.25,69.41000366210938,71.44999694824219,71.0999984741211,2702600.0,64.01651000976562
2017-02-02,71.62999725341797,68.88999938964844,71.48999786376953,70.06999969482422,2797300.0,63.08913803100586
2017-02-03,71.66000366210938,70.22000122070312,70.2300033569336,70.61000061035156,1663800.0,63.57534408569336
2017-02-06,70.93000030517578,68.73999786376953,70.5,69.0199966430664,1550000.0,62.143741607666016
2017-02-07,69.36000061035156,67.86000061035156,68.55000305175781,68.31999969482422,1433800.0,61.51347732543945
2017-02-08,69.7699966430664,66.79000091552734,67.75,69.47000122070312,2843900.0,62.54890060424805
2017-02-09,69.56999969482422,68.05000305175781,68.7699966430664,68.5,2868000.0,62.30332946777344
2017-02-10,70.75,69.06999969482422,69.7300033569336,69.2300033569336,1702000.0,62.967308044433594
2017-02-13,69.69999694824219,68.66999816894531,68.9800033569336,69.18000030517578,981700.0,62.92182159423828
2017-02-14,70.75,69.55999755859375,69.70999908447266,70.6500015258789,1622700.0,64.25882720947266
2017-02-15,70.58000183105469,68.27999877929688,70.2300033569336,68.7300033569336,1975100.0,62.51253128051758
2017-02-16,69.20999908447266,67.83000183105469,68.80999755859375,68.48999786376953,1855900.0,62.29423141479492
2017-02-17,68.52999877929688,67.16999816894531,68.05000305175781,68.26000213623047,1371200.0,62.08504867553711
2017-02-21,69.73999786376953,68.93000030517578,69.19999694824219,69.02999877929688,1011800.0,62.7853889465332
2017-02-22,68.5199966430664,67.4000015258789,68.31999969482422,67.41000366210938,1155800.0,61.31193923950195
2017-02-23,69.26000213623047,67.69999694824219,68.9000015258789,68.7699966430664,2246000.0,62.54890060424805
2017-02-24,68.86000061035156,67.27999877929688,68.83999633789062,67.52999877929688,2066400.0,61.421077728271484
2017-02-27,69.48999786376953,67.62000274658203,68.22000122070312,68.58000183105469,1326900.0,62.376094818115234
2017-02-28,69.0,67.8499984741211,68.08999633789062,68.37000274658203,1367200.0,62.18510055541992
2017-03-01,70.11000061035156,68.86000061035156,68.91999816894531,69.91000366210938,1415200.0,63.58578872680664
2017-03-02,69.66999816894531,68.13999938964844,69.0999984741211,68.47000122070312,1481900.0,62.276039123535156
2017-03-03,69.94000244140625,68.77999877929688,69.23999786376953,69.23999786376953,1331500.0,62.97639465332031
2017-03-06,69.8499984741211,68.16000366210938,69.08999633789062,69.73999786376953,1291600.0,63.431148529052734
2017-03-07,70.0199966430664,68.30999755859375,69.76000213623047,68.37000274658203,1536300.0,62.18510055541992
2017-03-08,68.58999633789062,66.1500015258789,68.0199966430664,66.4800033569336,2324400.0,60.466060638427734
2017-03-09,67.12999725341797,65.18000030517578,66.01000213623047,66.95999908447266,1742200.0,60.902645111083984
2017-03-10,67.81999969482422,66.55999755859375,67.29000091552734,67.30000305175781,1313500.0,61.21189880371094
2017-03-13,68.55999755859375,67.23999786376953,67.54000091552734,68.47000122070312,1395500.0,62.276039123535156
2017-03-14,68.16999816894531,65.9800033569336,67.36000061035156,67.9000015258789,2622600.0,61.75761032104492
2017-03-15,69.58999633789062,68.04000091552734,68.81999969482422,69.47000122070312,1443000.0,63.18558120727539
2017-03-16,69.62000274658203,67.75,69.62000274658203,68.2300033569336,1497600.0,62.05775833129883
2017-03-17,69.08000183105469,67.87999725341797,68.54000091552734,67.9800033569336,2331500.0,61.83037185668945
2017-03-20,68.0,66.55000305175781,67.16999816894531,67.88999938964844,1203900.0,61.748512268066406
2017-03-21,68.58000183105469,66.80000305175781,68.33999633789062,66.94999694824219,1103100.0,60.8935546875
2017-03-22,67.11000061035156,65.62000274658203,66.5,66.31999969482422,1180400.0,60.32054138183594
2017-03-23,66.4800033569336,65.0999984741211,66.0199966430664,65.91000366210938,948600.0,59.9476318359375
2017-03-24,66.37999725341797,64.94999694824219,66.0,65.02999877929688,1490700.0,59.14723587036133
2017-03-27,64.3499984741211,63.65999984741211,64.23999786376953,64.1500015258789,2089200.0,58.34684753417969
2017-03-28,65.06999969482422,64.0,64.5199966430664,64.77999877929688,1615600.0,58.91984939575195
2017-03-29,66.47000122070312,64.4000015258789,64.63999938964844,66.11000061035156,1584200.0,60.12953567504883
2017-03-30,67.44999694824219,65.77999877929688,66.43000030517578,66.52999877929688,1977000.0,60.511539459228516
2017-03-31,67.12999725341797,65.97000122070312,66.11000061035156,66.56999969482422,946400.0,60.54792022705078
2017-04-03,67.66000366210938,66.12999725341797,67.2699966430664,66.69000244140625,1633800.0,60.657066345214844
2017-04-04,67.11000061035156,65.81999969482422,66.83999633789062,66.97000122070312,1088800.0,60.911739349365234
2017-04-05,68.58999633789062,66.91000366210938,67.5999984741211,67.12000274658203,1416300.0,61.04817581176758
2017-04-06,68.44000244140625,67.12000274658203,67.41000366210938,68.01000213623047,995300.0,61.857662200927734
2017-04-07,68.19999694824219,67.12999725341797,68.18000030517578,67.31999969482422,959900.0,61.230079650878906
2017-04-10,69.05000305175781,67.41999816894531,67.83999633789062,68.77999877929688,1306500.0,62.55800247192383
2017-04-11,69.23999786376953,67.55000305175781,68.94999694824219,69.08000183105469,1026800.0,62.83086395263672
2017-04-12,69.97000122070312,68.47000122070312,69.26000213623047,68.70999908447266,1508900.0,62.49432373046875
2017-04-13,68.8499984741211,67.06999969482422,68.41000366210938,67.3499984741211,1330600.0,61.257362365722656
2017-04-17,67.81999969482422,66.68000030517578,67.31999969482422,67.2699966430664,1427100.0,61.18460464477539
2017-04-18,67.58000183105469,66.19000244140625,66.63999938964844,66.5199966430664,1213300.0,60.50244903564453
2017-04-19,66.87999725341797,64.70999908447266,66.73999786376953,64.88999938964844,1143600.0,59.019893646240234
2017-04-20,65.6500015258789,64.68000030517578,65.16000366210938,64.83000183105469,1142400.0,58.965335845947266
2017-04-21,65.38999938964844,63.79999923706055,64.80999755859375,65.08999633789062,1323300.0,59.201805114746094
2017-04-24,65.76000213623047,64.75,65.52999877929688,65.1500015258789,1070700.0,59.25638198852539
2017-04-25,65.62000274658203,64.66000366210938,65.18000030517578,65.38999938964844,1066800.0,59.47467041015625
2017-04-26,66.66999816894531,64.9800033569336,64.9800033569336,65.20999908447266,1543400.0,59.310951232910156
2017-04-27,64.2300033569336,59.060001373291016,63.79999923706055,61.54999923706055,5791900.0,55.98204040527344
2017-04-28,62.150001525878906,60.63999938964844,62.130001068115234,60.63999938964844,2705400.0,55.154361724853516
2017-05-01,60.5099983215332,58.779998779296875,60.5099983215332,58.790000915527344,3016000.0,53.47172164916992
2017-05-02,59.54999923706055,58.29999923706055,58.81999969482422,58.720001220703125,2709900.0,53.408058166503906
2017-05-03,59.7400016784668,58.540000915527344,58.91999816894531,59.11000061035156,1771100.0,53.76277542114258
2017-05-04,58.72999954223633,56.72999954223633,58.709999084472656,58.04999923706055,2664700.0,52.79866409301758
2017-05-05,59.68000030517578,57.779998779296875,58.209999084472656,59.630001068115234,2872700.0,54.23573684692383
2017-05-08,60.20000076293945,59.38999938964844,59.5099983215332,59.77000045776367,2239100.0,54.36307144165039
2017-05-09,59.81999969482422,57.83000183105469,59.7599983215332,58.18000030517578,1265800.0,52.91690444946289
2017-05-10,60.040000915527344,58.47999954223633,58.709999084472656,59.279998779296875,1776300.0,53.91739273071289
2017-05-11,60.099998474121094,58.119998931884766,59.959999084472656,58.380001068115234,1303900.0,53.09881591796875
2017-05-12,58.38999938964844,57.08000183105469,58.15999984741211,57.41999816894531,1946900.0,52.225650787353516
2017-05-15,59.540000915527344,57.959999084472656,58.939998626708984,58.54999923706055,2007600.0,53.25343704223633
2017-05-16,59.2400016784668,57.59000015258789,58.90999984741211,58.2400016784668,1832400.0,52.97147750854492
2017-05-17,57.75,56.650001525878906,57.540000915527344,56.709999084472656,1660800.0,52.20737838745117
2017-05-18,57.369998931884766,55.97999954223633,56.25,57.04999923706055,1824200.0,52.52037811279297
2017-05-19,60.61000061035156,57.130001068115234,57.59000015258789,60.040000915527344,2351600.0,55.27298355102539
2017-05-22,60.56999969482422,59.29999923706055,60.56999969482422,59.880001068115234,1907600.0,55.12568283081055
2017-05-23,58.66999816894531,56.470001220703125,58.310001373291016,57.4900016784668,2733400.0,52.925445556640625
2017-05-24,57.939998626708984,55.40999984741211,57.439998626708984,56.0099983215332,2124900.0,51.56295394897461
2017-05-25,56.369998931884766,52.95000076293945,55.90999984741211,53.790000915527344,4049500.0,49.51921463012695
2017-05-26,54.72999954223633,53.630001068115234,54.380001068115234,53.66999816894531,2405100.0,49.40873718261719
2017-05-30,53.83000183105469,52.75,53.47999954223633,52.81999969482422,1777300.0,48.626224517822266
2017-05-31,52.77000045776367,51.66999816894531,52.2400016784668,52.65999984741211,2952300.0,48.47893142700195
2017-06-01,54.66999816894531,52.65999984741211,52.65999984741211,53.7400016784668,2518700.0,49.47319030761719
2017-06-02,53.31999969482422,52.279998779296875,53.31999969482422,53.11000061035156,1532200.0,48.89320755004883
2017-06-05,53.900001525878906,52.709999084472656,52.779998779296875,53.689998626708984,1265900.0,49.42715072631836
2017-06-06,53.81999969482422,51.79999923706055,53.2599983215332,53.29999923706055,2174900.0,49.06812286376953
2017-06-07,53.290000915527344,49.459999084472656,52.86000061035156,50.08000183105469,3752400.0,46.10377883911133
2017-06-08,50.970001220703125,49.86000061035156,50.08000183105469,50.400001525878906,2300700.0,46.398372650146484
2017-06-09,54.119998931884766,50.40999984741211,50.40999984741211,53.27000045776367,2555500.0,49.04050064086914
2017-06-12,56.279998779296875,53.27000045776367,53.27000045776367,54.88999938964844,2731100.0,50.53187942504883
2017-06-13,56.0,54.63999938964844,54.810001373291016,55.849998474121094,1698600.0,51.4156494140625
2017-06-14,55.5,52.84000015258789,55.5,53.83000183105469,3616000.0,49.5560417175293
2017-06-15,54.22999954223633,53.189998626708984,53.189998626708984,53.650001525878906,2005800.0,49.39033889770508
2017-06-16,55.04999923706055,53.11000061035156,53.880001068115234,55.0,2382600.0,50.63314437866211
2017-06-19,55.08000183105469,53.9900016784668,54.97999954223633,54.06999969482422,1719600.0,49.77698516845703
2017-06-20,53.83000183105469,52.20000076293945,53.099998474121094,53.470001220703125,2443600.0,49.22461700439453
2017-06-21,52.959999084472656,50.560001373291016,52.77000045776367,51.91999816894531,3202400.0,47.797691345214844
2017-06-22,52.880001068115234,51.439998626708984,52.029998779296875,52.119998931884766,1881800.0,47.9818115234375
2017-06-23,53.220001220703125,52.04999923706055,52.290000915527344,52.7400016784668,2358200.0,48.55258560180664
2017-06-26,53.849998474121094,52.56999969482422,53.060001373291016,53.15999984741211,1414000.0,48.93924331665039
2017-06-27,53.47999954223633,52.06999969482422,53.0099983215332,52.810001373291016,2367900.0,48.617027282714844
2017-06-28,54.66999816894531,52.83000183105469,52.83000183105469,53.5099983215332,1811100.0,49.26144790649414
2017-06-29,55.31999969482422,53.7400016784668,53.959999084472656,54.369998931884766,2404800.0,50.053165435791016
2017-06-30,55.22999954223633,54.130001068115234,54.52000045776367,54.34000015258789,1708600.0,50.02554702758789
2017-07-03,56.08000183105469,54.54999923706055,54.54999923706055,55.7400016784668,934500.0,51.314388275146484
2017-07-05,55.560001373291016,53.95000076293945,55.29999923706055,54.34000015258789,1958500.0,50.02554702758789
2017-07-06,55.20000076293945,53.189998626708984,54.65999984741211,53.470001220703125,2403100.0,49.22461700439453
2017-07-07,53.400001525878906,51.90999984741211,52.61000061035156,52.880001068115234,2056400.0,48.68146514892578
2017-07-10,53.65999984741211,52.22999954223633,52.650001525878906,53.290000915527344,1870400.0,49.05891418457031
2017-07-11,54.25,52.75,53.279998779296875,53.90999984741211,1621200.0,49.62968826293945
2017-07-12,55.0,53.2400016784668,54.88999938964844,53.5,2064600.0,49.25223922729492
2017-07-13,54.52000045776367,53.40999984741211,53.529998779296875,54.47999954223633,2262600.0,50.15443420410156
2017-07-14,55.529998779296875,54.130001068115234,54.56999969482422,55.349998474121094,2237500.0,50.95535659790039
2017-07-17,55.529998779296875,54.75,55.189998626708984,55.31999969482422,1842900.0,50.927738189697266
2017-07-18,56.13999938964844,55.119998931884766,55.90999984741211,55.36000061035156,1417700.0,50.96455383300781
2017-07-19,58.4900016784668,55.209999084472656,55.310001373291016,58.119998931884766,2663700.0,53.50542068481445
2017-07-20,58.63999938964844,56.79999923706055,58.40999984741211,57.2599983215332,1653700.0,52.713706970214844
2017-07-21,57.81999969482422,54.029998779296875,57.09000015258789,54.130001068115234,2878900.0,49.83222579956055
2017-07-24,54.540000915527344,53.880001068115234,54.34000015258789,54.369998931884766,2328200.0,50.053165435791016
2017-07-25,56.91999816894531,55.11000061035156,55.279998779296875,56.15999984741211,1742600.0,51.701045989990234
2017-07-26,56.84000015258789,54.91999816894531,56.65999984741211,55.06999969482422,2534600.0,50.69758987426758
2017-07-27,55.20000076293945,51.45000076293945,55.04999923706055,53.04999923706055,4819100.0,48.83797073364258
2017-07-28,53.7400016784668,51.04999923706055,51.70000076293945,51.81999969482422,4109800.0,47.705631256103516
2017-07-31,51.72999954223633,50.36000061035156,51.599998474121094,50.619998931884766,2242600.0,46.60091018676758
2017-08-01,50.56999969482422,48.619998931884766,50.5099983215332,49.20000076293945,3585200.0,45.29365158081055
2017-08-02,49.38999938964844,48.189998626708984,49.150001525878906,49.060001373291016,2956700.0,45.16476821899414
2017-08-03,50.15999984741211,48.97999954223633,49.290000915527344,49.540000915527344,2329600.0,45.606651306152344
2017-08-04,49.880001068115234,49.290000915527344,49.61000061035156,49.34000015258789,1620800.0,45.42253494262695
2017-08-07,49.22999954223633,47.25,49.04999923706055,47.43000030517578,2391700.0,43.6641845703125
2017-08-08,47.84000015258789,46.38999938964844,47.34000015258789,46.400001525878906,2295100.0,42.71596145629883
2017-08-09,47.0,46.060001373291016,46.959999084472656,46.47999954223633,2173700.0,42.789608001708984
2017-08-10,47.08000183105469,46.16999816894531,46.70000076293945,46.40999984741211,1787600.0,42.72516632080078
2017-08-11,47.16999816894531,46.0,46.130001068115234,46.18000030517578,1659800.0,42.513423919677734
2017-08-14,46.88999938964844,46.0099983215332,46.20000076293945,46.09000015258789,1478000.0,42.430572509765625
2017-08-15,46.040000915527344,45.060001373291016,46.0,45.58000183105469,2373300.0,41.96107482910156
2017-08-16,45.189998626708984,43.63999938964844,45.0,43.77000045776367,1807600.0,40.92326354980469
2017-08-17,43.90999984741211,43.13999938964844,43.66999816894531,43.150001525878906,1784300.0,40.34358215332031
2017-08-18,44.54999923706055,43.0,43.29999923706055,43.70000076293945,1586200.0,40.857810974121094
2017-08-21,44.150001525878906,43.22999954223633,43.56999969482422,43.25,1410200.0,40.437076568603516
2017-08-22,44.0099983215332,43.18000030517578,43.33000183105469,43.849998474121094,1417900.0,40.9980583190918
2017-08-23,44.689998626708984,43.06999969482422,43.619998931884766,44.52000045776367,1795500.0,41.624481201171875
2017-08-24,44.709999084472656,44.040000915527344,44.40999984741211,44.189998626708984,1888400.0,41.31594467163086
2017-08-25,45.18000030517578,44.41999816894531,44.439998626708984,44.779998779296875,1648900.0,41.86757278442383
2017-08-28,44.959999084472656,42.77000045776367,44.720001220703125,43.4900016784668,2233300.0,40.661476135253906
2017-08-29,43.40999984741211,42.65999984741211,43.27000045776367,43.130001068115234,1695300.0,40.324886322021484
2017-08-30,43.15999984741211,42.279998779296875,43.11000061035156,42.650001525878906,1898500.0,39.87610626220703
2017-08-31,42.900001525878906,42.29999923706055,42.900001525878906,42.34000015258789,2558900.0,39.586265563964844
2017-09-01,43.189998626708984,42.15999984741211,42.529998779296875,43.02000045776367,1319100.0,40.222042083740234
2017-09-05,44.33000183105469,43.220001220703125,43.459999084472656,43.77000045776367,1999400.0,40.92326354980469
2017-09-06,46.59000015258789,43.9900016784668,44.150001525878906,46.349998474121094,3077100.0,43.3354606628418
2017-09-07,46.61000061035156,45.58000183105469,46.349998474121094,46.040000915527344,1975800.0,43.045623779296875
2017-09-08,46.02000045776367,45.31999969482422,45.970001220703125,45.47999954223633,1277600.0,42.52204513549805
2017-09-11,47.130001068115234,45.29999923706055,45.709999084472656,47.060001373291016,2068800.0,43.99928665161133
2017-09-12,48.279998779296875,46.689998626708984,47.060001373291016,48.04999923706055,2337800.0,44.92489242553711
2017-09-13,49.5,48.08000183105469,48.08000183105469,49.290000915527344,2051700.0,46.084251403808594
2017-09-14,50.20000076293945,49.400001525878906,49.630001068115234,49.779998779296875,2174800.0,46.54237747192383
2017-09-15,50.220001220703125,49.52000045776367,49.90999984741211,50.189998626708984,2320400.0,46.92571258544922
2017-09-18,50.58000183105469,49.45000076293945,49.95000076293945,50.16999816894531,979800.0,46.90701675415039
2017-09-19,50.45000076293945,48.880001068115234,50.45000076293945,49.060001373291016,1446000.0,45.869205474853516
2017-09-20,50.70000076293945,49.27000045776367,49.380001068115234,50.54999923706055,1730700.0,47.26230239868164
2017-09-21,50.619998931884766,49.5099983215332,50.5,50.43000030517578,1365400.0,47.15010070800781
2017-09-22,51.349998474121094,50.060001373291016,50.16999816894531,51.0099983215332,1060300.0,47.69237518310547
2017-09-25,53.18000030517578,51.459999084472656,51.599998474121094,52.939998626708984,2053500.0,49.496856689453125
2017-09-26,52.9900016784668,52.18000030517578,52.66999816894531,52.93000030517578,985200.0,49.48750686645508
2017-09-27,53.2599983215332,52.7400016784668,52.97999954223633,53.20000076293945,1305800.0,49.73994445800781
2017-09-28,53.7400016784668,51.84000015258789,53.29999923706055,52.40999984741211,1681900.0,49.00132751464844
2017-09-29,52.41999816894531,51.540000915527344,52.41999816894531,52.11000061035156,1779700.0,48.7208366394043
2017-10-02,51.470001220703125,50.63999938964844,51.2599983215332,51.2599983215332,2071800.0,47.92612075805664
2017-10-03,51.220001220703125,50.0,51.150001525878906,50.02000045776367,1794700.0,46.76676940917969
2017-10-04,51.18000030517578,49.689998626708984,50.0099983215332,51.13999938964844,1540100.0,47.81393051147461
2017-10-05,52.400001525878906,51.13999938964844,51.38999938964844,52.16999816894531,1485000.0,48.77693176269531
2017-10-06,51.66999816894531,51.060001373291016,51.220001220703125,51.529998779296875,1317900.0,48.17856216430664
2017-10-09,52.380001068115234,51.4900016784668,51.81999969482422,51.93000030517578,828800.0,48.55254364013672
2017-10-10,53.63999938964844,52.68000030517578,52.75,52.7599983215332,1557200.0,49.32855987548828
2017-10-11,53.09000015258789,51.68000030517578,52.66999816894531,52.279998779296875,1381900.0,48.87977981567383
2017-10-12,51.65999984741211,50.29999923706055,51.61000061035156,51.029998779296875,1039600.0,47.71107864379883
2017-10-13,52.869998931884766,51.47999954223633,51.66999816894531,52.20000076293945,1336000.0,48.80498504638672
2017-10-16,52.88999938964844,52.34000015258789,52.68000030517578,52.529998779296875,778100.0,49.113525390625
2017-10-17,52.72999954223633,52.029998779296875,52.470001220703125,52.25,1187700.0,48.85173034667969
2017-10-18,52.720001220703125,51.099998474121094,52.40999984741211,51.20000076293945,1161600.0,47.870025634765625
2017-10-19,51.9900016784668,50.63999938964844,50.72999954223633,50.939998626708984,1191900.0,47.62693405151367
2017-10-20,52.0,50.709999084472656,51.2400016784668,52.0,1165300.0,48.61799240112305
2017-10-23,52.880001068115234,51.970001220703125,52.11000061035156,52.040000915527344,1213300.0,48.6553955078125
2017-10-24,53.349998474121094,52.209999084472656,52.41999816894531,52.45000076293945,1683200.0,49.038726806640625
2017-10-25,52.650001525878906,51.02000045776367,52.34000015258789,51.310001373291016,1188900.0,47.97287368774414
2017-10-26,52.36000061035156,51.0099983215332,51.52000045776367,51.93000030517578,1734900.0,48.55254364013672
2017-10-27,52.630001068115234,51.279998779296875,51.66999816894531,52.61000061035156,1366500.0,49.18832015991211
2017-10-30,54.15999984741211,52.709999084472656,52.79999923706055,53.81999969482422,1621400.0,50.31962203979492
2017-10-31,54.529998779296875,52.91999816894531,53.7400016784668,54.310001373291016,1455900.0,50.77775955200195
2017-11-01,55.45000076293945,53.83000183105469,55.0,54.59000015258789,1462900.0,51.03954315185547
2017-11-02,55.13999938964844,54.20000076293945,54.68000030517578,54.880001068115234,1307000.0,51.31068420410156
2017-11-03,55.56999969482422,54.47999954223633,54.68000030517578,54.90999984741211,1377600.0,51.33872985839844
2017-11-06,58.540000915527344,55.40999984741211,55.540000915527344,58.29999923706055,2558600.0,54.50824737548828
2017-11-07,58.66999816894531,57.7400016784668,58.08000183105469,58.459999084472656,2150500.0,54.6578483581543
2017-11-08,59.459999084472656,58.220001220703125,58.5,59.099998474121094,1834100.0,55.25621795654297
2017-11-09,59.599998474121094,58.38999938964844,58.7599983215332,59.529998779296875,1522500.0,55.65825653076172
2017-11-10,59.34000015258789,58.119998931884766,58.849998474121094,58.150001525878906,1715300.0,55.01491928100586
2017-11-13,58.040000915527344,56.2599983215332,57.95000076293945,56.380001068115234,1451100.0,53.3403434753418
2017-11-14,56.40999984741211,54.279998779296875,55.9900016784668,54.380001068115234,1220100.0,51.44817352294922
2017-11-15,53.95000076293945,52.529998779296875,53.619998931884766,53.72999954223633,2465000.0,50.833213806152344
2017-11-16,55.630001068115234,52.88999938964844,53.619998931884766,54.369998931884766,2599900.0,51.43871307373047
2017-11-17,56.0,54.90999984741211,55.16999816894531,55.68000030517578,1796600.0,52.67808151245117
2017-11-20,55.880001068115234,54.97999954223633,55.369998931884766,55.54999923706055,1048000.0,52.555091857910156
2017-11-21,56.4900016784668,55.310001373291016,55.970001220703125,55.84000015258789,925000.0,52.8294563293457
2017-11-22,57.220001220703125,56.349998474121094,56.650001525878906,56.61000061035156,729500.0,53.55794143676758
2017-11-24,57.0,55.9900016784668,56.959999084472656,56.02000045776367,702800.0,52.999752044677734
2017-11-27,55.90999984741211,55.040000915527344,55.72999954223633,55.560001373291016,1161700.0,52.564552307128906
2017-11-28,56.63999938964844,55.33000183105469,55.86000061035156,56.470001220703125,1584700.0,53.42548751831055
2017-11-29,57.689998626708984,56.369998931884766,56.709999084472656,57.040000915527344,1580400.0,53.964759826660156
2017-11-30,59.099998474121094,57.439998626708984,57.630001068115234,58.58000183105469,2201700.0,55.42173767089844
2017-12-01,60.06999969482422,58.18000030517578,59.279998779296875,59.560001373291016,1738200.0,56.348899841308594
2017-12-04,60.029998779296875,58.41999816894531,59.560001373291016,58.43000030517578,2135600.0,55.27981948852539
2017-12-05,59.130001068115234,57.58000183105469,58.56999969482422,57.84000015258789,1170900.0,54.72162628173828
2017-12-06,57.470001220703125,54.0,57.470001220703125,56.470001220703125,1451500.0,53.42548751831055
2017-12-07,57.25,56.310001373291016,56.56999969482422,57.209999084472656,1213300.0,54.12559127807617
2017-12-08,58.5,57.790000915527344,58.04999923706055,58.0099983215332,1220900.0,54.88246154785156
2017-12-11,58.779998779296875,57.81999969482422,58.27000045776367,58.439998626708984,1265200.0,55.28927993774414
2017-12-12,59.47999954223633,58.40999984741211,58.84000015258789,58.810001373291016,967600.0,55.63933563232422
2017-12-13,59.43000030517578,57.619998931884766,59.029998779296875,57.91999816894531,791100.0,54.79731750488281
2017-12-14,58.09000015258789,56.720001220703125,57.349998474121094,56.779998779296875,1053600.0,53.718780517578125
2017-12-15,59.20000076293945,57.060001373291016,57.5099983215332,57.779998779296875,5820600.0,54.66486740112305
2017-12-18,58.84000015258789,57.95000076293945,58.31999969482422,57.9900016784668,1589200.0,54.86354064941406
2017-12-19,59.630001068115234,57.86000061035156,58.189998626708984,59.599998474121094,1251800.0,56.38673782348633
2017-12-20,61.369998931884766,59.2400016784668,59.90999984741211,61.16999816894531,1613600.0,57.87208938598633
2017-12-21,64.52999877929688,61.33000183105469,61.369998931884766,63.630001068115234,1567400.0,60.1994743347168
2017-12-22,65.3499984741211,63.470001220703125,63.52000045776367,64.31999969482422,1667300.0,60.85226821899414
2017-12-26,65.7699966430664,64.22000122070312,64.75,65.61000061035156,836100.0,62.07271957397461
2017-12-27,65.55000305175781,64.4000015258789,65.55000305175781,64.97000122070312,874000.0,61.46722412109375
2017-12-28,65.4000015258789,64.5199966430664,65.1500015258789,64.81999969482422,661500.0,61.32530975341797
2017-12-29,65.06999969482422,63.83000183105469,65.02999877929688,64.63999938964844,951800.0,61.15501403808594
2018-01-02,66.08000183105469,64.44999694824219,65.16999816894531,65.3499984741211,1372300.0,61.82674026489258
2018-01-03,66.44000244140625,65.19000244140625,65.6500015258789,65.6500015258789,2462900.0,62.110557556152344
2018-01-04,66.94000244140625,65.5199966430664,66.12000274658203,66.4000015258789,2213600.0,62.82012939453125
2018-01-05,67.29000091552734,66.01000213623047,66.33999633789062,66.69999694824219,1732000.0,63.103946685791016
2018-01-08,68.7300033569336,66.5,66.55999755859375,68.56999969482422,1616000.0,64.87313842773438
2018-01-09,69.43000030517578,68.16000366210938,68.87000274658203,68.20999908447266,2389100.0,64.53253936767578
2018-01-10,69.0,67.95999908447266,68.25,68.2699966430664,1759800.0,64.58930206298828
2018-01-11,71.05000305175781,68.38999938964844,68.58000183105469,70.04000091552734,2470300.0,66.26387786865234
2018-01-12,70.37000274658203,69.0999984741211,69.31999969482422,70.26000213623047,1963400.0,66.4720230102539
2018-01-16,71.29000091552734,69.63999938964844,70.54000091552734,69.7300033569336,1848800.0,65.97061157226562
2018-01-17,71.63999938964844,69.86000061035156,70.0,70.62999725341797,2156800.0,66.82207489013672
2018-01-18,71.13999938964844,70.0199966430664,70.69000244140625,70.02999877929688,1588700.0,66.2544174194336
2018-01-19,71.3499984741211,67.94000244140625,69.29000091552734,71.12999725341797,1488600.0,67.29511260986328
2018-01-22,71.33999633789062,70.37999725341797,71.12999725341797,71.12000274658203,1864300.0,67.28565979003906
2018-01-23,72.06999969482422,70.44999694824219,71.0999984741211,71.56999969482422,1588000.0,67.71139526367188
2018-01-24,72.29000091552734,69.38999938964844,71.87999725341797,71.37999725341797,2713900.0,67.53163146972656
2018-01-25,74.12000274658203,71.0199966430664,72.62999725341797,73.69000244140625,3512200.0,69.71710205078125
2018-01-26,74.43000030517578,72.7300033569336,74.25,74.08999633789062,1611300.0,70.09552001953125
2018-01-29,75.0199966430664,72.47000122070312,73.43000030517578,74.33000183105469,2482900.0,70.32259368896484
2018-01-30,73.91999816894531,71.5999984741211,73.61000061035156,72.70999908447266,2180700.0,68.78992462158203
2018-01-31,73.44999694824219,71.58999633789062,72.79000091552734,72.02999877929688,1631300.0,68.14659881591797
2018-02-01,73.62999725341797,71.95999908447266,72.4000015258789,72.94999694824219,1458400.0,69.0169906616211
2018-02-02,72.43000030517578,70.02999877929688,72.31999969482422,70.11000061035156,1593300.0,66.3301010131836
2018-02-05,70.6500015258789,68.1500015258789,69.16999816894531,68.29000091552734,2443600.0,64.60823059082031
2018-02-06,69.20999908447266,66.29000091552734,66.63999938964844,68.69000244140625,2665100.0,64.9866714477539
2018-02-07,70.27999877929688,67.02999877929688,68.70999908447266,67.47000122070312,2176200.0,63.83243179321289
2018-02-08,68.0,64.86000061035156,67.52999877929688,64.87000274658203,2756900.0,61.372615814208984
2018-02-09,65.19000244140625,61.29999923706055,64.8499984741211,63.619998931884766,3053900.0,60.84659194946289
2018-02-12,65.6500015258789,63.79999923706055,64.55000305175781,64.63999938964844,2826100.0,61.82212829589844
2018-02-13,64.54000091552734,63.41999816894531,64.12999725341797,63.72999954223633,2738900.0,60.95179748535156
2018-02-14,66.88999938964844,62.279998779296875,62.880001068115234,66.12000274658203,2160200.0,63.237613677978516
2018-02-15,66.12000274658203,64.05999755859375,65.87000274658203,65.7300033569336,1899000.0,62.864620208740234
2018-02-16,66.30000305175781,65.13999938964844,65.27999877929688,65.45999908447266,1280000.0,62.60637283325195
2018-02-20,66.25,64.19999694824219,65.61000061035156,64.51000213623047,944000.0,61.69779586791992
2018-02-21,65.80000305175781,64.02999877929688,64.22000122070312,64.45999908447266,1155700.0,61.64997863769531
2018-02-22,67.08000183105469,65.18000030517578,65.23999786376953,65.38999938964844,978800.0,62.53943634033203
2018-02-23,67.05000305175781,65.48999786376953,65.69999694824219,66.86000061035156,973700.0,63.94535827636719
2018-02-26,67.58999633789062,66.29000091552734,67.3499984741211,67.43000030517578,701300.0,64.4905014038086
2018-02-27,68.3499984741211,66.38999938964844,67.2699966430664,66.52999877929688,1713000.0,63.629737854003906
2018-02-28,66.98999786376953,64.54000091552734,66.8499984741211,64.55000305175781,1311800.0,61.73605728149414
2018-03-01,65.80999755859375,64.1500015258789,64.43000030517578,65.18000030517578,1185600.0,62.33858871459961
2018-03-02,67.04000091552734,63.439998626708984,64.5,66.79000091552734,1212800.0,63.8784065246582
2018-03-05,67.30000305175781,65.51000213623047,66.08000183105469,66.61000061035156,1638900.0,63.70624923706055
2018-03-06,67.26000213623047,65.22000122070312,67.06999969482422,66.55999755859375,1196700.0,63.65842819213867
2018-03-07,66.58999633789062,64.37000274658203,65.69000244140625,65.12000274658203,1755600.0,62.28120040893555
2018-03-08,65.30999755859375,63.81999969482422,65.25,65.0199966430664,1470000.0,62.1855583190918
2018-03-09,68.05999755859375,66.0199966430664,66.48999786376953,66.88999938964844,2032800.0,63.97404479980469
2018-03-12,67.0,65.41999816894531,66.58999633789062,65.80999755859375,1369200.0,62.941123962402344
2018-03-13,66.29000091552734,64.26000213623047,66.11000061035156,64.62999725341797,1658500.0,61.812557220458984
2018-03-14,65.18000030517578,64.2300033569336,65.05000305175781,64.61000061035156,1091900.0,61.793434143066406
2018-03-15,65.05000305175781,62.33000183105469,64.69000244140625,62.63999938964844,1695300.0,59.9093132019043
2018-03-16,64.66999816894531,62.380001068115234,62.650001525878906,64.55999755859375,4460200.0,61.745609283447266
2018-03-19,64.88999938964844,63.81999969482422,64.58000183105469,64.68000030517578,1465100.0,61.86037826538086
2018-03-20,65.95999908447266,64.97000122070312,65.0999984741211,65.30999755859375,1205500.0,62.462921142578125
2018-03-21,69.19000244140625,65.48999786376953,65.88999938964844,68.87999725341797,2621100.0,65.8772964477539
2018-03-22,68.19000244140625,66.29000091552734,67.70999908447266,66.3499984741211,1674200.0,63.457584381103516
2018-03-23,68.16999816894531,66.33000183105469,66.97000122070312,66.45999908447266,1401000.0,63.562782287597656
2018-03-26,67.95999908447266,66.68000030517578,67.33999633789062,67.72000122070312,1091500.0,64.76786804199219
2018-03-27,68.26000213623047,66.08999633789062,68.0,66.4800033569336,1148700.0,63.581912994384766
2018-03-28,66.7300033569336,64.41000366210938,66.47000122070312,64.58000183105469,991300.0,61.764747619628906
2018-03-29,66.80999755859375,64.94000244140625,64.94000244140625,66.55999755859375,1237100.0,63.65842819213867
2018-04-02,66.52999877929688,63.5099983215332,65.80000305175781,64.58999633789062,875400.0,61.7743034362793
2018-04-03,66.55000305175781,64.1500015258789,65.11000061035156,66.41999816894531,1014900.0,63.524539947509766
2018-04-04,66.3499984741211,64.52999877929688,64.88999938964844,66.29000091552734,1246400.0,63.400203704833984
2018-04-05,68.18000030517578,66.52999877929688,66.72000122070312,67.43000030517578,1557000.0,64.4905014038086
2018-04-06,67.33999633789062,64.25,66.91000366210938,65.44999694824219,1046000.0,62.59680938720703
2018-04-09,66.8499984741211,65.27999877929688,65.62999725341797,65.9000015258789,880400.0,63.027198791503906
2018-04-10,70.22000122070312,67.08000183105469,67.08000183105469,69.61000061035156,1759000.0,66.57546997070312
2018-04-11,72.1500015258789,69.88999938964844,70.2699966430664,71.51000213623047,2010900.0,68.39263916015625
2018-04-12,73.44999694824219,71.0199966430664,71.54000091552734,72.51000213623047,1607600.0,69.34905242919922
2018-04-13,74.06999969482422,72.47000122070312,72.7699966430664,73.05000305175781,1314900.0,69.86550903320312
2018-04-16,73.11000061035156,71.94999694824219,73.04000091552734,72.19000244140625,982700.0,69.04299926757812
2018-04-17,72.87999725341797,71.87999725341797,72.45999908447266,72.37999725341797,803800.0,69.2247085571289
2018-04-18,74.36000061035156,73.01000213623047,73.5199966430664,73.5999984741211,1681600.0,70.39152526855469
2018-04-19,73.9000015258789,72.05999755859375,73.77999877929688,73.0,2732300.0,69.81768798828125
2018-04-20,72.70999908447266,71.48999786376953,72.70999908447266,72.33000183105469,1079600.0,69.17689514160156
2018-04-23,72.5199966430664,71.25,71.94000244140625,72.41000366210938,1136300.0,69.25341033935547
2018-04-24,73.0,71.11000061035156,72.69000244140625,71.58000183105469,1003100.0,68.45958709716797
2018-04-25,72.33999633789062,70.3499984741211,71.29000091552734,72.12999725341797,1443300.0,68.98561096191406
2018-04-26,72.87999725341797,70.45999908447266,72.23999786376953,71.66999816894531,1176900.0,68.545654296875
2018-04-27,71.55000305175781,69.87999725341797,71.55000305175781,70.37000274658203,1449300.0,67.30233764648438
2018-04-30,71.08999633789062,69.43000030517578,70.2699966430664,69.55000305175781,1268800.0,66.51809692382812
2018-05-01,69.29000091552734,68.05999755859375,68.80000305175781,68.9000015258789,1283000.0,65.89641571044922
2018-05-02,69.83999633789062,68.3499984741211,68.44999694824219,68.93000030517578,1245100.0,65.92511749267578
2018-05-03,69.3499984741211,67.72000122070312,68.83000183105469,69.13999938964844,878500.0,66.1259536743164
2018-05-04,70.37999725341797,68.8499984741211,69.06999969482422,69.9000015258789,646400.0,66.85283660888672
2018-05-07,70.94000244140625,68.38999938964844,70.37999725341797,68.66999816894531,2061100.0,65.67645263671875
2018-05-08,68.55000305175781,66.27999877929688,67.87999725341797,68.4800033569336,2049200.0,65.4947280883789
2018-05-09,70.58000183105469,67.97000122070312,69.9000015258789,68.12000274658203,1910900.0,65.15042877197266
2018-05-10,69.36000061035156,67.83999633789062,68.29000091552734,69.0199966430664,1371600.0,66.01119232177734
2018-05-11,69.52999877929688,68.58999633789062,69.38999938964844,68.8499984741211,1027700.0,65.84859466552734
2018-05-14,69.97000122070312,69.11000061035156,69.19000244140625,69.68000030517578,1197800.0,66.64242553710938
2018-05-15,71.51000213623047,68.94000244140625,69.62000274658203,71.45999908447266,1307000.0,68.3448257446289
2018-05-16,73.44000244140625,71.5199966430664,71.63999938964844,72.73999786376953,1390400.0,69.56902313232422
2018-05-17,73.87000274658203,72.43000030517578,72.4800033569336,73.30999755859375,1060400.0,70.79545593261719
2018-05-18,73.54000091552734,71.70999908447266,73.3499984741211,71.98999786376953,939300.0,69.52073669433594
2018-05-21,73.19000244140625,72.08999633789062,72.5,72.61000061035156,990000.0,70.11946868896484
2018-05-22,72.9800033569336,70.33999633789062,72.41999816894531,70.72000122070312,725600.0,68.29429626464844
2018-05-23,71.37999725341797,69.56999969482422,70.22000122070312,70.98999786376953,850200.0,68.55503845214844
2018-05-24,70.27999877929688,69.16000366210938,69.62999725341797,69.83000183105469,1125300.0,67.43482971191406
2018-05-25,68.06999969482422,65.52999877929688,68.06999969482422,66.55999755859375,1645100.0,64.27698516845703
2018-05-29,66.55999755859375,65.51000213623047,65.75,66.31999969482422,966400.0,64.04521179199219
2018-05-30,68.44999694824219,66.94999694824219,67.11000061035156,67.26000213623047,923300.0,64.95297241210938
2018-05-31,67.76000213623047,66.0199966430664,66.55999755859375,66.37999725341797,1299200.0,64.10315704345703
2018-06-01,66.76000213623047,64.29000091552734,66.76000213623047,64.97000122070312,2204300.0,62.74152374267578
2018-06-04,65.31999969482422,62.689998626708984,65.30000305175781,63.20000076293945,1418000.0,61.03223419189453
2018-06-05,64.2699966430664,62.7400016784668,63.2400016784668,63.65999984741211,1860500.0,61.47645568847656
2018-06-06,64.47000122070312,63.119998931884766,63.90999984741211,64.23999786376953,1144800.0,62.03656005859375
2018-06-07,67.0,64.47000122070312,64.77999877929688,66.61000061035156,1555700.0,64.32527160644531
2018-06-08,66.91000366210938,64.9000015258789,66.62000274658203,65.37999725341797,1157600.0,63.13745880126953
2018-06-11,65.94999694824219,64.7699966430664,65.0,65.61000061035156,1101300.0,63.35956954956055
2018-06-12,65.94000244140625,64.94000244140625,65.66999816894531,65.61000061035156,1133000.0,63.35956954956055
2018-06-13,65.88999938964844,65.12000274658203,65.37000274658203,65.43000030517578,1156600.0,63.18574523925781
2018-06-14,65.91000366210938,64.8499984741211,65.91000366210938,64.97000122070312,1027700.0,62.74152374267578
2018-06-15,64.55000305175781,62.75,64.30999755859375,63.209999084472656,1780900.0,61.041893005371094
2018-06-18,64.56999969482422,63.18000030517578,63.18000030517578,63.869998931884766,927200.0,61.67925262451172
2018-06-19,65.30000305175781,63.0,63.25,64.04000091552734,1694700.0,61.843421936035156
2018-06-20,64.76000213623047,63.70000076293945,64.56999969482422,64.5999984741211,991600.0,62.38420867919922
2018-06-21,64.2699966430664,62.81999969482422,63.97999954223633,63.13999938964844,780800.0,60.97429275512695
2018-06-22,66.8499984741211,63.41999816894531,65.91999816894531,63.70000076293945,1939800.0,61.51508712768555
2018-06-25,63.779998779296875,61.349998474121094,63.709999084472656,61.849998474121094,1192900.0,59.728538513183594
2018-06-26,63.209999084472656,61.56999969482422,62.0,63.0099983215332,901800.0,60.848751068115234
2018-06-27,65.9000015258789,63.83000183105469,63.83000183105469,64.56999969482422,1335600.0,62.35524368286133
2018-06-28,65.2699966430664,64.08999633789062,64.61000061035156,65.05000305175781,2425500.0,62.818782806396484
2018-06-29,65.41000366210938,63.630001068115234,64.70999908447266,63.7599983215332,1410700.0,61.573020935058594
2018-07-02,63.369998931884766,61.91999816894531,63.36000061035156,62.709999084472656,1679800.0,60.55904006958008
2018-07-03,64.94999694824219,63.5,64.01000213623047,63.93000030517578,485000.0,61.7371940612793
2018-07-05,64.36000061035156,63.209999084472656,64.22000122070312,63.72999954223633,1078400.0,61.5440559387207
2018-07-06,65.66999816894531,62.93000030517578,63.29999923706055,65.45999908447266,1124200.0,63.214717864990234
2018-07-09,67.33000183105469,65.83999633789062,65.83999633789062,66.79000091552734,1031800.0,64.49909973144531
2018-07-10,68.4000015258789,66.72000122070312,67.5999984741211,67.22000122070312,733500.0,64.91435241699219
2018-07-11,67.80999755859375,65.26000213623047,66.29000091552734,65.66000366210938,896600.0,63.407859802246094
2018-07-12,66.44999694824219,64.0199966430664,66.27999877929688,64.12999725341797,1008100.0,61.93033218383789
2018-07-13,64.9000015258789,63.689998626708984,64.08999633789062,64.5,806600.0,62.28764343261719
2018-07-16,63.61000061035156,61.86000061035156,63.33000183105469,62.54999923706055,1157300.0,60.40452575683594
2018-07-17,62.54999923706055,61.83000183105469,62.20000076293945,62.130001068115234,2002800.0,59.99893569946289
2018-07-18,61.720001220703125,60.18000030517578,61.65999984741211,60.75,2882700.0,58.66626739501953
2018-07-19,60.7599983215332,59.31999969482422,60.22999954223633,59.59000015258789,1702600.0,57.546058654785156
2018-07-20,59.86000061035156,58.849998474121094,59.4900016784668,59.400001525878906,1529900.0,57.36257553100586
2018-07-23,59.68000030517578,58.04999923706055,59.68000030517578,58.900001525878906,1581900.0,56.87972640991211
2018-07-24,59.58000183105469,58.709999084472656,59.459999084472656,59.209999084472656,1664700.0,57.1790885925293
2018-07-25,59.34000015258789,57.599998474121094,59.279998779296875,58.81999969482422,1738700.0,56.802467346191406
2018-07-26,61.060001373291016,57.83000183105469,58.61000061035156,59.790000915527344,1856700.0,57.739200592041016
2018-07-27,61.95000076293945,59.619998931884766,59.650001525878906,60.83000183105469,1469100.0,58.7435302734375
2018-07-30,64.31999969482422,62.04999923706055,62.369998931884766,62.9900016784668,1925200.0,60.829437255859375
2018-07-31,62.72999954223633,60.36000061035156,62.58000183105469,61.349998474121094,1781000.0,59.24568557739258
2018-08-01,61.810001373291016,60.209999084472656,60.689998626708984,61.7599983215332,1106400.0,59.641624450683594
2018-08-02,61.77000045776367,60.7400016784668,60.810001373291016,61.099998474121094,1022600.0,59.0042610168457
2018-08-03,62.400001525878906,61.13999938964844,61.13999938964844,61.29999923706055,799800.0,59.19740295410156
2018-08-06,61.88999938964844,61.130001068115234,61.4900016784668,61.209999084472656,735200.0,59.11048889160156
2018-08-07,62.18000030517578,61.459999084472656,62.13999938964844,61.9900016784668,966500.0,59.863739013671875
2018-08-08,61.9900016784668,60.970001220703125,61.599998474121094,61.75,861200.0,59.6319694519043
2018-08-09,61.880001068115234,59.5099983215332,61.70000076293945,60.5,1430300.0,58.424842834472656
2018-08-10,62.70000076293945,60.43000030517578,60.7400016784668,62.619998931884766,888200.0,60.47212600708008
2018-08-13,62.869998931884766,61.959999084472656,62.400001525878906,62.13999938964844,998700.0,60.00859069824219
2018-08-14,64.05999755859375,62.90999984741211,62.90999984741211,63.560001373291016,1324500.0,61.37989044189453
2018-08-15,63.63999938964844,60.20000076293945,62.849998474121094,61.91999816894531,1395900.0,59.79613494873047
2018-08-16,62.15999984741211,61.09000015258789,61.61000061035156,61.2400016784668,1152800.0,59.825443267822266
2018-08-17,62.90999984741211,61.279998779296875,61.45000076293945,62.5099983215332,1151600.0,61.066104888916016
2018-08-20,63.43000030517578,62.470001220703125,62.5099983215332,63.04999923706055,847700.0,61.593631744384766
2018-08-21,65.12999725341797,63.900001525878906,63.900001525878906,64.3499984741211,1233700.0,62.86360549926758
2018-08-22,66.0199966430664,64.69999694824219,65.22000122070312,65.41000366210938,985300.0,63.89912796020508
2018-08-23,65.66000366210938,64.77999877929688,65.05999755859375,65.19000244140625,695800.0,63.6842041015625
2018-08-24,66.16999816894531,65.45999908447266,65.87999725341797,65.83000183105469,698400.0,64.3094253540039
2018-08-27,67.01000213623047,65.6500015258789,65.91999816894531,66.33999633789062,928600.0,64.80763244628906
2018-08-28,66.98999786376953,65.55999755859375,66.63999938964844,65.73999786376953,756400.0,64.22149658203125
2018-08-29,66.30999755859375,65.4800033569336,65.8499984741211,66.12999725341797,552100.0,64.60248565673828
2018-08-30,66.9000015258789,65.58000183105469,66.18000030517578,66.44999694824219,851500.0,64.91510009765625
2018-08-31,66.2300033569336,64.91999816894531,66.12000274658203,65.56999969482422,1090000.0,64.05542755126953
2018-09-04,65.87999725341797,64.54000091552734,65.7300033569336,65.8499984741211,835600.0,64.32894897460938
2018-09-05,65.48999786376953,63.81999969482422,65.48999786376953,64.52999877929688,1209500.0,63.03944778442383
2018-09-06,64.87000274658203,62.900001525878906,64.4800033569336,62.900001525878906,1468700.0,61.44710159301758
2018-09-07,62.900001525878906,61.58000183105469,62.130001068115234,62.779998779296875,2228900.0,61.329872131347656
2018-09-10,63.869998931884766,62.95000076293945,63.099998474121094,63.349998474121094,1202700.0,61.88670349121094
2018-09-11,64.81999969482422,63.349998474121094,63.40999984741211,64.62000274658203,892600.0,63.12737274169922
2018-09-12,66.76000213623047,65.45999908447266,65.66000366210938,65.80999755859375,1096200.0,64.28987884521484
2018-09-13,65.68000030517578,64.36000061035156,65.41999816894531,64.75,934700.0,63.254364013671875
2018-09-14,65.66999816894531,64.2699966430664,65.22000122070312,65.30999755859375,1064600.0,63.80142593383789
2018-09-17,66.2699966430664,64.7300033569336,65.5999984741211,65.0999984741211,879000.0,63.596282958984375
2018-09-18,66.27999877929688,65.2300033569336,65.77999877929688,65.87000274658203,739500.0,64.34849548339844
2018-09-19,67.0,65.80000305175781,65.80000305175781,66.02999877929688,907300.0,64.50479888916016
2018-09-20,67.86000061035156,66.62999725341797,67.3499984741211,66.9800033569336,1281300.0,65.432861328125
2018-09-21,67.86000061035156,66.9000015258789,67.44999694824219,67.27999877929688,1759700.0,65.72592163085938
2018-09-24,68.97000122070312,67.23999786376953,68.33999633789062,67.62000274658203,1097000.0,66.05807495117188
2018-09-25,69.81999969482422,68.5199966430664,69.04000091552734,68.68000030517578,1548800.0,67.09358215332031
2018-09-26,69.19999694824219,67.69999694824219,68.05999755859375,68.55000305175781,1373400.0,66.96659851074219
2018-09-27,69.5199966430664,68.69000244140625,69.26000213623047,69.08000183105469,2025000.0,67.4843521118164
2018-09-28,70.77999877929688,68.69000244140625,68.77999877929688,68.7699966430664,1559200.0,67.18150329589844
2018-10-01,70.51000213623047,68.56999969482422,69.0,70.08000183105469,1115200.0,68.46125793457031
2018-10-02,70.6500015258789,69.56999969482422,70.01000213623047,69.98999786376953,1010900.0,68.37332916259766
2018-10-03,71.80999755859375,69.69999694824219,70.16999816894531,71.61000061035156,1001700.0,69.9559097290039
2018-10-04,72.52999877929688,70.80000305175781,71.0,71.31999969482422,1265700.0,69.672607421875
2018-10-05,72.83000183105469,71.38999938964844,71.83999633789062,71.93000030517578,1330300.0,70.26852416992188
2018-10-08,72.27999877929688,70.41000366210938,71.11000061035156,71.91999816894531,1141000.0,70.25875091552734
2018-10-09,73.73999786376953,71.98999786376953,72.41000366210938,72.94000244140625,1113400.0,71.25518798828125
2018-10-10,72.88999938964844,69.19000244140625,72.79000091552734,69.25,1531600.0,67.65042114257812
2018-10-11,69.55999755859375,67.5,68.9800033569336,68.23999786376953,1481000.0,66.66374969482422
2018-10-12,70.05999755859375,68.33000183105469,69.81999969482422,69.41000366210938,1041300.0,67.80673217773438
2018-10-15,70.20999908447266,68.9000015258789,69.62999725341797,69.19999694824219,881600.0,67.60157775878906
2018-10-16,69.80999755859375,68.80000305175781,69.72000122070312,69.19000244140625,1123800.0,67.59181213378906
2018-10-17,69.12999725341797,67.45999908447266,68.69999694824219,68.05000305175781,837800.0,66.4781494140625
2018-10-18,68.05000305175781,66.02999877929688,67.0,66.41000366210938,1035700.0,64.87602233886719
2018-10-19,67.91999816894531,66.08999633789062,66.69999694824219,66.1500015258789,1008800.0,64.62203216552734
2018-10-22,66.25,65.16999816894531,66.06999969482422,65.38999938964844,838900.0,63.879581451416016
2018-10-23,63.56999969482422,62.040000915527344,63.56999969482422,62.880001068115234,897500.0,61.42755889892578
2018-10-24,63.77000045776367,60.34000015258789,63.61000061035156,60.38999938964844,1607800.0,58.99507522583008
2018-10-25,63.33000183105469,60.779998779296875,61.540000915527344,62.77000045776367,1437900.0,61.32010269165039
2018-10-26,64.05000305175781,61.459999084472656,61.88999938964844,62.66999816894531,1565200.0,61.222408294677734
2018-10-29,63.959999084472656,60.349998474121094,63.959999084472656,60.970001220703125,1523400.0,59.56167984008789
2018-10-30,62.060001373291016,60.130001068115234,60.650001525878906,61.93000030517578,1565800.0,60.49950408935547
2018-10-31,63.560001373291016,62.150001525878906,62.31999969482422,62.290000915527344,1471000.0,60.851192474365234
2018-11-01,62.88999938964844,61.099998474121094,62.650001525878906,62.189998626708984,1481200.0,60.75349807739258
2018-11-02,63.279998779296875,60.70000076293945,62.70000076293945,60.95000076293945,1068800.0,59.54214096069336
2018-11-05,63.79999923706055,61.54999923706055,61.93000030517578,63.79999923706055,1046500.0,62.3263053894043
2018-11-06,64.7699966430664,62.88999938964844,63.91999816894531,64.18000030517578,858000.0,62.697532653808594
2018-11-07,66.33000183105469,64.55999755859375,65.18000030517578,65.70999908447266,1239000.0,64.19219207763672
2018-11-08,64.70999908447266,61.91999816894531,64.66000366210938,62.369998931884766,1085100.0,61.59487533569336
2018-11-09,62.939998626708984,60.540000915527344,61.099998474121094,62.59000015258789,974200.0,61.8121452331543
2018-11-12,63.599998474121094,60.439998626708984,63.459999084472656,60.540000915527344,831700.0,59.787620544433594
2018-11-13,60.970001220703125,58.099998474121094,60.400001525878906,58.18000030517578,1392900.0,57.45695114135742
2018-11-14,59.939998626708984,57.58000183105469,59.52000045776367,58.29999923706055,2377800.0,57.57545852661133
2018-11-15,60.20000076293945,57.880001068115234,57.90999984741211,60.040000915527344,1596600.0,59.2938346862793
2018-11-16,62.970001220703125,60.439998626708984,60.720001220703125,62.59000015258789,1994700.0,61.8121452331543
2018-11-19,64.75,62.70000076293945,63.150001525878906,64.36000061035156,1962600.0,63.56014633178711
2018-11-20,64.02999877929688,60.029998779296875,63.22999954223633,60.790000915527344,3138400.0,60.034515380859375
2018-11-21,61.150001525878906,59.45000076293945,61.040000915527344,60.09000015258789,2011200.0,59.34321212768555
2018-11-23,59.130001068115234,57.2400016784668,57.79999923706055,58.77000045776367,592700.0,58.03961944580078
2018-11-26,60.810001373291016,59.38999938964844,59.779998779296875,60.2599983215332,872200.0,59.5110969543457
2018-11-27,61.36000061035156,59.470001220703125,60.029998779296875,59.77000045776367,903100.0,59.027191162109375
2018-11-28,60.75,58.59000015258789,60.029998779296875,60.720001220703125,609600.0,59.96538543701172
2018-11-29,61.66999816894531,60.310001373291016,60.9900016784668,61.150001525878906,847100.0,60.39004135131836
2018-11-30,60.650001525878906,58.970001220703125,60.400001525878906,60.599998474121094,1834200.0,59.84687423706055
2018-12-03,63.529998779296875,61.27000045776367,62.939998626708984,62.290000915527344,1709800.0,61.515872955322266
2018-12-04,62.560001373291016,60.29999923706055,62.20000076293945,60.59000015258789,1014800.0,59.836997985839844
2018-12-06,60.16999816894531,58.08000183105469,59.0,60.15999984741211,2179900.0,59.4123420715332
2018-12-07,62.97999954223633,60.38999938964844,62.150001525878906,60.7400016784668,1821100.0,59.985137939453125
2018-12-10,60.380001068115234,58.209999084472656,59.959999084472656,59.20000076293945,1303800.0,58.46427536010742
2018-12-11,61.25,59.400001525878906,60.95000076293945,60.0,1658800.0,59.25433349609375
2018-12-12,63.119998931884766,60.83000183105469,60.83000183105469,61.939998626708984,2296300.0,61.17021942138672
2018-12-13,62.209999084472656,60.220001220703125,61.58000183105469,60.79999923706055,1474600.0,60.04438781738281
2018-12-14,60.90999984741211,58.18000030517578,60.20000076293945,58.47999954223633,1001500.0,57.75321960449219
2018-12-17,58.86000061035156,56.099998474121094,58.41999816894531,56.369998931884766,1586000.0,55.6694450378418
2018-12-18,56.349998474121094,53.65999984741211,56.349998474121094,54.45000076293945,2392700.0,53.77330780029297
2018-12-19,54.75,50.619998931884766,54.66999816894531,50.77000045776367,3210000.0,50.139041900634766
2018-12-20,50.27000045776367,46.54999923706055,49.81999969482422,47.15999984741211,3958000.0,46.57390594482422
2018-12-21,47.9900016784668,45.900001525878906,46.68000030517578,46.16999816894531,3536700.0,45.59620666503906
2018-12-24,46.31999969482422,44.7599983215332,45.439998626708984,44.95000076293945,1004200.0,44.39137268066406
2018-12-26,47.970001220703125,44.560001373291016,45.900001525878906,47.939998626708984,1749600.0,47.344207763671875
2018-12-27,47.7400016784668,45.79999923706055,46.72999954223633,47.72999954223633,1893700.0,47.13682174682617
2018-12-28,48.4900016784668,46.900001525878906,48.08000183105469,47.619998931884766,1748500.0,47.0281867980957
2018-12-31,48.2599983215332,47.06999969482422,47.90999984741211,47.939998626708984,1373200.0,47.344207763671875
