Date,High,Low,Open,Close,Volume,Adj Close
2016-01-04,127.08999633789062,122.04000091552734,125.19000244140625,124.3499984741211,1778900.0,123.72550964355469
2016-01-05,126.08999633789062,122.83999633789062,124.3499984741211,125.16999816894531,1448800.0,124.54138946533203
2016-01-06,117.45999908447266,114.97000122070312,115.30000305175781,116.1500015258789,14056100.0,115.56668090820312
2016-01-07,118.51000213623047,115.0,115.54000091552734,116.41999816894531,5316400.0,115.8353271484375
2016-01-08,117.66999816894531,115.3499984741211,117.25,115.83999633789062,3143200.0,115.25824737548828
2016-01-11,117.16999816894531,112.0199966430664,116.88999938964844,113.51000213623047,4995900.0,112.93995666503906
2016-01-12,116.63999938964844,108.45999908447266,115.94000244140625,113.23999786376953,4005200.0,112.67130279541016
2016-01-13,117.20999908447266,111.91999816894531,114.98999786376953,114.19999694824219,3518000.0,113.62647247314453
2016-01-14,118.79000091552734,113.44999694824219,115.12000274658203,115.95999908447266,4342000.0,115.37763214111328
2016-01-15,113.97000122070312,108.5,109.20999908447266,113.13999938964844,4769300.0,112.57180786132812
2016-01-19,115.0,109.04000091552734,114.55000305175781,111.62000274658203,2824400.0,111.0594482421875
2016-01-20,110.98999786376953,103.5,109.37000274658203,109.04000091552734,5242500.0,108.49239349365234
2016-01-21,115.0,106.7300033569336,108.91999816894531,111.80000305175781,4018900.0,111.23854064941406
2016-01-22,117.9000015258789,112.43000030517578,117.30000305175781,113.5,4164000.0,112.93000030517578
2016-01-25,113.33000183105469,107.5999984741211,110.44999694824219,107.75,2603900.0,107.2088851928711
2016-01-26,114.29000091552734,107.97000122070312,110.36000061035156,113.54000091552734,2394700.0,112.96980285644531
2016-01-27,117.2699966430664,111.7300033569336,112.8499984741211,113.9000015258789,2798100.0,113.3280029296875
2016-01-28,120.69000244140625,116.3499984741211,119.0999984741211,120.01000213623047,5262100.0,119.40729522705078
2016-01-29,124.0999984741211,119.83999633789062,121.0,123.94999694824219,3692300.0,123.3275146484375
2016-02-01,123.48999786376953,120.0,121.79000091552734,122.29000091552734,2367200.0,121.67584991455078
2016-02-02,123.97000122070312,117.83999633789062,118.26000213623047,121.5199966430664,2286800.0,120.90971374511719
2016-02-03,127.38999938964844,119.44999694824219,123.66000366210938,127.31999969482422,2565200.0,126.68059539794922
2016-02-04,133.7899932861328,123.81999969482422,129.3300018310547,124.48999786376953,3706400.0,123.86480712890625
2016-02-05,123.2699966430664,118.0,123.20999908447266,118.80000305175781,3508300.0,118.20337677001953
2016-02-08,117.44000244140625,112.04000091552734,117.19000244140625,115.19000244140625,4252000.0,114.61151885986328
2016-02-09,115.86000061035156,108.6500015258789,113.01000213623047,111.29000091552734,4287100.0,110.7311019897461
2016-02-10,113.5999984741211,108.2699966430664,109.58000183105469,108.79000091552734,3419100.0,108.24364471435547
2016-02-11,114.44999694824219,105.22000122070312,107.33000183105469,110.75,7244900.0,110.19380950927734
2016-02-12,117.25,111.86000061035156,113.5999984741211,115.36000061035156,3708400.0,114.7806625366211
2016-02-16,117.80000305175781,115.02999877929688,116.54000091552734,115.44999694824219,2936000.0,114.87020874023438
2016-02-17,125.08000183105469,116.13999938964844,117.69999694824219,124.55000305175781,3868200.0,123.92450714111328
2016-02-18,126.54000091552734,120.8499984741211,124.86000061035156,121.36000061035156,2913100.0,120.75052642822266
2016-02-19,123.05999755859375,117.51000213623047,119.08000183105469,122.98999786376953,2778200.0,122.3723373413086
2016-02-22,126.54000091552734,123.87000274658203,126.0,125.01000213623047,2230500.0,124.3822021484375
2016-02-23,124.87999725341797,119.5,123.51000213623047,119.56999969482422,2093600.0,118.9695053100586
2016-02-24,120.56999969482422,116.54000091552734,117.66999816894531,119.33000183105469,2387000.0,118.730712890625
2016-02-25,121.94000244140625,115.16999816894531,119.44999694824219,120.48999786376953,1965900.0,119.8848876953125
2016-02-26,126.69999694824219,122.08999633789062,123.54000091552734,123.37000274658203,2060700.0,122.75042724609375
2016-02-29,124.01000213623047,120.31999969482422,123.87000274658203,120.52999877929688,1856100.0,119.92469024658203
2016-03-01,128.16000366210938,120.08000183105469,121.56999969482422,128.10000610351562,3471400.0,127.4566879272461
2016-03-02,131.33999633789062,125.02999877929688,127.36000061035156,131.25,3137000.0,130.59085083007812
2016-03-03,133.22999572753906,126.88999938964844,130.99000549316406,128.27000427246094,3729700.0,127.62581634521484
2016-03-04,133.3000030517578,126.27999877929688,130.0,128.8000030517578,3940000.0,128.1531524658203
2016-03-07,131.72999572753906,122.08000183105469,128.16000366210938,130.63999938964844,5133600.0,129.98391723632812
2016-03-08,130.94000244140625,124.44999694824219,129.44000244140625,125.6500015258789,3044700.0,125.01898956298828
2016-03-09,129.5,124.30000305175781,127.76000213623047,128.67999267578125,1981500.0,128.0337371826172
2016-03-10,130.9600067138672,125.5,127.2699966430664,129.49000549316406,2506200.0,128.8397216796875
2016-03-11,137.97999572753906,131.42999267578125,131.5,137.0399932861328,3479800.0,136.3517608642578
2016-03-14,137.5399932861328,134.02999877929688,135.50999450683594,135.38999938964844,2303100.0,134.71005249023438
2016-03-15,135.89999389648438,132.3800048828125,133.89999389648438,135.58999633789062,1989900.0,134.90907287597656
2016-03-16,139.25,132.9499969482422,136.7100067138672,137.47999572753906,2624300.0,136.78956604003906
2016-03-17,144.3000030517578,137.82000732421875,139.30999755859375,142.25,3774300.0,141.53561401367188
2016-03-18,145.2100067138672,139.72000122070312,143.50999450683594,143.0800018310547,3917000.0,142.3614501953125
2016-03-21,145.8699951171875,139.1699981689453,142.08999633789062,142.0800018310547,2345800.0,141.36647033691406
2016-03-22,143.4499969482422,140.0800018310547,141.33999633789062,140.1999969482422,1405000.0,139.49591064453125
2016-03-23,139.89999389648438,135.82000732421875,139.74000549316406,136.77000427246094,1872700.0,136.0831298828125
2016-03-24,139.5,131.36000061035156,133.5,139.19000244140625,1746800.0,138.49098205566406
2016-03-28,140.0,134.13999938964844,139.6300048828125,137.4600067138672,1640300.0,136.76966857910156
2016-03-29,140.0,134.9499969482422,136.38999938964844,139.83999633789062,1710000.0,139.17820739746094
2016-03-30,142.61000061035156,139.27999877929688,141.1300048828125,140.41000366210938,2059500.0,139.7455291748047
2016-03-31,141.27000427246094,138.11000061035156,139.52000427246094,140.74000549316406,2020500.0,140.073974609375
2016-04-01,140.74000549316406,136.97000122070312,137.19000244140625,139.75999450683594,1456100.0,139.0985870361328
2016-04-04,143.58999633789062,137.9199981689453,140.8300018310547,138.44000244140625,1907900.0,137.7848358154297
2016-04-05,142.0500030517578,137.4199981689453,137.4199981689453,141.0399932861328,2036100.0,140.37254333496094
2016-04-06,145.25,141.25,142.4600067138672,142.92999267578125,2049800.0,142.25360107421875
2016-04-07,143.41000366210938,140.0,142.14999389648438,141.77999877929688,1378800.0,141.10902404785156
2016-04-08,147.82000732421875,143.4199981689453,145.1199951171875,144.77000427246094,1661900.0,144.0848846435547
2016-04-11,146.7100067138672,142.4199981689453,145.72000122070312,142.5500030517578,1731300.0,141.87539672851562
2016-04-12,150.3300018310547,142.7899932861328,143.24000549316406,147.41000366210938,2893500.0,146.71238708496094
2016-04-13,147.75,143.72000122070312,147.36000061035156,146.64999389648438,2370600.0,145.95599365234375
2016-04-14,149.80999755859375,145.0,147.0,149.66000366210938,2081000.0,148.95175170898438
2016-04-15,149.2899932861328,143.75,148.27999877929688,144.1300048828125,2847000.0,143.4479217529297
2016-04-18,148.74000549316406,139.0,140.5,147.3300018310547,2248900.0,146.63278198242188
2016-04-19,153.13999938964844,147.5500030517578,148.85000610351562,152.1699981689453,2790100.0,151.44985961914062
2016-04-20,156.25,149.7100067138672,151.74000549316406,154.72999572753906,2228800.0,153.9977264404297
2016-04-21,155.97999572753906,150.13999938964844,155.14999389648438,150.6300048828125,2349000.0,149.9171600341797
2016-04-22,155.44000244140625,151.2899932861328,151.74000549316406,153.14999389648438,2247800.0,152.4252166748047
2016-04-25,154.30999755859375,151.55999755859375,152.5,153.5,2101700.0,152.77357482910156
2016-04-26,166.75,158.6999969482422,159.2899932861328,165.36000061035156,4868400.0,164.57742309570312
2016-04-27,171.8800048828125,163.5500030517578,168.58999633789062,168.72000122070312,3882400.0,167.9215545654297
2016-04-28,171.0800018310547,163.75999450683594,167.19000244140625,164.99000549316406,2431700.0,164.20919799804688
2016-04-29,168.8800048828125,162.0500030517578,165.32000732421875,166.10000610351562,2182000.0,165.31394958496094
2016-05-02,166.77000427246094,163.49000549316406,165.80999755859375,165.61000061035156,1680900.0,164.82626342773438
2016-05-03,163.80999755859375,157.75999450683594,163.5500030517578,159.2100067138672,2353800.0,158.45655822753906
2016-05-04,160.97999572753906,155.75,159.50999450683594,157.3699951171875,1721100.0,156.625244140625
2016-05-05,163.72000122070312,159.6300048828125,160.85000610351562,161.82000732421875,2479800.0,161.05421447753906
2016-05-06,162.9600067138672,159.07000732421875,159.77000427246094,159.4600067138672,1313400.0,158.7053680419922
2016-05-09,160.61000061035156,157.17999267578125,157.64999389648438,159.92999267578125,1610400.0,159.17312622070312
2016-05-10,161.99000549316406,159.49000549316406,159.9199981689453,161.3000030517578,1121800.0,160.53665161132812
2016-05-11,164.3000030517578,159.75999450683594,160.47999572753906,164.13999938964844,1490900.0,163.36322021484375
2016-05-12,168.5,163.3000030517578,166.1199951171875,167.02999877929688,1962700.0,166.23953247070312
2016-05-13,168.33999633789062,163.39999389648438,166.1699981689453,163.58999633789062,1426400.0,162.81581115722656
2016-05-16,168.5,165.61000061035156,166.3000030517578,166.19000244140625,1384300.0,165.40350341796875
2016-05-17,167.0,164.75999450683594,165.66000366210938,165.52000427246094,1382700.0,164.73670959472656
2016-05-18,166.17999267578125,162.19000244140625,165.4499969482422,163.35000610351562,1260400.0,162.5769805908203
2016-05-19,163.3699951171875,157.63999938964844,162.07000732421875,162.83999633789062,2186500.0,162.06936645507812
2016-05-20,165.52999877929688,161.72000122070312,163.5,164.33999633789062,1643900.0,163.562255859375
2016-05-23,163.47999572753906,161.4600067138672,162.69000244140625,162.6199951171875,1355100.0,161.85040283203125
2016-05-24,166.14999389648438,161.88999938964844,164.0,162.97000122070312,1500300.0,162.19874572753906
2016-05-25,165.5800018310547,161.77999877929688,164.05999755859375,162.47999572753906,1992100.0,161.71109008789062
2016-05-26,166.0,161.72999572753906,163.9499969482422,162.3000030517578,2029000.0,161.53192138671875
2016-05-27,162.77999877929688,159.0,162.2100067138672,161.61000061035156,1291200.0,160.84518432617188
2016-05-31,163.5800018310547,159.69000244140625,162.60000610351562,160.32000732421875,1539200.0,159.56129455566406
2016-06-01,160.47999572753906,157.88999938964844,160.32000732421875,159.47999572753906,1132300.0,158.7252655029297
2016-06-02,159.97000122070312,156.2899932861328,157.7899932861328,159.39999389648438,1371000.0,158.64566040039062
2016-06-03,160.4499969482422,158.10000610351562,159.6300048828125,159.75,1285600.0,158.9939727783203
2016-06-06,162.4600067138672,159.91000366210938,161.55999755859375,160.88999938964844,1506800.0,160.1286163330078
2016-06-07,165.61000061035156,161.0,161.52000427246094,165.58999633789062,1895400.0,164.8063507080078
2016-06-08,169.4600067138672,165.63999938964844,167.41000366210938,167.10000610351562,2105700.0,166.30921936035156
2016-06-09,167.2100067138672,164.07000732421875,164.55999755859375,164.1999969482422,1049000.0,163.4229278564453
2016-06-10,163.88999938964844,158.8800048828125,162.49000549316406,159.5500030517578,1515200.0,158.79493713378906
2016-06-13,163.5,158.11000061035156,158.8300018310547,160.67999267578125,1562500.0,159.91958618164062
2016-06-14,163.17999267578125,159.67999267578125,159.67999267578125,163.0399932861328,1147000.0,162.26841735839844
2016-06-15,164.3800048828125,160.47999572753906,161.75,162.5,1159400.0,161.73098754882812
2016-06-16,157.0800018310547,151.91000366210938,156.49000549316406,152.63999938964844,8238500.0,151.91766357421875
2016-06-17,155.1300048828125,153.07000732421875,154.5,154.42999267578125,3269700.0,153.69915771484375
2016-06-20,156.97000122070312,153.50999450683594,156.74000549316406,153.9499969482422,2714400.0,153.221435546875
2016-06-21,157.7899932861328,152.72999572753906,153.9499969482422,157.02999877929688,3270600.0,156.286865234375
2016-06-22,160.8000030517578,156.57000732421875,158.5,158.75,2733300.0,157.99871826171875
2016-06-23,162.42999267578125,159.66000366210938,160.61000061035156,160.58999633789062,1999600.0,159.8300018310547
2016-06-24,155.75999450683594,152.52000427246094,153.91000366210938,152.9199981689453,4591300.0,152.1963348388672
2016-06-27,151.8699951171875,146.0800018310547,151.5800018310547,146.61000061035156,2592300.0,145.9161834716797
2016-06-28,151.47999572753906,149.0800018310547,150.0800018310547,149.7100067138672,2857000.0,149.0015106201172
2016-06-29,152.9199981689453,151.3800048828125,151.8800048828125,151.6300048828125,4007500.0,150.9124298095703
2016-06-30,152.00999450683594,149.8699951171875,151.77999877929688,151.2100067138672,1841900.0,150.49441528320312
2016-07-01,152.7899932861328,149.63999938964844,151.6699981689453,151.11000061035156,2336700.0,150.39488220214844
2016-07-05,151.4600067138672,147.3699951171875,148.55999755859375,151.4600067138672,2548600.0,150.74322509765625
2016-07-06,152.0,149.22999572753906,151.00999450683594,151.5500030517578,2316300.0,150.83279418945312
2016-07-07,153.77000427246094,148.86000061035156,153.19000244140625,149.22999572753906,2229500.0,148.5237579345703
2016-07-08,153.94000244140625,149.9199981689453,150.7100067138672,153.72000122070312,1911200.0,152.99252319335938
2016-07-11,155.49000549316406,152.8300018310547,154.5,153.0,1370800.0,152.2759246826172
2016-07-12,158.5,154.82000732421875,155.11000061035156,156.5,1808400.0,155.75936889648438
2016-07-13,157.0399932861328,152.66000366210938,156.5,154.16000366210938,1628300.0,153.43045043945312
2016-07-14,156.67999267578125,154.44000244140625,155.9199981689453,155.5,1476700.0,154.76409912109375
2016-07-15,157.41000366210938,155.5500030517578,156.66000366210938,156.6999969482422,1405700.0,155.95840454101562
2016-07-18,158.99000549316406,155.8800048828125,157.2100067138672,156.85000610351562,1109500.0,156.1077117919922
2016-07-19,156.7100067138672,153.4199981689453,156.00999450683594,154.89999389648438,1590400.0,154.16693115234375
2016-07-20,155.89999389648438,152.7100067138672,153.69000244140625,153.8800048828125,1801500.0,153.15176391601562
2016-07-21,155.27999877929688,151.8300018310547,153.8000030517578,152.25,1854000.0,151.5294952392578
2016-07-22,153.58999633789062,151.4499969482422,152.69000244140625,153.39999389648438,1794200.0,152.67404174804688
2016-07-25,152.1999969482422,148.16000366210938,152.0,148.8300018310547,2019800.0,148.1256561279297
2016-07-26,149.89999389648438,147.32000732421875,148.6300048828125,149.10000610351562,2824000.0,148.3944091796875
2016-07-27,153.38999938964844,147.2100067138672,150.41000366210938,150.6300048828125,3435300.0,149.9171600341797
2016-07-28,158.8000030517578,152.88999938964844,153.25,157.5399932861328,4030100.0,156.79444885253906
2016-07-29,163.1300048828125,157.3699951171875,157.6199951171875,162.57000732421875,2684300.0,161.8006591796875
2016-08-01,161.52000427246094,156.52000427246094,161.0399932861328,157.22999572753906,2574900.0,156.4859161376953
2016-08-02,160.47000122070312,155.6300048828125,158.5,159.5800018310547,1764200.0,158.82479858398438
2016-08-03,163.60000610351562,158.61000061035156,160.0,163.11000061035156,2218800.0,162.3380889892578
2016-08-04,165.4600067138672,160.1999969482422,161.5500030517578,162.89999389648438,2173600.0,162.1290740966797
2016-08-05,168.85000610351562,161.88999938964844,163.0,168.08999633789062,2687400.0,167.29452514648438
2016-08-08,172.5,169.35000610351562,169.75,170.64999389648438,2059800.0,169.84242248535156
2016-08-09,172.16000366210938,170.27000427246094,171.19000244140625,171.3000030517578,1761900.0,170.4893341064453
2016-08-10,172.85000610351562,170.74000549316406,171.5500030517578,171.77000427246094,2078300.0,170.9571075439453
2016-08-11,175.0,171.67999267578125,173.0399932861328,174.1999969482422,1429400.0,173.3756103515625
2016-08-12,176.64999389648438,173.36000061035156,175.00999450683594,176.52000427246094,1110800.0,175.6846466064453
2016-08-15,180.25999450683594,176.92999267578125,177.0,179.14999389648438,1977400.0,178.30218505859375
2016-08-16,179.75999450683594,175.11000061035156,178.1699981689453,178.77000427246094,1778000.0,177.9239959716797
2016-08-17,180.4499969482422,178.47000122070312,179.6300048828125,180.3000030517578,2228200.0,179.4467315673828
2016-08-18,183.94000244140625,181.0,181.89999389648438,183.91000366210938,1647800.0,183.03965759277344
2016-08-19,186.3300018310547,183.30999755859375,183.4499969482422,185.58999633789062,2006300.0,184.71173095703125
2016-08-22,183.14999389648438,180.13999938964844,183.14999389648438,181.3699951171875,2167700.0,180.51165771484375
2016-08-23,182.88999938964844,180.22999572753906,180.6199951171875,182.25,2346700.0,181.38751220703125
2016-08-24,182.5800018310547,180.2100067138672,181.86000061035156,180.5800018310547,2035100.0,179.72540283203125
2016-08-25,181.0399932861328,179.0800018310547,180.57000732421875,180.41000366210938,1697200.0,179.55624389648438
2016-08-26,181.9600067138672,178.5800018310547,181.3000030517578,179.5,1294300.0,178.65052795410156
2016-08-29,183.00999450683594,178.38999938964844,179.30999755859375,182.9199981689453,1703100.0,182.05430603027344
2016-08-30,185.0,181.10000610351562,183.74000549316406,182.8699951171875,1133400.0,182.00454711914062
2016-08-31,182.86000061035156,177.1300048828125,181.49000549316406,179.0500030517578,1701800.0,178.20265197753906
2016-09-01,180.33999633789062,176.83999633789062,178.02999877929688,180.22000122070312,1548800.0,179.3671112060547
2016-09-02,183.9199981689453,181.77999877929688,182.0,183.7100067138672,1247700.0,182.84059143066406
2016-09-06,184.89999389648438,181.4600067138672,183.69000244140625,183.5,1382300.0,182.63160705566406
2016-09-07,188.60000610351562,184.27000427246094,184.83999633789062,188.30999755859375,2035400.0,187.41883850097656
2016-09-08,190.94000244140625,186.42999267578125,189.67999267578125,187.50999450683594,2237500.0,186.6226348876953
2016-09-09,187.66000366210938,180.52999877929688,185.85000610351562,180.60000610351562,2669100.0,179.74533081054688
2016-09-12,184.67999267578125,177.22000122070312,179.47000122070312,183.2100067138672,2063100.0,182.3429718017578
2016-09-13,181.14999389648438,174.8000030517578,180.66000366210938,176.8699951171875,1773100.0,176.032958984375
2016-09-14,179.0800018310547,174.50999450683594,175.77000427246094,176.30999755859375,1767700.0,175.47564697265625
2016-09-15,181.05999755859375,176.30999755859375,176.8800048828125,178.47999572753906,1579300.0,177.63534545898438
2016-09-16,177.4600067138672,174.08999633789062,175.8000030517578,177.1199951171875,2548500.0,176.2817840576172
2016-09-19,179.72999572753906,176.42999267578125,178.3699951171875,176.5,1378100.0,175.66473388671875
2016-09-20,177.92999267578125,174.74000549316406,176.38999938964844,175.75,1591700.0,174.91827392578125
2016-09-21,182.75,177.11000061035156,178.0800018310547,182.41000366210938,1569300.0,181.54676818847656
2016-09-22,185.0,179.0,184.0500030517578,179.0500030517578,1148700.0,178.20265197753906
2016-09-23,179.25,173.33999633789062,178.3800048828125,175.52999877929688,1366200.0,174.6993408203125
2016-09-26,177.25,174.3300018310547,176.05999755859375,174.57000732421875,1113400.0,173.74386596679688
2016-09-27,174.25,170.30999755859375,171.99000549316406,172.80999755859375,1215100.0,171.9921875
2016-09-28,184.07000732421875,172.6999969482422,174.5399932861328,183.42999267578125,2455400.0,182.6042022705078
2016-09-29,187.74000549316406,181.60000610351562,181.60000610351562,185.36000061035156,3189500.0,184.52549743652344
2016-09-30,187.99000549316406,184.7899932861328,186.1999969482422,185.64999389648438,1896200.0,184.81417846679688
2016-10-03,186.4199981689453,182.9199981689453,185.0,185.38999938964844,1447000.0,184.55535888671875
2016-10-04,186.24000549316406,181.4199981689453,185.97999572753906,182.5,1569200.0,181.67837524414062
2016-10-05,186.64999389648438,184.64999389648438,185.27999877929688,185.3300018310547,1825400.0,184.49563598632812
2016-10-06,186.6699981689453,183.52000427246094,185.88999938964844,186.1999969482422,1249100.0,185.36172485351562
2016-10-07,188.30999755859375,185.6699981689453,186.8800048828125,186.38999938964844,1261100.0,185.55087280273438
2016-10-10,193.32000732421875,187.8000030517578,188.02000427246094,193.24000549316406,2178300.0,192.37002563476562
2016-10-11,193.38999938964844,190.6699981689453,192.49000549316406,192.4600067138672,1481800.0,191.5935516357422
2016-10-12,192.22999572753906,190.07000732421875,191.1999969482422,190.91000366210938,1246900.0,190.05052185058594
2016-10-13,190.0500030517578,186.55999755859375,189.30999755859375,188.16000366210938,1091200.0,187.31289672851562
2016-10-14,189.7899932861328,185.85000610351562,189.6300048828125,185.9600067138672,1233900.0,185.122802734375
2016-10-17,187.07000732421875,182.02000427246094,186.27999877929688,184.27999877929688,1173900.0,183.45037841796875
2016-10-18,186.6699981689453,182.8699951171875,186.66000366210938,184.02999877929688,1135600.0,183.20147705078125
2016-10-19,191.27999877929688,186.0,186.16000366210938,189.02999877929688,1741800.0,188.17898559570312
2016-10-20,190.27000427246094,186.27999877929688,187.02999877929688,189.3800048828125,1106000.0,188.52743530273438
2016-10-21,189.1300048828125,185.92999267578125,187.55999755859375,187.0,1084500.0,186.15811157226562
2016-10-24,188.0,181.5500030517578,186.97999572753906,185.3300018310547,1320900.0,184.49563598632812
2016-10-25,186.64999389648438,182.9499969482422,185.25,183.02999877929688,943900.0,182.2059783935547
2016-10-26,184.8300018310547,179.58999633789062,181.0,183.02999877929688,1306600.0,182.2059783935547
2016-10-27,184.10000610351562,182.36000061035156,183.64999389648438,182.6699981689453,929700.0,181.8476104736328
2016-10-28,186.57000732421875,180.19000244140625,182.6699981689453,181.6300048828125,1331700.0,180.81231689453125
2016-10-31,182.4499969482422,178.42999267578125,180.83999633789062,179.02000427246094,1310700.0,178.2140655517578
2016-11-01,182.05999755859375,177.1999969482422,179.92999267578125,180.97000122070312,1845200.0,180.15525817871094
2016-11-02,174.8000030517578,168.32000732421875,173.22000122070312,171.27000427246094,4690100.0,170.49893188476562
2016-11-03,173.8300018310547,167.55999755859375,172.05999755859375,173.1699981689453,2450300.0,172.39036560058594
2016-11-04,173.9499969482422,169.14999389648438,173.1699981689453,171.11000061035156,1888600.0,170.33966064453125
2016-11-07,174.72000122070312,171.8000030517578,174.32000732421875,173.44000244140625,1772000.0,172.65916442871094
2016-11-08,175.9600067138672,170.75999450683594,172.33999633789062,175.0399932861328,1706600.0,174.251953125
2016-11-09,179.5500030517578,172.7899932861328,174.9199981689453,177.7100067138672,2034300.0,176.9099578857422
2016-11-10,181.5800018310547,174.8000030517578,175.97999572753906,179.42999267578125,1505200.0,178.6221923828125
2016-11-11,177.64999389648438,168.7899932861328,177.60000610351562,172.08999633789062,2307900.0,171.31524658203125
2016-11-14,173.97000122070312,168.67999267578125,170.83999633789062,173.6300048828125,1204500.0,172.8483123779297
2016-11-15,180.10000610351562,175.27000427246094,176.24000549316406,178.72999572753906,1947000.0,177.9253387451172
2016-11-16,181.9499969482422,177.24000549316406,178.0,178.52999877929688,1144700.0,177.7262420654297
2016-11-17,182.22000122070312,175.24000549316406,180.42999267578125,175.86000061035156,1237500.0,175.06825256347656
2016-11-18,180.05999755859375,176.32000732421875,176.32000732421875,178.19000244140625,1013100.0,177.38778686523438
2016-11-21,184.8000030517578,181.2100067138672,184.1300048828125,183.14999389648438,1668200.0,182.32545471191406
2016-11-22,183.94000244140625,180.75,183.94000244140625,183.10000610351562,1267100.0,182.2756805419922
2016-11-23,185.6699981689453,181.64999389648438,181.6999969482422,185.50999450683594,1326500.0,184.67481994628906
2016-11-25,185.4199981689453,181.47000122070312,184.0,181.8699951171875,582700.0,181.05120849609375
2016-11-28,183.52999877929688,172.41000366210938,183.5,173.02999877929688,2171100.0,172.25100708007812
2016-11-29,175.94000244140625,166.5,169.74000549316406,173.6699981689453,2350400.0,172.8881072998047
2016-11-30,193.1699981689453,183.58999633789062,184.8800048828125,191.0399932861328,6490300.0,190.17994689941406
2016-12-01,194.77999877929688,188.61000061035156,193.97000122070312,189.57000732421875,2917000.0,188.716552734375
2016-12-02,190.4199981689453,186.13999938964844,189.42999267578125,187.5500030517578,2278200.0,186.70565795898438
2016-12-05,191.8800048828125,188.0399932861328,190.61000061035156,188.25,1764300.0,187.40249633789062
2016-12-06,187.88999938964844,184.41000366210938,186.3300018310547,184.77000427246094,1575700.0,183.9381561279297
2016-12-07,187.36000061035156,184.0,184.8699951171875,185.77999877929688,1712200.0,184.94361877441406
2016-12-08,190.6999969482422,184.5800018310547,187.3000030517578,187.00999450683594,1420900.0,186.16806030273438
2016-12-09,189.8000030517578,185.1999969482422,188.63999938964844,187.05999755859375,1205300.0,186.2178192138672
2016-12-12,195.0,187.6199951171875,193.16000366210938,188.9600067138672,2467600.0,188.1092987060547
2016-12-13,192.72000122070312,187.1999969482422,190.50999450683594,191.25,1649400.0,190.3889923095703
2016-12-14,193.7899932861328,187.25999450683594,189.74000549316406,187.58999633789062,1900700.0,186.74546813964844
2016-12-15,187.99000549316406,183.97999572753906,186.02000427246094,187.4499969482422,1533900.0,186.60609436035156
2016-12-16,188.36000061035156,184.19000244140625,188.19000244140625,184.99000549316406,2306000.0,184.1571807861328
2016-12-19,187.11000061035156,184.10000610351562,185.30999755859375,186.02000427246094,1249200.0,185.18252563476562
2016-12-20,187.9499969482422,184.97000122070312,186.47000122070312,185.67999267578125,1223300.0,184.8440704345703
2016-12-21,186.8800048828125,184.25999450683594,186.60000610351562,184.83999633789062,1128100.0,184.00784301757812
2016-12-22,187.85000610351562,183.8699951171875,184.63999938964844,186.94000244140625,1074700.0,186.09840393066406
2016-12-23,187.5,184.91000366210938,186.11000061035156,185.00999450683594,700600.0,184.17706298828125
2016-12-27,186.8300018310547,184.1699981689453,186.00999450683594,185.0,688100.0,184.16712951660156
2016-12-28,185.77000427246094,181.0399932861328,184.6699981689453,181.80999755859375,1029100.0,180.9915008544922
2016-12-29,182.8800048828125,181.0500030517578,182.0399932861328,181.64999389648438,596800.0,180.8321990966797
2016-12-30,182.27999877929688,179.3000030517578,181.6999969482422,180.07000732421875,785600.0,179.2593231201172
2017-01-03,187.77000427246094,181.9199981689453,182.99000549316406,186.60000610351562,1744800.0,185.75991821289062
2017-01-04,186.69000244140625,183.94000244140625,186.52000427246094,184.1699981689453,1405600.0,183.3408660888672
2017-01-05,186.9499969482422,183.64999389648438,185.1999969482422,185.6999969482422,1236900.0,184.8639678955078
2017-01-06,188.42999267578125,184.5800018310547,186.42999267578125,185.07000732421875,1140500.0,184.23681640625
2017-01-09,184.80999755859375,181.05999755859375,183.94000244140625,182.60000610351562,1217800.0,181.77792358398438
2017-01-10,183.2899932861328,180.24000549316406,183.2899932861328,181.27000427246094,1386900.0,180.45391845703125
2017-01-11,184.3300018310547,179.82000732421875,182.35000610351562,182.88999938964844,1493900.0,182.06661987304688
2017-01-12,184.6300048828125,181.52999877929688,184.25,182.55999755859375,1060900.0,181.7381134033203
2017-01-13,182.83999633789062,180.5500030517578,181.4600067138672,181.97000122070312,900400.0,181.1507568359375
2017-01-17,183.39999389648438,180.0,182.60000610351562,181.02000427246094,1200800.0,180.20504760742188
2017-01-18,184.17999267578125,179.58999633789062,179.82000732421875,183.00999450683594,1643900.0,182.1860809326172
2017-01-19,186.3300018310547,183.0,183.0,183.9499969482422,1298300.0,183.12185668945312
2017-01-20,187.74000549316406,184.44000244140625,186.24000549316406,184.97000122070312,1289400.0,184.13726806640625
2017-01-23,185.13999938964844,181.16000366210938,183.60000610351562,182.89999389648438,1345100.0,182.07656860351562
2017-01-24,183.97999572753906,180.35000610351562,183.00999450683594,180.75,1830900.0,179.93624877929688
2017-01-25,181.91000366210938,179.85000610351562,180.35000610351562,180.27000427246094,1430900.0,179.4584197998047
2017-01-26,183.72999572753906,180.50999450683594,180.83999633789062,182.22999572753906,1217300.0,181.40960693359375
2017-01-27,182.11000061035156,180.4499969482422,181.1699981689453,181.4600067138672,1132500.0,180.64306640625
2017-01-30,181.11000061035156,178.0,181.10000610351562,178.8000030517578,1393900.0,177.9950408935547
2017-01-31,180.3000030517578,177.74000549316406,179.25999450683594,180.22999572753906,1158600.0,179.41860961914062
2017-02-01,181.77999877929688,177.97000122070312,181.4600067138672,180.66000366210938,1480500.0,179.84666442871094
2017-02-02,183.49000549316406,178.13999938964844,180.66000366210938,183.4600067138672,1570600.0,182.63404846191406
2017-02-03,185.8800048828125,182.42999267578125,182.82000732421875,183.83999633789062,1356600.0,183.0123291015625
2017-02-06,185.72000122070312,180.0,184.61000061035156,181.0800018310547,2026200.0,180.26478576660156
2017-02-07,181.07000732421875,174.10000610351562,179.8800048828125,174.9499969482422,2141500.0,174.162353515625
2017-02-08,183.67999267578125,168.1300048828125,175.17999267578125,181.67999267578125,4655500.0,180.86204528808594
2017-02-09,193.36000061035156,181.67999267578125,181.67999267578125,191.58999633789062,3825500.0,190.72744750976562
2017-02-10,195.0,192.3300018310547,193.6199951171875,194.4600067138672,2982700.0,193.5845489501953
2017-02-13,197.77000427246094,193.0500030517578,193.8300018310547,197.0399932861328,2506900.0,196.15292358398438
2017-02-14,199.8300018310547,194.47000122070312,197.3000030517578,198.89999389648438,1922700.0,198.00453186035156
2017-02-15,199.39999389648438,196.30999755859375,198.41000366210938,197.72000122070312,2306400.0,196.82986450195312
2017-02-16,198.64999389648438,192.89999389648438,197.97000122070312,193.2100067138672,1946000.0,192.34017944335938
2017-02-17,195.41000366210938,191.3000030517578,191.3000030517578,192.0,1569400.0,191.1356201171875
2017-02-21,196.91000366210938,193.5,194.38999938964844,193.66000366210938,2031500.0,192.78814697265625
2017-02-22,194.30999755859375,187.7100067138672,192.2899932861328,188.1300048828125,2131900.0,187.28302001953125
2017-02-23,191.02000427246094,184.3000030517578,191.0,184.94000244140625,2588700.0,184.10739135742188
2017-02-24,186.75999450683594,182.9499969482422,183.9499969482422,185.36000061035156,1932500.0,184.52549743652344
2017-02-27,187.88999938964844,185.4499969482422,187.1300048828125,186.72000122070312,1974500.0,185.87937927246094
2017-02-28,186.41000366210938,184.14999389648438,185.8699951171875,185.97000122070312,1528900.0,185.13275146484375
2017-03-01,194.0800018310547,187.92999267578125,188.5,193.52000427246094,2216700.0,192.6487579345703
2017-03-02,193.5,190.88999938964844,191.55999755859375,191.1699981689453,1433800.0,190.30934143066406
2017-03-03,194.57000732421875,190.6300048828125,190.77999877929688,194.17999267578125,1797200.0,193.3057861328125
2017-03-06,194.74000549316406,192.36000061035156,194.35000610351562,194.00999450683594,1311400.0,193.1365509033203
2017-03-07,196.0,192.91000366210938,194.30999755859375,193.94000244140625,1515900.0,193.06687927246094
2017-03-08,194.30999755859375,183.6999969482422,192.99000549316406,184.25,2726600.0,183.42050170898438
2017-03-09,188.08999633789062,181.6699981689453,182.57000732421875,187.75,3143200.0,186.9047393798828
2017-03-10,189.3699951171875,183.67999267578125,188.6300048828125,184.72000122070312,2339600.0,183.88836669921875
2017-03-13,185.8300018310547,183.6199951171875,185.0,184.41000366210938,1096700.0,183.57977294921875
2017-03-14,182.2100067138672,177.0,182.1199951171875,179.30999755859375,3869200.0,178.5027313232422
2017-03-15,185.11000061035156,178.2100067138672,181.11000061035156,184.13999938964844,2353100.0,183.3109893798828
2017-03-16,184.97000122070312,181.72000122070312,184.3000030517578,183.36000061035156,1344800.0,182.53451538085938
2017-03-17,186.22999572753906,184.50999450683594,184.97000122070312,184.7899932861328,1858000.0,183.9580535888672
2017-03-20,184.6300048828125,181.61000061035156,183.14999389648438,183.99000549316406,1441800.0,183.16168212890625
2017-03-21,186.38999938964844,181.7100067138672,185.3300018310547,182.3000030517578,1716300.0,181.47927856445312
2017-03-22,183.6699981689453,180.33999633789062,181.82000732421875,182.3300018310547,1195000.0,181.50914001464844
2017-03-23,184.08999633789062,181.13999938964844,182.08999633789062,181.5500030517578,1016200.0,180.73265075683594
2017-03-24,182.33999633789062,180.33999633789062,182.14999389648438,180.91000366210938,1022900.0,180.0955352783203
2017-03-27,181.05999755859375,178.0399932861328,178.47000122070312,180.39999389648438,1296500.0,179.58782958984375
2017-03-28,185.9199981689453,180.10000610351562,180.5,185.3699951171875,2078200.0,184.5354461669922
2017-03-29,189.22999572753906,184.2899932861328,185.5,188.32000732421875,1118600.0,187.5126495361328
2017-03-30,189.91000366210938,182.0399932861328,189.5,182.47999572753906,8114200.0,181.69766235351562
2017-03-31,186.8300018310547,183.0,183.19000244140625,186.22999572753906,2605000.0,185.4315948486328
2017-04-03,186.72999572753906,183.08999633789062,186.14999389648438,185.47999572753906,1943300.0,184.684814453125
2017-04-04,187.8800048828125,184.3800048828125,186.60000610351562,187.80999755859375,1104300.0,187.00482177734375
2017-04-05,192.33999633789062,187.52000427246094,189.42999267578125,188.3000030517578,3121000.0,187.4927215576172
2017-04-06,190.9600067138672,187.91000366210938,188.8300018310547,190.44000244140625,1330400.0,189.62355041503906
2017-04-07,192.02999877929688,189.32000732421875,190.52000427246094,189.8300018310547,1089800.0,189.01617431640625
2017-04-10,192.92999267578125,190.0,190.52000427246094,190.33999633789062,1509300.0,189.5239715576172
2017-04-11,190.8699951171875,187.80999755859375,190.64999389648438,189.9499969482422,1075300.0,189.13565063476562
2017-04-12,191.02999877929688,186.17999267578125,189.97999572753906,186.89999389648438,1446600.0,186.0987091064453
2017-04-13,187.52000427246094,181.22999572753906,186.72000122070312,182.05999755859375,1374400.0,181.27947998046875
2017-04-17,183.27000427246094,181.00999450683594,182.50999450683594,183.00999450683594,1330100.0,182.22540283203125
2017-04-18,183.6300048828125,179.14999389648438,181.36000061035156,180.6300048828125,1406300.0,179.85562133789062
2017-04-19,181.33999633789062,173.80999755859375,180.72000122070312,175.05999755859375,1980500.0,174.30947875976562
2017-04-20,176.57000732421875,174.1699981689453,175.5500030517578,174.44000244140625,1664100.0,173.69215393066406
2017-04-21,175.8000030517578,172.0,173.97000122070312,174.6300048828125,1750300.0,173.88134765625
2017-04-24,176.66000366210938,173.7100067138672,176.6300048828125,175.72000122070312,1534200.0,174.96664428710938
2017-04-25,179.10000610351562,175.8699951171875,177.22999572753906,178.35000610351562,1734500.0,177.5853729248047
2017-04-26,180.0,176.25999450683594,176.69000244140625,176.91000366210938,1133200.0,176.15155029296875
2017-04-27,176.07000732421875,170.58999633789062,175.2100067138672,172.36000061035156,2579300.0,171.6210479736328
2017-04-28,174.5399932861328,171.4199981689453,173.19000244140625,172.99000549316406,1873400.0,172.2483673095703
2017-05-01,173.72000122070312,171.16000366210938,173.33999633789062,172.42999267578125,1672800.0,171.6907501220703
2017-05-02,173.47999572753906,168.7100067138672,172.6699981689453,170.44000244140625,1599800.0,169.70928955078125
2017-05-03,172.6300048828125,169.49000549316406,170.0500030517578,170.80999755859375,2625800.0,170.0777130126953
2017-05-04,168.0,162.3300018310547,165.52999877929688,165.6300048828125,3850400.0,164.91990661621094
2017-05-05,170.35000610351562,165.77000427246094,166.32000732421875,169.61000061035156,2424700.0,168.88284301757812
2017-05-08,173.0399932861328,169.17999267578125,169.6199951171875,172.4600067138672,2231600.0,171.7206268310547
2017-05-09,172.8699951171875,168.91000366210938,172.33999633789062,169.47999572753906,1135700.0,168.75341796875
2017-05-10,173.02999877929688,169.4199981689453,170.5,171.27000427246094,1538500.0,170.5357208251953
2017-05-11,172.89999389648438,170.50999450683594,172.69000244140625,171.25999450683594,1455500.0,170.52577209472656
2017-05-12,172.72000122070312,170.00999450683594,170.85000610351562,171.63999938964844,1305600.0,170.90415954589844
2017-05-15,175.66000366210938,173.3000030517578,175.11000061035156,173.85000610351562,1713800.0,173.1046600341797
2017-05-16,175.52999877929688,173.49000549316406,174.35000610351562,174.7899932861328,1869000.0,174.0406494140625
2017-05-17,175.5500030517578,172.5500030517578,174.7899932861328,173.24000549316406,1788400.0,172.49728393554688
2017-05-18,173.9600067138672,171.22000122070312,172.2100067138672,172.75,1586900.0,172.00938415527344
2017-05-19,177.86000061035156,172.99000549316406,173.7100067138672,176.6199951171875,1960200.0,175.86279296875
2017-05-22,177.6699981689453,173.0500030517578,177.6699981689453,173.55999755859375,1228200.0,172.81591796875
2017-05-23,174.14999389648438,171.52000427246094,173.0,173.74000549316406,1207500.0,172.99514770507812
2017-05-24,174.69000244140625,172.27999877929688,173.89999389648438,173.66000366210938,1200100.0,172.91549682617188
2017-05-25,174.97000122070312,167.11000061035156,172.5500030517578,168.6199951171875,1613000.0,167.8970947265625
2017-05-26,170.5800018310547,168.0800018310547,169.17999267578125,170.24000549316406,1109600.0,169.51014709472656
2017-05-30,169.02000427246094,165.0,168.80999755859375,165.0800018310547,1627300.0,164.37228393554688
2017-05-31,167.11000061035156,162.5399932861328,163.60000610351562,166.86000061035156,2305700.0,166.14463806152344
2017-06-01,168.6300048828125,165.64999389648438,167.47999572753906,166.97000122070312,1303400.0,166.25418090820312
2017-06-02,166.66000366210938,163.52000427246094,165.66000366210938,164.8800048828125,1605000.0,164.17312622070312
2017-06-05,166.10000610351562,163.8000030517578,164.4199981689453,165.50999450683594,1148900.0,164.80043029785156
2017-06-06,168.9499969482422,164.27999877929688,164.80999755859375,168.7100067138672,1565200.0,167.98670959472656
2017-06-07,168.9199981689453,164.0,167.7899932861328,164.9600067138672,2019300.0,164.25279235839844
2017-06-08,166.42999267578125,163.1300048828125,164.9600067138672,163.42999267578125,1628800.0,162.7293243408203
2017-06-09,169.7100067138672,163.92999267578125,164.05999755859375,169.4499969482422,1626000.0,168.72352600097656
2017-06-12,172.39999389648438,167.80999755859375,171.14999389648438,167.80999755859375,1998400.0,167.09054565429688
2017-06-13,169.44000244140625,166.52000427246094,167.85000610351562,168.75,1552200.0,168.0265350341797
2017-06-14,167.57000732421875,161.6300048828125,167.49000549316406,164.86000061035156,2466700.0,164.1531982421875
2017-06-15,164.4199981689453,156.30999755859375,164.17999267578125,158.02000427246094,2998700.0,157.34254455566406
2017-06-16,159.07000732421875,155.8300018310547,158.63999938964844,158.7899932861328,2575900.0,158.10923767089844
2017-06-19,161.1300048828125,158.1999969482422,158.89999389648438,158.7899932861328,1686900.0,158.10923767089844
2017-06-20,158.47000122070312,153.4199981689453,155.7100067138672,157.8800048828125,1998600.0,157.20315551757812
2017-06-21,160.02999877929688,153.6999969482422,157.57000732421875,155.02999877929688,1868000.0,154.3653564453125
2017-06-22,158.25,154.07000732421875,155.27999877929688,154.75,1586300.0,154.0865478515625
2017-06-23,156.6300048828125,154.44000244140625,154.72000122070312,155.92999267578125,1836200.0,155.26148986816406
2017-06-26,156.91000366210938,154.10000610351562,156.85000610351562,155.2100067138672,1172500.0,154.54458618164062
2017-06-27,156.89999389648438,153.97999572753906,156.14999389648438,154.27000427246094,1699800.0,153.60861206054688
2017-06-28,156.9499969482422,153.5,154.49000549316406,155.66000366210938,2257300.0,154.99266052246094
2017-06-29,159.50999450683594,155.72000122070312,156.25,158.47000122070312,2183700.0,157.7906036376953
2017-06-30,160.8699951171875,157.9499969482422,159.44000244140625,159.5800018310547,1500900.0,158.89584350585938
2017-07-03,163.4600067138672,158.77999877929688,160.39999389648438,162.77000427246094,961500.0,162.07217407226562
2017-07-05,161.97000122070312,158.0399932861328,161.5,159.41000366210938,1305300.0,158.72659301757812
2017-07-06,160.8000030517578,156.4199981689453,159.67999267578125,156.99000549316406,1371700.0,156.31695556640625
2017-07-07,156.5800018310547,153.10000610351562,155.97999572753906,156.02999877929688,1104100.0,155.36106872558594
2017-07-10,158.8699951171875,155.22000122070312,155.57000732421875,158.47000122070312,892800.0,157.7906036376953
2017-07-11,160.83999633789062,156.85000610351562,158.47999572753906,160.3800048828125,1447200.0,159.6924285888672
2017-07-12,163.44000244140625,159.3800048828125,162.19000244140625,160.11000061035156,1479300.0,159.423583984375
2017-07-13,161.9600067138672,159.39999389648438,159.97000122070312,160.64999389648438,943800.0,159.9612579345703
2017-07-14,162.4499969482422,160.52000427246094,160.8699951171875,160.94000244140625,670500.0,160.25001525878906
2017-07-17,162.9600067138672,160.25,160.27000427246094,162.8300018310547,1191900.0,162.13192749023438
2017-07-18,164.0,159.89999389648438,164.0,161.5,966200.0,160.8076171875
2017-07-19,164.36000061035156,160.99000549316406,160.99000549316406,163.94000244140625,1669100.0,163.2371826171875
2017-07-20,166.2899932861328,163.05999755859375,164.83999633789062,163.27999877929688,1522100.0,162.57998657226562
2017-07-21,163.8699951171875,159.97999572753906,163.07000732421875,160.2100067138672,1359400.0,159.5231475830078
2017-07-24,162.0,159.8699951171875,160.6699981689453,160.10000610351562,1082900.0,159.41363525390625
2017-07-25,165.0,162.17999267578125,162.8699951171875,162.60000610351562,1444900.0,161.90289306640625
2017-07-26,165.47000122070312,162.3800048828125,163.44000244140625,162.60000610351562,1083000.0,161.90289306640625
2017-07-27,163.9499969482422,161.5,162.3800048828125,163.89999389648438,1224600.0,163.19732666015625
2017-07-28,166.05999755859375,161.22999572753906,163.89999389648438,161.41000366210938,1663100.0,160.718017578125
2017-07-31,164.50999450683594,160.25999450683594,160.77999877929688,163.10000610351562,1450400.0,162.4007568359375
2017-08-01,164.75,161.88999938964844,163.2899932861328,163.27000427246094,1429500.0,162.5700225830078
2017-08-02,163.27000427246094,137.3000030517578,163.27000427246094,145.67999267578125,12787200.0,145.05543518066406
2017-08-03,146.11000061035156,134.67999267578125,145.72000122070312,135.1199951171875,6881400.0,134.54071044921875
2017-08-04,135.52000427246094,130.3800048828125,135.0,135.33999633789062,7267400.0,134.759765625
2017-08-07,134.9600067138672,128.5,134.39999389648438,129.63999938964844,3842000.0,129.08421325683594
2017-08-08,136.05999755859375,129.25,130.3800048828125,135.3800048828125,5585500.0,134.79962158203125
2017-08-09,137.63999938964844,134.85000610351562,135.6999969482422,137.5500030517578,3992800.0,136.96029663085938
2017-08-10,138.19000244140625,134.7100067138672,137.5500030517578,135.25999450683594,2191100.0,134.68011474609375
2017-08-11,136.1300048828125,133.50999450683594,134.60000610351562,134.02000427246094,1500100.0,133.4454345703125
2017-08-14,134.5,132.58999633789062,134.07000732421875,132.83999633789062,1374400.0,132.27047729492188
2017-08-15,134.22999572753906,132.0,133.30999755859375,133.6999969482422,1770900.0,133.1267852783203
2017-08-16,134.92999267578125,130.61000061035156,134.14999389648438,131.6300048828125,1488700.0,131.06568908691406
2017-08-17,132.83999633789062,131.13999938964844,131.22000122070312,131.27000427246094,1615400.0,130.70721435546875
2017-08-18,133.1999969482422,130.5500030517578,131.36000061035156,131.9499969482422,1271000.0,131.38429260253906
2017-08-21,132.13999938964844,127.83999633789062,131.5,127.94000244140625,2213400.0,127.39149475097656
2017-08-22,129.72999572753906,127.44000244140625,128.11000061035156,128.05999755859375,1861000.0,127.51097869873047
2017-08-23,130.86000061035156,127.97000122070312,128.1199951171875,129.7100067138672,1284400.0,129.15390014648438
2017-08-24,129.52000427246094,127.68000030517578,129.32000732421875,128.41000366210938,970400.0,127.8594970703125
2017-08-25,129.91000366210938,127.55999755859375,129.0,129.1999969482422,1266800.0,128.6460723876953
2017-08-28,129.1300048828125,125.93000030517578,128.9199981689453,128.4600067138672,1525700.0,127.9092788696289
2017-08-29,128.16000366210938,125.45999908447266,127.08000183105469,127.95999908447266,1677900.0,127.41141510009766
2017-08-30,130.1699981689453,126.5,127.62999725341797,128.8000030517578,1366300.0,128.247802734375
2017-08-31,130.69000244140625,128.50999450683594,129.82000732421875,129.64999389648438,1296700.0,129.09414672851562
2017-09-01,131.75,128.6999969482422,130.0,130.63999938964844,1204600.0,130.07992553710938
2017-09-05,133.07000732421875,130.1199951171875,131.6699981689453,131.1300048828125,1152100.0,130.5678253173828
2017-09-06,134.10000610351562,131.77000427246094,132.44000244140625,133.0800018310547,1648700.0,132.50946044921875
2017-09-07,133.0399932861328,130.88999938964844,132.7899932861328,131.77999877929688,1258100.0,131.2150421142578
2017-09-08,131.42999267578125,127.26000213623047,131.3699951171875,128.5,1870000.0,127.94908142089844
2017-09-11,130.74000549316406,127.95999908447266,128.97999572753906,129.69000244140625,1489800.0,129.13401794433594
2017-09-12,131.36000061035156,129.35000610351562,129.69000244140625,129.9199981689453,1227100.0,129.36302185058594
2017-09-13,136.00999450683594,130.44000244140625,130.44000244140625,135.50999450683594,2359000.0,134.92904663085938
2017-09-14,138.25999450683594,136.11000061035156,136.52000427246094,136.92999267578125,2761400.0,136.3429412841797
2017-09-15,137.35000610351562,135.49000549316406,137.0800018310547,136.92999267578125,2246900.0,136.3429412841797
2017-09-18,137.36000061035156,135.30999755859375,135.8699951171875,137.0,1217500.0,136.41265869140625
2017-09-19,137.49000549316406,136.2100067138672,137.1300048828125,137.08999633789062,1032100.0,136.50225830078125
2017-09-20,141.42999267578125,137.5,137.5,141.27000427246094,2025300.0,140.6643524169922
2017-09-21,142.3800048828125,140.22999572753906,141.0500030517578,142.00999450683594,2056100.0,141.4011688232422
2017-09-22,144.13999938964844,141.14999389648438,141.2100067138672,144.00999450683594,1546200.0,143.39259338378906
2017-09-25,147.1699981689453,144.66000366210938,144.66000366210938,146.66000366210938,3300900.0,146.03125
2017-09-26,148.24000549316406,144.9199981689453,145.8300018310547,147.5800018310547,1714400.0,146.94729614257812
2017-09-27,149.6199951171875,146.8800048828125,148.27999877929688,149.5800018310547,2514000.0,148.938720703125
2017-09-28,150.6699981689453,146.7899932861328,149.5500030517578,147.5500030517578,1425200.0,146.9567108154297
2017-09-29,148.05999755859375,145.1999969482422,146.97000122070312,147.5399932861328,1290700.0,146.94676208496094
2017-10-02,151.32000732421875,144.5,145.69000244140625,151.2899932861328,2023700.0,150.68167114257812
2017-10-03,154.1699981689453,150.2100067138672,151.0,153.00999450683594,2246700.0,152.39474487304688
2017-10-04,153.2899932861328,150.57000732421875,152.50999450683594,151.75999450683594,1875900.0,151.1497802734375
2017-10-05,152.88999938964844,150.27999877929688,152.10000610351562,151.16000366210938,1338100.0,150.55221557617188
2017-10-06,150.72999572753906,149.11000061035156,149.88999938964844,150.47000122070312,1215600.0,149.86497497558594
2017-10-09,151.44000244140625,149.5800018310547,150.6699981689453,150.9600067138672,946100.0,150.35301208496094
2017-10-10,152.77000427246094,150.27000427246094,152.25,150.6699981689453,2014600.0,150.0641632080078
2017-10-11,150.69000244140625,147.9199981689453,150.66000366210938,149.00999450683594,1681000.0,148.41082763671875
2017-10-12,149.7899932861328,145.9499969482422,147.6699981689453,146.24000549316406,2473100.0,145.65199279785156
2017-10-13,147.89999389648438,143.75,147.7100067138672,143.9199981689453,2272700.0,143.34132385253906
2017-10-16,145.64999389648438,142.8800048828125,145.08999633789062,143.69000244140625,1906200.0,143.11224365234375
2017-10-17,145.52999877929688,142.36000061035156,143.6999969482422,145.35000610351562,1525700.0,144.76556396484375
2017-10-18,147.6300048828125,144.83999633789062,145.75,145.08999633789062,1363300.0,144.50660705566406
2017-10-19,146.00999450683594,142.52999877929688,143.33999633789062,142.97999572753906,1365600.0,142.40509033203125
2017-10-20,145.75999450683594,142.9600067138672,143.69000244140625,144.75,2176800.0,144.16796875
2017-10-23,145.69000244140625,143.86000061035156,145.69000244140625,143.92999267578125,1901700.0,143.3512725830078
2017-10-24,145.32000732421875,142.7100067138672,144.42999267578125,143.22000122070312,1402100.0,142.6441192626953
2017-10-25,143.42999267578125,140.30999755859375,142.32000732421875,142.16000366210938,1469800.0,141.58839416503906
2017-10-26,143.57000732421875,141.35000610351562,142.5,142.30999755859375,1421700.0,141.73779296875
2017-10-27,146.44000244140625,140.64999389648438,141.97999572753906,145.3800048828125,1259700.0,144.7954559326172
2017-10-30,147.10000610351562,145.2100067138672,145.52000427246094,146.25999450683594,1598100.0,145.67190551757812
2017-10-31,150.5399932861328,146.50999450683594,146.6199951171875,149.6699981689453,2810200.0,149.06820678710938
2017-11-01,155.25,150.6699981689453,150.9199981689453,153.97000122070312,2663000.0,153.35092163085938
2017-11-02,154.86000061035156,144.1300048828125,153.5399932861328,147.8000030517578,3416400.0,147.20571899414062
2017-11-03,152.25,147.27000427246094,147.52000427246094,150.2899932861328,2152000.0,149.68568420410156
2017-11-06,158.97999572753906,151.0,151.32000732421875,158.8000030517578,2976600.0,158.16148376464844
2017-11-07,161.91000366210938,157.3699951171875,159.5,161.6699981689453,3331800.0,161.01992797851562
2017-11-08,162.52000427246094,158.89999389648438,160.80999755859375,159.57000732421875,1955200.0,158.9283905029297
2017-11-09,161.8000030517578,158.35000610351562,158.66000366210938,161.13999938964844,2136200.0,160.4920654296875
2017-11-10,161.5399932861328,158.24000549316406,160.57000732421875,158.92999267578125,1394600.0,158.29095458984375
2017-11-13,159.83999633789062,156.3800048828125,158.82000732421875,156.9199981689453,1266400.0,156.28904724121094
2017-11-14,156.67999267578125,152.38999938964844,156.39999389648438,152.80999755859375,1859800.0,152.195556640625
2017-11-15,151.97999572753906,148.10000610351562,151.3000030517578,151.50999450683594,1660700.0,150.9008026123047
2017-11-16,152.22999572753906,149.8300018310547,151.58999633789062,151.0399932861328,955500.0,150.43267822265625
2017-11-17,153.2899932861328,150.94000244140625,151.42999267578125,152.22000122070312,952600.0,151.60794067382812
2017-11-20,152.32000732421875,150.61000061035156,151.86000061035156,151.50999450683594,1030200.0,150.9008026123047
2017-11-21,153.33999633789062,151.3800048828125,152.58999633789062,152.22999572753906,1043300.0,151.61788940429688
2017-11-22,155.4199981689453,152.72000122070312,153.5500030517578,154.0800018310547,1044200.0,153.46046447753906
2017-11-24,155.8699951171875,154.10000610351562,155.32000732421875,154.10000610351562,372900.0,153.4803924560547
2017-11-27,153.60000610351562,148.99000549316406,153.60000610351562,150.5800018310547,1379600.0,149.9745330810547
2017-11-28,151.61000061035156,149.52999877929688,150.77000427246094,151.08999633789062,899200.0,150.48248291015625
2017-11-29,153.3300018310547,149.50999450683594,151.52000427246094,151.16000366210938,917200.0,150.55221557617188
2017-11-30,156.82000732421875,151.80999755859375,152.67999267578125,156.0399932861328,1915700.0,155.41256713867188
2017-12-01,160.2100067138672,156.08999633789062,157.24000549316406,157.16000366210938,1635000.0,156.528076171875
2017-12-04,158.75,155.77000427246094,156.52000427246094,156.35000610351562,1523900.0,155.72132873535156
2017-12-05,157.19000244140625,153.25999450683594,156.3699951171875,153.86000061035156,1395800.0,153.24134826660156
2017-12-06,153.91000366210938,150.0399932861328,153.39999389648438,150.66000366210938,1077900.0,150.05422973632812
2017-12-07,154.50999450683594,150.1999969482422,150.6300048828125,154.25,1302500.0,153.62979125976562
2017-12-08,156.77999877929688,154.7100067138672,155.39999389648438,155.89999389648438,1165500.0,155.27313232421875
2017-12-11,159.80999755859375,155.9499969482422,155.9499969482422,158.6699981689453,1766100.0,158.03199768066406
2017-12-12,160.0,156.82000732421875,159.16000366210938,158.99000549316406,1248000.0,158.35072326660156
2017-12-13,159.69000244140625,156.1199951171875,159.08999633789062,157.05999755859375,947100.0,156.428466796875
2017-12-14,158.6199951171875,156.5399932861328,156.75,156.5800018310547,895500.0,155.95040893554688
2017-12-15,157.99000549316406,155.47000122070312,157.67999267578125,155.8300018310547,1781500.0,155.2034149169922
2017-12-18,160.41000366210938,155.5500030517578,156.2899932861328,159.30999755859375,1559500.0,158.66943359375
2017-12-19,161.0,158.8000030517578,160.27999877929688,160.1999969482422,1318100.0,159.5558624267578
2017-12-20,167.3300018310547,159.25999450683594,161.0,167.1999969482422,1858500.0,166.5277099609375
2017-12-21,169.4499969482422,165.67999267578125,167.1999969482422,168.82000732421875,1376500.0,168.14120483398438
2017-12-22,173.72000122070312,168.6199951171875,169.3699951171875,171.1199951171875,1461700.0,170.43194580078125
2017-12-26,174.58999633789062,170.52000427246094,171.75,173.99000549316406,1406500.0,173.29042053222656
2017-12-27,174.24000549316406,171.49000549316406,174.1199951171875,172.44000244140625,927500.0,171.7466278076172
2017-12-28,173.19000244140625,171.1699981689453,172.5,172.5800018310547,730500.0,171.88607788085938
2017-12-29,174.11000061035156,171.77000427246094,173.4600067138672,172.85000610351562,1587000.0,172.15499877929688
2018-01-02,175.4499969482422,172.2899932861328,174.3000030517578,172.9199981689453,1777800.0,172.22471618652344
2018-01-03,178.1999969482422,173.14999389648438,174.36000061035156,176.33999633789062,3288600.0,175.63095092773438
2018-01-04,177.91000366210938,174.91000366210938,176.86000061035156,177.27000427246094,1552400.0,176.5572052001953
2018-01-05,176.8800048828125,174.88999938964844,176.38999938964844,176.50999450683594,1195100.0,175.80026245117188
2018-01-08,179.27999877929688,176.1300048828125,176.1300048828125,178.52999877929688,1595700.0,177.81214904785156
2018-01-09,179.85000610351562,177.75,178.8800048828125,177.9499969482422,1371800.0,177.23448181152344
2018-01-10,180.36000061035156,177.75999450683594,178.4600067138672,178.6999969482422,1414800.0,177.98146057128906
2018-01-11,187.5399932861328,178.6699981689453,179.5800018310547,184.1699981689453,2671800.0,183.4294891357422
2018-01-12,187.17999267578125,183.05999755859375,184.02000427246094,186.14999389648438,1357100.0,185.40150451660156
2018-01-16,186.7899932861328,182.4499969482422,186.5,182.50999450683594,1652800.0,181.77615356445312
2018-01-17,185.6300048828125,180.97000122070312,182.6199951171875,184.32000732421875,1441900.0,183.57887268066406
2018-01-18,186.75999450683594,183.25,184.5,184.3800048828125,1154600.0,183.63864135742188
2018-01-19,184.33999633789062,182.2899932861328,183.86000061035156,183.1699981689453,1668100.0,182.43350219726562
2018-01-22,186.50999450683594,183.42999267578125,184.4199981689453,186.3000030517578,1656900.0,185.55091857910156
2018-01-23,187.27000427246094,184.41000366210938,186.7899932861328,186.00999450683594,1567400.0,185.26206970214844
2018-01-24,188.88999938964844,184.66000366210938,184.8800048828125,188.3300018310547,1932400.0,187.57275390625
2018-01-25,189.9499969482422,186.6699981689453,189.0,188.5,1578400.0,187.74208068847656
2018-01-26,188.8699951171875,187.05999755859375,188.30999755859375,188.36000061035156,1247600.0,187.60263061523438
2018-01-29,189.5500030517578,186.08999633789062,186.9499969482422,187.0,1105800.0,186.2480926513672
2018-01-30,185.69000244140625,181.64999389648438,185.00999450683594,182.66000366210938,2094600.0,181.92556762695312
2018-01-31,185.17999267578125,181.97000122070312,183.0399932861328,182.91000366210938,2195400.0,182.17454528808594
2018-02-01,186.64999389648438,181.57000732421875,183.3000030517578,186.64999389648438,1382700.0,185.8994903564453
2018-02-02,184.7100067138672,177.50999450683594,184.2899932861328,178.74000549316406,2306500.0,178.0213165283203
2018-02-05,180.72000122070312,170.3300018310547,177.0,171.82000732421875,2425800.0,171.129150390625
2018-02-06,174.5,166.2100067138672,168.44000244140625,173.9499969482422,2657600.0,173.2505645751953
2018-02-07,184.6699981689453,175.64999389648438,181.77999877929688,176.1999969482422,3635600.0,175.4915313720703
2018-02-08,178.9600067138672,169.0,176.97000122070312,169.16000366210938,2886000.0,168.47982788085938
2018-02-09,171.64999389648438,159.42999267578125,170.72000122070312,165.0500030517578,2846600.0,164.38636779785156
2018-02-12,173.64999389648438,167.36000061035156,168.02000427246094,171.02999877929688,1981100.0,170.34230041503906
2018-02-13,172.72000122070312,169.4600067138672,170.50999450683594,172.1699981689453,1245800.0,171.4777374267578
2018-02-14,180.4499969482422,169.9600067138672,170.6999969482422,179.5,1690100.0,178.7782440185547
2018-02-15,179.91000366210938,174.50999450683594,179.4499969482422,179.58999633789062,1426400.0,178.86788940429688
2018-02-16,180.5399932861328,178.0800018310547,179.11000061035156,178.7899932861328,1243700.0,178.07110595703125
2018-02-20,180.64999389648438,177.49000549316406,179.5,178.25,980000.0,177.5332794189453
2018-02-21,178.8800048828125,174.6999969482422,178.02999877929688,174.72999572753906,1218400.0,174.0274200439453
2018-02-22,179.75999450683594,175.0,175.9600067138672,177.41000366210938,1102200.0,176.6966552734375
2018-02-23,180.02000427246094,177.3800048828125,178.0500030517578,180.0,1402400.0,179.2762451171875
2018-02-26,181.3800048828125,178.49000549316406,181.05999755859375,179.69000244140625,1146600.0,178.96749877929688
2018-02-27,180.07000732421875,174.47999572753906,179.3300018310547,174.6699981689453,1704300.0,173.96766662597656
2018-02-28,177.3800048828125,170.2100067138672,175.52000427246094,170.22999572753906,2113800.0,169.5455322265625
2018-03-01,172.41000366210938,166.58999633789062,170.86000061035156,169.16000366210938,1943100.0,168.47982788085938
2018-03-02,169.72999572753906,164.60000610351562,167.6300048828125,168.88999938964844,1821300.0,168.21090698242188
2018-03-05,172.33999633789062,167.8000030517578,168.35000610351562,171.69000244140625,1527600.0,170.99966430664062
2018-03-06,172.8000030517578,169.5500030517578,172.72999572753906,169.9600067138672,1503500.0,169.276611328125
2018-03-07,171.5,167.0800018310547,168.39999389648438,170.1699981689453,1911300.0,169.4857635498047
2018-03-08,171.85000610351562,167.30999755859375,170.8699951171875,167.67999267578125,1087600.0,167.00576782226562
2018-03-09,171.66000366210938,169.3300018310547,169.64999389648438,171.52999877929688,1068900.0,170.84030151367188
2018-03-12,172.5,169.75999450683594,171.5800018310547,171.19000244140625,925100.0,170.5016632080078
2018-03-13,172.5800018310547,168.7100067138672,172.5800018310547,169.55999755859375,977400.0,168.8782196044922
2018-03-14,170.36000061035156,168.52999877929688,169.83999633789062,169.0399932861328,868100.0,168.36029052734375
2018-03-15,171.1699981689453,165.33999633789062,170.39999389648438,166.57000732421875,912100.0,165.90023803710938
2018-03-16,170.49000549316406,166.52000427246094,166.75999450683594,169.33999633789062,1290800.0,168.65908813476562
2018-03-19,168.69000244140625,165.27999877929688,168.64999389648438,166.24000549316406,909300.0,165.57156372070312
2018-03-20,170.4199981689453,167.08999633789062,167.67999267578125,169.86000061035156,1200800.0,169.177001953125
2018-03-21,176.5800018310547,170.4199981689453,170.6999969482422,175.3699951171875,1810000.0,174.66485595703125
2018-03-22,174.74000549316406,171.72000122070312,172.99000549316406,172.33999633789062,997200.0,171.64703369140625
2018-03-23,176.97999572753906,172.1999969482422,174.22000122070312,172.47000122070312,1462100.0,171.77651977539062
2018-03-26,176.02000427246094,172.2899932861328,173.83999633789062,175.57000732421875,1109600.0,174.8640594482422
2018-03-27,176.88999938964844,170.6199951171875,176.44000244140625,171.75,1065200.0,171.05941772460938
2018-03-28,171.61000061035156,167.0399932861328,170.99000549316406,167.52000427246094,1950700.0,167.0019989013672
2018-03-29,172.14999389648438,168.47999572753906,168.97000122070312,171.77999877929688,2533800.0,171.2488250732422
2018-04-02,171.63999938964844,163.25,170.89999389648438,166.91000366210938,1455300.0,166.39389038085938
2018-04-03,170.0800018310547,164.6999969482422,167.97999572753906,169.4600067138672,1167300.0,168.93600463867188
2018-04-04,169.35000610351562,164.94000244140625,166.5500030517578,169.27999877929688,1346100.0,168.7565460205078
2018-04-05,174.30999755859375,169.64999389648438,170.0,172.42999267578125,1235300.0,171.8968048095703
2018-04-06,172.13999938964844,164.61000061035156,171.02000427246094,168.1300048828125,1617600.0,167.610107421875
2018-04-09,172.64999389648438,168.50999450683594,169.05999755859375,169.35000610351562,1417200.0,168.82635498046875
2018-04-10,179.77000427246094,171.14999389648438,171.72999572753906,178.32000732421875,2017800.0,177.7686004638672
2018-04-11,182.0800018310547,177.1300048828125,177.5800018310547,181.77999877929688,1644200.0,181.21791076660156
2018-04-12,185.0399932861328,180.58999633789062,183.36000061035156,182.61000061035156,1497400.0,182.0453338623047
2018-04-13,188.85000610351562,182.75999450683594,183.52000427246094,188.32000732421875,1904300.0,187.73768615722656
2018-04-16,191.88999938964844,187.1199951171875,190.0,191.1300048828125,1549400.0,190.5389862060547
2018-04-17,194.72999572753906,190.63999938964844,192.0,193.17999267578125,1148000.0,192.5826416015625
2018-04-18,196.47999572753906,192.3800048828125,195.32000732421875,194.4499969482422,1605000.0,193.84872436523438
2018-04-19,196.33999633789062,192.5500030517578,194.69000244140625,195.47000122070312,1321300.0,194.86557006835938
2018-04-20,196.1999969482422,192.88999938964844,194.05999755859375,194.9499969482422,1793400.0,194.34716796875
2018-04-23,197.80999755859375,192.6300048828125,193.83999633789062,197.35000610351562,1606300.0,196.73976135253906
2018-04-24,199.67999267578125,194.35000610351562,197.25,196.05999755859375,1446800.0,195.4537353515625
2018-04-25,199.0399932861328,194.64999389648438,196.14999389648438,198.89999389648438,1039800.0,198.2849578857422
2018-04-26,201.6300048828125,198.11000061035156,199.1199951171875,200.72999572753906,1026500.0,200.1092987060547
2018-04-27,200.99000549316406,197.83999633789062,199.16000366210938,199.2899932861328,937900.0,198.67373657226562
2018-04-30,204.5500030517578,198.61000061035156,198.97999572753906,201.5500030517578,1662000.0,200.92677307128906
2018-05-01,200.64999389648438,196.16000366210938,200.47999572753906,198.86000061035156,1615700.0,198.24508666992188
2018-05-02,200.27000427246094,195.2899932861328,197.8699951171875,196.3300018310547,1655200.0,195.72291564941406
2018-05-03,197.97999572753906,188.7899932861328,197.97999572753906,192.13999938964844,2507300.0,191.5458526611328
2018-05-04,194.75,190.19000244140625,191.75,194.19000244140625,1369900.0,193.58953857421875
2018-05-07,200.2899932861328,195.57000732421875,195.57000732421875,195.8000030517578,1762400.0,195.19454956054688
2018-05-08,198.25,190.3800048828125,195.8699951171875,197.64999389648438,1409100.0,197.038818359375
2018-05-09,205.0800018310547,200.0,200.3300018310547,201.52000427246094,1925600.0,200.89686584472656
2018-05-10,204.85000610351562,200.35000610351562,201.6999969482422,203.19000244140625,1308300.0,202.5616912841797
2018-05-11,203.77999877929688,200.80999755859375,203.19000244140625,202.1699981689453,1126400.0,201.5448455810547
2018-05-14,204.25999450683594,201.0800018310547,202.75,201.6199951171875,1029000.0,200.99655151367188
2018-05-15,203.11000061035156,199.36000061035156,200.99000549316406,203.0500030517578,819600.0,202.42213439941406
2018-05-16,206.85000610351562,201.85000610351562,202.75,206.0800018310547,1015100.0,205.44276428222656
2018-05-17,213.25999450683594,207.00999450683594,207.5800018310547,212.30999755859375,1372900.0,211.65350341796875
2018-05-18,213.39999389648438,208.80999755859375,212.3000030517578,209.63999938964844,1355000.0,208.99176025390625
2018-05-21,212.91000366210938,208.60000610351562,211.5500030517578,209.83999633789062,1385200.0,209.19113159179688
2018-05-22,210.4600067138672,201.7100067138672,210.0,202.67999267578125,1481500.0,202.0532684326172
2018-05-23,201.6300048828125,197.38999938964844,201.6300048828125,199.5,1717700.0,198.8831024169922
2018-05-24,197.83999633789062,192.75,196.22000122070312,193.22999572753906,1510200.0,192.6324920654297
2018-05-25,191.24000549316406,186.3300018310547,189.30999755859375,190.63999938964844,1899000.0,190.05050659179688
2018-05-29,191.9199981689453,188.6199951171875,189.0399932861328,190.8800048828125,1309900.0,190.28976440429688
2018-05-30,198.50999450683594,192.3699951171875,192.69000244140625,196.6199951171875,1652800.0,196.0120086669922
2018-05-31,198.61000061035156,192.97999572753906,195.08999633789062,193.10000610351562,1625100.0,192.50289916992188
2018-06-01,194.55999755859375,187.22000122070312,194.3699951171875,191.91000366210938,2392800.0,191.3165740966797
2018-06-04,194.99000549316406,189.6699981689453,193.14999389648438,190.64999389648438,1349400.0,190.0604705810547
2018-06-05,194.44000244140625,188.91000366210938,189.9499969482422,191.16000366210938,1361000.0,190.5688934326172
2018-06-06,192.27000427246094,187.1999969482422,191.47999572753906,190.97999572753906,1645900.0,190.3894500732422
2018-06-07,197.4199981689453,190.97000122070312,191.97000122070312,195.4199981689453,1924100.0,194.8157196044922
2018-06-08,196.3800048828125,191.88999938964844,195.1699981689453,193.24000549316406,1180100.0,192.64247131347656
2018-06-11,194.22999572753906,190.69000244140625,194.0,191.5399932861328,1368800.0,190.9477081298828
2018-06-12,194.89999389648438,191.02999877929688,191.6999969482422,192.9499969482422,1071600.0,192.35336303710938
2018-06-13,194.05999755859375,191.0800018310547,192.72999572753906,192.86000061035156,848400.0,192.26364135742188
2018-06-14,194.99000549316406,190.4600067138672,193.94000244140625,191.4499969482422,985400.0,190.85800170898438
2018-06-15,190.97000122070312,183.38999938964844,190.3699951171875,184.1999969482422,2508600.0,183.6304168701172
2018-06-18,187.19000244140625,183.38999938964844,183.8699951171875,184.60000610351562,2148500.0,184.02919006347656
2018-06-19,182.83999633789062,176.50999450683594,181.64999389648438,180.13999938964844,2335300.0,179.5829620361328
2018-06-20,183.5500030517578,179.57000732421875,182.13999938964844,183.24000549316406,1768600.0,182.67340087890625
2018-06-21,182.30999755859375,177.6699981689453,182.10000610351562,178.02000427246094,1473800.0,177.4695281982422
2018-06-22,186.42999267578125,183.69000244140625,185.0,185.64999389648438,3099400.0,185.075927734375
2018-06-25,186.61000061035156,180.83999633789062,185.91000366210938,182.27000427246094,1671700.0,181.70639038085938
2018-06-26,187.1999969482422,182.02000427246094,182.07000732421875,186.27999877929688,1521800.0,185.7039794921875
2018-06-27,195.0,187.7100067138672,188.57000732421875,192.8000030517578,2388000.0,192.20382690429688
2018-06-28,193.75999450683594,188.42999267578125,193.4499969482422,188.85000610351562,1320700.0,188.26605224609375
2018-06-29,192.11000061035156,188.91000366210938,189.86000061035156,189.24000549316406,1279600.0,188.6548309326172
2018-07-02,188.80999755859375,184.22000122070312,188.80999755859375,185.2100067138672,1189900.0,184.63729858398438
2018-07-03,190.3300018310547,184.9499969482422,188.41000366210938,186.19000244140625,941500.0,185.61427307128906
2018-07-05,188.30999755859375,182.0,188.14999389648438,183.3300018310547,1283300.0,182.7631072998047
2018-07-06,186.3000030517578,181.02000427246094,182.27000427246094,185.02000427246094,1392600.0,184.4478759765625
2018-07-09,189.42999267578125,184.89999389648438,186.6999969482422,189.24000549316406,1659900.0,188.6548309326172
2018-07-10,192.17999267578125,188.27999877929688,191.05999755859375,189.82000732421875,1521600.0,189.23304748535156
2018-07-11,188.3000030517578,181.10000610351562,186.8000030517578,182.58999633789062,1849100.0,182.025390625
2018-07-12,185.22000122070312,180.5,184.17999267578125,182.36000061035156,1447800.0,181.79611206054688
2018-07-13,186.22000122070312,181.66000366210938,182.05999755859375,184.5500030517578,1069600.0,183.97933959960938
2018-07-16,183.44000244140625,179.5,182.0500030517578,183.0,1351600.0,182.4341278076172
2018-07-17,183.9499969482422,180.02000427246094,182.64999389648438,182.63999938964844,1053200.0,182.0752410888672
2018-07-18,182.80999755859375,179.00999450683594,181.5,182.24000549316406,1117500.0,181.67648315429688
2018-07-19,183.63999938964844,180.5500030517578,182.36000061035156,182.97000122070312,1140500.0,182.4042205810547
2018-07-20,183.74000549316406,179.16000366210938,182.7100067138672,180.9499969482422,1482500.0,180.39047241210938
2018-07-23,182.82000732421875,180.14999389648438,182.63999938964844,181.30999755859375,1145000.0,180.74935913085938
2018-07-24,188.74000549316406,182.0500030517578,182.80999755859375,187.1699981689453,1381500.0,186.5912322998047
2018-07-25,189.1300048828125,186.0,187.1699981689453,188.64999389648438,1018100.0,188.066650390625
2018-07-26,189.16000366210938,186.80999755859375,188.6699981689453,188.4499969482422,1022300.0,187.86727905273438
2018-07-27,189.27000427246094,185.38999938964844,187.9199981689453,186.02000427246094,789700.0,185.44479370117188
2018-07-30,193.02999877929688,188.0,189.0,191.27000427246094,968800.0,190.67855834960938
2018-07-31,191.0800018310547,186.82000732421875,191.07000732421875,189.27000427246094,1334000.0,188.6847381591797
2018-08-01,188.33999633789062,184.19000244140625,187.33999633789062,187.66000366210938,998900.0,187.0797119140625
2018-08-02,189.4199981689453,184.88999938964844,186.5500030517578,188.5800018310547,958700.0,187.9968719482422
2018-08-03,188.3300018310547,181.22000122070312,188.30999755859375,184.11000061035156,1439700.0,183.5406951904297
2018-08-06,187.9499969482422,183.39999389648438,184.58999633789062,186.11000061035156,1069400.0,185.53451538085938
2018-08-07,188.75,186.0500030517578,187.6199951171875,186.57000732421875,1361300.0,185.99310302734375
2018-08-08,189.77000427246094,182.0500030517578,183.2899932861328,188.02999877929688,2220300.0,187.44857788085938
2018-08-09,189.0,185.2899932861328,188.02999877929688,185.64999389648438,1152100.0,185.075927734375
2018-08-10,188.00999450683594,185.1199951171875,185.75,186.13999938964844,1328500.0,185.56442260742188
2018-08-13,186.75,182.77999877929688,185.6699981689453,183.1199951171875,1206400.0,182.5537567138672
2018-08-14,187.17999267578125,182.3800048828125,185.4499969482422,183.33999633789062,966300.0,182.7730712890625
2018-08-15,182.39999389648438,171.5399932861328,181.99000549316406,173.69000244140625,2726400.0,173.15292358398438
2018-08-16,175.5399932861328,172.86000061035156,175.0399932861328,173.08999633789062,1525800.0,172.5547637939453
2018-08-17,175.10000610351562,172.10000610351562,174.22000122070312,173.1999969482422,1721600.0,172.6644287109375
2018-08-20,173.85000610351562,172.1199951171875,172.9499969482422,172.50999450683594,1307200.0,171.9765625
2018-08-21,176.27000427246094,173.24000549316406,174.02999877929688,173.74000549316406,1731900.0,173.2027587890625
2018-08-22,177.5500030517578,173.91000366210938,174.35000610351562,176.0500030517578,1365800.0,175.50563049316406
2018-08-23,176.3699951171875,174.36000061035156,175.00999450683594,174.86000061035156,982400.0,174.31930541992188
2018-08-24,178.41000366210938,175.57000732421875,176.9499969482422,176.0399932861328,911600.0,175.4956512451172
2018-08-27,178.58999633789062,175.5,176.3699951171875,177.38999938964844,1157400.0,176.8414764404297
2018-08-28,178.58999633789062,175.5,177.72000122070312,175.7899932861328,1356200.0,175.24642944335938
2018-08-29,176.86000061035156,174.8699951171875,176.86000061035156,175.6199951171875,1159600.0,175.0769500732422
2018-08-30,176.7899932861328,174.25999450683594,175.4199981689453,174.74000549316406,1143600.0,174.19967651367188
2018-08-31,175.27999877929688,172.61000061035156,173.72000122070312,174.6999969482422,1052000.0,174.1597900390625
2018-09-04,176.3800048828125,170.27000427246094,175.32000732421875,171.10000610351562,1233200.0,170.5709228515625
2018-09-05,169.91000366210938,167.6300048828125,169.6999969482422,169.22000122070312,1740700.0,168.69674682617188
2018-09-06,169.49000549316406,164.5,168.8300018310547,164.6300048828125,1537700.0,164.12094116210938
2018-09-07,163.92999267578125,160.8000030517578,163.92999267578125,162.19000244140625,2110100.0,161.6884765625
2018-09-10,164.57000732421875,162.2100067138672,163.52999877929688,163.22000122070312,2051500.0,162.7152862548828
2018-09-11,167.69000244140625,162.91000366210938,163.58999633789062,166.4199981689453,1935000.0,165.9053955078125
2018-09-12,171.77999877929688,168.27000427246094,168.52999877929688,169.97000122070312,1442200.0,169.4444122314453
2018-09-13,171.72000122070312,168.05999755859375,169.0,170.1699981689453,1343000.0,169.643798828125
2018-09-14,172.19000244140625,169.8800048828125,170.13999938964844,170.42999267578125,1237600.0,169.9029998779297
2018-09-17,173.74000549316406,170.6300048828125,172.2100067138672,171.11000061035156,1115700.0,170.58090209960938
2018-09-18,175.55999755859375,172.3699951171875,172.3699951171875,173.7899932861328,1479100.0,173.25259399414062
2018-09-19,175.3000030517578,172.97999572753906,174.2899932861328,174.0,769700.0,173.46194458007812
2018-09-20,175.0800018310547,170.02999877929688,174.8699951171875,171.38999938964844,1374600.0,170.8600311279297
2018-09-21,174.00999450683594,170.57000732421875,172.1199951171875,172.52000427246094,1534200.0,171.98654174804688
2018-09-24,178.13999938964844,172.94000244140625,175.6699981689453,174.85000610351562,1685000.0,174.309326171875
2018-09-25,178.5,175.72000122070312,175.89999389648438,177.3800048828125,1053500.0,176.83151245117188
2018-09-26,177.41000366210938,173.55999755859375,176.5,174.0,1304500.0,173.46194458007812
2018-09-27,176.0,171.92999267578125,175.0500030517578,172.0,1748700.0,171.62596130371094
2018-09-28,175.1999969482422,170.6199951171875,171.58999633789062,174.19000244140625,2811500.0,173.8112030029297
2018-10-01,178.88999938964844,174.2899932861328,175.11000061035156,178.22000122070312,1350300.0,177.83242797851562
2018-10-02,179.5500030517578,177.44000244140625,178.97000122070312,178.19000244140625,1225000.0,177.802490234375
2018-10-03,183.72000122070312,177.75999450683594,178.47999572753906,183.57000732421875,1799000.0,183.17080688476562
2018-10-04,183.9600067138672,179.6999969482422,182.94000244140625,181.17999267578125,1285600.0,180.78598022460938
2018-10-05,183.39999389648438,180.61000061035156,181.25,183.3800048828125,1078200.0,182.98121643066406
2018-10-08,182.92999267578125,179.97000122070312,181.94000244140625,181.83999633789062,1143300.0,181.44454956054688
2018-10-09,189.77999877929688,181.66000366210938,182.3800048828125,187.9199981689453,2097000.0,187.51133728027344
2018-10-10,187.60000610351562,179.1300048828125,186.77999877929688,179.3000030517578,1848800.0,178.9100799560547
2018-10-11,178.69000244140625,170.2100067138672,178.5,171.66000366210938,1972800.0,171.2866973876953
2018-10-12,175.8800048828125,169.83999633789062,175.0,173.5399932861328,1318100.0,173.16259765625
2018-10-15,175.63999938964844,172.67999267578125,173.9499969482422,173.2899932861328,1145000.0,172.91314697265625
2018-10-16,174.52999877929688,171.8699951171875,174.1300048828125,173.55999755859375,1374100.0,173.18255615234375
2018-10-17,172.97999572753906,168.10000610351562,172.6699981689453,170.17999267578125,1274600.0,169.80990600585938
2018-10-18,169.08999633789062,165.67999267578125,167.6199951171875,167.89999389648438,1362600.0,167.5348663330078
2018-10-19,171.1999969482422,166.42999267578125,168.91000366210938,166.77999877929688,928100.0,166.4173126220703
2018-10-22,166.89999389648438,162.02999877929688,166.3300018310547,163.02000427246094,1462600.0,162.6654815673828
2018-10-23,160.4600067138672,155.83999633789062,159.13999938964844,158.97999572753906,1869900.0,158.63426208496094
2018-10-24,161.30999755859375,149.69000244140625,160.22999572753906,149.97999572753906,2424600.0,149.65383911132812
2018-10-25,155.08999633789062,150.99000549316406,152.27999877929688,153.61000061035156,1754800.0,153.2759552001953
2018-10-26,152.8800048828125,148.25999450683594,151.0,149.66000366210938,2349000.0,149.3345489501953
2018-10-29,150.36000061035156,140.5399932861328,150.22000122070312,143.0800018310547,2195600.0,142.7688446044922
2018-10-30,146.17999267578125,141.86000061035156,142.27000427246094,145.77999877929688,1673300.0,145.46298217773438
2018-10-31,150.6300048828125,145.72999572753906,147.77000427246094,147.27000427246094,2253000.0,146.94973754882812
2018-11-01,151.88999938964844,146.74000549316406,147.42999267578125,149.5800018310547,1488700.0,149.2547149658203
2018-11-02,152.4499969482422,145.85000610351562,150.8699951171875,146.89999389648438,1389800.0,146.58053588867188
2018-11-05,150.13999938964844,145.41000366210938,149.05999755859375,148.27999877929688,1398600.0,147.95753479003906
2018-11-06,150.44000244140625,144.58999633789062,148.97999572753906,148.52000427246094,2995400.0,148.197021484375
2018-11-07,162.30999755859375,154.47000122070312,155.9499969482422,161.7100067138672,3645700.0,161.35833740234375
2018-11-08,162.1999969482422,156.35000610351562,161.05999755859375,156.50999450683594,2094600.0,156.1696319580078
2018-11-09,160.60000610351562,152.47000122070312,153.61000061035156,159.82000732421875,1701000.0,159.4724578857422
2018-11-12,161.89999389648438,154.0800018310547,161.61000061035156,154.32000732421875,1618200.0,153.98440551757812
2018-11-13,156.2100067138672,149.0,154.32000732421875,150.3000030517578,1680500.0,149.97314453125
2018-11-14,155.6199951171875,149.02000427246094,153.92999267578125,150.67999267578125,1812700.0,150.35231018066406
2018-11-15,155.16000366210938,149.80999755859375,150.36000061035156,154.86000061035156,1539100.0,154.52322387695312
2018-11-16,157.86000061035156,154.6199951171875,155.6699981689453,156.49000549316406,1064200.0,156.14968872070312
2018-11-19,157.7100067138672,153.00999450683594,154.8000030517578,157.17999267578125,1065100.0,156.8381805419922
2018-11-20,154.35000610351562,149.69000244140625,153.8800048828125,151.13999938964844,1582000.0,150.8113250732422
2018-11-21,156.0,151.5800018310547,151.77000427246094,153.9600067138672,1292300.0,153.6251983642578
2018-11-23,148.94000244140625,145.5,148.5,147.1699981689453,874600.0,146.84994506835938
2018-11-26,152.9600067138672,149.25999450683594,149.25999450683594,150.24000549316406,1152100.0,149.9132843017578
2018-11-27,151.9499969482422,145.9600067138672,149.77999877929688,147.1199951171875,1633000.0,146.80006408691406
2018-11-28,148.4499969482422,145.22000122070312,147.1300048828125,147.89999389648438,1263000.0,147.57835388183594
2018-11-29,151.3000030517578,148.25999450683594,148.32000732421875,149.1699981689453,1418200.0,148.84559631347656
2018-11-30,150.0,145.77000427246094,147.57000732421875,147.75,2084800.0,147.42869567871094
2018-12-03,154.8300018310547,151.50999450683594,152.22999572753906,153.3800048828125,1543600.0,153.04644775390625
2018-12-04,154.1699981689453,145.00999450683594,153.38999938964844,145.67999267578125,1661200.0,145.36318969726562
2018-12-06,142.6199951171875,135.24000549316406,141.27999877929688,142.6199951171875,2534000.0,142.30984497070312
2018-12-07,150.75,142.24000549316406,146.16000366210938,143.0,2265600.0,142.68902587890625
2018-12-10,143.5500030517578,137.5800018310547,141.32000732421875,140.55999755859375,1687900.0,140.2543182373047
2018-12-11,144.05999755859375,138.3000030517578,143.32000732421875,138.6699981689453,2012800.0,138.36843872070312
2018-12-12,144.19000244140625,140.1300048828125,141.6300048828125,140.36000061035156,1685100.0,140.0547637939453
2018-12-13,140.5500030517578,136.5500030517578,139.83999633789062,138.60000610351562,2222100.0,138.29859924316406
2018-12-14,141.05999755859375,136.38999938964844,139.25,137.13999938964844,2291300.0,136.84176635742188
2018-12-17,138.02000427246094,132.60000610351562,135.63999938964844,133.42999267578125,1945700.0,133.13983154296875
2018-12-18,135.22000122070312,130.8300018310547,133.89999389648438,132.07000732421875,2433800.0,131.7827911376953
2018-12-19,137.72999572753906,131.77999877929688,132.72999572753906,132.57000732421875,2512700.0,132.28170776367188
2018-12-20,134.5500030517578,127.94999694824219,130.25,128.6199951171875,2341500.0,128.3402862548828
2018-12-21,129.3000030517578,124.47000122070312,127.8499984741211,125.08000183105469,3277000.0,124.80799102783203
2018-12-24,124.52999877929688,120.44999694824219,123.6500015258789,120.51000213623047,1164000.0,120.24793243408203
2018-12-26,130.0800018310547,119.08000183105469,122.08999633789062,130.02999877929688,1983700.0,129.74722290039062
2018-12-27,130.11000061035156,124.45999908447266,127.29000091552734,130.0800018310547,1786400.0,129.797119140625
2018-12-28,131.61000061035156,127.02999877929688,130.9600067138672,130.50999450683594,2700600.0,130.22618103027344
2018-12-31,133.27000427246094,129.9199981689453,130.97000122070312,131.52000427246094,1493100.0,131.23399353027344
