Date,High,Low,Open,Close,Volume,Adj Close
2017-05-03,107.26000213623047,105.12999725341797,105.36000061035156,106.72000122070312,5663000.0,98.78199768066406
2017-05-04,106.33000183105469,104.13999938964844,106.23999786376953,104.80999755859375,8039900.0,97.01406860351562
2017-05-05,105.88999938964844,104.69999694824219,104.91999816894531,105.79000091552734,5060000.0,97.92118072509766
2017-05-08,106.72000122070312,105.81999969482422,105.93000030517578,106.68000030517578,5175100.0,98.74496459960938
2017-05-09,106.75,104.81999969482422,106.51000213623047,105.08000183105469,5024000.0,97.26399230957031
2017-05-10,106.83000183105469,105.54000091552734,105.81999969482422,106.5,5582800.0,98.578369140625
2017-05-11,107.08000183105469,105.62999725341797,107.08000183105469,106.20999908447266,4632100.0,98.30992889404297
2017-05-12,106.29000091552734,105.4800033569336,106.05999755859375,105.95999908447266,4488200.0,98.07852172851562
2017-05-15,107.70999908447266,106.68000030517578,107.1500015258789,106.8499984741211,6647500.0,98.90234375
2017-05-16,107.66000366210938,106.94000244140625,107.56999969482422,107.25,5001400.0,99.27257537841797
2017-05-17,106.2699966430664,104.62000274658203,106.16999816894531,104.69999694824219,6384300.0,97.89807891845703
2017-05-18,105.68000030517578,103.83999633789062,104.55000305175781,105.16999816894531,5618100.0,98.3375473022461
2017-05-19,106.5199966430664,105.16999816894531,105.5199966430664,106.5199966430664,8383500.0,99.59983825683594
2017-05-22,107.08999633789062,105.75,107.08999633789062,106.12000274658203,4491100.0,99.225830078125
2017-05-23,106.55999755859375,105.9800033569336,106.06999969482422,106.2699966430664,3457100.0,99.36608123779297
2017-05-24,106.36000061035156,105.7300033569336,106.0999984741211,106.22000122070312,3457200.0,99.3193359375
2017-05-25,106.70999908447266,104.72000122070312,106.0999984741211,105.11000061035156,5293800.0,98.28144836425781
2017-05-26,105.29000091552734,104.5999984741211,105.05000305175781,104.72000122070312,3752500.0,97.91677856445312
2017-05-30,104.70999908447266,103.75,104.3499984741211,104.05999755859375,4288000.0,97.29966735839844
2017-05-31,103.88999938964844,103.06999969482422,103.55000305175781,103.4800033569336,8037900.0,96.7573471069336
2017-06-01,104.27999877929688,103.43000030517578,103.69000244140625,104.2699966430664,4769400.0,97.49600982666016
2017-06-02,103.94000244140625,102.7699966430664,103.81999969482422,103.11000061035156,5864000.0,96.41136932373047
2017-06-05,103.58000183105469,102.62999725341797,102.80000305175781,103.19000244140625,4523300.0,96.48619079589844
2017-06-06,104.44999694824219,102.76000213623047,103.11000061035156,104.16999816894531,4683900.0,97.40251159667969
2017-06-07,104.43000030517578,102.55000305175781,103.97000122070312,103.7699966430664,7197100.0,97.02849578857422
2017-06-08,104.73999786376953,103.44000244140625,103.7699966430664,104.0,6457800.0,97.24354553222656
2017-06-09,106.48999786376953,104.01000213623047,104.01000213623047,106.4000015258789,6595600.0,99.48764038085938
2017-06-12,108.43000030517578,106.4000015258789,106.4000015258789,108.04000091552734,8690600.0,101.0210952758789
2017-06-13,108.48999786376953,107.16000366210938,108.33999633789062,108.12999725341797,6099700.0,101.10523986816406
2017-06-14,107.98999786376953,105.73999786376953,107.91000366210938,106.5999984741211,6202300.0,99.67465209960938
2017-06-15,106.80000305175781,105.87000274658203,106.5,106.33000183105469,5441400.0,99.42218780517578
2017-06-16,108.36000061035156,106.20999908447266,106.94000244140625,108.3499984741211,11633900.0,101.31095886230469
2017-06-19,108.37999725341797,107.13999938964844,108.30999755859375,107.45999908447266,4577800.0,100.47877502441406
2017-06-20,106.5999984741211,105.37999725341797,106.25,106.4800033569336,5171200.0,99.56243896484375
2017-06-21,106.9000015258789,103.91999816894531,105.88999938964844,104.48999786376953,6989400.0,97.70172119140625
2017-06-22,105.13999938964844,104.04000091552734,104.4800033569336,104.44999694824219,4197400.0,97.664306640625
2017-06-23,105.41999816894531,104.23999786376953,104.25,105.0,5773300.0,98.1785888671875
2017-06-26,105.19000244140625,104.02999877929688,105.02999877929688,104.13999938964844,3602500.0,97.37446594238281
2017-06-27,104.88999938964844,104.02999877929688,104.7300033569336,104.06999969482422,4170300.0,97.30901336669922
2017-06-28,104.9000015258789,104.04000091552734,104.43000030517578,104.27999877929688,4162300.0,97.50536346435547
2017-06-29,105.1500015258789,104.05000305175781,104.37999725341797,104.12000274658203,4288600.0,97.35576629638672
2017-06-30,104.72000122070312,103.88999938964844,104.52999877929688,104.33000183105469,5497000.0,97.5521240234375
2017-07-03,106.95999908447266,104.23999786376953,104.23999786376953,106.30000305175781,4419100.0,99.39413452148438
2017-07-05,106.30000305175781,104.2699966430664,105.98999786376953,104.62000274658203,4482700.0,97.82327270507812
2017-07-06,105.12999725341797,103.70999908447266,104.66999816894531,103.81999969482422,5084800.0,97.07524108886719
2017-07-07,103.76000213623047,102.80999755859375,103.58999633789062,103.48999786376953,6457000.0,96.76668548583984
2017-07-10,103.58000183105469,102.5999984741211,103.44000244140625,103.04000091552734,4629000.0,96.34591674804688
2017-07-11,103.5,102.55000305175781,103.1500015258789,103.12000274658203,4322400.0,96.42072296142578
2017-07-12,104.75,103.47000122070312,104.0,103.88999938964844,3978100.0,97.14070892333984
2017-07-13,104.20999908447266,103.45999908447266,103.80000305175781,104.12999725341797,4439100.0,97.36510467529297
2017-07-14,104.63999938964844,103.7300033569336,104.37999725341797,104.44000244140625,3644300.0,97.65496063232422
2017-07-17,104.97000122070312,104.08000183105469,104.31999969482422,104.20999908447266,5572400.0,97.43991088867188
2017-07-18,104.5999984741211,103.51000213623047,104.5999984741211,103.72000122070312,4339400.0,96.98175048828125
2017-07-19,104.4800033569336,103.51000213623047,103.55999755859375,104.45999908447266,4932000.0,97.67366790771484
2017-07-20,105.37000274658203,103.81999969482422,105.0,104.62999725341797,5367800.0,97.83262634277344
2017-07-21,104.37999725341797,103.1500015258789,104.18000030517578,103.25,5304100.0,96.54228210449219
2017-07-24,103.56999969482422,102.91999816894531,103.18000030517578,103.19999694824219,4080400.0,96.49553680419922
2017-07-25,105.1500015258789,104.31999969482422,104.44999694824219,104.38999938964844,7093800.0,97.60821533203125
2017-07-26,106.08000183105469,104.19999694824219,104.62999725341797,105.12000274658203,5881400.0,98.2907943725586
2017-07-27,106.31999969482422,104.61000061035156,104.87999725341797,106.11000061035156,5888400.0,99.21646881103516
2017-07-28,109.12999725341797,106.36000061035156,106.70999908447266,108.12000274658203,7812600.0,101.09589385986328
2017-07-31,110.0,108.1500015258789,108.38999938964844,109.19000244140625,7561200.0,102.09638977050781
2017-08-01,110.97000122070312,109.41999816894531,109.54000091552734,110.77999877929688,8162900.0,103.58309173583984
2017-08-02,111.19999694824219,109.8499984741211,110.38999938964844,110.45999908447266,6212300.0,103.28387451171875
2017-08-03,110.44999694824219,109.05000305175781,110.2300033569336,109.43000030517578,5605400.0,102.32079315185547
2017-08-04,110.19999694824219,109.43000030517578,109.43000030517578,110.11000061035156,4643500.0,102.95661163330078
2017-08-07,110.29000091552734,109.58000183105469,109.80999755859375,109.77999877929688,4762800.0,102.64805603027344
2017-08-08,110.70999908447266,109.7699966430664,110.0,110.3499984741211,4107300.0,103.18102264404297
2017-08-09,111.41000366210938,110.26000213623047,110.73999786376953,110.88999938964844,3966800.0,103.6859359741211
2017-08-10,111.44000244140625,110.02999877929688,111.2300033569336,110.11000061035156,4950700.0,102.95661163330078
2017-08-11,110.48999786376953,109.12999725341797,110.19999694824219,109.2300033569336,3383000.0,102.1337890625
2017-08-14,109.81999969482422,108.31999969482422,109.26000213623047,108.70999908447266,4262300.0,101.6475601196289
2017-08-15,108.9000015258789,107.52999877929688,108.75,108.56999969482422,5310700.0,101.51666259765625
2017-08-16,107.91999816894531,106.69000244140625,107.62999725341797,106.83999633789062,4186600.0,100.90278625488281
2017-08-17,106.87000274658203,105.91000366210938,106.61000061035156,105.91999816894531,5870300.0,100.03390502929688
2017-08-18,107.33999633789062,105.5,105.83999633789062,106.4800033569336,5467400.0,100.56278228759766
2017-08-21,106.4800033569336,105.30000305175781,106.4800033569336,105.77999877929688,3560400.0,99.90167999267578
2017-08-22,106.91999816894531,105.80999755859375,105.98999786376953,106.36000061035156,5630900.0,100.449462890625
2017-08-23,107.05999755859375,106.11000061035156,106.20999908447266,106.61000061035156,4185800.0,100.6855697631836
2017-08-24,107.66999816894531,106.33000183105469,106.5,107.44000244140625,5059700.0,101.46943664550781
2017-08-25,108.70999908447266,107.5199966430664,107.81999969482422,108.2300033569336,4384200.0,102.21553802490234
2017-08-28,108.58999633789062,107.2699966430664,108.54000091552734,107.76000213623047,3681600.0,101.77165985107422
2017-08-29,108.05000305175781,107.04000091552734,107.43000030517578,107.86000061035156,3230600.0,101.86610412597656
2017-08-30,107.83999633789062,107.0999984741211,107.58000183105469,107.7300033569336,3126000.0,101.74333190917969
2017-08-31,108.2300033569336,107.5,108.0,107.62000274658203,5508200.0,101.63944244384766
2017-09-01,109.16000366210938,107.51000213623047,107.68000030517578,108.76000213623047,3660300.0,102.71607971191406
2017-09-05,110.26000213623047,108.69999694824219,109.36000061035156,109.44000244140625,5198500.0,103.35830688476562
2017-09-06,112.2300033569336,109.80000305175781,110.0,111.79000091552734,8577300.0,105.57769775390625
2017-09-07,112.87000274658203,111.36000061035156,112.18000030517578,111.80000305175781,5937800.0,105.58714294433594
2017-09-08,111.75,110.52999877929688,111.58999633789062,110.77999877929688,4033100.0,104.62383270263672
2017-09-11,112.56999969482422,111.5199966430664,111.83000183105469,112.5199966430664,5973400.0,106.26712799072266
2017-09-12,112.94999694824219,111.86000061035156,112.81999969482422,112.48999786376953,5110100.0,106.2387924194336
2017-09-13,114.31999969482422,112.27999877929688,112.48999786376953,114.18000030517578,5889400.0,107.83489990234375
2017-09-14,115.33999633789062,114.18000030517578,114.26000213623047,114.44999694824219,5819100.0,108.08988189697266
2017-09-15,114.91000366210938,113.62999725341797,114.83000183105469,114.62999725341797,8387600.0,108.25988006591797
2017-09-18,115.22000122070312,114.31999969482422,114.41999816894531,115.19000244140625,4954600.0,108.78876495361328
2017-09-19,116.41999816894531,115.19000244140625,115.25,116.33999633789062,6188000.0,109.8748550415039
2017-09-20,117.1500015258789,116.19999694824219,116.5,116.37000274658203,5378200.0,109.90319061279297
2017-09-21,116.5199966430664,115.83000183105469,116.22000122070312,116.47000122070312,4334500.0,109.99763488769531
2017-09-22,117.83000183105469,116.2699966430664,116.41000366210938,117.29000091552734,5307100.0,110.77206420898438
2017-09-25,118.33000183105469,117.0199966430664,117.2300033569336,117.98999786376953,5980300.0,111.43316650390625
2017-09-26,118.02999877929688,117.25,117.79000091552734,117.5199966430664,4874700.0,110.98927307128906
2017-09-27,117.5999984741211,116.7699966430664,117.45999908447266,117.44999694824219,3926800.0,110.92316436767578
2017-09-28,118.12999725341797,117.0199966430664,117.16999816894531,117.62000274658203,4949000.0,111.08372497558594
2017-09-29,117.5199966430664,116.7300033569336,117.16999816894531,117.5,4874800.0,110.97039031982422
2017-10-02,117.79000091552734,115.52999877929688,116.41999816894531,117.43000030517578,4285600.0,110.90428924560547
2017-10-03,118.25,117.01000213623047,117.08000183105469,117.81999969482422,3892200.0,111.27259826660156
2017-10-04,117.87000274658203,117.12999725341797,117.81999969482422,117.58000183105469,3443400.0,111.04595184326172
2017-10-05,118.69000244140625,117.33000183105469,117.44999694824219,118.58000183105469,5470900.0,111.9903793334961
2017-10-06,118.1500015258789,116.80000305175781,117.94999694824219,117.02999877929688,3533300.0,110.5265121459961
2017-10-09,118.08000183105469,117.01000213623047,117.33999633789062,117.70999908447266,2951900.0,111.1687240600586
2017-10-10,119.81999969482422,118.29000091552734,118.4000015258789,118.80000305175781,5683100.0,112.19815826416016
2017-10-11,119.5199966430664,118.58000183105469,119.20999908447266,119.33000183105469,3926100.0,112.6987075805664
2017-10-12,119.6500015258789,118.30999755859375,118.48999786376953,119.13999938964844,3929700.0,112.5192642211914
2017-10-13,120.0,119.06999969482422,119.79000091552734,119.16000366210938,4640100.0,112.53814697265625
2017-10-16,120.88999938964844,119.43000030517578,119.83999633789062,120.12999725341797,5500700.0,113.45423889160156
2017-10-17,120.73999786376953,119.83000183105469,120.2300033569336,120.22000122070312,4844300.0,113.53924560546875
2017-10-18,120.0199966430664,117.98999786376953,119.4000015258789,118.1500015258789,5505100.0,111.58426666259766
2017-10-19,118.73999786376953,117.94999694824219,118.05999755859375,118.19999694824219,4576600.0,111.6314926147461
2017-10-20,118.77999877929688,118.06999969482422,118.61000061035156,118.63999938964844,4924300.0,112.04704284667969
2017-10-23,119.30000305175781,118.44999694824219,118.72000122070312,118.93000030517578,3872400.0,112.3209228515625
2017-10-24,119.91999816894531,119.06999969482422,119.4800033569336,119.2300033569336,4472400.0,112.60425567626953
2017-10-25,119.44000244140625,118.1500015258789,119.0,118.44000244140625,4553100.0,111.85816192626953
2017-10-26,119.0,118.13999938964844,118.77999877929688,118.44000244140625,4092900.0,111.85816192626953
2017-10-27,116.4000015258789,112.56999969482422,116.12999725341797,113.54000091552734,14534100.0,107.23046112060547
2017-10-30,115.0999984741211,112.83999633789062,113.16999816894531,114.38999938964844,7517800.0,108.03321838378906
2017-10-31,116.37999725341797,113.81999969482422,114.44999694824219,115.88999938964844,7154800.0,109.44985961914062
2017-11-01,116.97000122070312,115.3499984741211,116.30000305175781,115.9000015258789,5030300.0,109.45930480957031
2017-11-02,116.47000122070312,114.70999908447266,116.20999908447266,115.33000183105469,4329600.0,108.92098236083984
2017-11-03,115.75,114.7300033569336,115.4800033569336,114.98999786376953,4101800.0,108.59986877441406
2017-11-06,117.16000366210938,114.98999786376953,115.37000274658203,117.04000091552734,5231800.0,110.53596496582031
2017-11-07,118.0,116.4800033569336,117.37999725341797,117.23999786376953,5219500.0,110.72483825683594
2017-11-08,117.1500015258789,115.9000015258789,116.77999877929688,116.66999816894531,5092800.0,110.18651580810547
2017-11-09,117.5,115.62000274658203,115.9000015258789,117.23999786376953,5103300.0,110.72483825683594
2017-11-10,117.30999755859375,116.0999984741211,116.70999908447266,117.18000030517578,5156900.0,110.66817474365234
2017-11-13,117.7699966430664,116.68000030517578,117.22000122070312,117.2300033569336,4279200.0,110.71539306640625
2017-11-14,117.26000213623047,116.25,116.81999969482422,116.91999816894531,6996500.0,110.42262268066406
2017-11-15,117.2300033569336,116.06999969482422,116.20999908447266,116.44999694824219,5372600.0,109.97874450683594
2017-11-16,115.81999969482422,114.37999725341797,115.25,114.56999969482422,5888700.0,109.21613311767578
2017-11-17,114.98999786376953,113.9000015258789,114.66999816894531,114.70999908447266,4337500.0,109.34957885742188
2017-11-20,115.02999877929688,114.44000244140625,114.7699966430664,114.72000122070312,4634200.0,109.35911560058594
2017-11-21,115.86000061035156,114.91999816894531,115.13999938964844,115.16999816894531,4596000.0,109.78807830810547
2017-11-22,116.77999877929688,115.31999969482422,115.48999786376953,115.91000366210938,3951000.0,110.49351501464844
2017-11-24,116.8499984741211,116.30999755859375,116.55000305175781,116.51000213623047,1744200.0,111.06547546386719
2017-11-27,116.02999877929688,115.23999786376953,115.8499984741211,115.58999633789062,4490300.0,110.18846130371094
2017-11-28,116.80999755859375,115.73999786376953,115.91999816894531,116.44999694824219,4004700.0,111.00827026367188
2017-11-29,117.25,115.83000183105469,116.19999694824219,117.18000030517578,3661000.0,111.70415496826172
2017-11-30,119.1500015258789,117.2300033569336,117.26000213623047,118.98999786376953,7896600.0,113.42957305908203
2017-12-01,120.45999908447266,118.5199966430664,119.80999755859375,119.51000213623047,6831800.0,113.92527770996094
2017-12-04,122.30000305175781,119.37000274658203,119.80999755859375,120.83999633789062,7366400.0,115.19312286376953
2017-12-05,121.4000015258789,120.1500015258789,120.54000091552734,120.38999938964844,4380700.0,114.76416015625
2017-12-06,120.87999725341797,119.5199966430664,119.98999786376953,119.61000061035156,4852500.0,114.02059936523438
2017-12-07,120.0999984741211,118.95999908447266,119.5,119.62999725341797,4908500.0,114.03966522216797
2017-12-08,120.23999786376953,119.0999984741211,119.95999908447266,119.91999816894531,4122200.0,114.31611633300781
2017-12-11,121.11000061035156,120.12000274658203,120.29000091552734,120.41999816894531,5929700.0,114.79275512695312
2017-12-12,120.73999786376953,119.55999755859375,119.80999755859375,119.68000030517578,4300200.0,114.08734130859375
2017-12-13,120.16999816894531,118.68000030517578,119.43000030517578,119.93000030517578,4399800.0,114.32565307617188
2017-12-14,120.27999877929688,119.5,119.80999755859375,119.52999877929688,3736900.0,113.94434356689453
2017-12-15,120.47000122070312,119.51000213623047,120.44000244140625,119.7300033569336,11226900.0,114.135009765625
2017-12-18,121.29000091552734,119.62000274658203,119.91999816894531,119.69999694824219,4654100.0,114.10639190673828
2017-12-19,120.75,119.51000213623047,120.31999969482422,119.83999633789062,4599300.0,114.23985290527344
2017-12-20,121.30000305175781,119.6500015258789,120.27999877929688,120.88999938964844,6286700.0,115.24079132080078
2017-12-21,125.3499984741211,121.06999969482422,121.38999938964844,124.81999969482422,10109000.0,118.98714447021484
2017-12-22,125.6500015258789,124.56999969482422,124.8499984741211,124.9800033569336,4735100.0,119.13966369628906
2017-12-26,126.13999938964844,125.05000305175781,125.2300033569336,125.9800033569336,3348500.0,120.09294128417969
2017-12-27,126.19999694824219,125.12999725341797,125.95999908447266,125.55000305175781,3452300.0,119.68303680419922
2017-12-28,125.88999938964844,125.29000091552734,125.69000244140625,125.58000183105469,2191800.0,119.71162414550781
2017-12-29,125.9800033569336,125.19000244140625,125.36000061035156,125.19000244140625,3829000.0,119.33985900878906
2018-01-02,127.73999786376953,125.54000091552734,125.70999908447266,127.58000183105469,5626000.0,121.61817932128906
2018-01-03,128.94000244140625,126.9000015258789,127.45999908447266,128.50999450683594,5805500.0,122.50470733642578
2018-01-04,128.35000610351562,127.22000122070312,127.94999694824219,128.11000061035156,4598300.0,122.1234130859375
2018-01-05,128.10000610351562,127.0999984741211,127.97000122070312,127.9000015258789,4189200.0,121.9232177734375
2018-01-08,128.6300048828125,127.62999725341797,127.86000061035156,128.52999877929688,4826100.0,122.52377319335938
2018-01-09,128.94000244140625,127.79000091552734,128.42999267578125,127.83999633789062,4422300.0,121.86601257324219
2018-01-10,128.75999450683594,127.80000305175781,128.30999755859375,128.66000366210938,5292200.0,122.64769744873047
2018-01-11,133.32000732421875,128.75999450683594,128.9199981689453,132.57000732421875,11641300.0,126.37498474121094
2018-01-12,133.85000610351562,132.11000061035156,132.19000244140625,133.60000610351562,7232900.0,127.35684967041016
2018-01-16,133.8800048828125,131.60000610351562,133.6699981689453,132.00999450683594,6254200.0,125.84115600585938
2018-01-17,132.8000030517578,130.9600067138672,132.19000244140625,132.36000061035156,5601700.0,126.17479705810547
2018-01-18,132.5,131.02999877929688,132.35000610351562,131.58999633789062,5890000.0,125.4407730102539
2018-01-19,132.0,130.2100067138672,131.8300018310547,131.3000030517578,6048900.0,125.16433715820312
2018-01-22,132.55999755859375,131.27999877929688,131.3000030517578,132.55999755859375,5248800.0,126.36547088623047
2018-01-23,132.55999755859375,130.72999572753906,132.3800048828125,131.02000427246094,5747300.0,124.89741516113281
2018-01-24,132.6699981689453,131.07000732421875,131.3800048828125,131.38999938964844,6868200.0,125.25012969970703
2018-01-25,131.8699951171875,130.33999633789062,131.75999450683594,130.64999389648438,4597200.0,124.54470825195312
2018-01-26,131.75,130.3699951171875,130.7100067138672,131.19000244140625,6310500.0,125.0594711303711
2018-01-29,131.5800018310547,128.32000732421875,130.05999755859375,128.47999572753906,6350700.0,122.47610473632812
2018-01-30,128.00999450683594,125.19000244140625,127.61000061035156,125.2300033569336,8084000.0,119.37799072265625
2018-01-31,125.81999969482422,124.05000305175781,125.41999816894531,125.3499984741211,9626800.0,119.49237060546875
2018-02-01,125.62999725341797,124.05999755859375,125.5999984741211,125.56999969482422,7844500.0,119.70209503173828
2018-02-02,123.94999694824219,117.63999938964844,123.94999694824219,118.58000183105469,13182600.0,113.03874206542969
2018-02-05,118.30000305175781,108.0199966430664,116.98999786376953,112.62000274658203,15414700.0,107.35725402832031
2018-02-06,117.62999725341797,110.76000213623047,111.19999694824219,117.18000030517578,18416300.0,111.70415496826172
2018-02-07,119.2699966430664,115.2300033569336,117.4000015258789,115.29000091552734,11535700.0,109.90248107910156
2018-02-08,115.88999938964844,112.20999908447266,115.16999816894531,112.30000305175781,9927500.0,107.05220794677734
2018-02-09,114.62000274658203,109.5,113.33999633789062,113.5,10922400.0,108.19612884521484
2018-02-12,115.8499984741211,112.91000366210938,114.80000305175781,113.9800033569336,8358200.0,108.6537094116211
2018-02-13,113.61000061035156,111.86000061035156,113.33999633789062,113.29000091552734,7065900.0,107.99594116210938
2018-02-14,114.05000305175781,111.4000015258789,112.5,113.62999725341797,7031900.0,108.32005310058594
2018-02-15,113.0199966430664,110.83999633789062,112.86000061035156,112.52999877929688,5405000.0,108.33931732177734
2018-02-16,112.94000244140625,111.20999908447266,112.3499984741211,112.13999938964844,5950400.0,107.96383666992188
2018-02-20,112.76000213623047,110.58000183105469,112.27999877929688,110.9800033569336,6810900.0,106.84703063964844
2018-02-21,112.05999755859375,109.05999755859375,111.13999938964844,109.05999755859375,6892300.0,104.99853515625
2018-02-22,111.44000244140625,108.9000015258789,109.55000305175781,109.88999938964844,8176700.0,105.7976303100586
2018-02-23,112.73999786376953,110.25,110.45999908447266,112.58999633789062,6460200.0,108.3970718383789
2018-02-26,114.66000366210938,112.8499984741211,113.18000030517578,114.5999984741211,7405800.0,110.33222198486328
2018-02-27,116.05000305175781,113.61000061035156,114.87000274658203,113.61000061035156,6059700.0,109.37908935546875
2018-02-28,115.45999908447266,111.87999725341797,115.0199966430664,111.91999816894531,7441000.0,107.75202941894531
2018-03-01,113.9000015258789,110.97000122070312,111.52999877929688,112.04000091552734,7516700.0,107.86756134033203
2018-03-02,112.18000030517578,109.83000183105469,111.5,111.63999938964844,6607300.0,107.48246002197266
2018-03-05,113.33000183105469,111.0199966430664,111.4000015258789,113.1500015258789,7814900.0,108.93622589111328
2018-03-06,115.5199966430664,113.0199966430664,113.8499984741211,113.6500015258789,7957900.0,109.4176025390625
2018-03-07,115.08000183105469,112.62999725341797,112.94999694824219,113.83999633789062,6660000.0,109.60051727294922
2018-03-08,114.75,112.5999984741211,114.5999984741211,113.3499984741211,6095100.0,109.12877655029297
2018-03-09,117.38999938964844,114.23999786376953,114.30999755859375,117.22000122070312,8833300.0,112.85465240478516
2018-03-12,118.3499984741211,116.55999755859375,117.5,116.79000091552734,6877000.0,112.44066619873047
2018-03-13,118.18000030517578,116.0,117.2300033569336,116.45999908447266,6793100.0,112.12295532226562
2018-03-14,117.44999694824219,114.86000061035156,116.9800033569336,115.12999725341797,5051000.0,110.84248352050781
2018-03-15,116.20999908447266,114.75,115.36000061035156,115.58000183105469,4519700.0,111.27572631835938
2018-03-16,116.19000244140625,114.55999755859375,115.4000015258789,115.4000015258789,14909400.0,111.10243225097656
2018-03-19,115.2300033569336,113.22000122070312,115.06999969482422,113.88999938964844,4803500.0,109.6486587524414
2018-03-20,115.69999694824219,114.44000244140625,114.55000305175781,114.5,4587200.0,110.23594665527344
2018-03-21,118.11000061035156,114.80000305175781,114.9800033569336,117.04000091552734,6829600.0,112.68135070800781
2018-03-22,115.73999786376953,113.4800033569336,115.55000305175781,113.69999694824219,6297200.0,109.46573638916016
2018-03-23,115.7699966430664,112.69999694824219,114.37000274658203,112.9800033569336,6227200.0,108.77255249023438
2018-03-26,115.58999633789062,113.25,114.23999786376953,115.3499984741211,6868700.0,111.05429077148438
2018-03-27,116.86000061035156,113.9800033569336,115.75,114.66000366210938,5530800.0,110.3899917602539
2018-03-28,115.26000213623047,112.05999755859375,114.93000030517578,112.0999984741211,6985300.0,107.92532348632812
2018-03-29,114.43000030517578,112.27999877929688,112.29000091552734,114.04000091552734,6627800.0,109.79307556152344
2018-04-02,114.38999938964844,110.54000091552734,113.88999938964844,112.23999786376953,6228600.0,108.06011199951172
2018-04-03,114.9800033569336,112.08999633789062,112.5199966430664,114.83000183105469,6717300.0,110.55365753173828
2018-04-04,114.79000091552734,112.43000030517578,113.05000305175781,114.4800033569336,5727200.0,110.2166976928711
2018-04-05,117.88999938964844,114.69999694824219,114.87999725341797,117.29000091552734,7204900.0,112.92205047607422
2018-04-06,117.01000213623047,113.38999938964844,116.37999725341797,114.76000213623047,7094500.0,110.48626708984375
2018-04-09,117.16999816894531,114.87999725341797,115.30000305175781,115.9800033569336,6933800.0,111.66083526611328
2018-04-10,119.83000183105469,117.5999984741211,117.5999984741211,118.8499984741211,7612800.0,114.4239501953125
2018-04-11,119.37999725341797,117.75,118.69000244140625,119.25,6246800.0,114.80905151367188
2018-04-12,120.66999816894531,118.6500015258789,119.70999908447266,119.2300033569336,6702000.0,114.78980255126953
2018-04-13,120.79000091552734,119.22000122070312,119.5199966430664,119.91999816894531,5508100.0,115.4541015625
2018-04-16,121.70999908447266,119.7699966430664,120.5999984741211,120.69999694824219,4598000.0,116.2050552368164
2018-04-17,122.0,120.55999755859375,120.94000244140625,121.45999908447266,6488300.0,116.93675231933594
2018-04-18,124.88999938964844,122.4000015258789,122.45999908447266,123.81999969482422,9132500.0,119.20886993408203
2018-04-19,125.0,123.20999908447266,123.97000122070312,123.70999908447266,7159400.0,119.10295867919922
2018-04-20,123.45999908447266,121.45999908447266,123.37999725341797,122.30999755859375,7561200.0,117.75508880615234
2018-04-23,123.61000061035156,121.80000305175781,122.0,123.58000183105469,6113100.0,118.9778060913086
2018-04-24,125.04000091552734,121.75,124.36000061035156,122.54000091552734,7980500.0,117.97652435302734
2018-04-25,122.9000015258789,121.12000274658203,122.33999633789062,122.72000122070312,5331100.0,118.14983367919922
2018-04-26,124.30000305175781,122.30000305175781,122.66999816894531,124.22000122070312,6268400.0,119.5939712524414
2018-04-27,127.05000305175781,124.68000030517578,125.5,126.62000274658203,8836600.0,121.90458679199219
2018-04-30,127.9000015258789,125.05000305175781,127.0199966430664,125.11000061035156,7631600.0,120.45082092285156
2018-05-01,124.91999816894531,123.08000183105469,124.02999877929688,124.86000061035156,7093700.0,120.21013641357422
2018-05-02,126.47000122070312,124.08999633789062,124.19999694824219,125.48999786376953,5909100.0,120.81666564941406
2018-05-03,126.12000274658203,123.83000183105469,124.58999633789062,126.01000213623047,6727700.0,121.31731414794922
2018-05-04,126.83999633789062,124.70999908447266,125.20999908447266,125.52999877929688,5403100.0,120.85517883300781
2018-05-07,128.39999389648438,124.44000244140625,126.58999633789062,124.94000244140625,6999700.0,120.28716278076172
2018-05-08,126.75,123.62999725341797,124.93000030517578,126.56999969482422,8937000.0,121.85645294189453
2018-05-09,130.4199981689453,128.08999633789062,128.4199981689453,128.72000122070312,11442700.0,123.9263916015625
2018-05-10,129.77999877929688,128.38999938964844,129.69000244140625,128.82000732421875,5446000.0,124.02267456054688
2018-05-11,130.75999450683594,128.52000427246094,129.38999938964844,129.83999633789062,8092300.0,125.00467681884766
2018-05-14,131.0800018310547,129.8000030517578,130.25,130.38999938964844,6212400.0,125.53418731689453
2018-05-15,130.27000427246094,129.25,130.24000549316406,129.74000549316406,5201700.0,124.90840148925781
2018-05-16,129.72000122070312,128.3000030517578,129.2899932861328,129.55999755859375,5405100.0,124.73509979248047
2018-05-17,129.57000732421875,128.3800048828125,128.75999450683594,129.4600067138672,5241600.0,125.72569274902344
2018-05-18,129.14999389648438,127.80000305175781,128.9199981689453,127.86000061035156,6385800.0,124.17183685302734
2018-05-21,129.41000366210938,128.27000427246094,128.7899932861328,129.3699951171875,5081200.0,125.63825988769531
2018-05-22,130.38999938964844,128.10000610351562,129.08999633789062,128.22999572753906,5444200.0,124.53115844726562
2018-05-23,128.7899932861328,126.55000305175781,127.08999633789062,128.6999969482422,5847500.0,124.98760223388672
2018-05-24,127.4000015258789,125.8499984741211,127.4000015258789,126.61000061035156,5906200.0,122.95789337158203
2018-05-25,124.76000213623047,121.22000122070312,124.54000091552734,122.19000244140625,8936600.0,118.66539001464844
2018-05-29,122.43000030517578,120.05999755859375,121.0999984741211,121.38999938964844,7385700.0,117.88846588134766
2018-05-30,125.66999816894531,122.33999633789062,122.6500015258789,125.16000366210938,7125300.0,121.54972076416016
2018-05-31,124.81999969482422,123.45999908447266,124.08000183105469,124.30000305175781,7460700.0,120.71453094482422
2018-06-01,125.55000305175781,123.43000030517578,125.48999786376953,123.8499984741211,5749900.0,120.27750396728516
2018-06-04,125.41000366210938,122.16999816894531,124.52999877929688,122.26000213623047,5760500.0,118.73336791992188
2018-06-05,123.70999908447266,121.55000305175781,122.01000213623047,122.7300033569336,5672600.0,119.1898193359375
2018-06-06,123.69000244140625,122.05999755859375,123.12000274658203,123.37999725341797,6213400.0,119.82106018066406
2018-06-07,127.9800033569336,124.41000366210938,124.54000091552734,126.95999908447266,8607200.0,123.29779052734375
2018-06-08,127.37999725341797,125.68000030517578,127.12000274658203,126.44000244140625,5108800.0,122.79279327392578
2018-06-11,128.19000244140625,125.86000061035156,126.7699966430664,127.55999755859375,6085100.0,123.88048553466797
2018-06-12,128.3800048828125,126.33000183105469,127.63999938964844,127.08000183105469,4543000.0,123.41433715820312
2018-06-13,127.81999969482422,126.08999633789062,126.80999755859375,127.06999969482422,6317900.0,123.40461730957031
2018-06-14,127.95999908447266,126.37999725341797,127.37999725341797,126.51000213623047,5056800.0,122.86077880859375
2018-06-15,127.12000274658203,123.83999633789062,127.0999984741211,124.04000091552734,13223800.0,120.46202850341797
2018-06-18,126.9800033569336,124.0999984741211,124.3499984741211,125.97000122070312,7696800.0,122.33635711669922
2018-06-19,125.88999938964844,123.87999725341797,124.31999969482422,125.54000091552734,5947800.0,121.91875457763672
2018-06-20,126.45999908447266,124.30000305175781,126.12000274658203,125.29000091552734,7980700.0,121.67597198486328
2018-06-21,124.58999633789062,122.16000366210938,124.5,122.58999633789062,7290800.0,119.05384826660156
2018-06-22,126.56999969482422,124.81999969482422,125.41000366210938,125.0999984741211,8535200.0,121.49143981933594
2018-06-25,124.63999938964844,121.93000030517578,124.43000030517578,122.61000061035156,5801900.0,119.07327270507812
2018-06-26,124.61000061035156,122.56999969482422,123.02999877929688,124.16000366210938,4592800.0,120.57856750488281
2018-06-27,127.41999816894531,125.05999755859375,125.1500015258789,126.0,6339500.0,122.36548614501953
2018-06-28,126.86000061035156,125.0,126.54000091552734,125.66000366210938,3814800.0,122.03529357910156
2018-06-29,127.7300033569336,125.73999786376953,125.73999786376953,126.43000030517578,5669700.0,122.7830810546875
2018-07-02,125.29000091552734,123.55999755859375,125.27999877929688,124.25,5073500.0,120.66596984863281
2018-07-03,126.69000244140625,124.55000305175781,125.45999908447266,124.7300033569336,3919600.0,121.13212585449219
2018-07-05,126.25,123.81999969482422,126.11000061035156,123.9800033569336,5926900.0,120.40375518798828
2018-07-06,124.5199966430664,123.19000244140625,123.5199966430664,124.13999938964844,4020000.0,120.55913543701172
2018-07-09,126.27999877929688,124.69000244140625,125.0,125.98999786376953,4602200.0,122.35577392578125
2018-07-10,128.50999450683594,126.75,127.33000183105469,127.58999633789062,5092100.0,123.90962219238281
2018-07-11,126.68000030517578,122.97000122070312,126.2300033569336,123.5199966430664,6631800.0,119.95702362060547
2018-07-12,124.94999694824219,123.58999633789062,124.44000244140625,124.26000213623047,3745200.0,120.6756820678711
2018-07-13,124.87999725341797,123.62999725341797,124.19999694824219,124.04000091552734,3352800.0,120.46202850341797
2018-07-16,123.87999725341797,121.87999725341797,123.01000213623047,122.9800033569336,4317800.0,119.43260192871094
2018-07-17,122.95999908447266,121.80000305175781,122.36000061035156,121.91000366210938,4135200.0,118.39346313476562
2018-07-18,121.66999816894531,119.66999816894531,121.23999786376953,121.52999877929688,6061300.0,118.02442169189453
2018-07-19,122.13999938964844,121.01000213623047,121.0999984741211,121.66999816894531,4471400.0,118.1603775024414
2018-07-20,122.3499984741211,121.01000213623047,121.25,122.2699966430664,5394700.0,118.74308013916016
2018-07-23,123.06999969482422,121.16000366210938,122.3499984741211,121.33000183105469,5359400.0,117.83019256591797
2018-07-24,124.16000366210938,121.86000061035156,121.87000274658203,123.8499984741211,4423500.0,120.27750396728516
2018-07-25,125.2300033569336,123.2699966430664,123.62000274658203,124.9000015258789,4278800.0,121.2972183227539
2018-07-26,125.37999725341797,123.80000305175781,124.69999694824219,123.94999694824219,5544100.0,120.37461853027344
2018-07-27,127.04000091552734,122.08000183105469,122.79000091552734,125.97000122070312,7580900.0,122.33635711669922
2018-07-30,128.41000366210938,126.22000122070312,126.76000213623047,127.83000183105469,5729300.0,124.14270782470703
2018-07-31,128.5500030517578,126.12999725341797,128.0,126.2699966430664,5894400.0,122.62770080566406
2018-08-01,125.91999816894531,124.75,125.30999755859375,125.38999938964844,4661000.0,121.77307891845703
2018-08-02,124.80999755859375,123.30000305175781,124.44000244140625,123.76000213623047,4639600.0,120.19010162353516
2018-08-03,124.25,123.33000183105469,124.1500015258789,124.05000305175781,5299400.0,120.47174072265625
2018-08-06,124.94000244140625,123.54000091552734,124.41999816894531,124.30000305175781,4455900.0,120.71453094482422
2018-08-07,125.69999694824219,124.75,125.54000091552734,125.18000030517578,4542000.0,121.56914520263672
2018-08-08,124.79000091552734,123.31999969482422,124.5199966430664,123.87999725341797,5957200.0,120.30663299560547
2018-08-09,124.37000274658203,122.26000213623047,123.95999908447266,122.52999877929688,5217100.0,118.99557495117188
2018-08-10,123.5199966430664,121.5,122.16999816894531,123.33999633789062,6128000.0,119.78221130371094
2018-08-13,123.68000030517578,122.26000213623047,123.30999755859375,122.44000244140625,4360000.0,118.9081802368164
2018-08-14,123.6500015258789,122.0,122.91999816894531,122.58000183105469,3622200.0,119.04413604736328
2018-08-15,121.7300033569336,117.43000030517578,121.69999694824219,117.94000244140625,9476700.0,114.53797912597656
2018-08-16,118.30999755859375,117.18000030517578,117.69999694824219,117.66000366210938,5455200.0,115.361572265625
2018-08-17,118.58000183105469,117.08999633789062,118.1500015258789,117.80000305175781,6112900.0,115.49884033203125
2018-08-20,118.31999969482422,117.33000183105469,118.0,117.75,5403600.0,115.44981384277344
2018-08-21,118.93000030517578,117.79000091552734,118.37999725341797,117.94000244140625,4875800.0,115.63610076904297
2018-08-22,119.45999908447266,118.41999816894531,118.54000091552734,118.91999816894531,3636900.0,116.59695434570312
2018-08-23,118.81999969482422,117.69999694824219,118.38999938964844,118.0999984741211,3962500.0,115.79296875
2018-08-24,119.54000091552734,118.72000122070312,118.9000015258789,119.01000213623047,4415400.0,116.68519592285156
2018-08-27,120.4800033569336,119.16999816894531,119.36000061035156,120.3499984741211,3901900.0,117.99901580810547
2018-08-28,121.33999633789062,119.75,120.5999984741211,119.86000061035156,4685700.0,117.51859283447266
2018-08-29,120.83000183105469,119.87999725341797,120.0,120.22000122070312,4101700.0,117.8715591430664
2018-08-30,120.43000030517578,119.55000305175781,120.08000183105469,119.80999755859375,3353000.0,117.46956634521484
2018-08-31,119.4000015258789,118.08999633789062,119.4000015258789,118.45999908447266,5287000.0,116.14594268798828
2018-09-04,119.62999725341797,118.3499984741211,118.93000030517578,118.87000274658203,4590900.0,116.54793548583984
2018-09-05,118.94000244140625,117.26000213623047,118.05999755859375,118.91999816894531,4619400.0,116.59695434570312
2018-09-06,118.51000213623047,115.13999938964844,117.88999938964844,115.2300033569336,8191100.0,112.97904205322266
2018-09-07,115.3499984741211,113.38999938964844,114.5199966430664,114.5999984741211,6637800.0,112.36134338378906
2018-09-10,115.72000122070312,114.37999725341797,115.43000030517578,114.4800033569336,5870900.0,112.24369049072266
2018-09-11,115.73999786376953,113.76000213623047,114.33999633789062,115.0199966430664,5605300.0,112.77313232421875
2018-09-12,117.48999786376953,115.76000213623047,116.41999816894531,115.79000091552734,5067800.0,113.5280990600586
2018-09-13,116.5199966430664,115.08000183105469,116.01000213623047,116.30000305175781,6297700.0,114.02813720703125
2018-09-14,117.61000061035156,116.3499984741211,116.43000030517578,117.37999725341797,4947800.0,115.08702850341797
2018-09-17,118.68000030517578,117.27999877929688,117.61000061035156,117.51000213623047,5560200.0,115.2145004272461
2018-09-18,118.9000015258789,117.9800033569336,118.5,118.12999725341797,4966300.0,115.82238006591797
2018-09-19,120.04000091552734,118.12000274658203,118.33000183105469,119.51000213623047,4855300.0,117.17543029785156
2018-09-20,121.31999969482422,119.11000061035156,120.19000244140625,119.41999816894531,5846700.0,117.0871810913086
2018-09-21,121.26000213623047,119.41000366210938,119.91000366210938,121.12999725341797,13703600.0,118.76377868652344
2018-09-24,122.9800033569336,121.56999969482422,121.91000366210938,122.62000274658203,6534100.0,120.22467803955078
2018-09-25,124.23999786376953,122.94000244140625,123.5,123.37000274658203,5396400.0,120.96002960205078
2018-09-26,123.41999816894531,121.73999786376953,122.98999786376953,121.94999694824219,4231400.0,119.56776428222656
2018-09-27,123.0,121.70999908447266,122.16000366210938,122.47000122070312,4533400.0,120.0776138305664
2018-09-28,123.20999908447266,121.76000213623047,121.98999786376953,122.27999877929688,5202900.0,119.89131927490234
2018-10-01,124.87999725341797,123.11000061035156,123.11000061035156,124.38999938964844,5348200.0,121.96009826660156
2018-10-02,125.76000213623047,124.31999969482422,125.06999969482422,124.73999786376953,5445400.0,122.30326080322266
2018-10-03,125.83999633789062,124.77999877929688,125.12999725341797,125.30999755859375,4479500.0,122.86212921142578
2018-10-04,125.58999633789062,124.19000244140625,124.79000091552734,124.94999694824219,4824300.0,122.50916290283203
2018-10-05,125.9000015258789,124.73999786376953,124.93000030517578,125.33000183105469,4318000.0,122.8817367553711
2018-10-08,125.45999908447266,123.83000183105469,124.05000305175781,124.83999633789062,6267700.0,122.40130615234375
2018-10-09,127.44000244140625,125.06999969482422,125.51000213623047,126.81999969482422,6797900.0,124.3426284790039
2018-10-10,127.5999984741211,122.45999908447266,127.2300033569336,122.5999984741211,6504400.0,120.20506286621094
2018-10-11,122.43000030517578,117.54000091552734,122.43000030517578,118.43000030517578,8589900.0,116.11653137207031
2018-10-12,119.68000030517578,116.18000030517578,119.52999877929688,117.7699966430664,7450700.0,115.46942138671875
2018-10-15,118.86000061035156,116.91000366210938,117.69999694824219,116.94000244140625,6047300.0,114.65563201904297
2018-10-16,117.68000030517578,116.33999633789062,117.08999633789062,117.51000213623047,4846100.0,115.2145004272461
2018-10-17,117.69000244140625,116.0199966430664,117.20999908447266,117.29000091552734,6978700.0,114.99879455566406
2018-10-18,118.13999938964844,116.05000305175781,117.41999816894531,117.47000122070312,7391600.0,115.17527770996094
2018-10-19,119.26000213623047,117.37000274658203,117.37000274658203,118.13999938964844,7944400.0,115.83219146728516
2018-10-22,118.48999786376953,116.4800033569336,118.0999984741211,117.20999908447266,5644900.0,114.92035675048828
2018-10-23,115.72000122070312,112.05000305175781,115.72000122070312,113.4000015258789,8095300.0,111.18478393554688
2018-10-24,114.18000030517578,110.06999969482422,113.72000122070312,110.20999908447266,8035200.0,108.0571060180664
2018-10-25,113.4000015258789,110.43000030517578,111.36000061035156,111.58000183105469,5734000.0,109.40033721923828
2018-10-26,112.47000122070312,109.66000366210938,110.62999725341797,111.52999877929688,8035500.0,109.351318359375
2018-10-29,112.06999969482422,107.54000091552734,112.04000091552734,108.93000030517578,8598300.0,106.8021011352539
2018-10-30,111.1500015258789,108.1500015258789,109.62000274658203,110.8499984741211,7523800.0,108.68460083007812
2018-10-31,112.5,111.05000305175781,111.70999908447266,111.6500015258789,7429800.0,109.4689712524414
2018-11-01,111.98999786376953,110.0999984741211,111.7699966430664,111.16999816894531,10572000.0,108.99834442138672
2018-11-02,117.11000061035156,113.12000274658203,114.8499984741211,114.7300033569336,9890400.0,112.48880767822266
2018-11-05,119.66999816894531,116.5999984741211,116.62000274658203,118.94000244140625,8758700.0,116.61656188964844
2018-11-06,119.43000030517578,117.8499984741211,118.76000213623047,118.9000015258789,5273200.0,116.57734680175781
2018-11-07,121.12000274658203,119.0199966430664,120.0,120.87000274658203,4848800.0,118.50886535644531
2018-11-08,121.87000274658203,118.95999908447266,120.6500015258789,119.36000061035156,9532400.0,117.02836608886719
2018-11-09,120.37000274658203,117.37000274658203,118.22000122070312,119.51000213623047,6565700.0,117.17543029785156
2018-11-12,121.37000274658203,117.16999816894531,120.9000015258789,117.38999938964844,10550800.0,115.09683990478516
2018-11-13,117.87999725341797,115.04000091552734,117.30000305175781,115.3499984741211,6846200.0,113.09669494628906
2018-11-14,117.79000091552734,114.94000244140625,116.87999725341797,115.72000122070312,6783500.0,113.45946502685547
2018-11-15,117.08000183105469,112.72000122070312,113.66000366210938,116.94999694824219,7218100.0,115.78607177734375
2018-11-16,119.2699966430664,117.2699966430664,117.5,119.05999755859375,6706900.0,117.87507629394531
2018-11-19,119.4800033569336,117.9000015258789,118.13999938964844,119.41999816894531,5328300.0,118.23149108886719
2018-11-20,119.5,115.04000091552734,119.23999786376953,116.0999984741211,7983500.0,114.94453430175781
2018-11-21,119.19000244140625,116.68000030517578,116.68000030517578,117.56999969482422,5624400.0,116.39990997314453
2018-11-23,115.22000122070312,112.11000061035156,114.69999694824219,113.5999984741211,5577800.0,112.46941375732422
2018-11-26,115.44000244140625,114.0199966430664,114.5999984741211,114.9800033569336,6953000.0,113.83568572998047
2018-11-27,115.66000366210938,114.22000122070312,114.55000305175781,115.20999908447266,6339200.0,114.06339263916016
2018-11-28,118.27999877929688,114.4000015258789,114.9800033569336,118.13999938964844,6841700.0,116.9642333984375
2018-11-29,119.7300033569336,117.73999786376953,117.94999694824219,118.8499984741211,6656900.0,117.66716766357422
2018-11-30,119.20999908447266,117.69999694824219,118.05000305175781,118.94000244140625,6712500.0,117.75627136230469
2018-12-03,122.43000030517578,120.05999755859375,120.7699966430664,120.66999816894531,8237600.0,119.46905517578125
2018-12-04,121.08999633789062,117.06999969482422,120.5999984741211,117.23999786376953,8288100.0,116.07318878173828
2018-12-06,116.13999938964844,113.02999877929688,115.33999633789062,115.91000366210938,10715700.0,114.75643157958984
2018-12-07,119.69999694824219,115.19000244140625,117.58999633789062,115.48999786376953,9114400.0,114.34060668945312
2018-12-10,115.95999908447266,111.66999816894531,115.30000305175781,114.94000244140625,7674300.0,113.79608154296875
2018-12-11,116.62000274658203,113.94999694824219,116.26000213623047,115.47000122070312,5929400.0,114.32080841064453
2018-12-12,117.72000122070312,115.56999969482422,117.11000061035156,115.62000274658203,7891400.0,114.46931457519531
2018-12-13,116.31999969482422,114.30999755859375,115.1500015258789,115.94000244140625,7030500.0,114.7861328125
2018-12-14,115.80999755859375,113.30999755859375,115.01000213623047,113.83000183105469,6195400.0,112.69712829589844
2018-12-17,114.97000122070312,111.86000061035156,113.44000244140625,112.44999694824219,7132400.0,111.33085632324219
2018-12-18,113.23999786376953,108.94999694824219,112.62999725341797,109.73999786376953,9658600.0,108.64783477783203
2018-12-19,111.98999786376953,107.0999984741211,109.91000366210938,107.83000183105469,10472400.0,106.75684356689453
2018-12-20,108.06999969482422,104.19000244140625,106.80999755859375,104.9800033569336,11612800.0,103.93521118164062
2018-12-21,106.94000244140625,102.91000366210938,103.62000274658203,104.20999908447266,19912800.0,103.17286682128906
2018-12-24,104.1500015258789,100.91000366210938,103.30000305175781,100.98999786376953,5619500.0,99.98491668701172
2018-12-26,107.38999938964844,100.22000122070312,101.8499984741211,107.38999938964844,10779400.0,106.32122039794922
2018-12-27,109.33000183105469,104.87999725341797,105.47000122070312,109.31999969482422,10655100.0,108.23200988769531
2018-12-28,110.36000061035156,108.12000274658203,109.6500015258789,108.6500015258789,6445400.0,107.56867980957031
2018-12-31,110.23999786376953,107.86000061035156,109.1500015258789,108.79000091552734,6309600.0,107.70729064941406
2019-01-02,111.68000030517578,107.0999984741211,107.33999633789062,110.69000244140625,6384800.0,109.58837890625
2019-01-03,111.29000091552734,108.06999969482422,111.05999755859375,108.56999969482422,6363000.0,107.4894790649414
2019-01-04,110.98999786376953,109.47000122070312,110.27999877929688,110.81999969482422,7952500.0,109.71708679199219
2019-01-07,112.93000030517578,109.91999816894531,111.05999755859375,112.26000213623047,5712700.0,111.14275360107422
2019-01-08,113.79000091552734,111.66999816894531,113.4000015258789,111.7699966430664,5674900.0,110.65763092041016
2019-01-09,114.0,112.44999694824219,112.69000244140625,113.2699966430664,7097000.0,112.1427001953125
2019-01-10,113.62999725341797,111.70999908447266,112.51000213623047,113.44999694824219,6078300.0,112.32090759277344
2019-01-11,113.05000305175781,111.66999816894531,113.0,112.54000091552734,4491700.0,111.41996765136719
2019-01-14,112.33999633789062,111.08000183105469,111.33999633789062,111.72000122070312,6121700.0,110.6081314086914
2019-01-15,113.06999969482422,111.51000213623047,111.9800033569336,112.12000274658203,4226100.0,111.004150390625
2019-01-16,112.31999969482422,111.22000122070312,111.43000030517578,111.4000015258789,5624100.0,110.29131317138672
2019-01-17,112.29000091552734,110.16999816894531,110.75,111.95999908447266,4442700.0,110.84574127197266
2019-01-18,114.6500015258789,113.05999755859375,113.98999786376953,114.37000274658203,9382000.0,113.23175811767578
2019-01-22,113.44999694824219,111.94999694824219,113.12000274658203,112.33999633789062,7242000.0,111.22195434570312
2019-01-23,112.66999816894531,110.41999816894531,112.37999725341797,111.38999938964844,6082300.0,110.28141021728516
2019-01-24,113.81999969482422,110.91000366210938,111.02999877929688,113.51000213623047,8470700.0,112.38031768798828
2019-01-25,114.77999877929688,112.98999786376953,114.05999755859375,113.22000122070312,6261800.0,112.09320068359375
2019-01-28,112.56999969482422,111.06999969482422,111.91000366210938,112.16999816894531,6886600.0,111.05364990234375
2019-01-29,113.3499984741211,111.7699966430664,113.02999877929688,111.83000183105469,5359900.0,110.71703338623047
2019-01-30,113.6500015258789,111.9800033569336,112.52999877929688,113.01000213623047,7941700.0,111.88529205322266
2019-01-31,115.41000366210938,113.37999725341797,113.80000305175781,114.6500015258789,11225600.0,113.50897216796875
2019-02-01,119.25,116.5999984741211,116.6500015258789,118.37000274658203,10934300.0,117.19194793701172
2019-02-04,119.75,116.30999755859375,117.5,119.73999786376953,7987900.0,118.54830932617188
2019-02-05,119.86000061035156,118.69000244140625,119.62000274658203,119.4800033569336,6887400.0,118.29090118408203
2019-02-06,119.58999633789062,118.69000244140625,119.0,118.87999725341797,4990400.0,117.69686889648438
2019-02-07,118.51000213623047,116.51000213623047,118.01000213623047,118.2300033569336,7281900.0,117.0533447265625
2019-02-08,117.88999938964844,115.91999816894531,117.73999786376953,117.58000183105469,5671000.0,116.4098129272461
2019-02-11,117.36000061035156,116.38999938964844,116.93000030517578,116.94999694824219,4859600.0,115.78607177734375
2019-02-12,118.87000274658203,117.61000061035156,118.33000183105469,118.72000122070312,5400700.0,117.53845977783203
2019-02-13,120.38999938964844,118.69999694824219,119.16000366210938,119.56999969482422,5935900.0,118.3800048828125
2019-02-14,119.52999877929688,117.66000366210938,118.37000274658203,118.16000366210938,5406500.0,118.16000366210938
2019-02-15,119.86000061035156,118.58999633789062,119.62000274658203,119.3499984741211,6209800.0,119.3499984741211
2019-02-19,119.86000061035156,118.45999908447266,118.9000015258789,119.30999755859375,4277800.0,119.30999755859375
2019-02-20,120.72000122070312,119.0,119.30999755859375,120.27999877929688,5940600.0,120.27999877929688
2019-02-21,120.31999969482422,118.38999938964844,120.06999969482422,119.13999938964844,5139400.0,119.13999938964844
2019-02-22,120.45999908447266,118.8499984741211,120.27999877929688,119.38999938964844,4517600.0,119.38999938964844
2019-02-25,120.41999816894531,119.37000274658203,119.41000366210938,119.62000274658203,5196600.0,119.62000274658203
2019-02-26,120.97000122070312,119.68000030517578,119.80999755859375,119.94000244140625,5445600.0,119.94000244140625
2019-02-27,121.29000091552734,119.88999938964844,120.29000091552734,120.08000183105469,5289800.0,120.08000183105469
2019-02-28,120.16000366210938,118.48999786376953,120.0,119.58000183105469,6406500.0,119.58000183105469
2019-03-01,122.04000091552734,120.16999816894531,120.38999938964844,122.02999877929688,7743600.0,122.02999877929688
2019-03-04,122.83999633789062,120.55000305175781,122.66999816894531,122.12000274658203,7499500.0,122.12000274658203
2019-03-05,123.3499984741211,121.58999633789062,121.87000274658203,123.29000091552734,7345200.0,123.29000091552734
2019-03-06,124.69999694824219,122.30000305175781,123.16999816894531,123.52999877929688,7599900.0,123.52999877929688
2019-03-07,123.5,121.69999694824219,123.41999816894531,121.94000244140625,7199000.0,121.94000244140625
2019-03-08,121.93000030517578,119.19999694824219,120.0999984741211,121.62000274658203,7014100.0,121.62000274658203
2019-03-11,124.19999694824219,122.75,122.87000274658203,123.62000274658203,6088600.0,123.62000274658203
2019-03-12,124.95999908447266,123.37999725341797,123.83999633789062,123.9000015258789,6184300.0,123.9000015258789
2019-03-13,124.93000030517578,123.9000015258789,124.5999984741211,124.66999816894531,4707000.0,124.66999816894531
2019-03-14,125.45999908447266,124.4800033569336,124.76000213623047,124.5999984741211,5146400.0,124.5999984741211
2019-03-15,125.41999816894531,124.3499984741211,124.58999633789062,125.30999755859375,10449700.0,125.30999755859375
2019-03-18,126.12999725341797,125.16999816894531,125.20999908447266,125.87999725341797,5586900.0,125.87999725341797
2019-03-19,126.91999816894531,124.73999786376953,126.55999755859375,125.27999877929688,5096800.0,125.27999877929688
2019-03-20,126.33999633789062,124.68000030517578,125.04000091552734,124.69000244140625,6708500.0,124.69000244140625
2019-03-21,125.95999908447266,124.51000213623047,124.87000274658203,125.86000061035156,5050400.0,125.86000061035156
2019-03-22,124.9000015258789,122.69999694824219,124.8499984741211,123.08999633789062,5786800.0,123.08999633789062
2019-03-25,123.3499984741211,122.30999755859375,122.93000030517578,122.88999938964844,3837500.0,122.88999938964844
2019-03-26,124.91000366210938,123.37999725341797,123.7699966430664,124.12999725341797,4079800.0,124.12999725341797
2019-03-27,124.4800033569336,122.0199966430664,123.9800033569336,122.79000091552734,3727800.0,122.79000091552734
2019-03-28,123.16000366210938,122.36000061035156,122.5999984741211,123.0199966430664,4057700.0,123.0199966430664
2019-03-29,124.47000122070312,122.48999786376953,124.27999877929688,123.18000030517578,5318600.0,123.18000030517578
2019-04-01,125.2699966430664,123.44999694824219,123.87000274658203,124.94000244140625,5506300.0,124.94000244140625
2019-04-02,125.44000244140625,124.11000061035156,125.19999694824219,124.93000030517578,4362700.0,124.93000030517578
2019-04-03,125.3499984741211,123.54000091552734,125.22000122070312,123.88999938964844,3595400.0,123.88999938964844
2019-04-04,124.83000183105469,123.55000305175781,124.01000213623047,124.80000305175781,3715400.0,124.80000305175781
2019-04-05,126.63999938964844,125.19999694824219,125.25,126.41999816894531,5551400.0,126.41999816894531
2019-04-08,127.33999633789062,126.2300033569336,126.7699966430664,126.68000030517578,5483100.0,126.68000030517578
2019-04-09,126.29000091552734,125.12000274658203,126.29000091552734,125.54000091552734,4143400.0,125.54000091552734
2019-04-10,126.56999969482422,125.12999725341797,126.13999938964844,125.48999786376953,3970000.0,125.48999786376953
2019-04-11,126.26000213623047,124.75,125.33999633789062,125.98999786376953,3248300.0,125.98999786376953
2019-04-12,122.0,119.0,121.58000183105469,119.76000213623047,42693700.0,119.76000213623047
2019-04-15,121.0199966430664,119.33000183105469,120.0199966430664,120.13999938964844,13369100.0,120.13999938964844
2019-04-16,121.31999969482422,120.05999755859375,120.43000030517578,121.16999816894531,11942900.0,121.16999816894531
2019-04-17,122.54000091552734,120.05000305175781,122.19999694824219,120.2699966430664,11898100.0,120.2699966430664
2019-04-18,120.81999969482422,119.0999984741211,120.5199966430664,119.86000061035156,9546500.0,119.86000061035156
2019-04-22,122.01000213623047,120.44999694824219,120.77999877929688,121.9000015258789,7946200.0,121.9000015258789
2019-04-23,122.27999877929688,121.3499984741211,121.7300033569336,122.0199966430664,9079200.0,122.0199966430664
2019-04-24,121.43000030517578,118.08999633789062,121.3499984741211,118.27999877929688,22115000.0,118.27999877929688
2019-04-25,118.69999694824219,117.4000015258789,118.05000305175781,117.9000015258789,10636400.0,117.9000015258789
2019-04-26,118.5,115.6500015258789,118.4000015258789,117.0999984741211,11626700.0,117.0999984741211
2019-04-29,118.11000061035156,116.69999694824219,117.01000213623047,117.72000122070312,9404000.0,117.72000122070312
2019-04-30,121.91999816894531,119.6500015258789,121.0999984741211,120.05999755859375,21431500.0,120.05999755859375
2019-05-01,120.13999938964844,117.76000213623047,119.80000305175781,117.80999755859375,10097000.0,117.80999755859375
2019-05-02,118.4800033569336,116.27999877929688,117.27999877929688,116.37999725341797,9495600.0,116.37999725341797
2019-05-03,118.55000305175781,117.11000061035156,117.69000244140625,117.2699966430664,7364900.0,117.2699966430664
