Date,High,Low,Open,Close,Volume,Adj Close
2017-05-03,153.60000610351562,151.33999633789062,153.60000610351562,151.8000030517578,29782500,151.8000030517578
2017-05-04,151.52000427246094,148.72000122070312,150.1699981689453,150.85000610351562,36225500,150.85000610351562
2017-05-05,151.6300048828125,149.7899932861328,151.4499969482422,150.24000549316406,17148500,150.24000549316406
2017-05-08,151.0800018310547,149.74000549316406,150.7100067138672,151.05999755859375,15827500,151.05999755859375
2017-05-09,152.58999633789062,150.2100067138672,151.49000549316406,150.47999572753906,17453900,150.47999572753906
2017-05-10,150.52000427246094,148.86000061035156,150.22999572753906,150.2899932861328,12080700,150.2899932861328
2017-05-11,150.64999389648438,149.41000366210938,150.30999755859375,150.0399932861328,11841900,150.0399932861328
2017-05-12,150.4600067138672,149.6300048828125,150.39999389648438,150.3300018310547,9598200,150.3300018310547
2017-05-15,151.47999572753906,149.77000427246094,150.1699981689453,150.19000244140625,15064700,150.19000244140625
2017-05-16,150.2100067138672,149.02999877929688,150.11000061035156,149.77999877929688,14550800,149.77999877929688
2017-05-17,148.6699981689453,144.4199981689453,148.0,144.85000610351562,28300100,144.85000610351562
2017-05-18,148.14999389648438,144.50999450683594,144.72000122070312,147.66000366210938,23031600,147.66000366210938
2017-05-19,149.38999938964844,147.9600067138672,148.4499969482422,148.05999755859375,16187900,148.05999755859375
2017-05-22,148.58999633789062,147.69000244140625,148.0800018310547,148.24000549316406,12586700,148.24000549316406
2017-05-23,148.80999755859375,147.25,148.52000427246094,148.07000732421875,12817800,148.07000732421875
2017-05-24,150.22999572753906,148.4199981689453,148.50999450683594,150.0399932861328,17862400,150.0399932861328
2017-05-25,152.58999633789062,149.9499969482422,150.3000030517578,151.9600067138672,19891400,151.9600067138672
2017-05-26,152.25,151.14999389648438,152.22999572753906,152.1300048828125,14996200,152.1300048828125
2017-05-30,152.89999389648438,151.63999938964844,151.97000122070312,152.3800048828125,13226000,152.3800048828125
2017-05-31,153.35000610351562,151.08999633789062,152.6999969482422,151.4600067138672,18023900,151.4600067138672
2017-06-01,152.2899932861328,150.3000030517578,151.75,151.52999877929688,14530600,151.52999877929688
2017-06-02,153.6300048828125,151.3000030517578,151.85000610351562,153.61000061035156,16854400,153.61000061035156
2017-06-05,154.7100067138672,153.41000366210938,153.63999938964844,153.6300048828125,12520400,153.6300048828125
2017-06-06,154.52000427246094,152.47999572753906,153.41000366210938,152.80999755859375,13457100,152.80999755859375
2017-06-07,153.75,152.33999633789062,153.27000427246094,153.1199951171875,12066700,153.1199951171875
2017-06-08,154.72999572753906,153.10000610351562,154.0800018310547,154.7100067138672,17799400,154.7100067138672
2017-06-09,155.58999633789062,146.61000061035156,154.77000427246094,149.60000610351562,35577700,149.60000610351562
2017-06-12,149.1999969482422,144.55999755859375,148.1699981689453,148.44000244140625,33170200,148.44000244140625
2017-06-13,151.17999267578125,148.89999389648438,150.14999389648438,150.67999267578125,20483400,150.67999267578125
2017-06-14,152.39999389648438,149.0500030517578,151.25999450683594,150.25,20808800,150.25
2017-06-15,150.0399932861328,146.3699951171875,147.6699981689453,149.8000030517578,18994200,149.8000030517578
2017-06-16,150.8300018310547,148.60000610351562,149.58999633789062,150.63999938964844,22882400,150.63999938964844
2017-06-19,153.57000732421875,151.7100067138672,151.7100067138672,152.8699951171875,19026500,152.8699951171875
2017-06-20,153.83999633789062,152.2100067138672,152.8800048828125,152.25,14743900,152.25
2017-06-21,154.0800018310547,151.8800048828125,152.36000061035156,153.91000366210938,15039800,153.91000366210938
2017-06-22,154.5500030517578,152.91000366210938,153.00999450683594,153.39999389648438,13005500,153.39999389648438
2017-06-23,155.1999969482422,152.64999389648438,152.72000122070312,155.07000732421875,18027000,155.07000732421875
2017-06-26,156.5,153.1999969482422,156.25,153.58999633789062,18049700,153.58999633789062
2017-06-27,153.30999755859375,150.38999938964844,152.83999633789062,150.5800018310547,19360800,150.5800018310547
2017-06-28,153.47000122070312,149.86000061035156,150.9199981689453,153.24000549316406,16719100,153.24000549316406
2017-06-29,152.5,148.9199981689453,152.27999877929688,151.0399932861328,23973500,151.0399932861328
2017-06-30,151.9199981689453,150.05999755859375,151.89999389648438,150.97999572753906,17666000,150.97999572753906
2017-07-03,152.14999389648438,147.8000030517578,151.72000122070312,148.42999267578125,13862700,148.42999267578125
2017-07-05,150.85000610351562,148.1300048828125,149.0,150.33999633789062,14334300,150.33999633789062
2017-07-06,150.0399932861328,148.0,149.02999877929688,148.82000732421875,14951800,148.82000732421875
2017-07-07,151.99000549316406,149.19000244140625,149.25,151.44000244140625,13615900,151.44000244140625
2017-07-10,153.97999572753906,151.50999450683594,151.69000244140625,153.5,13378700,153.5
2017-07-11,155.4199981689453,152.91000366210938,153.3699951171875,155.27000427246094,13667700,155.27000427246094
2017-07-12,159.16000366210938,156.1999969482422,156.49000549316406,158.89999389648438,22739400,158.89999389648438
2017-07-13,159.77999877929688,158.4199981689453,158.74000549316406,159.25999450683594,13929200,159.25999450683594
2017-07-14,160.32000732421875,159.3300018310547,160.1300048828125,159.97000122070312,16371200,159.97000122070312
2017-07-17,160.77999877929688,158.80999755859375,160.25,159.72999572753906,12858800,159.72999572753906
2017-07-18,163.72999572753906,159.4199981689453,159.66000366210938,162.86000061035156,23722900,162.86000061035156
2017-07-19,165.6999969482422,163.1699981689453,163.58999633789062,164.13999938964844,26273600,164.13999938964844
2017-07-20,165.0,162.80999755859375,164.8000030517578,164.52999877929688,18523100,164.52999877929688
2017-07-21,165.0500030517578,163.75,164.16000366210938,164.42999267578125,14744000,164.42999267578125
2017-07-24,166.1699981689453,164.30999755859375,164.63999938964844,166.0,17367000,166.0
2017-07-25,165.5399932861328,163.86000061035156,165.00999450683594,165.27999877929688,15383200,165.27999877929688
2017-07-26,166.00999450683594,164.10000610351562,166.00999450683594,165.61000061035156,35236900,165.61000061035156
2017-07-27,175.49000549316406,167.5,174.6999969482422,170.44000244140625,68910700,170.44000244140625
2017-07-28,173.42999267578125,169.0500030517578,169.07000732421875,172.4499969482422,24557600,172.4499969482422
2017-07-31,172.72000122070312,168.5500030517578,172.0,169.25,25478900,169.25
2017-08-01,170.47000122070312,169.0500030517578,169.82000732421875,169.86000061035156,14385000,169.86000061035156
2017-08-02,170.5500030517578,166.91000366210938,170.3000030517578,169.3000030517578,17433800,169.3000030517578
2017-08-03,169.6999969482422,168.25,169.3000030517578,168.58999633789062,10793800,168.58999633789062
2017-08-04,170.05999755859375,168.69000244140625,168.97000122070312,169.6199951171875,10777700,169.6199951171875
2017-08-07,172.05999755859375,169.66000366210938,169.9499969482422,171.97999572753906,12787800,171.97999572753906
2017-08-08,173.0500030517578,170.6199951171875,171.8800048828125,171.22999572753906,14393500,171.22999572753906
2017-08-09,171.4499969482422,169.55999755859375,169.97999572753906,171.17999267578125,10815000,171.17999267578125
2017-08-10,170.58999633789062,166.85000610351562,170.05999755859375,167.39999389648438,20832700,167.39999389648438
2017-08-11,168.82000732421875,166.85000610351562,167.9499969482422,168.0800018310547,13791200,168.0800018310547
2017-08-14,171.0800018310547,169.2899932861328,170.08999633789062,170.75,12954200,170.75
2017-08-15,171.5,170.00999450683594,171.49000549316406,171.0,8729200,171.0
2017-08-16,171.3800048828125,169.24000549316406,171.25,170.0,15779900,170.0
2017-08-17,169.86000061035156,166.85000610351562,169.33999633789062,166.91000366210938,17216000,166.91000366210938
2017-08-18,168.6699981689453,166.2100067138672,166.83999633789062,167.41000366210938,15093600,167.41000366210938
2017-08-21,168.0,165.82000732421875,167.16000366210938,167.77999877929688,11907500,167.77999877929688
2017-08-22,169.8699951171875,167.14999389648438,168.27999877929688,169.63999938964844,11391000,169.63999938964844
2017-08-23,169.36000061035156,168.1999969482422,168.83999633789062,168.7100067138672,9856500,168.7100067138672
2017-08-24,169.2899932861328,166.41000366210938,168.8800048828125,167.74000549316406,14030400,167.74000549316406
2017-08-25,168.3800048828125,166.17999267578125,167.86000061035156,166.32000732421875,12614500,166.32000732421875
2017-08-28,167.6999969482422,166.3300018310547,166.91000366210938,167.24000549316406,8553700,167.24000549316406
2017-08-29,168.42999267578125,165.0,165.25,168.0500030517578,11121000,168.0500030517578
2017-08-30,170.17999267578125,167.6300048828125,168.1699981689453,169.9199981689453,11138300,169.9199981689453
2017-08-31,172.14999389648438,170.05999755859375,170.39999389648438,171.97000122070312,17226500,171.97000122070312
2017-09-01,172.9199981689453,171.30999755859375,172.39999389648438,172.02000427246094,11677600,172.02000427246094
2017-09-05,172.38999938964844,169.5500030517578,171.27000427246094,170.72000122070312,13210900,170.72000122070312
2017-09-06,172.47999572753906,169.57000732421875,170.91000366210938,172.08999633789062,13906300,172.08999633789062
2017-09-07,173.30999755859375,170.27000427246094,171.94000244140625,173.2100067138672,18049500,173.2100067138672
2017-09-08,173.49000549316406,170.8000030517578,173.08999633789062,170.9499969482422,10998500,170.9499969482422
2017-09-11,173.88999938964844,172.1999969482422,172.39999389648438,173.50999450683594,12372000,173.50999450683594
2017-09-12,174.0,171.75,173.75999450683594,172.9600067138672,11186300,172.9600067138672
2017-09-13,173.1699981689453,172.05999755859375,173.00999450683594,173.0500030517578,9119300,173.0500030517578
2017-09-14,172.27999877929688,170.5,172.25999450683594,170.9600067138672,15615700,170.9600067138672
2017-09-15,172.33999633789062,170.25999450683594,170.8800048828125,171.63999938964844,15660500,171.63999938964844
2017-09-18,172.07000732421875,169.33999633789062,171.99000549316406,170.00999450683594,12954000,170.00999450683594
2017-09-19,172.55999755859375,170.36000061035156,170.6199951171875,172.52000427246094,13168600,172.52000427246094
2017-09-20,173.0500030517578,170.6999969482422,172.5,172.1699981689453,12264100,172.1699981689453
2017-09-21,172.27000427246094,170.00999450683594,171.69000244140625,171.11000061035156,11161400,171.11000061035156
2017-09-22,171.72999572753906,169.22000122070312,170.2100067138672,170.5399932861328,12097100,170.5399932861328
2017-09-25,169.3000030517578,161.55999755859375,169.24000549316406,162.8699951171875,41251600,162.8699951171875
2017-09-26,165.5,162.77999877929688,164.5,164.2100067138672,23363300,164.2100067138672
2017-09-27,168.33999633789062,165.57000732421875,165.89999389648438,167.67999267578125,19242500,167.67999267578125
2017-09-28,169.07000732421875,167.16000366210938,167.94000244140625,168.72999572753906,12178700,168.72999572753906
2017-09-29,171.66000366210938,168.80999755859375,168.8300018310547,170.8699951171875,15340400,170.8699951171875
2017-10-02,171.8699951171875,168.75,171.38999938964844,169.47000122070312,13392300,169.47000122070312
2017-10-03,170.72999572753906,169.1999969482422,169.3000030517578,169.9600067138672,8190300,169.9600067138672
2017-10-04,170.6699981689453,168.2899932861328,169.8300018310547,168.4199981689453,12127900,168.4199981689453
2017-10-05,171.30999755859375,168.60000610351562,169.17999267578125,171.24000549316406,14580600,171.24000549316406
2017-10-06,172.3699951171875,169.75,170.25,172.22999572753906,13124500,172.22999572753906
2017-10-09,174.8800048828125,172.0,172.6999969482422,172.5,14570400,172.5
2017-10-10,173.1999969482422,170.8000030517578,173.0,171.58999633789062,11341100,171.58999633789062
2017-10-11,172.77999877929688,171.39999389648438,171.9499969482422,172.74000549316406,11283700,172.74000549316406
2017-10-12,173.85000610351562,172.2899932861328,172.61000061035156,172.5500030517578,10351000,172.5500030517578
2017-10-13,174.64999389648438,173.1999969482422,173.4499969482422,173.74000549316406,13658300,173.74000549316406
2017-10-16,175.0,174.05999755859375,174.49000549316406,174.52000427246094,11498800,174.52000427246094
2017-10-17,176.1300048828125,174.36000061035156,174.7100067138672,176.11000061035156,15990100,176.11000061035156
2017-10-18,176.74000549316406,175.75,176.64999389648438,176.02999877929688,12752400,176.02999877929688
2017-10-19,176.02999877929688,172.6300048828125,174.92999267578125,174.55999755859375,14048400,174.55999755859375
2017-10-20,175.8800048828125,174.6300048828125,175.5,174.97999572753906,12602200,174.97999572753906
2017-10-23,175.33999633789062,171.25,175.1999969482422,171.27000427246094,13852700,171.27000427246094
2017-10-24,173.24000549316406,171.5,172.3000030517578,171.8000030517578,12267900,171.8000030517578
2017-10-25,172.25,168.88999938964844,171.89999389648438,170.60000610351562,15868200,170.60000610351562
2017-10-26,172.2899932861328,170.38999938964844,171.3800048828125,170.6300048828125,11833100,170.6300048828125
2017-10-27,178.2100067138672,173.89999389648438,174.14999389648438,177.8800048828125,30285300,177.8800048828125
2017-10-30,180.69000244140625,177.61000061035156,179.25999450683594,179.8699951171875,24353200,179.8699951171875
2017-10-31,180.8000030517578,178.94000244140625,180.57000732421875,180.05999755859375,20174200,180.05999755859375
2017-11-01,182.89999389648438,180.57000732421875,182.36000061035156,182.66000366210938,40918300,182.66000366210938
2017-11-02,181.94000244140625,177.33999633789062,180.6300048828125,178.9199981689453,35529900,178.9199981689453
2017-11-03,179.86000061035156,176.7100067138672,179.2899932861328,178.9199981689453,17822100,178.9199981689453
2017-11-06,180.4499969482422,178.30999755859375,178.55999755859375,180.1699981689453,13139400,180.1699981689453
2017-11-07,180.75,178.9600067138672,180.5,180.25,12928200,180.25
2017-11-08,180.35000610351562,179.11000061035156,179.7899932861328,179.55999755859375,10494100,179.55999755859375
2017-11-09,179.39999389648438,177.08999633789062,178.30999755859375,179.3000030517578,12610300,179.3000030517578
2017-11-10,179.10000610351562,177.9600067138672,178.35000610351562,178.4600067138672,11070200,178.4600067138672
2017-11-13,179.0399932861328,177.3000030517578,177.5,178.77000427246094,9523400,178.77000427246094
2017-11-14,178.97000122070312,177.17999267578125,178.1300048828125,178.07000732421875,9585900,178.07000732421875
2017-11-15,178.57000732421875,176.39999389648438,176.66000366210938,177.9499969482422,10253700,177.9499969482422
2017-11-16,179.8300018310547,178.5,178.75999450683594,179.58999633789062,15607600,179.58999633789062
2017-11-17,179.97999572753906,178.89999389648438,179.3000030517578,179.0,13018000,179.0
2017-11-20,179.5,178.10000610351562,178.8699951171875,178.74000549316406,10052400,178.74000549316406
2017-11-21,181.88999938964844,178.99000549316406,179.14999389648438,181.86000061035156,14504000,181.86000061035156
2017-11-22,181.72999572753906,180.44000244140625,181.3000030517578,180.8699951171875,10376300,180.8699951171875
2017-11-24,183.14999389648438,180.2899932861328,180.39999389648438,182.77999877929688,9426300,182.77999877929688
2017-11-27,183.72999572753906,181.99000549316406,182.55999755859375,183.02999877929688,12344500,183.02999877929688
2017-11-28,184.25,182.08999633789062,183.50999450683594,182.4199981689453,14379700,182.4199981689453
2017-11-29,181.97000122070312,174.0,181.88999938964844,175.1300048828125,41933500,175.1300048828125
2017-11-30,178.27999877929688,175.1999969482422,176.85000610351562,177.17999267578125,25307600,177.17999267578125
2017-12-01,177.47999572753906,172.33999633789062,176.02999877929688,175.10000610351562,20182500,175.10000610351562
2017-12-04,176.57000732421875,170.7899932861328,176.2899932861328,171.47000122070312,24459400,171.47000122070312
2017-12-05,175.3800048828125,169.00999450683594,170.4499969482422,172.8300018310547,20184900,172.8300018310547
2017-12-06,176.77000427246094,171.89999389648438,172.5,176.05999755859375,20255800,176.05999755859375
2017-12-07,180.38999938964844,175.8000030517578,175.8000030517578,180.13999938964844,20404500,180.13999938964844
2017-12-08,182.27999877929688,178.74000549316406,181.52999877929688,179.0,19883800,179.0
2017-12-11,180.22000122070312,178.8000030517578,179.3000030517578,179.0399932861328,13168600,179.0399932861328
2017-12-12,179.17999267578125,176.60000610351562,178.60000610351562,176.9600067138672,16854100,176.9600067138672
2017-12-13,179.16000366210938,177.25,177.3000030517578,178.3000030517578,14615700,178.3000030517578
2017-12-14,180.36000061035156,177.67999267578125,178.2899932861328,178.38999938964844,13591000,178.38999938964844
2017-12-15,180.49000549316406,178.36000061035156,179.02000427246094,180.17999267578125,28463100,180.17999267578125
2017-12-18,181.3000030517578,179.75,181.00999450683594,180.82000732421875,17265400,180.82000732421875
2017-12-19,180.0800018310547,178.22000122070312,179.9499969482422,179.50999450683594,14920600,179.50999450683594
2017-12-20,179.80999755859375,177.36000061035156,179.80999755859375,177.88999938964844,11860500,177.88999938964844
2017-12-21,178.67999267578125,177.0500030517578,177.94000244140625,177.4499969482422,11600700,177.4499969482422
2017-12-22,177.52999877929688,176.22999572753906,177.13999938964844,177.1999969482422,8487000,177.1999969482422
2017-12-26,177.0,174.6699981689453,176.6300048828125,175.99000549316406,8897300,175.99000549316406
2017-12-27,178.44000244140625,176.25999450683594,176.5500030517578,177.6199951171875,9496100,177.6199951171875
2017-12-28,178.94000244140625,177.67999267578125,177.9499969482422,177.9199981689453,12220800,177.9199981689453
2017-12-29,178.85000610351562,176.4600067138672,178.0,176.4600067138672,10178700,176.4600067138672
2018-01-02,181.5800018310547,177.5500030517578,177.67999267578125,181.4199981689453,18151900,181.4199981689453
2018-01-03,184.77999877929688,181.3300018310547,181.8800048828125,184.6699981689453,16886600,184.6699981689453
2018-01-04,186.2100067138672,184.10000610351562,184.89999389648438,184.3300018310547,13880900,184.3300018310547
2018-01-05,186.89999389648438,184.92999267578125,185.58999633789062,186.85000610351562,13574500,186.85000610351562
2018-01-08,188.89999389648438,186.3300018310547,187.1999969482422,188.27999877929688,17994700,188.27999877929688
2018-01-09,188.8000030517578,187.10000610351562,188.6999969482422,187.8699951171875,12393100,187.8699951171875
2018-01-10,187.88999938964844,185.6300048828125,186.94000244140625,187.83999633789062,10529900,187.83999633789062
2018-01-11,188.39999389648438,187.3800048828125,188.39999389648438,187.77000427246094,9588600,187.77000427246094
2018-01-12,181.47999572753906,177.39999389648438,178.05999755859375,179.3699951171875,77306900,179.3699951171875
2018-01-16,181.75,178.0399932861328,181.5,178.38999938964844,36183800,178.38999938964844
2018-01-17,179.32000732421875,175.8000030517578,179.25999450683594,177.60000610351562,27992400,177.60000610351562
2018-01-18,180.97999572753906,177.0800018310547,178.1300048828125,179.8000030517578,23304900,179.8000030517578
2018-01-19,182.3699951171875,180.1699981689453,180.85000610351562,181.2899932861328,26826500,181.2899932861328
2018-01-22,185.38999938964844,180.41000366210938,180.8000030517578,185.3699951171875,21059500,185.3699951171875
2018-01-23,189.5500030517578,185.5500030517578,186.0500030517578,189.35000610351562,25678800,189.35000610351562
2018-01-24,190.66000366210938,186.52000427246094,189.88999938964844,186.5500030517578,24334500,186.5500030517578
2018-01-25,188.6199951171875,186.60000610351562,187.9499969482422,187.47999572753906,17377700,187.47999572753906
2018-01-26,190.0,186.80999755859375,187.75,190.0,17759200,190.0
2018-01-29,188.83999633789062,185.6300048828125,188.75,185.97999572753906,20453200,185.97999572753906
2018-01-30,188.17999267578125,181.83999633789062,187.6199951171875,187.1199951171875,20858600,187.1199951171875
2018-01-31,189.8300018310547,185.22000122070312,188.3699951171875,186.88999938964844,43275100,186.88999938964844
2018-02-01,195.32000732421875,187.88999938964844,188.22000122070312,193.08999633789062,54211300,193.08999633789062
2018-02-02,194.2100067138672,189.97999572753906,192.0399932861328,190.27999877929688,26677500,190.27999877929688
2018-02-05,190.61000061035156,180.61000061035156,186.92999267578125,181.25999450683594,33128200,181.25999450683594
2018-02-06,185.77000427246094,177.74000549316406,178.57000732421875,185.30999755859375,37758500,185.30999755859375
2018-02-07,185.0800018310547,179.9499969482422,184.14999389648438,180.17999267578125,27601900,180.17999267578125
2018-02-08,181.83999633789062,171.47999572753906,181.00999450683594,171.5800018310547,38478300,171.5800018310547
2018-02-09,176.89999389648438,167.17999267578125,174.75999450683594,176.11000061035156,39887600,176.11000061035156
2018-02-12,177.5500030517578,171.83999633789062,177.05999755859375,176.41000366210938,32092100,176.41000366210938
2018-02-13,175.97000122070312,173.10000610351562,175.6199951171875,173.14999389648438,21809400,173.14999389648438
2018-02-14,179.80999755859375,173.2100067138672,173.4499969482422,179.52000427246094,28929700,179.52000427246094
2018-02-15,180.5,176.83999633789062,180.5,179.9600067138672,20922100,179.9600067138672
2018-02-16,179.8800048828125,176.3000030517578,178.99000549316406,177.36000061035156,20645300,177.36000061035156
2018-02-20,177.9499969482422,175.11000061035156,175.77000427246094,176.00999450683594,21204900,176.00999450683594
2018-02-21,181.27000427246094,176.39999389648438,176.7100067138672,177.91000366210938,23200800,177.91000366210938
2018-02-22,180.2100067138672,177.41000366210938,178.6999969482422,178.99000549316406,18464200,178.99000549316406
2018-02-23,183.38999938964844,179.50999450683594,179.89999389648438,183.2899932861328,19007300,183.2899932861328
2018-02-26,185.66000366210938,183.22000122070312,184.5800018310547,184.92999267578125,17599700,184.92999267578125
2018-02-27,184.6999969482422,181.4600067138672,184.4499969482422,181.4600067138672,15849800,181.4600067138672
2018-02-28,182.8800048828125,178.13999938964844,182.3000030517578,178.32000732421875,18783000,178.32000732421875
2018-03-01,180.1199951171875,174.41000366210938,179.00999450683594,175.94000244140625,23201600,175.94000244140625
2018-03-02,177.11000061035156,172.99000549316406,173.2899932861328,176.6199951171875,20025900,176.6199951171875
2018-03-05,181.14999389648438,175.88999938964844,176.1999969482422,180.39999389648438,16189300,180.39999389648438
2018-03-06,182.3800048828125,179.11000061035156,181.77999877929688,179.77999877929688,15086800,179.77999877929688
2018-03-07,183.82000732421875,178.07000732421875,178.74000549316406,183.7100067138672,19097300,183.7100067138672
2018-03-08,184.39999389648438,181.4499969482422,183.55999755859375,182.33999633789062,17225900,182.33999633789062
2018-03-09,185.50999450683594,183.2100067138672,183.91000366210938,185.22999572753906,18526300,185.22999572753906
2018-03-12,186.10000610351562,184.22000122070312,185.22999572753906,184.75999450683594,15301200,184.75999450683594
2018-03-13,185.99000549316406,181.11000061035156,185.61000061035156,181.8800048828125,18067500,181.8800048828125
2018-03-14,184.25,181.85000610351562,182.60000610351562,184.19000244140625,16821700,184.19000244140625
2018-03-15,184.0,182.19000244140625,183.24000549316406,183.86000061035156,15614300,183.86000061035156
2018-03-16,185.3300018310547,183.41000366210938,184.49000549316406,185.08999633789062,24403400,185.08999633789062
2018-03-19,177.1699981689453,170.05999755859375,177.00999450683594,172.55999755859375,88140100,172.55999755859375
2018-03-20,170.1999969482422,161.9499969482422,167.47000122070312,168.14999389648438,129851800,168.14999389648438
2018-03-21,173.39999389648438,163.3000030517578,164.8000030517578,169.38999938964844,105920200,169.38999938964844
2018-03-22,170.27000427246094,163.72000122070312,166.1300048828125,164.88999938964844,73743000,164.88999938964844
2018-03-23,166.60000610351562,159.02000427246094,165.44000244140625,159.38999938964844,53609700,159.38999938964844
2018-03-26,161.10000610351562,149.02000427246094,160.82000732421875,160.05999755859375,126116600,160.05999755859375
2018-03-27,162.85000610351562,150.75,156.30999755859375,152.22000122070312,79117000,152.22000122070312
2018-03-28,155.8800048828125,150.8000030517578,151.64999389648438,153.02999877929688,60029200,153.02999877929688
2018-03-29,161.4199981689453,154.13999938964844,155.14999389648438,159.7899932861328,59434300,159.7899932861328
2018-04-02,159.1999969482422,154.11000061035156,157.80999755859375,155.38999938964844,36796000,155.38999938964844
2018-04-03,157.38999938964844,150.80999755859375,156.5500030517578,156.11000061035156,42543900,156.11000061035156
2018-04-04,155.55999755859375,150.50999450683594,152.02999877929688,155.10000610351562,49885600,155.10000610351562
2018-04-05,161.57000732421875,156.64999389648438,161.55999755859375,159.33999633789062,41449600,159.33999633789062
2018-04-06,161.4199981689453,156.80999755859375,157.72999572753906,157.1999969482422,41644800,157.1999969482422
2018-04-09,160.52999877929688,156.0399932861328,157.82000732421875,157.92999267578125,34915200,157.92999267578125
2018-04-10,165.97999572753906,157.00999450683594,157.92999267578125,165.0399932861328,57889300,165.0399932861328
2018-04-11,168.64999389648438,163.25,165.36000061035156,166.32000732421875,56144600,166.32000732421875
2018-04-12,167.4499969482422,163.10000610351562,166.97999572753906,163.8699951171875,38263000,163.8699951171875
2018-04-13,165.6999969482422,163.77000427246094,164.5800018310547,164.52000427246094,19990600,164.52000427246094
2018-04-16,165.77999877929688,163.38999938964844,165.72000122070312,164.8300018310547,18119400,164.8300018310547
2018-04-17,169.0,165.66000366210938,165.8300018310547,168.66000366210938,21716700,168.66000366210938
2018-04-18,168.1199951171875,165.77000427246094,166.8800048828125,166.36000061035156,20969600,166.36000061035156
2018-04-19,168.3300018310547,165.1999969482422,166.1999969482422,168.10000610351562,22235000,168.10000610351562
2018-04-20,168.42999267578125,165.80999755859375,167.7899932861328,166.27999877929688,19119400,166.27999877929688
2018-04-23,168.4499969482422,165.08999633789062,167.27000427246094,165.83999633789062,23088100,165.83999633789062
2018-04-24,166.10000610351562,158.19000244140625,165.42999267578125,159.69000244140625,35079900,159.69000244140625
2018-04-25,161.05999755859375,156.19000244140625,160.13999938964844,159.69000244140625,41083600,159.69000244140625
2018-04-26,176.27000427246094,170.8000030517578,173.22000122070312,174.16000366210938,77556900,174.16000366210938
2018-04-27,177.10000610351562,172.60000610351562,176.80999755859375,173.58999633789062,29804700,173.58999633789062
2018-04-30,175.72000122070312,171.7100067138672,173.7899932861328,172.0,20750500,172.0
2018-05-01,174.02000427246094,170.22999572753906,172.0,173.86000061035156,26025900,173.86000061035156
2018-05-02,178.0800018310547,174.1999969482422,174.25,176.07000732421875,30424500,176.07000732421875
2018-05-03,176.1199951171875,172.1199951171875,175.1300048828125,174.02000427246094,24026100,174.02000427246094
2018-05-04,176.97999572753906,173.05999755859375,173.0800018310547,176.61000061035156,17677800,176.61000061035156
2018-05-07,179.5,177.1699981689453,177.35000610351562,177.97000122070312,18697200,177.97000122070312
2018-05-08,179.0399932861328,177.11000061035156,178.25,178.9199981689453,15577200,178.9199981689453
2018-05-09,183.00999450683594,178.77999877929688,179.6699981689453,182.66000366210938,23282800,182.66000366210938
2018-05-10,186.1300048828125,182.5,183.14999389648438,185.52999877929688,21071400,185.52999877929688
2018-05-11,188.32000732421875,184.17999267578125,184.85000610351562,186.99000549316406,21207800,186.99000549316406
2018-05-14,187.86000061035156,186.1999969482422,187.7100067138672,186.63999938964844,15646700,186.63999938964844
2018-05-15,185.2899932861328,183.1999969482422,184.8800048828125,184.32000732421875,15429400,184.32000732421875
2018-05-16,184.32000732421875,182.66000366210938,183.6999969482422,183.1999969482422,16975500,183.1999969482422
2018-05-17,184.05999755859375,182.22000122070312,182.67999267578125,183.75999450683594,14840700,183.75999450683594
2018-05-18,184.19000244140625,182.61000061035156,183.49000549316406,182.67999267578125,13130500,182.67999267578125
2018-05-21,185.3000030517578,183.1300048828125,183.77000427246094,184.49000549316406,13532900,184.49000549316406
2018-05-22,185.4199981689453,183.42999267578125,184.92999267578125,183.8000030517578,12731400,183.8000030517578
2018-05-23,186.91000366210938,182.17999267578125,182.5,186.89999389648438,16628100,186.89999389648438
2018-05-24,186.8000030517578,185.02999877929688,185.8800048828125,185.92999267578125,12354700,185.92999267578125
2018-05-25,186.3300018310547,184.4499969482422,186.02000427246094,184.9199981689453,10965100,184.9199981689453
2018-05-29,186.80999755859375,183.7100067138672,184.33999633789062,185.74000549316406,16398900,185.74000549316406
2018-05-30,188.0,185.25,186.5399932861328,187.6699981689453,13736900,187.6699981689453
2018-05-31,192.72000122070312,187.47999572753906,187.8699951171875,191.77999877929688,30782600,191.77999877929688
2018-06-01,194.5500030517578,192.07000732421875,193.07000732421875,193.99000549316406,17307200,193.99000549316406
2018-06-04,193.97999572753906,191.47000122070312,191.83999633789062,193.27999877929688,18939800,193.27999877929688
2018-06-05,195.0,192.6199951171875,194.3000030517578,192.94000244140625,15544300,192.94000244140625
2018-06-06,192.52999877929688,189.11000061035156,191.02999877929688,191.33999633789062,22558900,191.33999633789062
2018-06-07,190.97000122070312,186.77000427246094,190.75,188.17999267578125,21503200,188.17999267578125
2018-06-08,189.47999572753906,186.42999267578125,187.52999877929688,189.10000610351562,12677100,189.10000610351562
2018-06-11,192.60000610351562,188.8000030517578,188.80999755859375,191.5399932861328,12928900,191.5399932861328
2018-06-12,193.27999877929688,191.55999755859375,192.1699981689453,192.39999389648438,11562700,192.39999389648438
2018-06-13,194.5,191.91000366210938,192.74000549316406,192.41000366210938,15853800,192.41000366210938
2018-06-14,197.27999877929688,192.91000366210938,193.10000610351562,196.80999755859375,19120900,196.80999755859375
2018-06-15,197.07000732421875,194.63999938964844,195.7899932861328,195.85000610351562,21860900,195.85000610351562
2018-06-18,199.5800018310547,194.1300048828125,194.8000030517578,198.30999755859375,16826000,198.30999755859375
2018-06-19,197.9600067138672,193.7899932861328,196.24000549316406,197.49000549316406,19994000,197.49000549316406
2018-06-20,203.5500030517578,198.80999755859375,199.10000610351562,202.0,28230900,202.0
2018-06-21,203.38999938964844,200.08999633789062,202.75999450683594,201.5,19045700,201.5
2018-06-22,202.24000549316406,199.30999755859375,201.16000366210938,201.74000549316406,17420200,201.74000549316406
2018-06-25,200.0,193.11000061035156,200.0,196.35000610351562,25275100,196.35000610351562
2018-06-26,199.10000610351562,196.22999572753906,197.60000610351562,199.0,17897600,199.0
2018-06-27,200.75,195.8000030517578,199.17999267578125,195.83999633789062,18734400,195.83999633789062
2018-06-28,197.33999633789062,193.25999450683594,195.17999267578125,196.22999572753906,18172400,196.22999572753906
2018-06-29,197.60000610351562,193.9600067138672,197.32000732421875,194.32000732421875,15811600,194.32000732421875
2018-07-02,197.4499969482422,192.22000122070312,193.3699951171875,197.36000061035156,13961600,197.36000061035156
2018-07-03,195.39999389648438,192.52000427246094,194.5500030517578,192.72999572753906,13489500,192.72999572753906
2018-07-05,198.64999389648438,194.02999877929688,194.74000549316406,198.4499969482422,19684200,198.4499969482422
2018-07-06,203.63999938964844,197.6999969482422,198.4499969482422,203.22999572753906,19740100,203.22999572753906
2018-07-09,205.8000030517578,202.1199951171875,204.92999267578125,204.74000549316406,18149400,204.74000549316406
2018-07-10,204.91000366210938,202.25999450683594,204.5,203.5399932861328,13190100,203.5399932861328
2018-07-11,204.5,201.75,202.22000122070312,202.5399932861328,12927400,202.5399932861328
2018-07-12,207.0800018310547,203.19000244140625,203.42999267578125,206.9199981689453,15454700,206.9199981689453
2018-07-13,208.42999267578125,206.4499969482422,207.80999755859375,207.32000732421875,11486800,207.32000732421875
2018-07-16,208.72000122070312,206.83999633789062,207.5,207.22999572753906,11078200,207.22999572753906
2018-07-17,210.4600067138672,204.83999633789062,204.89999389648438,209.99000549316406,15349900,209.99000549316406
2018-07-18,210.99000549316406,208.44000244140625,209.82000732421875,209.36000061035156,15334900,209.36000061035156
2018-07-19,209.99000549316406,207.75999450683594,208.77000427246094,208.08999633789062,11350400,208.08999633789062
2018-07-20,211.5,208.5,208.85000610351562,209.94000244140625,16163900,209.94000244140625
2018-07-23,211.6199951171875,208.8000030517578,210.5800018310547,210.91000366210938,16732000,210.91000366210938
2018-07-24,216.1999969482422,212.60000610351562,215.11000061035156,214.6699981689453,28468700,214.6699981689453
2018-07-25,218.6199951171875,214.27000427246094,215.72000122070312,217.5,58954200,217.5
2018-07-26,180.1300048828125,173.75,174.88999938964844,176.25999450683594,169803700,176.25999450683594
2018-07-27,179.92999267578125,173.0,179.8699951171875,174.88999938964844,60073700,174.88999938964844
2018-07-30,175.3000030517578,166.55999755859375,175.3000030517578,171.05999755859375,65280800,171.05999755859375
2018-07-31,174.24000549316406,170.0,170.6699981689453,172.5800018310547,40356500,172.5800018310547
2018-08-01,175.0800018310547,170.89999389648438,173.92999267578125,171.64999389648438,34042100,171.64999389648438
2018-08-02,176.7899932861328,170.27000427246094,170.67999267578125,176.3699951171875,32400000,176.3699951171875
2018-08-03,178.85000610351562,176.14999389648438,177.69000244140625,177.77999877929688,24763400,177.77999877929688
2018-08-06,185.7899932861328,178.3800048828125,178.97000122070312,185.69000244140625,49716200,185.69000244140625
2018-08-07,188.3000030517578,183.72000122070312,186.5,183.80999755859375,33398600,183.80999755859375
2018-08-08,186.85000610351562,183.75999450683594,184.75,185.17999267578125,22205200,185.17999267578125
2018-08-09,186.57000732421875,182.47999572753906,185.85000610351562,183.08999633789062,19696700,183.08999633789062
2018-08-10,182.10000610351562,179.4199981689453,182.0399932861328,180.25999450683594,21500400,180.25999450683594
2018-08-13,182.61000061035156,178.89999389648438,180.10000610351562,180.0500030517578,17369400,180.0500030517578
2018-08-14,181.99000549316406,178.6199951171875,180.7100067138672,181.11000061035156,19102000,181.11000061035156
2018-08-15,180.8699951171875,174.77999877929688,179.33999633789062,179.52999877929688,33020200,179.52999877929688
2018-08-16,180.5,174.00999450683594,180.4199981689453,174.6999969482422,31351800,174.6999969482422
2018-08-17,176.22000122070312,172.0399932861328,174.5,173.8000030517578,24893200,173.8000030517578
2018-08-20,174.57000732421875,170.91000366210938,174.0399932861328,172.5,21518000,172.5
2018-08-21,174.1699981689453,171.38999938964844,172.80999755859375,172.6199951171875,19578500,172.6199951171875
2018-08-22,174.24000549316406,172.1300048828125,172.2100067138672,173.63999938964844,16894100,173.63999938964844
2018-08-23,175.5500030517578,172.8300018310547,173.08999633789062,172.89999389648438,18053600,172.89999389648438
2018-08-24,174.82000732421875,172.9199981689453,173.6999969482422,174.64999389648438,14631600,174.64999389648438
2018-08-27,178.6699981689453,175.7899932861328,175.99000549316406,177.4600067138672,17921900,177.4600067138672
2018-08-28,178.24000549316406,175.8300018310547,178.10000610351562,176.25999450683594,15910700,176.25999450683594
2018-08-29,176.7899932861328,174.75,176.3000030517578,175.89999389648438,18494100,175.89999389648438
2018-08-30,179.7899932861328,175.6999969482422,175.89999389648438,177.63999938964844,24216500,177.63999938964844
2018-08-31,177.6199951171875,174.97999572753906,177.14999389648438,175.72999572753906,18065200,175.72999572753906
2018-09-04,173.88999938964844,168.8000030517578,173.5,171.16000366210938,29809000,171.16000366210938
2018-09-05,171.1300048828125,166.6699981689453,169.49000549316406,167.17999267578125,31226700,167.17999267578125
2018-09-06,166.97999572753906,160.0,166.97999572753906,162.52999877929688,41514800,162.52999877929688
2018-09-07,164.6300048828125,160.16000366210938,160.30999755859375,163.0399932861328,24300600,163.0399932861328
2018-09-10,165.00999450683594,162.16000366210938,163.50999450683594,164.17999267578125,20197700,164.17999267578125
2018-09-11,167.19000244140625,163.72000122070312,163.94000244140625,165.94000244140625,20457100,165.94000244140625
2018-09-12,164.49000549316406,161.8000030517578,163.25,162.0,24078100,162.0
2018-09-13,163.32000732421875,160.86000061035156,162.0,161.36000061035156,25453800,161.36000061035156
2018-09-14,162.83999633789062,160.33999633789062,161.72000122070312,162.32000732421875,21770400,162.32000732421875
2018-09-17,162.05999755859375,159.77000427246094,161.9199981689453,160.5800018310547,21005300,160.5800018310547
2018-09-18,161.75999450683594,158.8699951171875,159.38999938964844,160.3000030517578,22465200,160.3000030517578
2018-09-19,163.44000244140625,159.47999572753906,160.0800018310547,163.05999755859375,19629000,163.05999755859375
2018-09-20,166.4499969482422,164.47000122070312,164.5,166.02000427246094,18824200,166.02000427246094
2018-09-21,167.25,162.80999755859375,166.63999938964844,162.92999267578125,45994800,162.92999267578125
2018-09-24,165.6999969482422,160.8800048828125,161.02999877929688,165.41000366210938,19222800,165.41000366210938
2018-09-25,165.58999633789062,161.14999389648438,161.99000549316406,164.91000366210938,27622800,164.91000366210938
2018-09-26,169.3000030517578,164.2100067138672,164.3000030517578,166.9499969482422,25252200,166.9499969482422
2018-09-27,171.77000427246094,167.2100067138672,167.5500030517578,168.83999633789062,27266900,168.83999633789062
2018-09-28,168.7899932861328,162.55999755859375,168.3300018310547,164.4600067138672,34265600,164.4600067138672
2018-10-01,165.8800048828125,161.25999450683594,163.02999877929688,162.44000244140625,26407700,162.44000244140625
2018-10-02,162.27999877929688,158.6699981689453,161.5800018310547,159.3300018310547,36031000,159.3300018310547
2018-10-03,163.66000366210938,159.52999877929688,160.0,162.42999267578125,23109500,162.42999267578125
2018-10-04,161.4600067138672,157.35000610351562,161.4600067138672,158.85000610351562,25739600,158.85000610351562
2018-10-05,160.89999389648438,156.1999969482422,159.2100067138672,157.3300018310547,25744000,157.3300018310547
2018-10-08,158.33999633789062,154.38999938964844,155.5399932861328,157.25,24046000,157.25
2018-10-09,160.58999633789062,157.4199981689453,157.69000244140625,157.89999389648438,18844400,157.89999389648438
2018-10-10,157.69000244140625,151.30999755859375,156.82000732421875,151.3800048828125,30610000,151.3800048828125
2018-10-11,154.80999755859375,149.16000366210938,150.1300048828125,153.35000610351562,35338900,153.35000610351562
2018-10-12,156.88999938964844,151.3000030517578,156.72999572753906,153.74000549316406,25293500,153.74000549316406
2018-10-15,155.57000732421875,152.5500030517578,153.32000732421875,153.52000427246094,15433500,153.52000427246094
2018-10-16,159.4600067138672,155.00999450683594,155.39999389648438,158.77999877929688,19180100,158.77999877929688
2018-10-17,160.49000549316406,157.9499969482422,159.55999755859375,159.4199981689453,17592000,159.4199981689453
2018-10-18,158.66000366210938,153.27999877929688,158.50999450683594,154.9199981689453,21675100,154.9199981689453
2018-10-19,157.35000610351562,153.5500030517578,155.86000061035156,154.0500030517578,19761300,154.0500030517578
2018-10-22,157.33999633789062,154.4600067138672,154.75999450683594,154.77999877929688,15424700,154.77999877929688
2018-10-23,154.77000427246094,150.85000610351562,151.22000122070312,154.38999938964844,19095000,154.38999938964844
2018-10-24,154.64999389648438,145.60000610351562,154.27999877929688,146.0399932861328,27744600,146.0399932861328
2018-10-25,152.2100067138672,147.0,147.72999572753906,150.9499969482422,22105700,150.9499969482422
2018-10-26,149.0,143.8000030517578,145.82000732421875,145.3699951171875,31303300,145.3699951171875
2018-10-29,148.8300018310547,139.02999877929688,148.5,142.08999633789062,31336800,142.08999633789062
2018-10-30,146.63999938964844,139.74000549316406,139.94000244140625,146.22000122070312,50528300,146.22000122070312
2018-10-31,156.39999389648438,148.9600067138672,155.0,151.7899932861328,60101300,151.7899932861328
2018-11-01,152.75,149.35000610351562,151.52000427246094,151.75,25640800,151.75
2018-11-02,154.1300048828125,148.9600067138672,151.8000030517578,150.35000610351562,24708700,150.35000610351562
2018-11-05,150.19000244140625,147.44000244140625,150.10000610351562,148.67999267578125,15971200,148.67999267578125
2018-11-06,150.97000122070312,148.0,149.30999755859375,149.94000244140625,16667100,149.94000244140625
2018-11-07,153.00999450683594,149.8300018310547,151.57000732421875,151.52999877929688,21877400,151.52999877929688
2018-11-08,150.94000244140625,146.74000549316406,150.49000549316406,147.8699951171875,24145800,147.8699951171875
2018-11-09,147.75999450683594,144.07000732421875,146.75,144.9600067138672,17326900,144.9600067138672
2018-11-12,145.0399932861328,140.49000549316406,144.47999572753906,141.5500030517578,18542100,141.5500030517578
2018-11-13,144.8800048828125,141.6199951171875,142.0,142.16000366210938,15141700,142.16000366210938
2018-11-14,145.5800018310547,141.5500030517578,143.6999969482422,144.22000122070312,22068400,144.22000122070312
2018-11-15,144.83999633789062,140.8300018310547,142.3300018310547,143.85000610351562,30320300,143.85000610351562
2018-11-16,141.77000427246094,137.77000427246094,141.07000732421875,139.52999877929688,37250600,139.52999877929688
2018-11-19,137.75,131.2100067138672,137.61000061035156,131.5500030517578,44362700,131.5500030517578
2018-11-20,134.16000366210938,126.8499984741211,127.02999877929688,132.42999267578125,41939500,132.42999267578125
2018-11-21,137.19000244140625,134.1300048828125,134.39999389648438,134.82000732421875,25469700,134.82000732421875
2018-11-23,134.5,131.25999450683594,133.64999389648438,131.72999572753906,11886100,131.72999572753906
2018-11-26,137.0,132.77999877929688,133.0,136.3800048828125,24263600,136.3800048828125
2018-11-27,136.61000061035156,133.7100067138672,135.75,135.0,20750300,135.0
2018-11-28,136.7899932861328,131.85000610351562,136.27999877929688,136.75999450683594,29847500,136.75999450683594
2018-11-29,139.99000549316406,135.66000366210938,135.9199981689453,138.67999267578125,24238700,138.67999267578125
2018-11-30,140.97000122070312,137.36000061035156,138.25999450683594,140.61000061035156,25732600,140.61000061035156
2018-12-03,143.67999267578125,140.75999450683594,143.0,141.08999633789062,24819200,141.08999633789062
2018-12-04,143.38999938964844,137.16000366210938,140.72999572753906,137.92999267578125,30307400,137.92999267578125
2018-12-06,139.6999969482422,133.6699981689453,133.82000732421875,139.6300048828125,28218100,139.6300048828125
2018-12-07,140.8699951171875,136.66000366210938,139.25,137.4199981689453,21195500,137.4199981689453
2018-12-10,143.0500030517578,139.00999450683594,139.60000610351562,141.85000610351562,26422200,141.85000610351562
2018-12-11,143.8800048828125,141.10000610351562,143.8800048828125,142.0800018310547,20300300,142.0800018310547
2018-12-12,147.19000244140625,142.50999450683594,143.0800018310547,144.5,23696900,144.5
2018-12-13,145.85000610351562,143.19000244140625,145.57000732421875,145.00999450683594,18148600,145.00999450683594
2018-12-14,146.00999450683594,142.50999450683594,143.33999633789062,144.05999755859375,21785800,144.05999755859375
2018-12-17,144.9199981689453,138.4199981689453,143.0800018310547,140.19000244140625,24334000,140.19000244140625
2018-12-18,145.92999267578125,139.8300018310547,141.0800018310547,143.66000366210938,24709100,143.66000366210938
2018-12-19,144.91000366210938,132.5,141.2100067138672,133.24000549316406,57404900,133.24000549316406
2018-12-20,135.57000732421875,130.0,130.6999969482422,133.39999389648438,40297900,133.39999389648438
2018-12-21,134.89999389648438,123.41999816894531,133.38999938964844,124.94999694824219,56901500,124.94999694824219
2018-12-24,129.74000549316406,123.0199966430664,123.0999984741211,124.05999755859375,22066000,124.05999755859375
2018-12-26,134.24000549316406,125.88999938964844,126.0,134.17999267578125,39723400,134.17999267578125
2018-12-27,134.99000549316406,129.6699981689453,132.44000244140625,134.52000427246094,31202500,134.52000427246094
2018-12-28,135.9199981689453,132.1999969482422,135.33999633789062,133.1999969482422,22627600,133.1999969482422
2018-12-31,134.63999938964844,129.9499969482422,134.4499969482422,131.08999633789062,24625300,131.08999633789062
2019-01-02,137.50999450683594,128.55999755859375,128.99000549316406,135.67999267578125,28146200,135.67999267578125
2019-01-03,137.1699981689453,131.1199951171875,134.69000244140625,131.74000549316406,22700800,131.74000549316406
2019-01-04,138.0,133.75,134.00999450683594,137.9499969482422,29002100,137.9499969482422
2019-01-07,138.8699951171875,135.91000366210938,137.55999755859375,138.0500030517578,20089300,138.0500030517578
2019-01-08,143.13999938964844,139.5399932861328,139.88999938964844,142.52999877929688,26263800,142.52999877929688
2019-01-09,144.6999969482422,141.27000427246094,142.9499969482422,144.22999572753906,22205900,144.22999572753906
2019-01-10,144.55999755859375,140.83999633789062,143.0800018310547,144.1999969482422,16125000,144.1999969482422
2019-01-11,145.36000061035156,142.57000732421875,143.14999389648438,143.8000030517578,12908000,143.8000030517578
2019-01-14,146.57000732421875,141.27000427246094,142.0,145.38999938964844,20520300,145.38999938964844
2019-01-15,150.67999267578125,145.99000549316406,146.00999450683594,148.9499969482422,24069000,148.9499969482422
2019-01-16,149.64999389648438,147.0,149.0,147.5399932861328,18025700,147.5399932861328
2019-01-17,149.0,146.5,146.9499969482422,148.3000030517578,15787900,148.3000030517578
2019-01-18,152.42999267578125,148.5500030517578,149.75,150.0399932861328,31029600,150.0399932861328
2019-01-22,151.52999877929688,146.3699951171875,149.1999969482422,147.57000732421875,22378700,147.57000732421875
2019-01-23,148.8000030517578,143.05999755859375,148.27999877929688,144.3000030517578,20098400,144.3000030517578
2019-01-24,146.44000244140625,142.52000427246094,144.63999938964844,145.8300018310547,20955500,145.8300018310547
2019-01-25,149.8300018310547,146.5399932861328,147.47999572753906,149.00999450683594,22237200,149.00999450683594
2019-01-28,148.9600067138672,146.2100067138672,148.0500030517578,147.47000122070312,15508500,147.47000122070312
2019-01-29,148.10000610351562,143.42999267578125,148.08999633789062,144.19000244140625,17632100,144.19000244140625
2019-01-30,150.9499969482422,145.6999969482422,146.22000122070312,150.4199981689453,44613200,150.4199981689453
2019-01-31,171.67999267578125,165.0,165.60000610351562,166.69000244140625,77233600,166.69000244140625
2019-02-01,169.10000610351562,165.66000366210938,165.83999633789062,165.7100067138672,30806500,165.7100067138672
2019-02-04,169.3000030517578,163.6199951171875,165.6999969482422,169.25,20036000,169.25
2019-02-05,171.97999572753906,168.69000244140625,169.14999389648438,171.16000366210938,22557000,171.16000366210938
2019-02-06,172.47000122070312,169.27000427246094,171.1999969482422,170.49000549316406,13281200,170.49000549316406
2019-02-07,169.24000549316406,165.25,168.1999969482422,166.3800048828125,17517600,166.3800048828125
2019-02-08,167.3699951171875,164.2100067138672,164.47000122070312,167.3300018310547,12561400,167.3300018310547
2019-02-11,168.3000030517578,165.0800018310547,167.89999389648438,165.7899932861328,12811200,165.7899932861328
2019-02-12,168.33999633789062,164.5,166.86000061035156,165.0399932861328,16292300,165.0399932861328
2019-02-13,166.22000122070312,163.72999572753906,165.3800048828125,164.07000732421875,14205100,164.07000732421875
2019-02-14,164.8699951171875,162.25,163.19000244140625,163.9499969482422,12755200,163.9499969482422
2019-02-15,164.6999969482422,160.86000061035156,164.50999450683594,162.5,15504400,162.5
2019-02-19,164.14999389648438,160.3300018310547,160.5,162.2899932861328,14345400,162.2899932861328
2019-02-20,163.72000122070312,161.25,162.25,162.55999755859375,11770700,162.55999755859375
2019-02-21,162.24000549316406,159.58999633789062,161.92999267578125,160.0399932861328,15607800,160.0399932861328
2019-02-22,162.41000366210938,160.30999755859375,160.5800018310547,161.88999938964844,15858500,161.88999938964844
2019-02-25,166.07000732421875,162.89999389648438,163.07000732421875,164.6199951171875,18737100,164.6199951171875
2019-02-26,166.24000549316406,163.8000030517578,164.33999633789062,164.1300048828125,13784100,164.1300048828125
2019-02-27,163.92999267578125,160.41000366210938,162.89999389648438,162.80999755859375,12697500,162.80999755859375
2019-02-28,163.5,160.86000061035156,162.3699951171875,161.4499969482422,11114200,161.4499969482422
2019-03-01,163.1300048828125,161.69000244140625,162.60000610351562,162.27999877929688,11097800,162.27999877929688
2019-03-04,167.5,163.8300018310547,163.89999389648438,167.3699951171875,18894700,167.3699951171875
2019-03-05,171.8800048828125,166.5500030517578,167.3699951171875,171.25999450683594,28187900,171.25999450683594
2019-03-06,173.57000732421875,171.27000427246094,172.89999389648438,172.50999450683594,21531700,172.50999450683594
2019-03-07,171.74000549316406,167.61000061035156,171.5,169.1300048828125,18205400,169.1300048828125
2019-03-08,169.6199951171875,165.97000122070312,166.1999969482422,169.60000610351562,13184800,169.60000610351562
2019-03-11,174.3000030517578,171.5800018310547,171.60000610351562,172.07000732421875,18884000,172.07000732421875
2019-03-12,173.8000030517578,171.22000122070312,172.08999633789062,171.9199981689453,12155300,171.9199981689453
2019-03-13,174.02999877929688,172.1199951171875,172.32000732421875,173.3699951171875,11973300,173.3699951171875
2019-03-14,171.14999389648438,168.16000366210938,169.75999450683594,170.1699981689453,18037400,170.1699981689453
2019-03-15,167.5800018310547,162.50999450683594,167.16000366210938,165.97999572753906,37135400,165.97999572753906
2019-03-18,163.89999389648438,159.27999877929688,163.57000732421875,160.47000122070312,37524200,160.47000122070312
2019-03-19,163.82000732421875,160.82000732421875,161.47999572753906,161.57000732421875,25611500,161.57000732421875
2019-03-20,166.1199951171875,161.24000549316406,161.5,165.44000244140625,20211500,165.44000244140625
2019-03-21,166.38999938964844,163.75,164.88999938964844,166.0800018310547,16223000,166.0800018310547
2019-03-22,167.4199981689453,164.08999633789062,165.64999389648438,164.33999633789062,16389200,164.33999633789062
2019-03-25,166.5399932861328,162.0,163.0,166.2899932861328,12631200,166.2899932861328
2019-03-26,169.4499969482422,166.35000610351562,167.35000610351562,167.67999267578125,15437900,167.67999267578125
2019-03-27,168.94000244140625,164.7899932861328,167.85000610351562,165.8699951171875,10620300,165.8699951171875
2019-03-28,166.72000122070312,163.3300018310547,164.57000732421875,165.5500030517578,10689200,165.5500030517578
2019-03-29,167.19000244140625,164.80999755859375,166.38999938964844,166.69000244140625,13455500,166.69000244140625
2019-04-01,168.89999389648438,167.27999877929688,167.8300018310547,168.6999969482422,10381500,168.6999969482422
2019-04-02,174.89999389648438,169.5500030517578,170.13999938964844,174.1999969482422,23946500,174.1999969482422
2019-04-03,177.9600067138672,172.9499969482422,174.5,173.5399932861328,27590100,173.5399932861328
2019-04-04,178.0,175.52999877929688,176.02000427246094,176.02000427246094,17847700,176.02000427246094
2019-04-05,177.0,175.10000610351562,176.8800048828125,175.72000122070312,9594100,175.72000122070312
2019-04-08,175.5,174.22999572753906,175.2100067138672,174.92999267578125,7297400,174.92999267578125
2019-04-09,179.19000244140625,175.5500030517578,175.6199951171875,177.5800018310547,19751000,177.5800018310547
2019-04-10,178.7899932861328,176.5399932861328,178.17999267578125,177.82000732421875,11701500,177.82000732421875
2019-04-11,178.39999389648438,177.0,178.24000549316406,177.50999450683594,8071000,177.50999450683594
2019-04-12,179.6300048828125,177.9499969482422,178.0,179.10000610351562,12329800,179.10000610351562
2019-04-15,180.5,176.8699951171875,178.5,179.64999389648438,10834800,179.64999389648438
2019-04-16,180.1699981689453,178.3000030517578,179.0,178.8699951171875,11215200,178.8699951171875
2019-04-17,180.74000549316406,178.36000061035156,179.60000610351562,178.77999877929688,9973700,178.77999877929688
2019-04-18,178.8800048828125,177.33999633789062,178.8000030517578,178.27999877929688,11655600,178.27999877929688
2019-04-22,181.6699981689453,178.25,178.25,181.44000244140625,13389900,181.44000244140625
2019-04-23,184.22000122070312,181.47999572753906,182.74000549316406,183.77999877929688,19954800,183.77999877929688
2019-04-24,185.13999938964844,181.64999389648438,184.49000549316406,182.5800018310547,37289900,182.5800018310547
2019-04-25,198.47999572753906,192.1199951171875,196.97999572753906,193.25999450683594,54148800,193.25999450683594
2019-04-26,192.89999389648438,189.08999633789062,192.5,191.49000549316406,22075000,191.49000549316406
2019-04-29,195.41000366210938,190.64999389648438,190.9499969482422,194.77999877929688,19641300,194.77999877929688
2019-04-30,197.38999938964844,192.27999877929688,194.19000244140625,193.39999389648438,23494700,193.39999389648438
2019-05-01,196.17999267578125,193.00999450683594,194.77999877929688,193.02999877929688,15996600,193.02999877929688
2019-05-02,194.0,189.75,193.0,192.52999877929688,13209500,192.52999877929688
2019-05-03,196.16000366210938,193.7100067138672,194.3800048828125,195.47000122070312,14575400,195.47000122070312
