Date,High,Low,Open,Close,Volume,Adj Close
2017-05-03,123.69999694824219,123.04000091552734,123.58999633789062,123.33000183105469,3736500.0,117.03058624267578
2017-05-04,123.94999694824219,123.2300033569336,123.69000244140625,123.94999694824219,3753700.0,117.61892700195312
2017-05-05,123.80000305175781,122.86000061035156,123.80000305175781,123.51000213623047,4139800.0,117.2013931274414
2017-05-08,123.80000305175781,123.0199966430664,123.52999877929688,123.25,3608600.0,116.95467376708984
2017-05-09,123.47000122070312,122.87999725341797,123.2300033569336,123.20999908447266,3762500.0,116.91671752929688
2017-05-10,123.05999755859375,122.37999725341797,122.91000366210938,122.80999755859375,4237400.0,116.53714752197266
2017-05-11,123.20999908447266,122.33999633789062,122.5,123.19999694824219,4095900.0,116.90723419189453
2017-05-12,124.0999984741211,123.01000213623047,123.11000061035156,123.63999938964844,4097100.0,117.32476043701172
2017-05-15,127.36000061035156,124.33000183105469,124.41000366210938,126.98999786376953,9854600.0,120.5036392211914
2017-05-16,128.3699951171875,127.05999755859375,127.33999633789062,127.7699966430664,7233800.0,121.24380493164062
2017-05-17,127.88999938964844,126.44999694824219,127.7699966430664,126.66999816894531,6480800.0,120.19998931884766
2017-05-18,127.87000274658203,125.95999908447266,126.45999908447266,126.97000122070312,6571300.0,120.48467254638672
2017-05-19,127.38999938964844,126.44000244140625,127.02999877929688,127.0,6957200.0,120.51313781738281
2017-05-22,127.6500015258789,126.62999725341797,126.62999725341797,127.26000213623047,4858200.0,120.75984954833984
2017-05-23,128.14999389648438,127.30999755859375,127.30999755859375,127.5199966430664,3972500.0,121.00656127929688
2017-05-24,128.0,127.29000091552734,127.79000091552734,127.51000213623047,3965200.0,120.99710083007812
2017-05-25,127.62000274658203,126.33000183105469,126.73999786376953,127.52999877929688,5294300.0,121.81857299804688
2017-05-26,127.66999816894531,126.83000183105469,127.2300033569336,126.91999816894531,4005200.0,121.23589324951172
2017-05-30,127.38999938964844,126.19000244140625,126.69999694824219,127.11000061035156,3665400.0,121.41738891601562
2017-05-31,128.8000030517578,127.3499984741211,127.3499984741211,128.25,8813500.0,122.50633239746094
2017-06-01,128.77999877929688,128.1199951171875,128.32000732421875,128.77999877929688,5790900.0,123.01258850097656
2017-06-02,130.13999938964844,128.8300018310547,129.0500030517578,130.0800018310547,6562600.0,124.25438690185547
2017-06-05,130.52000427246094,129.8000030517578,129.97000122070312,130.36000061035156,4634700.0,124.5218276977539
2017-06-06,131.3300018310547,130.02999877929688,130.17999267578125,130.8300018310547,5619100.0,124.97078704833984
2017-06-07,131.47999572753906,130.5800018310547,131.0,130.75,5765200.0,124.89436340332031
2017-06-08,131.39999389648438,129.9600067138672,130.75,130.5500030517578,8056700.0,124.70331573486328
2017-06-09,131.6999969482422,130.30999755859375,130.3699951171875,131.52999877929688,5992500.0,125.63941192626953
2017-06-12,131.8300018310547,131.4199981689453,131.52999877929688,131.82000732421875,8020700.0,125.91645812988281
2017-06-13,132.72999572753906,131.39999389648438,131.75,132.02000427246094,5733800.0,126.10749053955078
2017-06-14,133.55999755859375,132.50999450683594,132.50999450683594,132.77000427246094,7329400.0,126.82389068603516
2017-06-15,133.35000610351562,131.80999755859375,132.0,133.0399932861328,5265000.0,127.08180236816406
2017-06-16,134.60000610351562,133.0399932861328,133.72000122070312,134.35000610351562,12639600.0,128.33316040039062
2017-06-19,134.67999267578125,133.49000549316406,134.14999389648438,134.07000732421875,7488700.0,128.06568908691406
2017-06-20,134.75999450683594,133.89999389648438,133.89999389648438,134.22000122070312,5201200.0,128.20896911621094
2017-06-21,135.11000061035156,134.02000427246094,134.2899932861328,134.91000366210938,5841100.0,128.86805725097656
2017-06-22,137.0,135.27000427246094,135.4499969482422,136.0500030517578,7311000.0,129.95703125
2017-06-23,136.50999450683594,135.32000732421875,135.4499969482422,136.42999267578125,9007100.0,130.31997680664062
2017-06-26,136.89999389648438,136.1999969482422,136.47999572753906,136.33999633789062,5561800.0,130.2340087890625
2017-06-27,136.72999572753906,134.99000549316406,136.5,135.00999450683594,6120500.0,128.9635772705078
2017-06-28,136.1999969482422,133.57000732421875,135.9499969482422,133.82000732421875,6557900.0,127.82688903808594
2017-06-29,133.72999572753906,132.30999755859375,133.39999389648438,132.63999938964844,5750000.0,126.69972229003906
2017-06-30,133.1999969482422,132.27999877929688,132.6999969482422,132.2899932861328,5264400.0,126.36540985107422
2017-07-03,133.32000732421875,132.64999389648438,132.7899932861328,132.89999389648438,2931000.0,126.94805908203125
2017-07-05,134.05999755859375,132.4199981689453,132.97999572753906,133.63999938964844,4302700.0,127.65493774414062
2017-07-06,133.97000122070312,132.41000366210938,133.61000061035156,132.52000427246094,4282200.0,126.5851058959961
2017-07-07,133.0,131.69000244140625,132.91000366210938,132.5399932861328,4994100.0,126.60417938232422
2017-07-10,132.8699951171875,131.22999572753906,132.74000549316406,131.5500030517578,4019600.0,125.65853881835938
2017-07-11,131.7899932861328,130.47999572753906,131.42999267578125,131.22999572753906,3733100.0,125.35286712646484
2017-07-12,132.88999938964844,131.77000427246094,132.0399932861328,132.22999572753906,5053200.0,126.30807495117188
2017-07-13,132.22000122070312,130.99000549316406,132.10000610351562,131.86000061035156,4424400.0,125.95464324951172
2017-07-14,133.0,131.74000549316406,132.0,132.60000610351562,4383100.0,126.6615219116211
2017-07-17,132.92999267578125,131.75,132.7100067138672,132.14999389648438,4939400.0,126.23165130615234
2017-07-18,134.9499969482422,131.0800018310547,131.6199951171875,134.4600067138672,10256000.0,128.43821716308594
2017-07-19,135.41000366210938,134.52000427246094,134.83999633789062,135.2100067138672,5503300.0,129.1546173095703
2017-07-20,137.0800018310547,135.6199951171875,135.72999572753906,136.57000732421875,6088600.0,130.4537353515625
2017-07-21,136.27000427246094,135.10000610351562,135.3300018310547,135.30999755859375,6773500.0,129.25013732910156
2017-07-24,135.16000366210938,132.85000610351562,134.99000549316406,133.00999450683594,8306700.0,127.05314636230469
2017-07-25,133.85000610351562,131.4499969482422,133.74000549316406,131.8800048828125,6262900.0,125.97376251220703
2017-07-26,132.24000549316406,130.75,131.66000366210938,130.9499969482422,5382200.0,125.08541870117188
2017-07-27,131.14999389648438,129.57000732421875,130.85000610351562,130.8300018310547,5838100.0,124.97078704833984
2017-07-28,131.99000549316406,130.52000427246094,131.13999938964844,131.85000610351562,4970900.0,125.94511413574219
2017-07-31,133.5800018310547,132.10000610351562,132.13999938964844,132.72000122070312,5440800.0,126.77613830566406
2017-08-01,133.35000610351562,132.27999877929688,133.1699981689453,132.50999450683594,3837600.0,126.57555389404297
2017-08-02,132.5,131.5,132.0800018310547,132.16000366210938,4032100.0,126.24121856689453
2017-08-03,133.39999389648438,131.50999450683594,131.91000366210938,133.35000610351562,4327300.0,127.3779296875
2017-08-04,134.00999450683594,132.8000030517578,133.74000549316406,133.17999267578125,3192800.0,127.21553039550781
2017-08-07,133.47999572753906,132.50999450683594,133.08999633789062,132.86000061035156,3010800.0,126.90986633300781
2017-08-08,132.8000030517578,131.39999389648438,132.5,132.27000427246094,5535800.0,126.3462905883789
2017-08-09,133.41000366210938,132.3699951171875,132.80999755859375,133.22999572753906,6332300.0,127.26327514648438
2017-08-10,133.85000610351562,132.3699951171875,133.0399932861328,133.08999633789062,5607900.0,127.12957763671875
2017-08-11,134.49000549316406,132.75,133.63999938964844,133.10000610351562,4270600.0,127.13914489746094
2017-08-14,134.3699951171875,132.8699951171875,134.1999969482422,133.47999572753906,3016400.0,127.50210571289062
2017-08-15,133.94000244140625,133.1999969482422,133.85000610351562,133.3800048828125,3931800.0,127.4065933227539
2017-08-16,134.97000122070312,133.86000061035156,134.0800018310547,134.1699981689453,4469900.0,128.1612091064453
2017-08-17,134.74000549316406,133.02999877929688,134.17999267578125,133.0399932861328,5741400.0,127.08180236816406
2017-08-18,133.77999877929688,132.3800048828125,132.6699981689453,132.6300048828125,4792800.0,126.69017791748047
2017-08-21,133.64999389648438,132.19000244140625,132.27999877929688,133.4499969482422,4660000.0,127.47345733642578
2017-08-22,134.7899932861328,132.89999389648438,133.27000427246094,134.6999969482422,4150300.0,128.66748046875
2017-08-23,134.49000549316406,132.64999389648438,134.42999267578125,132.8000030517578,5129900.0,126.85255432128906
2017-08-24,133.0800018310547,132.27000427246094,132.82000732421875,132.88999938964844,5398400.0,126.93850708007812
2017-08-25,132.55999755859375,131.6199951171875,131.91000366210938,131.67999267578125,4133300.0,126.58283996582031
2017-08-28,132.1199951171875,131.49000549316406,131.67999267578125,131.74000549316406,5349200.0,126.6405258178711
2017-08-29,132.4499969482422,131.3000030517578,131.57000732421875,132.2100067138672,3277900.0,127.09234619140625
2017-08-30,132.0,130.89999389648438,132.0,131.07000732421875,5430800.0,125.9964828491211
2017-08-31,132.5,131.25,131.38999938964844,132.3699951171875,7407100.0,127.24613189697266
2017-09-01,132.64999389648438,130.94000244140625,132.60000610351562,131.02999877929688,3820800.0,125.9580078125
2017-09-05,131.17999267578125,129.72000122070312,130.72000122070312,129.89999389648438,5146600.0,124.87173461914062
2017-09-06,131.0,130.2100067138672,130.5399932861328,130.6699981689453,5601900.0,125.61193084716797
2017-09-07,132.52000427246094,130.25,130.86000061035156,132.19000244140625,3800200.0,127.07308959960938
2017-09-08,132.33999633789062,130.8699951171875,132.0,130.97999572753906,4854400.0,125.90995025634766
2017-09-11,133.33999633789062,131.02000427246094,131.3699951171875,133.2100067138672,5724200.0,128.0536346435547
2017-09-12,133.8800048828125,131.92999267578125,133.8300018310547,132.6300048828125,5465200.0,127.4960708618164
2017-09-13,133.75,131.85000610351562,132.6699981689453,132.4499969482422,4679500.0,127.32302856445312
2017-09-14,134.47000122070312,131.99000549316406,132.13999938964844,134.17999267578125,6274500.0,128.98606872558594
2017-09-15,135.4499969482422,134.17999267578125,134.7899932861328,134.4499969482422,15522000.0,129.24562072753906
2017-09-18,135.77000427246094,134.11000061035156,134.44000244140625,135.3800048828125,5260800.0,130.13961791992188
2017-09-19,135.7899932861328,134.35000610351562,135.02000427246094,135.22000122070312,4903800.0,129.98582458496094
2017-09-20,134.2899932861328,132.33999633789062,133.25,133.22000122070312,8705500.0,128.063232421875
2017-09-21,133.82000732421875,131.3800048828125,133.30999755859375,131.75,6051800.0,126.65013885498047
2017-09-22,132.38999938964844,131.27000427246094,131.99000549316406,131.38999938964844,4334900.0,126.30406951904297
2017-09-25,131.75999450683594,130.8300018310547,131.47000122070312,131.1699981689453,6017400.0,126.09257507324219
2017-09-26,131.94000244140625,130.82000732421875,131.5,130.94000244140625,4516200.0,125.87149047851562
2017-09-27,131.08999633789062,129.42999267578125,131.0,129.75,5796100.0,124.72755432128906
2017-09-28,130.27000427246094,129.2899932861328,129.91000366210938,129.47000122070312,3992700.0,124.45838928222656
2017-09-29,130.47000122070312,129.0500030517578,129.5800018310547,130.00999450683594,5736900.0,124.97748565673828
2017-10-02,131.3300018310547,130.02000427246094,130.16000366210938,131.22000122070312,4492900.0,126.14065551757812
2017-10-03,132.39999389648438,131.36000061035156,131.64999389648438,132.10000610351562,3900800.0,126.98660278320312
2017-10-04,133.17999267578125,132.10000610351562,132.39999389648438,132.88999938964844,3589000.0,127.74600982666016
2017-10-05,133.30999755859375,132.36000061035156,132.88999938964844,133.19000244140625,3741100.0,128.03440856933594
2017-10-06,133.25,132.47999572753906,133.0,133.22000122070312,2469500.0,128.063232421875
2017-10-09,133.82000732421875,133.1699981689453,133.66000366210938,133.4499969482422,3750500.0,128.28433227539062
2017-10-10,134.1300048828125,132.9199981689453,133.55999755859375,133.89999389648438,4184600.0,128.7169189453125
2017-10-11,137.0800018310547,134.3699951171875,134.8800048828125,136.64999389648438,8269400.0,131.36045837402344
2017-10-12,137.52000427246094,136.02000427246094,136.33999633789062,136.8300018310547,5172800.0,131.5334930419922
2017-10-13,137.4199981689453,136.33999633789062,136.60000610351562,136.42999267578125,4106600.0,131.1489715576172
2017-10-16,137.25999450683594,135.5399932861328,136.4499969482422,136.1199951171875,5120100.0,130.85096740722656
2017-10-17,141.1199951171875,137.05999755859375,137.6699981689453,140.7899932861328,11717300.0,135.3402099609375
2017-10-18,141.5800018310547,140.07000732421875,140.7899932861328,140.67999267578125,6827700.0,135.23446655273438
2017-10-19,142.97999572753906,140.5399932861328,140.7100067138672,142.0399932861328,9181300.0,136.54183959960938
2017-10-20,143.6199951171875,141.8300018310547,142.3800048828125,142.39999389648438,5634500.0,136.88790893554688
2017-10-23,144.35000610351562,142.0800018310547,142.1300048828125,143.6199951171875,6686000.0,138.06065368652344
2017-10-24,143.3800048828125,140.92999267578125,143.3800048828125,141.63999938964844,6585800.0,136.1573028564453
2017-10-25,143.22999572753906,140.9600067138672,141.16000366210938,142.36000061035156,6563600.0,136.8494415283203
2017-10-26,143.75,141.3800048828125,142.50999450683594,141.80999755859375,5841100.0,136.3207244873047
2017-10-27,142.6999969482422,140.1999969482422,141.0,141.77999877929688,5140100.0,136.29190063476562
2017-10-30,141.2100067138672,139.32000732421875,141.0800018310547,140.0,6034300.0,134.58079528808594
2017-10-31,140.25999450683594,138.97999572753906,140.02000427246094,139.41000366210938,4832100.0,134.01361083984375
2017-11-01,140.58999633789062,139.33999633789062,139.8300018310547,139.97999572753906,5006800.0,134.5615692138672
2017-11-02,140.2899932861328,139.11000061035156,140.11000061035156,139.92999267578125,3494100.0,134.5135040283203
2017-11-03,140.39999389648438,139.3000030517578,139.72999572753906,140.0800018310547,2737000.0,134.65771484375
2017-11-06,140.49000549316406,139.72000122070312,140.00999450683594,139.75999450683594,4209900.0,134.35006713867188
2017-11-07,140.14999389648438,138.91000366210938,140.0800018310547,139.77000427246094,4201900.0,134.3596954345703
2017-11-08,141.8699951171875,139.4600067138672,139.6999969482422,141.32000732421875,4440700.0,135.84970092773438
2017-11-09,141.41000366210938,139.8000030517578,140.86000061035156,140.35000610351562,3517100.0,134.917236328125
2017-11-10,140.1300048828125,138.61000061035156,140.1300048828125,139.55999755859375,4240800.0,134.15782165527344
2017-11-13,140.02000427246094,138.4199981689453,139.00999450683594,139.75999450683594,4322300.0,134.35006713867188
2017-11-14,140.27999877929688,138.9199981689453,139.57000732421875,139.49000549316406,4078200.0,134.0905303955078
2017-11-15,139.8300018310547,138.75,139.22999572753906,139.10000610351562,4811500.0,133.71563720703125
2017-11-16,139.67999267578125,138.63999938964844,139.4199981689453,138.8699951171875,4193800.0,133.49453735351562
2017-11-17,138.86000061035156,137.88999938964844,138.3000030517578,138.0,4247400.0,132.658203125
2017-11-20,138.55999755859375,137.74000549316406,138.14999389648438,137.92999267578125,4266300.0,132.59091186523438
2017-11-21,139.25999450683594,138.19000244140625,138.4499969482422,138.33999633789062,5660600.0,132.9850311279297
2017-11-22,138.3800048828125,136.60000610351562,138.3000030517578,137.2899932861328,3917000.0,131.97567749023438
2017-11-24,138.3800048828125,137.30999755859375,137.5,138.00999450683594,2606800.0,132.66781616210938
2017-11-27,138.30999755859375,137.47999572753906,137.50999450683594,138.10000610351562,3933100.0,133.56732177734375
2017-11-28,140.52999877929688,138.25,138.3000030517578,140.02000427246094,5052800.0,135.4242706298828
2017-11-29,140.6300048828125,138.9499969482422,140.22000122070312,139.80999755859375,5851400.0,135.22117614746094
2017-11-30,140.27999877929688,138.47999572753906,140.05999755859375,139.3300018310547,8941900.0,134.7569122314453
2017-12-01,140.52999877929688,138.60000610351562,139.57000732421875,139.97999572753906,5990500.0,135.38558959960938
2017-12-04,141.5,138.92999267578125,140.6199951171875,139.00999450683594,5916700.0,134.4474334716797
2017-12-05,140.80999755859375,139.1999969482422,139.7899932861328,139.6699981689453,6745300.0,135.08575439453125
2017-12-06,141.9600067138672,140.19000244140625,140.83999633789062,141.05999755859375,5591700.0,136.43014526367188
2017-12-07,141.5,139.25999450683594,140.00999450683594,140.00999450683594,4713100.0,135.4145965576172
2017-12-08,140.75999450683594,139.8000030517578,140.0,140.58999633789062,5101300.0,135.97557067871094
2017-12-11,141.1699981689453,139.8300018310547,140.89999389648438,141.13999938964844,4358600.0,136.5075225830078
2017-12-12,143.57000732421875,142.0399932861328,142.60000610351562,142.60000610351562,8016700.0,137.91958618164062
2017-12-13,143.42999267578125,142.2100067138672,142.5,142.88999938964844,6118400.0,138.20008850097656
2017-12-14,143.6199951171875,141.61000061035156,143.52000427246094,141.64999389648438,5337900.0,137.00076293945312
2017-12-15,143.13999938964844,141.77999877929688,142.47999572753906,142.4600067138672,12517000.0,137.78421020507812
2017-12-18,143.8000030517578,141.39999389648438,142.55999755859375,141.8000030517578,5833200.0,137.14585876464844
2017-12-19,142.3800048828125,141.36000061035156,141.88999938964844,141.77999877929688,6580100.0,137.1265106201172
2017-12-20,142.5800018310547,141.0800018310547,142.25999450683594,141.16000366210938,6289800.0,136.52687072753906
2017-12-21,142.1699981689453,141.02000427246094,141.58999633789062,141.05999755859375,6284700.0,136.43014526367188
2017-12-22,141.35000610351562,140.0399932861328,141.0,140.1199951171875,4665600.0,135.52099609375
2017-12-26,140.5399932861328,139.67999267578125,140.4600067138672,140.08999633789062,3271100.0,135.49197387695312
2017-12-27,141.14999389648438,140.1999969482422,140.4199981689453,140.57000732421875,3753600.0,135.95623779296875
2017-12-28,141.0,140.3300018310547,140.6999969482422,140.55999755859375,2485000.0,135.94656372070312
2017-12-29,141.2100067138672,139.5800018310547,140.97999572753906,139.72000122070312,4452900.0,135.13414001464844
2018-01-02,139.9499969482422,138.72000122070312,139.66000366210938,139.22999572753906,6842100.0,134.66021728515625
2018-01-03,140.67999267578125,138.89999389648438,139.36000061035156,140.55999755859375,5350500.0,135.94656372070312
2018-01-04,141.13999938964844,140.22000122070312,140.4499969482422,140.5500030517578,4837600.0,135.93687438964844
2018-01-05,141.82000732421875,140.27999877929688,140.69000244140625,141.7100067138672,6158800.0,137.05882263183594
2018-01-08,142.0,140.9199981689453,141.6999969482422,141.88999938964844,5129800.0,137.23291015625
2018-01-09,145.67999267578125,142.25999450683594,142.3699951171875,144.13999938964844,8897000.0,139.4090576171875
2018-01-10,144.16000366210938,143.32000732421875,143.5500030517578,143.97000122070312,6558600.0,139.24462890625
2018-01-11,144.89999389648438,143.69000244140625,144.1300048828125,144.7899932861328,4962200.0,140.03773498535156
2018-01-12,146.4199981689453,144.89999389648438,144.99000549316406,145.75999450683594,5450600.0,140.9758758544922
2018-01-16,148.05999755859375,146.02999877929688,146.4199981689453,146.86000061035156,8804000.0,142.039794921875
2018-01-17,148.32000732421875,145.47999572753906,147.83999633789062,146.97999572753906,10612300.0,142.1558380126953
2018-01-18,147.44000244140625,145.97000122070312,146.92999267578125,146.9199981689453,5554800.0,142.09779357910156
2018-01-19,147.64999389648438,146.4199981689453,147.4600067138672,147.36000061035156,8738800.0,142.52337646484375
2018-01-22,148.13999938964844,146.72000122070312,147.00999450683594,148.13999938964844,7010400.0,143.2777862548828
2018-01-23,147.44000244140625,141.6199951171875,146.9600067138672,141.8300018310547,17473600.0,137.17486572265625
2018-01-24,143.55999755859375,141.8000030517578,143.5,142.07000732421875,13034400.0,137.40699768066406
2018-01-25,144.66000366210938,142.2100067138672,142.30999755859375,144.39999389648438,7938800.0,139.6605224609375
2018-01-26,145.60000610351562,144.1300048828125,144.5,145.3300018310547,8065600.0,140.5599822998047
2018-01-29,144.94000244140625,143.52999877929688,144.85000610351562,143.67999267578125,8013400.0,138.96414184570312
2018-01-30,143.82000732421875,142.42999267578125,143.39999389648438,142.42999267578125,8376100.0,137.75515747070312
2018-01-31,142.57000732421875,138.10000610351562,142.57000732421875,138.19000244140625,13137400.0,133.65435791015625
2018-02-01,140.6699981689453,137.0,137.52999877929688,140.02000427246094,9393600.0,135.4242706298828
2018-02-02,140.36000061035156,137.3800048828125,139.02000427246094,137.67999267578125,9262500.0,133.16107177734375
2018-02-05,137.0,122.1500015258789,136.5800018310547,130.38999938964844,19954100.0,126.11033630371094
2018-02-06,132.99000549316406,128.0,130.00999450683594,131.8300018310547,19193500.0,127.50310516357422
2018-02-07,133.42999267578125,131.35000610351562,131.88999938964844,131.4199981689453,10550400.0,127.10653686523438
2018-02-08,131.25,126.11000061035156,130.91000366210938,126.36000061035156,11680200.0,122.21263122558594
2018-02-09,130.9199981689453,125.44000244140625,127.5199966430664,129.52999877929688,15030900.0,125.27857971191406
2018-02-12,131.32000732421875,127.68000030517578,130.0,130.27000427246094,9963900.0,125.99430084228516
2018-02-13,130.60000610351562,128.6999969482422,129.2100067138672,129.9600067138672,6339000.0,125.69447326660156
2018-02-14,130.00999450683594,128.38999938964844,129.44000244140625,129.6699981689453,6259700.0,125.41399383544922
2018-02-15,131.27999877929688,129.39999389648438,130.10000610351562,131.22999572753906,5606400.0,126.92279052734375
2018-02-16,134.4499969482422,130.83999633789062,130.9600067138672,133.14999389648438,7970100.0,128.77975463867188
2018-02-20,133.4499969482422,130.66000366210938,132.8699951171875,130.8699951171875,6563500.0,126.5746078491211
2018-02-21,132.42999267578125,129.86000061035156,130.8000030517578,129.91000366210938,6578000.0,125.64611053466797
2018-02-22,131.02000427246094,129.47999572753906,130.10000610351562,129.91000366210938,5732200.0,125.64611053466797
2018-02-23,132.0800018310547,130.02000427246094,130.08999633789062,132.02000427246094,5126800.0,127.68685913085938
2018-02-26,133.41000366210938,131.0,131.7100067138672,132.07000732421875,6684400.0,128.5531768798828
2018-02-27,133.08999633789062,131.60000610351562,132.2100067138672,131.6699981689453,7158600.0,128.163818359375
2018-02-28,132.3300018310547,129.8699951171875,131.9499969482422,129.8800048828125,7985900.0,126.42147064208984
2018-03-01,130.1199951171875,126.5199966430664,129.11000061035156,127.27999877929688,9424000.0,123.89070129394531
2018-03-02,129.11000061035156,126.91000366210938,126.91000366210938,128.82000732421875,6910400.0,125.38970947265625
2018-03-05,130.3000030517578,128.17999267578125,128.6300048828125,129.7899932861328,5799800.0,126.33385467529297
2018-03-06,130.1999969482422,127.91999816894531,130.0,128.22000122070312,5546500.0,124.80567932128906
2018-03-07,129.3300018310547,127.2699966430664,127.4800033569336,129.0399932861328,6391700.0,125.60383605957031
2018-03-08,132.3000030517578,129.3300018310547,129.3300018310547,132.05999755859375,6423400.0,128.54342651367188
2018-03-09,133.82000732421875,131.55999755859375,132.50999450683594,133.8000030517578,7557800.0,130.23709106445312
2018-03-12,134.22999572753906,132.32000732421875,133.8000030517578,132.6300048828125,4942000.0,129.09825134277344
2018-03-13,135.38999938964844,133.4499969482422,133.8000030517578,134.35000610351562,9152300.0,130.7724609375
2018-03-14,135.6999969482422,131.89999389648438,135.24000549316406,132.32000732421875,6770600.0,128.7965087890625
2018-03-15,134.24000549316406,132.47000122070312,132.5500030517578,133.05999755859375,6147200.0,129.51678466796875
2018-03-16,134.39999389648438,132.10000610351562,133.16000366210938,133.67999267578125,14233500.0,130.12026977539062
2018-03-19,133.47000122070312,129.36000061035156,133.35000610351562,130.24000549316406,6017000.0,126.77189636230469
2018-03-20,131.77999877929688,129.3800048828125,130.77999877929688,131.2100067138672,6214300.0,127.71607208251953
2018-03-21,132.77999877929688,130.66000366210938,131.39999389648438,131.19000244140625,5158700.0,127.69657897949219
2018-03-22,130.67999267578125,127.0999984741211,130.47000122070312,127.37999725341797,7560100.0,123.988037109375
2018-03-23,127.80000305175781,124.9000015258789,127.62999725341797,125.0999984741211,8452500.0,121.76875305175781
2018-03-26,127.54000091552734,125.20999908447266,126.41000366210938,127.38999938964844,8358200.0,123.99778747558594
2018-03-27,129.10000610351562,126.38999938964844,127.11000061035156,127.20999908447266,7789900.0,123.82257080078125
2018-03-28,129.02000427246094,127.20999908447266,127.62999725341797,127.44999694824219,6868500.0,124.05618286132812
2018-03-29,128.75999450683594,126.81999969482422,127.97000122070312,128.14999389648438,6119400.0,124.73753356933594
2018-04-02,127.87999725341797,123.54000091552734,127.81999969482422,124.55999755859375,8916900.0,121.24313354492188
2018-04-03,128.49000549316406,124.68000030517578,125.18000030517578,128.35000610351562,8035000.0,124.93222045898438
2018-04-04,131.1199951171875,126.38999938964844,126.9000015258789,130.41000366210938,7717100.0,126.93736267089844
2018-04-05,131.1999969482422,129.5,130.41000366210938,130.7100067138672,5621700.0,127.22938537597656
2018-04-06,130.63999938964844,126.41000366210938,130.22000122070312,128.10000610351562,6399300.0,124.68887329101562
2018-04-09,131.13999938964844,127.68000030517578,128.64999389648438,129.47999572753906,6395800.0,126.03211212158203
2018-04-10,130.91000366210938,129.2899932861328,130.25,130.25,6019300.0,126.78162384033203
2018-04-11,130.35000610351562,129.02999877929688,129.13999938964844,129.6300048828125,4575400.0,126.17813873291016
2018-04-12,131.30999755859375,129.86000061035156,130.08999633789062,130.42999267578125,4559800.0,126.95681762695312
2018-04-13,131.4199981689453,129.6300048828125,131.08999633789062,130.6199951171875,4742300.0,127.14175415039062
2018-04-16,132.8800048828125,131.27999877929688,131.41000366210938,131.75999450683594,6379600.0,128.25140380859375
2018-04-17,132.1999969482422,128.80999755859375,132.11000061035156,130.5399932861328,11008700.0,127.06390380859375
2018-04-18,129.89999389648438,126.94000244140625,129.69000244140625,127.72000122070312,9383600.0,124.3189926147461
2018-04-19,128.27000427246094,126.88999938964844,127.62999725341797,127.55000305175781,5959500.0,124.15351867675781
2018-04-20,128.3000030517578,126.16999816894531,128.0,126.66000366210938,7743900.0,123.28721618652344
2018-04-23,127.30000305175781,125.77999877929688,126.87999725341797,126.83000183105469,7501900.0,123.45269775390625
2018-04-24,127.45999908447266,125.30999755859375,126.94000244140625,126.19000244140625,6577500.0,122.82974243164062
2018-04-25,126.8499984741211,125.27999877929688,125.91000366210938,126.76000213623047,5859600.0,123.38455200195312
2018-04-26,129.22000122070312,126.62000274658203,126.62000274658203,128.00999450683594,8211100.0,124.60126495361328
2018-04-27,128.7899932861328,127.5,127.7300033569336,128.27000427246094,4266800.0,124.8543472290039
2018-04-30,128.97999572753906,126.48999786376953,128.86000061035156,126.48999786376953,8219400.0,123.12174224853516
2018-05-01,126.63999938964844,124.97000122070312,126.31999969482422,126.01000213623047,5122600.0,122.65452575683594
2018-05-02,126.18000030517578,123.19999694824219,125.5199966430664,123.5,7390800.0,120.21135711669922
2018-05-03,123.69000244140625,121.27999877929688,123.30000305175781,123.02999877929688,7282900.0,119.7538833618164
2018-05-04,124.51000213623047,121.80000305175781,122.5999984741211,124.19000244140625,6127600.0,120.88298034667969
2018-05-07,125.23999786376953,123.31999969482422,124.13999938964844,123.58999633789062,6707900.0,120.29896545410156
2018-05-08,123.48999786376953,121.69000244140625,122.86000061035156,122.61000061035156,5951800.0,119.34506225585938
2018-05-09,124.05000305175781,122.52999877929688,122.98999786376953,123.51000213623047,6808600.0,120.22110748291016
2018-05-10,126.05000305175781,124.0,124.22000122070312,125.3499984741211,4948000.0,122.01209259033203
2018-05-11,127.5999984741211,125.76000213623047,125.7699966430664,127.23999786376953,5716700.0,123.85176086425781
2018-05-14,127.61000061035156,125.5999984741211,127.3499984741211,126.05999755859375,6101600.0,122.70320129394531
2018-05-15,125.83000183105469,124.4000015258789,125.54000091552734,125.12999725341797,5875700.0,121.7979507446289
2018-05-16,125.9000015258789,125.0,125.44000244140625,125.3499984741211,3818100.0,122.01209259033203
2018-05-17,125.58999633789062,123.55000305175781,125.48999786376953,123.8499984741211,6473400.0,120.55204772949219
2018-05-18,124.44000244140625,123.27999877929688,123.77999877929688,124.23999786376953,5433900.0,120.93165588378906
2018-05-21,124.98999786376953,123.31999969482422,124.62000274658203,123.72000122070312,5558700.0,120.42550659179688
2018-05-22,124.23999786376953,122.76000213623047,123.80000305175781,122.91000366210938,7172700.0,119.6370849609375
2018-05-23,123.97000122070312,122.73999786376953,122.87000274658203,123.44999694824219,4930400.0,120.16270446777344
2018-05-24,123.38999938964844,121.55000305175781,123.22000122070312,122.25,6923600.0,118.9946517944336
2018-05-25,122.80000305175781,121.12999725341797,121.55999755859375,121.47000122070312,4594800.0,119.11231994628906
2018-05-29,120.80000305175781,118.62000274658203,120.5,119.4000015258789,9821900.0,117.0824966430664
2018-05-30,121.58000183105469,119.54000091552734,120.12000274658203,120.97000122070312,6423700.0,118.62202453613281
2018-05-31,121.25,119.54000091552734,120.91999816894531,119.62000274658203,10337500.0,117.29822540283203
2018-06-01,121.31999969482422,119.97000122070312,120.37999725341797,121.26000213623047,5741000.0,118.9063949584961
2018-06-04,122.37000274658203,121.0199966430664,121.8499984741211,121.94999694824219,4853000.0,119.58300018310547
2018-06-05,122.55999755859375,120.9000015258789,122.05000305175781,121.4800033569336,5125400.0,119.12213134765625
2018-06-06,122.79000091552734,121.45999908447266,121.97000122070312,122.79000091552734,6799300.0,120.40670013427734
2018-06-07,123.48999786376953,122.2699966430664,123.0,123.33000183105469,7414100.0,120.93621826171875
2018-06-08,124.8499984741211,123.33000183105469,123.36000061035156,124.05999755859375,6208100.0,121.65204620361328
2018-06-11,124.33999633789062,122.55000305175781,124.2699966430664,122.66000366210938,5571400.0,120.27922821044922
2018-06-12,123.18000030517578,121.94999694824219,123.16000366210938,122.54000091552734,5227300.0,120.16156005859375
2018-06-13,124.08999633789062,122.45999908447266,123.1500015258789,122.62999725341797,5836900.0,120.24980926513672
2018-06-14,123.1500015258789,122.08999633789062,122.70999908447266,122.41000366210938,5239200.0,120.03407287597656
2018-06-15,122.7300033569336,121.23999786376953,122.0999984741211,122.61000061035156,13173500.0,120.23019409179688
2018-06-18,121.80999755859375,120.25,121.61000061035156,121.31999969482422,6787400.0,118.9652328491211
2018-06-19,123.16999816894531,120.56999969482422,120.66000366210938,122.56999969482422,8572400.0,120.19097137451172
2018-06-20,122.66000366210938,121.66000366210938,122.41999816894531,122.04000091552734,6277200.0,119.67125701904297
2018-06-21,122.23999786376953,121.11000061035156,121.83000183105469,121.44999694824219,4417200.0,119.09270477294922
2018-06-22,123.37999725341797,121.6500015258789,121.68000030517578,122.83999633789062,9501400.0,120.45572662353516
2018-06-25,123.43000030517578,121.51000213623047,122.81999969482422,122.58999633789062,8170500.0,120.21057891845703
2018-06-26,122.88999938964844,121.5999984741211,122.48999786376953,122.3499984741211,5496400.0,119.97523498535156
2018-06-27,122.97000122070312,121.44999694824219,122.12999725341797,121.61000061035156,5666000.0,119.24960327148438
2018-06-28,122.41000366210938,121.06999969482422,121.77999877929688,122.0,5296800.0,119.63202667236328
2018-06-29,123.18000030517578,121.19000244140625,122.23999786376953,121.33999633789062,7308700.0,118.98484802246094
2018-07-02,121.7300033569336,120.11000061035156,121.33999633789062,121.58000183105469,5481400.0,119.2201919555664
2018-07-03,123.45999908447266,121.26000213623047,121.6500015258789,122.70999908447266,4248100.0,120.32825469970703
2018-07-05,125.12000274658203,123.2300033569336,123.5999984741211,125.0,7319100.0,122.57380676269531
2018-07-06,125.91999816894531,124.61000061035156,125.16000366210938,125.75,7297900.0,123.30924224853516
2018-07-09,126.75,125.5999984741211,126.22000122070312,126.05000305175781,6706100.0,123.60342407226562
2018-07-10,127.5199966430664,126.11000061035156,126.37000274658203,127.37999725341797,5075600.0,124.90760040283203
2018-07-11,127.44000244140625,126.05999755859375,127.41000366210938,126.23999786376953,4827400.0,123.78973388671875
2018-07-12,128.2100067138672,127.16999816894531,127.70999908447266,127.76000213623047,6199000.0,125.28023529052734
2018-07-13,127.5,125.31999969482422,125.31999969482422,125.93000030517578,8250200.0,123.48575592041016
2018-07-16,126.0999984741211,124.16000366210938,126.0,124.69000244140625,7314400.0,122.26982116699219
2018-07-17,130.5399932861328,127.55999755859375,128.52999877929688,129.11000061035156,12858700.0,126.6040267944336
2018-07-18,129.0500030517578,127.16999816894531,128.80999755859375,127.80000305175781,7152000.0,125.3194580078125
2018-07-19,127.69999694824219,125.87000274658203,127.52999877929688,125.94000244140625,5984600.0,123.49555969238281
2018-07-20,126.13999938964844,125.12000274658203,125.30000305175781,125.8499984741211,5835500.0,123.40730285644531
2018-07-23,126.68000030517578,125.44999694824219,125.75,126.62999725341797,4631100.0,124.17215728759766
2018-07-24,129.6199951171875,127.1500015258789,127.23999786376953,129.36000061035156,7158800.0,126.84918212890625
2018-07-25,129.22999572753906,127.6500015258789,129.13999938964844,128.6199951171875,6523000.0,126.12353515625
2018-07-26,131.22000122070312,129.85000610351562,129.89999389648438,130.27999877929688,7640600.0,127.75131225585938
2018-07-27,132.27000427246094,129.94000244140625,129.97999572753906,131.5500030517578,6620400.0,128.99667358398438
2018-07-30,132.49000549316406,131.25,131.77999877929688,132.1699981689453,11013100.0,129.60464477539062
2018-07-31,132.63999938964844,131.77000427246094,132.27999877929688,132.52000427246094,7598900.0,129.94784545898438
2018-08-01,132.9600067138672,132.0800018310547,132.38999938964844,132.63999938964844,5770400.0,130.0655059814453
2018-08-02,133.0,131.08999633789062,132.88999938964844,131.25,6563300.0,128.70249938964844
2018-08-03,132.6999969482422,130.89999389648438,131.17999267578125,131.9499969482422,6498700.0,129.38890075683594
2018-08-06,132.52999877929688,131.00999450683594,131.63999938964844,132.02000427246094,5840000.0,129.45755004882812
2018-08-07,132.1699981689453,131.3000030517578,131.8800048828125,131.4600067138672,4664600.0,128.90843200683594
2018-08-08,131.8000030517578,130.88999938964844,131.49000549316406,131.1699981689453,3721500.0,128.62405395507812
2018-08-09,131.72000122070312,130.6699981689453,131.5399932861328,131.1999969482422,4057800.0,128.65345764160156
2018-08-10,131.6300048828125,130.25999450683594,131.19000244140625,130.75,4324000.0,128.2122039794922
2018-08-13,130.89999389648438,129.85000610351562,130.72000122070312,130.22000122070312,3760900.0,127.6924819946289
2018-08-14,130.47000122070312,129.35000610351562,129.6699981689453,129.5,4542800.0,126.9864501953125
2018-08-15,130.74000549316406,128.92999267578125,129.75,130.42999267578125,5377300.0,127.89840698242188
2018-08-16,132.8800048828125,130.57000732421875,131.02000427246094,132.47999572753906,7861500.0,129.90863037109375
2018-08-17,135.0,132.19000244140625,132.4499969482422,134.47000122070312,6700900.0,131.86000061035156
2018-08-20,137.1199951171875,134.0,134.92999267578125,136.8800048828125,7935000.0,134.2232208251953
2018-08-21,137.42999267578125,135.3000030517578,137.0,135.35000610351562,5832100.0,132.72291564941406
2018-08-22,135.67999267578125,134.4199981689453,135.55999755859375,134.61000061035156,4688400.0,131.99728393554688
2018-08-23,135.49000549316406,134.10000610351562,134.61000061035156,135.11000061035156,5057600.0,132.48756408691406
2018-08-24,136.14999389648438,134.8300018310547,135.11000061035156,135.9499969482422,4809400.0,133.311279296875
2018-08-27,136.0500030517578,134.2100067138672,135.5,134.9199981689453,4325900.0,133.18295288085938
2018-08-28,134.89999389648438,133.88999938964844,134.77999877929688,134.32000732421875,6037500.0,132.59068298339844
2018-08-29,134.94000244140625,133.94000244140625,134.32000732421875,134.86000061035156,4648700.0,133.12371826171875
2018-08-30,135.60000610351562,134.60000610351562,134.6999969482422,134.9499969482422,4821900.0,133.21255493164062
2018-08-31,135.0,133.97000122070312,134.60000610351562,134.69000244140625,6139500.0,132.95590209960938
2018-09-04,134.75,133.44000244140625,134.69000244140625,133.72000122070312,4406800.0,131.99839782714844
2018-09-05,135.94000244140625,133.4600067138672,133.47999572753906,135.86000061035156,6174800.0,134.11083984375
2018-09-06,137.30999755859375,135.17999267578125,135.5,136.8699951171875,6562000.0,135.1078338623047
2018-09-07,137.69000244140625,135.75,136.77999877929688,137.32000732421875,6375200.0,135.55206298828125
2018-09-10,138.47000122070312,137.05999755859375,137.52999877929688,137.2100067138672,4892200.0,135.44346618652344
2018-09-11,138.91000366210938,137.22000122070312,137.63999938964844,138.50999450683594,7856800.0,136.72671508789062
2018-09-12,139.99000549316406,138.55999755859375,138.89999389648438,139.36000061035156,6767700.0,137.5657958984375
2018-09-13,140.47999572753906,139.02000427246094,139.88999938964844,139.88999938964844,6456100.0,138.08895874023438
2018-09-14,140.35000610351562,139.10000610351562,140.0,139.49000549316406,4534800.0,137.69412231445312
2018-09-17,140.39999389648438,139.17999267578125,139.3300018310547,139.9600067138672,5295500.0,138.15806579589844
2018-09-18,140.83999633789062,139.8300018310547,140.27000427246094,140.5399932861328,4581200.0,138.73057556152344
2018-09-19,140.99000549316406,140.0500030517578,140.75999450683594,140.4600067138672,5049900.0,138.65162658691406
2018-09-20,142.13999938964844,140.50999450683594,140.82000732421875,141.97999572753906,5019300.0,140.1520538330078
2018-09-21,143.1300048828125,141.69000244140625,142.17999267578125,142.8800048828125,13283400.0,141.04046630859375
2018-09-24,142.5,140.22999572753906,142.10000610351562,140.47000122070312,6708000.0,138.66148376464844
2018-09-25,140.9600067138672,138.39999389648438,140.52999877929688,138.63999938964844,7982800.0,136.8550567626953
2018-09-26,140.0,137.9600067138672,138.9499969482422,138.16000366210938,7133300.0,136.38124084472656
2018-09-27,139.5800018310547,137.57000732421875,138.4499969482422,138.22000122070312,6450500.0,136.44046020507812
2018-09-28,138.55999755859375,137.41000366210938,138.10000610351562,138.1699981689453,6638500.0,136.39109802246094
2018-10-01,139.85000610351562,138.0,138.25999450683594,139.69000244140625,4871800.0,137.89154052734375
2018-10-02,140.72999572753906,139.64999389648438,139.7899932861328,140.47999572753906,6439100.0,138.67135620117188
2018-10-03,141.27000427246094,138.8800048828125,140.5399932861328,139.02999877929688,5411800.0,137.24002075195312
2018-10-04,139.52999877929688,137.32000732421875,138.5500030517578,139.35000610351562,4738700.0,137.55592346191406
2018-10-05,140.25,138.55999755859375,139.8000030517578,139.10000610351562,4309300.0,137.3091278076172
2018-10-08,139.67999267578125,138.6199951171875,138.89999389648438,139.38999938964844,5174100.0,137.59539794921875
2018-10-09,139.6199951171875,137.80999755859375,138.74000549316406,139.1999969482422,4475300.0,137.4078369140625
2018-10-10,140.4600067138672,137.72999572753906,139.35000610351562,137.72999572753906,7265600.0,135.95675659179688
2018-10-11,138.66000366210938,132.8800048828125,137.91000366210938,133.83999633789062,11603200.0,132.11685180664062
2018-10-12,134.41000366210938,132.22999572753906,134.39999389648438,133.8699951171875,6998000.0,132.14645385742188
2018-10-15,135.3000030517578,133.50999450683594,133.8800048828125,133.9499969482422,6398700.0,132.22543334960938
2018-10-16,137.99000549316406,134.75,134.75,136.55999755859375,9592800.0,134.8018341064453
2018-10-17,140.0,136.2100067138672,136.22999572753906,139.4600067138672,8261100.0,137.6645050048828
2018-10-18,139.80999755859375,137.7100067138672,139.1999969482422,139.5,7583900.0,137.7039794921875
2018-10-19,140.0,137.91000366210938,138.33999633789062,139.0500030517578,5924800.0,137.25978088378906
2018-10-22,139.25999450683594,138.13999938964844,138.61000061035156,138.67999267578125,4864300.0,136.89453125
2018-10-23,139.49000549316406,137.4499969482422,137.7899932861328,138.92999267578125,8282700.0,137.1413116455078
2018-10-24,140.11000061035156,137.1699981689453,138.52000427246094,137.47000122070312,8279200.0,135.7001190185547
2018-10-25,139.08999633789062,135.0500030517578,137.4600067138672,138.47000122070312,9720700.0,136.687255859375
2018-10-26,139.3000030517578,135.3300018310547,137.94000244140625,136.97000122070312,11371400.0,135.20655822753906
2018-10-29,139.10000610351562,136.22000122070312,136.99000549316406,137.5500030517578,6783000.0,135.77908325195312
2018-10-30,141.10000610351562,137.0,137.92999267578125,140.75,9646200.0,138.93788146972656
2018-10-31,141.42999267578125,139.61000061035156,141.0,139.99000549316406,9968900.0,138.1876678466797
2018-11-01,141.5800018310547,139.85000610351562,140.07000732421875,140.82000732421875,6913500.0,139.00698852539062
2018-11-02,142.0,139.66000366210938,141.97000122070312,140.67999267578125,7673200.0,138.8687744140625
2018-11-05,142.74000549316406,139.0,141.0,142.1999969482422,5601400.0,140.3692169189453
2018-11-06,142.8300018310547,141.05999755859375,141.52999877929688,142.57000732421875,5798900.0,140.7344512939453
2018-11-07,144.8699951171875,142.97000122070312,143.10000610351562,144.75,7173600.0,142.88638305664062
2018-11-08,145.7899932861328,144.0,144.30999755859375,145.3000030517578,5497100.0,143.42930603027344
2018-11-09,145.74000549316406,144.3800048828125,145.0399932861328,145.33999633789062,5343100.0,143.4687957763672
2018-11-12,146.24000549316406,144.72999572753906,144.99000549316406,145.6199951171875,7013600.0,143.7451934814453
2018-11-13,146.75,143.4199981689453,146.19000244140625,144.67999267578125,7432300.0,142.81727600097656
2018-11-14,145.30999755859375,143.55999755859375,145.02000427246094,144.25,6433100.0,142.39283752441406
2018-11-15,144.50999450683594,142.47999572753906,143.41000366210938,144.5,6657900.0,142.6396026611328
2018-11-16,146.74000549316406,144.5500030517578,144.7100067138672,145.99000549316406,8494300.0,144.1104278564453
2018-11-19,148.44000244140625,146.3699951171875,146.42999267578125,147.72999572753906,8714600.0,145.8280029296875
2018-11-20,148.75,146.35000610351562,147.5,146.4499969482422,8937700.0,144.5644989013672
2018-11-21,146.22999572753906,140.77999877929688,146.22999572753906,141.99000549316406,10275400.0,140.16192626953125
2018-11-23,142.72999572753906,141.60000610351562,141.85000610351562,142.22999572753906,3404900.0,140.39881896972656
2018-11-26,142.0500030517578,140.72000122070312,142.0,141.3699951171875,7590900.0,140.43856811523438
2018-11-27,143.35000610351562,139.66000366210938,140.57000732421875,143.22000122070312,5962100.0,142.27638244628906
2018-11-28,146.55999755859375,143.36000061035156,143.8300018310547,146.44000244140625,8411400.0,145.4751739501953
2018-11-29,147.1999969482422,144.83999633789062,145.6199951171875,145.85000610351562,6900000.0,144.88906860351562
2018-11-30,147.0,145.10000610351562,145.33999633789062,146.89999389648438,12517600.0,145.93212890625
2018-12-03,146.6300048828125,144.94000244140625,145.57000732421875,146.2100067138672,8827200.0,145.24668884277344
2018-12-04,148.99000549316406,145.82000732421875,146.32000732421875,146.02999877929688,9803500.0,145.06787109375
2018-12-06,146.4499969482422,142.7899932861328,144.5,145.91000366210938,11572500.0,144.94866943359375
2018-12-07,147.33999633789062,144.1199951171875,145.49000549316406,145.42999267578125,9444500.0,144.47181701660156
2018-12-10,145.8800048828125,142.3800048828125,145.38999938964844,145.25999450683594,6848100.0,144.3029327392578
2018-12-11,148.2100067138672,145.7899932861328,146.2899932861328,146.5,9857400.0,145.53477478027344
2018-12-12,148.49000549316406,147.0,147.0,147.10000610351562,8869200.0,146.13082885742188
2018-12-13,148.58999633789062,146.8000030517578,146.9600067138672,147.83999633789062,6008300.0,146.86593627929688
2018-12-14,145.3800048828125,130.1999969482422,144.33999633789062,133.0,58140200.0,132.12371826171875
2018-12-17,131.64999389648438,126.83000183105469,128.32000732421875,129.13999938964844,36933100.0,128.28915405273438
2018-12-18,132.8000030517578,129.1999969482422,132.0500030517578,130.4199981689453,24640100.0,129.5607147216797
2018-12-19,131.35000610351562,127.08999633789062,129.8699951171875,127.61000061035156,21232100.0,126.76923370361328
2018-12-20,129.75,126.76000213623047,127.72000122070312,128.27000427246094,16609600.0,127.42488861083984
2018-12-21,130.60000610351562,127.12000274658203,127.80000305175781,128.08999633789062,19732900.0,127.24606323242188
2018-12-24,128.0,121.0,127.30000305175781,122.83999633789062,7531900.0,122.03065490722656
2018-12-26,126.76000213623047,122.01000213623047,123.41999816894531,126.70999908447266,9253000.0,125.87516021728516
2018-12-27,127.41000366210938,123.06999969482422,125.87000274658203,127.41000366210938,9918700.0,126.570556640625
2018-12-28,128.75,126.75,127.91000366210938,127.2699966430664,6537200.0,126.43146514892578
2018-12-31,129.5500030517578,127.41999816894531,128.17999267578125,129.0500030517578,7409900.0,128.1997528076172
2019-01-02,128.3800048828125,126.27999877929688,128.1300048828125,127.75,7631700.0,126.90830993652344
2019-01-03,128.27000427246094,125.36000061035156,128.13999938964844,125.72000122070312,8654500.0,124.89168548583984
2019-01-04,128.64999389648438,126.7300033569336,127.12000274658203,127.83000183105469,8831700.0,126.98778533935547
2019-01-07,128.35000610351562,126.80000305175781,127.62999725341797,127.01000213623047,8404700.0,126.17318725585938
2019-01-08,130.5,127.7300033569336,128.17999267578125,129.9600067138672,9351600.0,129.103759765625
2019-01-09,130.24000549316406,128.3300018310547,129.8300018310547,128.92999267578125,7403500.0,128.0805206298828
2019-01-10,129.88999938964844,127.69000244140625,127.69000244140625,129.7100067138672,6224400.0,128.85540771484375
2019-01-11,129.83999633789062,128.30999755859375,129.0,129.75,5300400.0,128.89512634277344
2019-01-14,128.9600067138672,127.58999633789062,128.74000549316406,128.27999877929688,7374400.0,127.434814453125
2019-01-15,129.49000549316406,127.6500015258789,128.52000427246094,129.36000061035156,5194400.0,128.50770568847656
2019-01-16,129.41000366210938,127.9000015258789,129.41000366210938,128.0399932861328,6264200.0,127.1963882446289
2019-01-17,129.52000427246094,127.45999908447266,127.70999908447266,129.08999633789062,7632000.0,128.23947143554688
2019-01-18,131.17999267578125,129.4499969482422,129.89999389648438,130.69000244140625,10593000.0,129.8289337158203
2019-01-22,129.5,127.01000213623047,128.1999969482422,128.8000030517578,10568100.0,127.9513931274414
2019-01-23,129.3000030517578,127.93000030517578,128.5,128.8000030517578,9267800.0,127.9513931274414
2019-01-24,128.6999969482422,125.0,128.49000549316406,127.02999877929688,9917000.0,126.19305419921875
2019-01-25,128.4499969482422,127.02999877929688,128.1300048828125,128.22999572753906,7585100.0,127.38513946533203
2019-01-28,129.14999389648438,127.29000091552734,127.80999755859375,128.99000549316406,6927700.0,128.14015197753906
2019-01-29,130.47000122070312,128.5,128.9499969482422,130.3300018310547,6669300.0,129.4713134765625
2019-01-30,132.19000244140625,130.3000030517578,130.3699951171875,131.63999938964844,7299300.0,130.77267456054688
2019-01-31,135.19000244140625,130.8699951171875,131.6300048828125,133.0800018310547,17298100.0,132.2032012939453
2019-02-01,134.69000244140625,133.47000122070312,134.02000427246094,134.1999969482422,9575200.0,133.31581115722656
2019-02-04,134.14999389648438,132.2100067138672,133.9600067138672,132.8800048828125,7759000.0,132.0045166015625
2019-02-05,133.8800048828125,132.75,133.52000427246094,132.8800048828125,6449800.0,132.0045166015625
2019-02-06,133.57000732421875,132.3000030517578,133.0800018310547,133.0,5066100.0,132.12371826171875
2019-02-07,132.63999938964844,131.52999877929688,132.4499969482422,132.0500030517578,6085300.0,131.1799774169922
2019-02-08,132.4600067138672,131.5399932861328,131.9499969482422,132.39999389648438,4436700.0,131.5276641845703
2019-02-11,132.6699981689453,131.25999450683594,132.30999755859375,132.0,4962200.0,131.13031005859375
2019-02-12,134.3000030517578,132.0800018310547,132.0800018310547,134.16000366210938,6262300.0,133.2760772705078
2019-02-13,134.97999572753906,133.2100067138672,134.07000732421875,134.4499969482422,7902200.0,133.5641632080078
2019-02-14,134.82000732421875,133.35000610351562,134.3000030517578,134.30999755859375,3910400.0,133.42507934570312
2019-02-15,136.41000366210938,135.00999450683594,135.19000244140625,136.3800048828125,6665000.0,135.48146057128906
2019-02-19,136.3800048828125,135.6300048828125,136.13999938964844,135.69000244140625,5935500.0,134.79600524902344
2019-02-20,136.72999572753906,135.72999572753906,135.97000122070312,136.35000610351562,6089800.0,135.45166015625
2019-02-21,135.7899932861328,134.27000427246094,134.97999572753906,135.4199981689453,6665500.0,134.52777099609375
2019-02-22,136.63999938964844,134.82000732421875,135.2899932861328,136.60000610351562,5223900.0,135.70001220703125
2019-02-25,137.49000549316406,135.86000061035156,136.35000610351562,136.1999969482422,6846600.0,136.1999969482422
2019-02-26,136.9600067138672,136.0500030517578,136.44000244140625,136.11000061035156,5106900.0,136.11000061035156
2019-02-27,136.25,135.38999938964844,135.52000427246094,135.8699951171875,4378100.0,135.8699951171875
2019-02-28,137.9499969482422,135.69000244140625,135.9499969482422,136.63999938964844,10133200.0,136.63999938964844
2019-03-01,138.61000061035156,137.00999450683594,137.22000122070312,138.35000610351562,5641600.0,138.35000610351562
2019-03-04,139.41000366210938,137.50999450683594,138.85000610351562,138.47999572753906,8377700.0,138.47999572753906
2019-03-05,139.13999938964844,138.36000061035156,138.80999755859375,138.77000427246094,6568900.0,138.77000427246094
2019-03-06,139.64999389648438,138.60000610351562,139.47000122070312,139.08999633789062,6236900.0,139.08999633789062
2019-03-07,139.1199951171875,137.6999969482422,138.52999877929688,138.24000549316406,6098300.0,138.24000549316406
2019-03-08,139.3000030517578,136.4199981689453,138.08999633789062,138.05999755859375,7046700.0,138.05999755859375
2019-03-11,139.02999877929688,137.52000427246094,138.11000061035156,138.55999755859375,6150400.0,138.55999755859375
2019-03-12,140.0,138.5,138.64999389648438,139.17999267578125,5552900.0,139.17999267578125
2019-03-13,139.83999633789062,139.02000427246094,139.58999633789062,139.41000366210938,6446900.0,139.41000366210938
2019-03-14,138.8000030517578,137.94000244140625,138.33999633789062,138.02000427246094,8493600.0,138.02000427246094
2019-03-15,138.25999450683594,136.8300018310547,138.0,137.60000610351562,11922500.0,137.60000610351562
2019-03-18,137.77999877929688,136.72000122070312,137.64999389648438,137.1699981689453,7369600.0,137.1699981689453
2019-03-19,138.82000732421875,137.47000122070312,137.61000061035156,138.44000244140625,5882500.0,138.44000244140625
2019-03-20,138.50999450683594,136.64999389648438,138.3300018310547,137.2899932861328,5475700.0,137.2899932861328
2019-03-21,138.77999877929688,136.9499969482422,137.0,138.10000610351562,5765100.0,138.10000610351562
2019-03-22,138.38999938964844,136.86000061035156,137.75,136.91000366210938,6528800.0,136.91000366210938
2019-03-25,137.00999450683594,135.74000549316406,136.91000366210938,136.61000061035156,4500300.0,136.61000061035156
2019-03-26,139.27000427246094,136.92999267578125,136.92999267578125,138.57000732421875,4758600.0,138.57000732421875
2019-03-27,139.47999572753906,138.07000732421875,138.58999633789062,138.6999969482422,6764900.0,138.6999969482422
2019-03-28,139.4600067138672,138.7100067138672,139.05999755859375,138.8800048828125,4602100.0,138.8800048828125
2019-03-29,139.8800048828125,138.8800048828125,139.27999877929688,139.7899932861328,7168400.0,139.7899932861328
2019-04-01,140.2899932861328,138.74000549316406,139.99000549316406,138.97999572753906,5885200.0,138.97999572753906
2019-04-02,139.00999450683594,136.91000366210938,139.00999450683594,137.7100067138672,5517800.0,137.7100067138672
2019-04-03,138.24000549316406,136.8699951171875,138.1999969482422,137.1699981689453,5947000.0,137.1699981689453
2019-04-04,137.00999450683594,135.1300048828125,136.8699951171875,135.57000732421875,5844600.0,135.57000732421875
2019-04-05,136.5800018310547,135.6999969482422,136.0399932861328,136.17999267578125,4759700.0,136.17999267578125
2019-04-08,136.50999450683594,135.6999969482422,136.0500030517578,136.13999938964844,4329600.0,136.13999938964844
2019-04-09,136.25999450683594,134.55999755859375,136.0,135.57000732421875,5210300.0,135.57000732421875
2019-04-10,136.1300048828125,135.3300018310547,135.88999938964844,135.5800018310547,4194100.0,135.5800018310547
2019-04-11,136.17999267578125,134.4199981689453,135.9600067138672,135.2100067138672,4485200.0,135.2100067138672
2019-04-12,136.35000610351562,134.75,135.22000122070312,135.97999572753906,5756800.0,135.97999572753906
2019-04-15,136.7899932861328,135.8000030517578,136.0,136.52000427246094,5380900.0,136.52000427246094
2019-04-16,140.6999969482422,137.55999755859375,138.32000732421875,138.02000427246094,10745700.0,138.02000427246094
2019-04-17,140.14999389648438,137.6699981689453,139.0,138.52000427246094,9543700.0,138.52000427246094
2019-04-18,140.24000549316406,135.75,139.35000610351562,137.52000427246094,10485300.0,137.52000427246094
2019-04-22,138.49000549316406,136.4600067138672,136.97999572753906,137.8300018310547,4666500.0,137.8300018310547
2019-04-23,140.85000610351562,137.25,137.4199981689453,139.89999389648438,5790500.0,139.89999389648438
2019-04-24,140.13999938964844,138.86000061035156,139.64999389648438,139.1999969482422,5676300.0,139.1999969482422
2019-04-25,139.77000427246094,137.9600067138672,138.52000427246094,139.64999389648438,5218100.0,139.64999389648438
2019-04-26,140.52000427246094,139.30999755859375,139.8800048828125,140.38999938964844,4613600.0,140.38999938964844
2019-04-29,140.42999267578125,139.5800018310547,140.35000610351562,139.83999633789062,4275200.0,139.83999633789062
2019-04-30,141.4499969482422,138.9600067138672,140.19000244140625,141.1999969482422,6003700.0,141.1999969482422
2019-05-01,142.35000610351562,139.75,140.9499969482422,141.9499969482422,6656300.0,141.9499969482422
2019-05-02,142.14999389648438,140.1199951171875,141.91000366210938,141.27999877929688,8835600.0,141.27999877929688
2019-05-03,142.08999633789062,141.0800018310547,141.2899932861328,142.00999450683594,5281600.0,142.00999450683594
