setVaje/GE.csv,setVaje/GOOGL.csv
-0.0049680917179179,0.005619164334627502
-0.022467807903861603,-0.023263290637850487
0.0025536717908360984,0.008841310210408349
0.020742426341772147,0.004366148778603307
0.004634586713946565,0.009867472549365042
0.0035485504815084834,0.0067214833150293085
-0.015912314126348526,0.007274223530359336
-0.01221685314588894,0.014576365026463423
-0.0014552491686700142,0.0014216060739538072
-0.0032786747741949673,0.0029196123127472884
0.0007311209425047149,-0.009114866147805212
0.01241771749673215,0.0012156451176976724
0.005772006992764478,0.00792279317197253
0.0035868108864340886,0.007790235919028943
-0.0017868053442782195,-0.007172184097711587
-0.00895108727594418,0.0048360630890949
-0.0032514311465017265,0.0027758654986269615
0.012685752655872351,-0.03401445133147152
0.03579092856670352,-0.008565948130560996
-0.016931461547964544,0.0090350510635826
0.008435665629199729,-0.0026481270728683226
0.01756668119875049,-0.00800677741018807
0.010791015967303696,-0.0016246928393564009
-0.006896523822555567,0.0173165338408241
-0.023263939609622697,-0.006388282291079683
-0.012442256930192519,0.009907260877660695
-0.008279229141305855,-0.0020131328587227326
0.0007257977368100299,0.009696741604337866
0.0014509226349630477,-0.014197486658134473
-0.014487522144348564,-0.02468907131743292
-0.004777482149023959,0.013627379831225417
-0.002215725422422099,-0.02413086461717706
-0.0003701722433003818,-0.008679719546251241
0.01629011959036375,-0.01099299843348267
-0.0036428967444198657,0.013921201016991569
-0.038025519282787634,-0.004902073752329761
-0.006081313196707461,0.014142650112278332
-0.004206483767986824,0.010831094979697697
0.013056621146303682,0.002660388324789764
0.007581630473862733,0.014818561989154766
0.007900724263272929,0.001229773344390006
-0.0003732720915803345,0.00831913893966818
0.0014937241367760645,-0.0009724040064994499
0.002609981736924283,0.01126069714634581
0.0018593417039030058,0.005896962614351686
-0.00927992145904244,-0.0005842411418885973
-0.029224390125964117,0.0016630125379235583
-0.0185255908658708,0.004497676268149675
0.00039298755316985456,-0.029329535247892946
0.005896533012522243,-0.003838923073395839
0.007815438444467526,-0.013259976406897023
-0.01008154843485387,0.006110179698427309
0.0031336380721473933,-0.013387890247667067
-0.006638169026044638,0.0011210973649855571
0.003144806626016461,0.001140991688460824
0.009404350883300161,-0.00774558560424643
0.0007765570852009684,0.005838551851160778
-0.0058186023472869275,-4.2269455452603744e-05
-0.002731163465336417,-0.0016494819546325479
0.005868521030239826,-0.004352921912893826
-0.015946957127741745,-0.017541049628330807
-0.003952635614877464,0.007037754643291816
0.006349097344373611,0.009504419534740682
-0.00867504446325873,-0.0009052598091101594
-0.0015910001941769059,0.006598586824831054
-0.01394424954544049,-0.017590356617447456
-0.008080690595614781,-0.0015953911040629265
-0.002444237654897319,-0.005733224211908028
0.004491782659828303,0.02120823721093168
-0.00853663563519469,0.0023181546354591465
-0.003690022002519666,-0.006036625366802939
0.007818812138221665,-0.006820453360083523
-0.0008165710977632301,-0.002547012484887312
-0.001225814836803174,0.00821005147673226
-0.00654687451913849,0.008421057849652636
0.011120478320184146,0.012303535592856019
0.024032400720820135,-0.003402286371200436
-0.01551306443588285,-0.01104004230447575
0.006868743610443984,0.00057360652770444
-0.03611558918866198,0.00835438202375327
-0.008326360536993538,-0.008927393038282383
-0.00419822341380971,0.0019970097369299555
0.008010262151946446,0.003562050339753764
0.00836449053042898,0.004003568298315718
0.0062215468898390025,-0.01084760482735414
-0.0033485486441588996,-0.00514825272072017
0.022147777609964114,-0.005923273163931819
-0.01062946792301811,0.007647201238571988
0.004958707994031641,0.011399774611756452
0.01768088648535482,1.0563950711528491e-05
0.004848598281488314,-0.004527442438510221
0.009649988744278248,-0.009520153908550877
-0.0071685031785829745,0.0033715409514605277
-0.02246284216041272,0.023969823788273725
-0.005334488919459646,0.005115088050475336
-0.002475006353682363,0.009234951096151134
0.016128871813368528,-0.006418683182072171
0.009361038900538299,0.0047650537239603
-0.012903109829817905,-0.005452213500731662
0.002450825724302108,0.019042566650782522
-0.006112422644126814,0.008577038120658242
-0.03936029447021583,-0.0013385301218111767
-0.0029877586853861438,-0.004544960523144126
-0.012414341610981316,0.018070496903908495
-0.0008669919639210377,0.0
-0.0030368351424383544,0.0022074982839270785
0.016536099516170744,0.00146842397920377
-0.007277412459789412,0.0016347396383544766
-0.0030184120722176466,0.0017210585898863595
0.019896254131637425,-0.010762844840741081
0.01060203415824068,0.0032240481336007765
-0.06336540221907705,-0.019431511391797995
-0.019265287375372253,0.002993295323175049
-0.017816368347350564,0.003004614884948964
-0.008372144161208572,-4.038394046423921e-05
-0.024859115985023106,0.04261570450813146
-0.018278094412834123,-0.0005224482083652227
-0.012249005715024186,-8.708083192543459e-05
-0.0069442473059222465,0.009254178116961942
-0.003996096912651903,0.00035487735071093596
0.010030116450761462,0.006730797365639862
-0.0004965616477733414,-0.006961910676696603
0.003973951709157708,0.009312502817083512
-0.004453063792431933,0.00560630976343246
-0.006461203407637117,-0.00998787475004359
0.025012520159843232,-0.0034073477540634833
-0.07174234414239655,-0.0028253346484790054
-0.05888545258865041,0.0004226503046484975
0.02011174025661111,-0.005020909714682165
-0.0005475728000987612,0.01163625990265782
-0.0021918320596033825,-0.01199839423751059
-0.012630348682797443,-0.0011873658895799055
-0.008342768889121555,0.015116090437220064
0.017947469408674088,0.001542411731766391
0.0022037939300729725,0.004372932726602663
-0.003848443814031266,0.014661331492088037
0.01600459203098148,-0.008134225075968726
0.0038022295495565572,-0.0243677954535646
-0.010281373927275017,-0.001166362308705482
-0.02241660802555112,-0.010712621660036947
0.003914935563834598,-0.012877122404827968
-0.010584831307969056,0.007639301991413161
0.0014063040717784414,0.012867786809868997
0.0028310436375027503,0.01147452932266746
0.0,0.0046048219277590174
-0.0033877315034149813,0.002468091452344723
0.014730771312635227,-0.003041865510415853
-0.008375153920800238,0.002498159814254386
-0.006756734823344823,0.005782778959262158
0.010203989922186851,0.013740370600986207
-0.003366934896835705,0.012210789011485312
-0.009572069983175724,-0.004893544950830941
-0.007959100326101254,-0.005760405392175372
0.001146069123319382,-0.002524388818416212
0.001717312516109848,-0.001858327758084477
0.0031540096054516464,-0.0028160936014781646
-0.0028687049378812723,-0.005300956554375014
-0.0011505950347742155,-0.004008677792620485
0.005184348484309709,-0.002414817818763959
0.030372199587836324,0.01880571109200102
0.009455058710526432,0.01706102185051961
0.020936897586205427,0.003884482335189565
0.0005394832214098422,0.013260229582555016
-0.014023742105077397,0.0035305386314281595
0.015317374747775503,-0.0012743754990354184
0.019935225661599665,-0.0023814235579381338
0.004754266085551295,0.0017205344861765948
-0.013669724948134787,0.016725843954179975
-0.02931772255407583,4.41575701892738e-05
-0.047226807833002815,0.007429048179719677
-0.03342925243545636,-0.0027477876831684123
-0.030411608208576246,0.006628722141496457
-0.0055350112769668725,0.0180673670132816
0.0445269244216524,0.010316459432562208
-0.026642951659087255,-0.00414906408128124
-0.01581509582313123,0.009263269748816194
-0.003090266132326991,0.00458494245871921
0.009299409700500583,-0.0009094934754533268
-0.02027021299960008,-0.0076781618750645375
0.013793063671607486,0.004119330037330116
-0.009276405713748659,-0.0005328998819380537
-0.023720321922346188,-0.052801747182343095
-0.04667525821538254,-0.05075941654925342
0.024144950322210423,0.02074571368198841
-0.0013098512420526287,-0.026760619029270738
-0.05245894760915093,-0.04519571603666439
0.03390998148812274,0.038264973770043564
-0.00803208702423075,0.007923422164207716
-0.010121422027068117,-0.0003983120182575739
0.01567819015791616,0.017606709038198387
-0.003355738768115901,0.017395390164138602
0.01346808183614745,0.0037934455211898754
-0.020598052087943075,0.007384724619180494
-0.01696054633012478,0.009206348820085308
0.008971710222429374,-0.003456768202862115
-0.00035873123940854956,0.016388810709192514
0.011042060543055676,0.013837535856647154
-0.010238977261659121,-0.02289931146662627
-0.026896498317505402,-0.012160934310702864
-0.006378469605415993,-0.029449605470914908
0.007132716185250354,0.011881520671492174
0.02124645902517308,0.009795778196260985
0.015256606884694435,0.005608548534533853
-0.00887978591269345,0.01284404971828712
0.0006891426198356587,0.012860494079090845
0.028925592724226012,0.02785595707510713
0.01070953692195964,0.004384831708501791
-0.044370879816912456,-0.022316964425467156
-0.011088044329422675,0.007877797544972198
0.0063070233305677625,0.0014970716789206584
-0.003481988214635412,-0.01407074648435569
-0.016771504058761932,-0.030279875465516914
-0.030561342151591786,-0.003881478150858708
0.01759524778227961,-0.0016426800035737044
-0.03818449232688703,-0.037340014246743825
-0.020973713512540182,-0.025257536883917964
-0.013772028026033611,0.02682764179264896
0.04266871081235113,-0.04473049256494255
0.01785715901506002,-0.0017478794777818774
-0.014619834303605694,0.03179532243531735
-0.026706216284182904,-0.023632305589842195
0.0007621539101345665,0.005974529456757471
0.011424219580149053,0.010827706778402613
0.011295180952747064,0.0028455136126586122
-0.027550281287557432,-0.02197280961374648
-0.017611083667429916,0.010040115377867753
0.017147333769140127,0.0160867891191101
-0.006130170309688765,-0.01103708770501688
0.016191194521163466,0.011930989180797713
0.023520521346156675,-0.0012050631481332896
-0.011860747216106526,0.009709988170477413
0.03450858905831411,0.0317942936065887
-0.009427053527852891,-0.003678078451121669
0.024158082357436106,0.013074267318758492
0.039313919527858676,-0.011134063450794596
-0.0013755808197641883,-0.0032579807952154427
0.011019316625229258,-0.047652788811015756
-0.04291562778575242,0.0003422275492102056
0.023487575594802523,0.019863408785377734
0.0,-0.011367768693671843
-0.021557753360369136,-0.01247751678829323
-0.001421459449546969,0.02176557809714108
0.009252746867526307,-0.014124382581671924
-0.017630513426016736,0.00024365283183369613
0.012203945255285342,0.024066988206888018
-0.0021277601981769534,0.008049439521883972
0.01421466652280401,-0.0008211684719240386
0.024527076226074973,0.02867964587973071
0.004787980092517019,0.015170595777585616
-0.006126630318141646,-0.0018905677003450139
0.007534186243401297,0.0029182790053072782
0.0,-0.019636707887368376
0.021753974005488397,-0.0007190071625045036
0.0,-0.002610443915091354
-0.003992069801818432,-0.010746716804689749
0.019371978723906613,0.013434421787137607
0.001966017202717163,-0.00802571110367889
-0.0725964572693425,0.009904029315672469
0.029619225392044424,-0.000469639566807567
0.002054752825424,-0.0012621448973378913
-0.030758715537418824,-0.014768292390434867
-0.0007052519832173587,0.008800944588622128
-0.006351389836317556,0.020910122703626355
0.0014204497402272587,0.031818181818181746
-0.02765958884290065,0.015894307544052966
0.006564492384458553,-0.0017519075338375822
-0.011594091147258845,-0.0035360534919561815
0.010263745943701608,-0.010924545760484405
0.010885416164887696,-0.0015074513333396267
0.003589399942803162,0.00723050362317279
0.0,0.00638961945498373
-0.0064377830185567975,-0.0034488726949218895
-0.017998463884766225,0.013878333161928769
-0.01592287453537755,-0.0007240398159816808
-0.0075188344587262534,0.02097003813940357
-0.018939298849226405,-0.004131545674985637
-0.005405517315497543,0.004564393649099774
-0.009316707961905424,-0.012355693114805999
0.022727204763143494,-0.00012818302030093154
-0.02298854466261191,-0.025665154720454164
0.07764711460204343,-0.005845827196495179
0.016011549942502423,-0.013844055180497805
-0.009312289485878589,0.008809863024717535
-0.015907354286110786,0.0021387600478497415
-0.017634121635804245,0.011441869495598223
0.0,-0.022615997045798197
0.0044876664652602205,0.0224047811563719
0.03127332102281155,0.01208274541983645
0.007220179962909468,0.010562102803565399
0.01577058744052562,-0.00011994949362903462
-0.01270291474124452,0.003701309384344764
0.0,0.025438384427818095
-0.007147927121949782,0.002630599665349731
0.0007199676994107396,-0.006567504600618057
-0.015107938407764365,0.013848564703865973
0.004382695076911247,-0.00014007475282395987
-0.0014544505961852083,-0.011385888651741616
-0.044428209960969745,-0.0010174053272987704
-0.009908577770123994,0.010952678952572459
0.010007740242621299,0.038934784817557855
-0.0007622983755237733,0.014139742198449268
0.003051213293105981,0.007492561588136715
-0.006844193626177164,-0.025367549865081718
0.007656929338058616,-0.018237814428067933
0.03571432114084505,-0.002292663872571432
-0.028613327007346867,0.004701699507011936
-0.005287043032090377,0.00660184974161071
-0.0022779843943924183,-0.0023929569758531777
-0.0030440180151336538,-0.00039574063194469655
0.004580083508664234,0.01468074788097784
-0.008358651423595709,0.00437156833975183
-0.008429107394115065,0.002481511572596684
-0.013137554181731348,-0.009450636272432922
-0.02505866859329653,-0.003089791767741379
-0.008032168355578073,0.00760827771699657
-0.010526278986965676,-0.020601875501555678
0.006546710206219997,-0.006622122919107354
0.0,-0.006707255048616356
0.0,0.005017046270858971
0.026829146631588197,-0.0037153051872816922
-0.012668218345454396,0.0035649170767981797
0.005613427841201002,-0.00048288587707179254
-0.003189744643460668,0.012766521491005989
0.02159995494971878,0.01578331880432593
-0.0007830342474863805,-0.008286462319280541
0.016457707017055734,0.015081982954286532
-0.01542027674958224,-0.008073445467684293
0.01331244717782143,-0.01804780909060122
-0.020865490711863943,-0.016634185275336
-0.008681913611214953,-0.010080064077060191
-0.003980951490098583,-0.01260110554516447
-0.0087929536931729,-0.005405471724296951
0.008870955594933339,-0.002148377024255743
-0.014388433194301165,0.012705675366493585
0.022708822921967187,-0.015453923813943615
0.007930253710465518,0.008996277980655165
0.007532562851349622,-0.003519070607659547
0.001577302155418847,-0.015407752860825408
-0.003149636382582921,0.006276807439634435
0.015797861140390612,0.006134840991468993
-0.031104185599585166,0.01473249463076498
-0.02327449984941976,-0.0163229621831672
-0.03533283588759706,0.006347527136774556
-0.04003398887747611,0.012148559923071067
0.010647661891210802,0.00014242848438805744
0.012291513954618694,0.011138406868307582
-0.02081529040537189,-0.00023193521424635932
0.07085922801519562,0.0012013067029355007
0.019023961869177652,-0.0007364439665229483
0.012986975254549282,0.0032211707141633905
0.014423055473228752,-0.028443441082357523
0.04107432901166952,-0.00784999248643281
0.03262516031832163,-0.010198327288683862
-0.004408565174768064,-0.009299951200178902
-0.019926133247508693,-0.04629007722119238
-0.04216877618112835,-0.001300215994791798
-0.03144645238883037,0.027320946417048075
-0.013798630943378631,-0.016153012855652626
-0.0041153061515921685,0.027792910522956626
0.007438046342076676,-0.004845192261180631
0.01558649054451644,-0.026321564168082068
0.014539638614075256,0.006621689669392472
-0.01433126716856259,0.005600844301763885
0.0250404262574786,0.0031852929969795607
-0.04097714569305311,-0.05183381375253293
-0.030402632840356603,0.04395903106342547
-0.04237286350380021,-0.017977660575742016
-0.012389410276424706,-0.04523185193194923
-0.08781365535813546,0.014283948059743423
-0.007858523718024535,0.039132496028536634
-0.051485147930031006,-0.00421791686194084
-0.030271324535471877,-0.013342778407499312
-0.0010764899748259005,-0.01470849929468565
0.015086243611698302,0.013109380311590035
-0.023354575512648967,0.03615475928384182
-0.010869560518467214,-0.012280720305612225
-0.05714285402106023,-0.01608761432905137
-0.06876458483718106,-0.025682005606289637
0.07759698830219408,-0.0013246308872465473
-0.03368179757893863,0.006307418663082265
-0.018028839259252027,0.015617680460241257
-0.018359845971089528,-0.0025956110080166406
-0.022443856574938192,-0.038239372854311116
-0.02423473415679489,0.002949044302199777
0.020915037521864743,0.012596538555124548
-0.03072980868783659,-0.012775248400783368
0.0013210165424240028,0.0250849106229849
-0.01846963587978634,-0.0034660229865922654
0.04032249550263134,0.03754704894668137
0.0258398478861106,0.0025553603645105394
-0.05541564362458884,0.013767900897521557
0.041333330151598124,0.0060469164059571145
-0.06786172715968175,-0.04827297229886496
0.009615408253992541,0.014692166161865527
-0.04625853873925356,-0.029218612054783488
-0.011412235611837351,0.006306348232705039
-0.024531043371377126,0.008042281728827039
-0.007396446875590823,0.011378472921295124
0.0730253664582361,-0.00017689867071335463
-0.013888952182962044,-0.02033466599351408
0.007042321076205393,-0.024778634311124814
0.018181782784252087,0.01731585759554921
0.053703056219858825,-0.007619318371265171
-0.028720572314231196,-0.011473107890043632
-0.03897849758324423,-0.031585236669392724
-0.03216787062225923,-0.0066381004689470835
0.06791911536828099,0.06416362209910709
-0.01623815867531264,0.004819438799242848
0.03301230929039978,-0.005907465627219444
0.00798938063229282,-0.0016433797198477373
