Date,High,Low,Open,Close,Volume,Adj Close
2017-05-03,75.87999725341797,75.18000030517578,75.4000015258789,75.76000213623047,5523600.0,71.89822387695312
2017-05-04,76.4000015258789,75.83000183105469,75.93000030517578,76.33999633789062,5500800.0,72.44866943359375
2017-05-05,76.5999984741211,76.18000030517578,76.41999816894531,76.5,5597800.0,72.60050964355469
2017-05-08,76.5199966430664,76.06999969482422,76.5,76.12000274658203,6512200.0,72.2398910522461
2017-05-09,77.05000305175781,76.33000183105469,76.44000244140625,76.72000122070312,8255300.0,72.80928802490234
2017-05-10,76.77999877929688,76.19000244140625,76.33000183105469,76.69999694824219,7511900.0,73.27742004394531
2017-05-11,76.72000122070312,75.93000030517578,76.3499984741211,76.12999725341797,8349400.0,72.73286437988281
2017-05-12,76.25,75.37000274658203,75.94999694824219,75.70999908447266,5892900.0,72.33161163330078
2017-05-15,76.47000122070312,75.80000305175781,75.80000305175781,76.29000091552734,8843900.0,72.88572692871094
2017-05-16,76.2699966430664,75.08000183105469,76.19000244140625,75.11000061035156,8371800.0,71.75838470458984
2017-05-17,75.7300033569336,74.95999908447266,75.11000061035156,75.12000274658203,10971000.0,71.76792907714844
2017-05-18,77.66000366210938,76.12999725341797,76.88999938964844,77.54000091552734,19166800.0,74.07994842529297
2017-05-19,79.44000244140625,77.7699966430664,77.97000122070312,78.7699966430664,18581700.0,75.25505065917969
2017-05-22,79.0,78.30000305175781,78.6500015258789,78.55000305175781,8897600.0,75.04487609863281
2017-05-23,78.97000122070312,78.44000244140625,78.58000183105469,78.48999786376953,7584900.0,74.98755645751953
2017-05-24,78.61000061035156,78.13999938964844,78.55999755859375,78.1500015258789,7427000.0,74.66272735595703
2017-05-25,78.8499984741211,78.1500015258789,78.36000061035156,78.30999755859375,6135000.0,74.81558990478516
2017-05-26,78.54000091552734,77.79000091552734,78.37000274658203,78.12999725341797,6125800.0,74.64360046386719
2017-05-30,78.4000015258789,77.93000030517578,78.0,78.1500015258789,5410400.0,74.66272735595703
2017-05-31,78.91999816894531,78.22000122070312,78.3499984741211,78.5999984741211,8201700.0,75.09265899658203
2017-06-01,79.80999755859375,78.5999984741211,78.63999938964844,79.80999755859375,8153100.0,76.24864959716797
2017-06-02,79.93000030517578,79.22000122070312,79.80000305175781,79.62000274658203,7996500.0,76.067138671875
2017-06-05,80.47000122070312,79.4800033569336,79.5999984741211,80.26000213623047,10145700.0,76.67857360839844
2017-06-06,79.55999755859375,78.26000213623047,79.43000030517578,78.93000030517578,11525900.0,75.40792083740234
2017-06-07,79.5,78.7300033569336,79.08000183105469,79.1500015258789,8511200.0,75.61811828613281
2017-06-08,80.12999725341797,78.2300033569336,79.1500015258789,78.93000030517578,10907600.0,75.40792083740234
2017-06-09,79.55999755859375,78.72000122070312,79.02999877929688,79.41999816894531,9405100.0,75.87606811523438
2017-06-12,80.37000274658203,78.83999633789062,79.4000015258789,79.23999786376953,10410600.0,75.7040786743164
2017-06-13,79.56999969482422,78.88999938964844,79.20999908447266,79.5199966430664,5528000.0,75.97158813476562
2017-06-14,80.04000091552734,79.26000213623047,79.5199966430664,79.9000015258789,5006500.0,76.33464813232422
2017-06-15,79.30000305175781,77.76000213623047,79.18000030517578,78.91000366210938,11297200.0,75.38880920410156
2017-06-16,75.5,73.29000091552734,73.94999694824219,75.23999786376953,56233000.0,71.88257598876953
2017-06-19,76.01000213623047,74.5199966430664,75.37999725341797,75.5,16095100.0,72.1309814453125
2017-06-20,75.91999816894531,75.31999969482422,75.87999725341797,75.54000091552734,10019200.0,72.16919708251953
2017-06-21,76.61000061035156,75.58000183105469,75.5999984741211,76.23999786376953,9011400.0,72.83795928955078
2017-06-22,76.05999755859375,75.30000305175781,76.02999877929688,75.5199966430664,8111300.0,72.15007781982422
2017-06-23,75.77999877929688,74.55000305175781,75.5999984741211,74.83999633789062,13080300.0,71.50042724609375
2017-06-26,75.93000030517578,74.91999816894531,74.94999694824219,75.5,8587500.0,72.1309814453125
2017-06-27,76.37000274658203,75.44999694824219,75.5,76.01000213623047,6454400.0,72.61821746826172
2017-06-28,76.80000305175781,76.13999938964844,76.25,76.51000213623047,6988900.0,73.09591674804688
2017-06-29,76.31999969482422,75.48999786376953,76.25,75.93000030517578,7063500.0,72.54179382324219
2017-06-30,76.2699966430664,75.66999816894531,76.08000183105469,75.68000030517578,6963300.0,72.30294799804688
2017-07-03,76.33999633789062,75.08000183105469,75.83999633789062,75.36000061035156,4848600.0,71.99723052978516
2017-07-05,75.94999694824219,75.16999816894531,75.55000305175781,75.31999969482422,6036900.0,71.9590072631836
2017-07-06,75.97000122070312,75.23999786376953,75.3499984741211,75.47000122070312,6161800.0,72.10230255126953
2017-07-07,75.81999969482422,75.05000305175781,75.6500015258789,75.33000183105469,5307100.0,71.96855926513672
2017-07-10,75.30999755859375,73.12999725341797,75.1500015258789,73.2300033569336,15066700.0,69.9622802734375
2017-07-11,74.05000305175781,73.33000183105469,73.37999725341797,73.47000122070312,7532600.0,70.19157409667969
2017-07-12,74.20999908447266,73.66000366210938,73.66000366210938,73.94000244140625,5700200.0,70.64058685302734
2017-07-13,75.25,74.51000213623047,74.66999816894531,75.05000305175781,8160500.0,71.70106506347656
2017-07-14,76.55999755859375,75.91000366210938,76.2699966430664,76.33999633789062,9151900.0,72.9334945678711
2017-07-17,76.87000274658203,76.19000244140625,76.29000091552734,76.37000274658203,8835600.0,72.962158203125
2017-07-18,76.54000091552734,76.0,76.25,76.19999694824219,4314900.0,72.79974365234375
2017-07-19,76.22000122070312,75.5999984741211,76.08000183105469,75.87000274658203,5313600.0,72.48445892333984
2017-07-20,76.25,75.69999694824219,75.9800033569336,76.0199966430664,4965400.0,72.62776184082031
2017-07-21,76.2300033569336,75.55000305175781,75.83999633789062,76.1500015258789,7153300.0,72.7519760131836
2017-07-24,77.16000366210938,76.02999877929688,76.02999877929688,76.88999938964844,7388000.0,73.45894622802734
2017-07-25,78.86000061035156,77.38999938964844,77.61000061035156,78.5199966430664,11504000.0,75.01619720458984
2017-07-26,79.16999816894531,77.94000244140625,78.55000305175781,78.9000015258789,6716100.0,75.37926483154297
2017-07-27,79.86000061035156,78.4800033569336,78.72000122070312,79.77999877929688,8052500.0,76.2199935913086
2017-07-28,79.95999908447266,79.54000091552734,79.80000305175781,79.80999755859375,4975200.0,76.24864959716797
2017-07-31,80.33999633789062,79.69000244140625,79.81999969482422,79.98999786376953,6263200.0,76.42061614990234
2017-08-01,80.7300033569336,80.0,80.25,80.5,5726500.0,76.90786743164062
2017-08-02,81.11000061035156,80.30000305175781,80.33999633789062,80.52999877929688,8673000.0,76.93651580810547
2017-08-03,81.76000213623047,80.66999816894531,81.33999633789062,80.87000274658203,9946900.0,77.26136016845703
2017-08-04,81.4000015258789,80.20999908447266,81.05999755859375,80.4800033569336,7141800.0,76.88875579833984
2017-08-07,81.44999694824219,80.54000091552734,80.56999969482422,81.27999877929688,5484500.0,77.6530532836914
2017-08-08,81.86000061035156,80.9000015258789,81.16999816894531,81.58999633789062,7381400.0,77.94921875
2017-08-09,81.98999786376953,80.9000015258789,81.11000061035156,81.61000061035156,6606500.0,78.4587631225586
2017-08-10,81.4000015258789,80.55000305175781,81.06999969482422,80.66000366210938,8045000.0,77.5454330444336
2017-08-11,81.25,80.36000061035156,80.7300033569336,80.4000015258789,7905500.0,77.29547882080078
2017-08-14,81.23999786376953,80.5,80.58999633789062,80.69999694824219,7760500.0,77.58389282226562
2017-08-15,81.4000015258789,80.54000091552734,80.83000183105469,80.7699966430664,7066100.0,77.65119171142578
2017-08-16,81.44000244140625,80.54000091552734,81.2699966430664,80.9800033569336,11536000.0,77.85308074951172
2017-08-17,79.80999755859375,78.33000183105469,78.8499984741211,79.69999694824219,17293700.0,76.62250518798828
2017-08-18,80.3499984741211,79.27999877929688,79.62000274658203,79.30999755859375,9753000.0,76.24756622314453
2017-08-21,80.06999969482422,78.79000091552734,79.12000274658203,79.70999908447266,9613900.0,76.63211822509766
2017-08-22,80.16000366210938,79.70999908447266,79.80000305175781,80.0199966430664,6546100.0,76.93013763427734
2017-08-23,80.55999755859375,79.87999725341797,80.3499984741211,79.95999908447266,7799300.0,76.8724594116211
2017-08-24,80.87999725341797,77.8499984741211,80.61000061035156,78.33999633789062,19128000.0,75.31501770019531
2017-08-25,79.08999633789062,78.4800033569336,78.5,78.62999725341797,9902200.0,75.59382629394531
2017-08-28,78.45999908447266,77.86000061035156,78.41000366210938,78.02999877929688,8621500.0,75.01698303222656
2017-08-29,78.9800033569336,77.5,77.66999816894531,78.7699966430664,7665200.0,75.7284164428711
2017-08-30,79.0999984741211,78.5199966430664,78.81999969482422,78.54000091552734,5829800.0,75.50728607177734
2017-08-31,78.75,78.05999755859375,78.5999984741211,78.06999969482422,8194800.0,75.05545043945312
2017-09-01,78.5,78.20999908447266,78.30999755859375,78.37000274658203,6474400.0,75.3438720703125
2017-09-05,79.88999938964844,77.9000015258789,77.94999694824219,79.80000305175781,12068500.0,76.71863555908203
2017-09-06,80.4000015258789,79.72000122070312,79.87999725341797,80.08000183105469,8426100.0,76.98783111572266
2017-09-07,80.76000213623047,80.0,80.31999969482422,80.12000274658203,6820800.0,77.02628326416016
2017-09-08,79.87999725341797,77.7300033569336,79.73999786376953,78.87999725341797,9999600.0,75.83416748046875
2017-09-11,79.3499984741211,78.66000366210938,79.1500015258789,79.08000183105469,7000200.0,76.02645111083984
2017-09-12,79.91000366210938,79.16999816894531,79.30000305175781,79.61000061035156,6005000.0,76.5359878540039
2017-09-13,80.68000030517578,79.58999633789062,79.61000061035156,79.86000061035156,8823700.0,76.77632904052734
2017-09-14,79.81999969482422,79.22000122070312,79.79000091552734,79.68000030517578,6939300.0,76.60328674316406
2017-09-15,80.75,79.2699966430664,79.80999755859375,80.37999725341797,13317800.0,77.2762451171875
2017-09-18,81.12000274658203,79.94999694824219,80.20999908447266,80.0,8176100.0,76.91092681884766
2017-09-19,80.45999908447266,79.69999694824219,80.18000030517578,80.05000305175781,6174400.0,76.95899963378906
2017-09-20,80.55999755859375,79.87000274658203,80.16999816894531,80.5,5318200.0,77.3916244506836
2017-09-21,80.56999969482422,79.72000122070312,80.56999969482422,80.01000213623047,6430300.0,76.92053985595703
2017-09-22,80.08000183105469,79.25,79.88999938964844,79.52999877929688,5755300.0,76.45906066894531
2017-09-25,80.0999984741211,78.86000061035156,78.91999816894531,79.1500015258789,8547800.0,76.09375
2017-09-26,79.54000091552734,78.91999816894531,79.04000091552734,79.38999938964844,5835300.0,76.32447814941406
2017-09-27,79.56999969482422,78.66999816894531,79.41999816894531,79.29000091552734,6314600.0,76.22834777832031
2017-09-28,79.08000183105469,78.12000274658203,79.0,78.94999694824219,12372800.0,75.9014663696289
2017-09-29,79.0,77.9800033569336,78.8499984741211,78.13999938964844,10353400.0,75.12274169921875
2017-10-02,78.83000183105469,77.5,77.9000015258789,78.44999694824219,7709200.0,75.4207763671875
2017-10-03,79.66000366210938,78.75,78.83000183105469,79.22000122070312,7936700.0,76.16104888916016
2017-10-04,79.77999877929688,79.06999969482422,79.2699966430664,79.08999633789062,6173400.0,76.03606414794922
2017-10-05,79.80999755859375,79.08000183105469,79.16999816894531,79.41000366210938,5138700.0,76.34371185302734
2017-10-06,79.16999816894531,78.25,78.77999877929688,79.0,6246700.0,75.94953918457031
2017-10-09,81.37999725341797,79.4000015258789,79.5,80.52999877929688,13493000.0,77.42045593261719
2017-10-10,84.87999725341797,82.61000061035156,82.68000030517578,84.12999725341797,25124000.0,80.88145446777344
2017-10-11,86.29000091552734,84.0999984741211,84.58000183105469,85.7300033569336,18561000.0,82.41966247558594
2017-10-12,86.37000274658203,85.05999755859375,85.69999694824219,86.0999984741211,12877000.0,82.775390625
2017-10-13,86.94999694824219,86.23999786376953,86.23999786376953,86.62000274658203,9389000.0,83.27530670166016
2017-10-16,86.62000274658203,85.0199966430664,86.58000183105469,85.73999786376953,9300300.0,82.42927551269531
2017-10-17,86.36000061035156,85.31999969482422,85.5,85.9800033569336,5851500.0,82.6600112915039
2017-10-18,86.37000274658203,86.01000213623047,86.1500015258789,86.22000122070312,5472100.0,82.89075469970703
2017-10-19,86.66000366210938,85.7699966430664,86.1500015258789,86.4000015258789,7029000.0,83.06378936767578
2017-10-20,87.44999694824219,86.27999877929688,86.5999984741211,87.44000244140625,7617800.0,84.06363677978516
2017-10-23,88.91999816894531,87.26000213623047,87.33999633789062,88.6500015258789,10586000.0,85.22691345214844
2017-10-24,88.80000305175781,87.91000366210938,88.69000244140625,87.9800033569336,7700900.0,84.5827865600586
2017-10-25,88.5999984741211,87.43000030517578,87.8499984741211,88.4800033569336,6408000.0,85.06348419189453
2017-10-26,89.11000061035156,88.0199966430664,88.66000366210938,88.62000274658203,6484900.0,85.19808197021484
2017-10-27,88.38999938964844,87.1500015258789,88.13999938964844,88.16999816894531,6617000.0,84.76544952392578
2017-10-30,87.94999694824219,86.38999938964844,87.94000244140625,86.94999694824219,7052000.0,83.59255981445312
2017-10-31,87.45999908447266,86.5999984741211,86.86000061035156,87.30999755859375,6006900.0,83.93865966796875
2017-11-01,88.4000015258789,87.0,87.06999969482422,87.94000244140625,6176100.0,84.54434204101562
2017-11-02,89.16999816894531,87.80000305175781,88.27999877929688,88.80000305175781,5183100.0,85.37113189697266
2017-11-03,89.87999725341797,88.76000213623047,89.0199966430664,89.68000030517578,6512100.0,86.2171401977539
2017-11-06,89.68000030517578,88.68000030517578,89.41999816894531,88.69999694824219,5104600.0,85.27498626708984
2017-11-07,89.05999755859375,88.30999755859375,88.87000274658203,88.94999694824219,5349300.0,85.51532745361328
2017-11-08,90.41999816894531,89.0999984741211,89.11000061035156,90.26000213623047,6767500.0,86.7747573852539
2017-11-09,90.56999969482422,89.3499984741211,89.94000244140625,90.30000305175781,6904500.0,86.81321716308594
2017-11-10,91.69000244140625,90.19999694824219,90.23999786376953,90.91999816894531,7647800.0,87.40926361083984
2017-11-13,91.9800033569336,90.87000274658203,91.04000091552734,90.98999786376953,8491600.0,87.47655487060547
2017-11-14,91.19999694824219,90.18000030517578,90.69999694824219,91.08999633789062,9834100.0,87.57270050048828
2017-11-15,90.8499984741211,89.6500015258789,90.33999633789062,89.83000183105469,8433400.0,86.36135864257812
2017-11-16,99.68000030517578,94.72000122070312,95.12000274658203,99.62000274658203,38122400.0,95.77333068847656
2017-11-17,100.12999725341797,96.58000183105469,99.23999786376953,97.47000122070312,23575500.0,93.70635223388672
2017-11-20,97.63999938964844,95.76000213623047,96.44000244140625,97.4800033569336,16394300.0,93.7159652709961
2017-11-21,97.91999816894531,96.31999969482422,97.73999786376953,96.5199966430664,12746500.0,92.79302215576172
2017-11-22,96.80999755859375,96.11000061035156,96.6500015258789,96.41000366210938,8918200.0,92.6872787475586
2017-11-24,97.2300033569336,96.52999877929688,96.87000274658203,96.62000274658203,4496100.0,92.88916778564453
2017-11-27,97.6500015258789,96.30000305175781,96.8499984741211,96.62000274658203,8904900.0,92.88916778564453
2017-11-28,96.88999938964844,95.81999969482422,96.58999633789062,96.7699966430664,8709600.0,93.03337860107422
2017-11-29,98.26000213623047,96.87999725341797,97.22000122070312,97.55999755859375,11424000.0,93.79286193847656
2017-11-30,98.44000244140625,96.51000213623047,98.08999633789062,97.2300033569336,12854700.0,93.4756088256836
2017-12-01,97.70999908447266,96.2300033569336,97.61000061035156,97.3499984741211,8296200.0,93.59097290039062
2017-12-04,97.95999908447266,96.68000030517578,97.7300033569336,97.01000213623047,8956500.0,93.26410675048828
2017-12-05,97.94000244140625,96.91999816894531,97.0,97.83000183105469,9010100.0,94.05244445800781
2017-12-06,98.13999938964844,97.23999786376953,97.98999786376953,97.27999877929688,7141000.0,93.523681640625
2017-12-07,97.58000183105469,96.6500015258789,97.05999755859375,96.77999877929688,7502600.0,93.5333480834961
2017-12-08,96.69999694824219,96.13999938964844,96.30000305175781,96.55000305175781,5821100.0,93.31106567382812
2017-12-11,97.2699966430664,96.29000091552734,96.95999908447266,96.93000030517578,8928900.0,93.67831420898438
2017-12-12,97.23999786376953,96.5999984741211,96.8499984741211,96.69999694824219,7810600.0,93.45601654052734
2017-12-13,97.91000366210938,96.55000305175781,96.66000366210938,97.76000213623047,7879400.0,94.48048400878906
2017-12-14,98.56999969482422,97.0999984741211,98.0,97.12999725341797,9385800.0,93.8716049194336
2017-12-15,98.48999786376953,96.91000366210938,97.70999908447266,97.11000061035156,16142800.0,93.8522720336914
2017-12-18,98.16999816894531,97.36000061035156,97.37999725341797,97.9000015258789,7964400.0,94.61577606201172
2017-12-19,99.91000366210938,98.29000091552734,99.91000366210938,98.80000305175781,12012200.0,95.48558807373047
2017-12-20,99.6500015258789,98.44999694824219,99.44999694824219,98.75,10729800.0,95.437255859375
2017-12-21,99.33000183105469,97.9800033569336,99.0,98.05999755859375,7369100.0,94.77039337158203
2017-12-22,98.41999816894531,97.68000030517578,98.29000091552734,98.20999908447266,5478700.0,94.91537475585938
2017-12-26,99.44000244140625,98.3499984741211,98.3499984741211,99.16000366210938,4295900.0,95.8335189819336
2017-12-27,99.5999984741211,98.83000183105469,99.55999755859375,99.26000213623047,5140800.0,95.93014526367188
2017-12-28,99.62000274658203,99.12000274658203,99.5199966430664,99.4000015258789,9763900.0,96.0654525756836
2017-12-29,99.69000244140625,98.75,99.4000015258789,98.75,7144300.0,95.437255859375
2018-01-02,99.79000091552734,98.5199966430664,99.30000305175781,98.58999633789062,10150500.0,95.2826156616211
2018-01-03,100.0,98.7699966430664,98.8499984741211,99.44999694824219,8903600.0,96.11377716064453
2018-01-04,99.77999877929688,98.91000366210938,99.54000091552734,99.54000091552734,6830400.0,96.20075988769531
2018-01-05,100.37999725341797,99.61000061035156,99.63999938964844,100.12999725341797,7284000.0,96.77096557617188
2018-01-08,101.75,100.20999908447266,100.25,101.61000061035156,8843900.0,98.2013168334961
2018-01-09,102.3499984741211,100.30999755859375,102.02999877929688,100.38999938964844,7312700.0,97.02224731445312
2018-01-10,99.88999938964844,98.52999877929688,99.75,99.66999816894531,7930400.0,96.32638549804688
2018-01-11,100.44999694824219,98.77999877929688,99.69999694824219,100.0199966430664,6537700.0,96.66464233398438
2018-01-12,101.44000244140625,100.30000305175781,100.38999938964844,100.87000274658203,6951200.0,97.48613739013672
2018-01-16,101.91000366210938,100.33999633789062,101.33999633789062,100.69000244140625,7170700.0,97.31218719482422
2018-01-17,102.94000244140625,100.69999694824219,101.1500015258789,102.69999694824219,8610600.0,99.25475311279297
2018-01-18,104.94000244140625,103.62000274658203,104.73999786376953,104.30000305175781,12307900.0,100.80107879638672
2018-01-19,104.93000030517578,103.66000366210938,104.63999938964844,104.58999633789062,8378600.0,101.08134460449219
2018-01-22,105.44999694824219,104.04000091552734,104.5,105.44999694824219,7308300.0,101.91249084472656
2018-01-23,106.1500015258789,104.56999969482422,105.29000091552734,105.9000015258789,8287800.0,102.34740447998047
2018-01-24,106.44000244140625,104.81999969482422,106.3499984741211,105.79000091552734,6823100.0,102.2410888671875
2018-01-25,106.80999755859375,105.8499984741211,105.8499984741211,106.5999984741211,5857100.0,103.02391052246094
2018-01-26,108.41000366210938,106.68000030517578,107.0,108.38999938964844,6786300.0,104.75386810302734
2018-01-29,109.9800033569336,107.98999786376953,108.11000061035156,109.55000305175781,8355200.0,105.87495422363281
2018-01-30,109.36000061035156,107.1500015258789,109.13999938964844,107.7300033569336,9180500.0,104.11601257324219
2018-01-31,108.18000030517578,106.06999969482422,107.7699966430664,106.5999984741211,9812800.0,103.02391052246094
2018-02-01,106.55999755859375,105.18000030517578,105.95999908447266,105.5199966430664,6386800.0,101.98014831542969
2018-02-02,106.47000122070312,104.1500015258789,105.1500015258789,104.4800033569336,9253100.0,100.97503662109375
2018-02-05,104.61000061035156,97.08999633789062,103.4000015258789,100.08999633789062,12561600.0,96.73230743408203
2018-02-06,101.08000183105469,97.25,97.63999938964844,100.9000015258789,16413800.0,97.51513671875
2018-02-07,104.58999633789062,100.01000213623047,100.5,102.8499984741211,11165200.0,99.39971160888672
2018-02-08,103.4800033569336,100.0,103.2300033569336,100.0199966430664,13975100.0,96.66464233398438
2018-02-09,101.0999984741211,96.43000030517578,100.52999877929688,99.37000274658203,14184600.0,96.03645324707031
2018-02-12,100.44999694824219,98.80000305175781,100.12999725341797,99.55000305175781,9135100.0,96.2104263305664
2018-02-13,101.22000122070312,99.33000183105469,99.33000183105469,100.9800033569336,6622800.0,97.59245300292969
2018-02-14,102.25,100.20999908447266,100.86000061035156,101.69999694824219,7307600.0,98.28828430175781
2018-02-15,103.63999938964844,101.83000183105469,102.55000305175781,103.2300033569336,7494900.0,99.76697540283203
2018-02-16,104.94000244140625,101.9800033569336,103.08999633789062,104.77999877929688,16064300.0,101.26496887207031
2018-02-20,97.94000244140625,94.0999984741211,96.98999786376953,94.11000061035156,52088500.0,90.95292663574219
2018-02-21,95.33999633789062,91.23999786376953,95.11000061035156,91.5199966430664,49503700.0,88.44979858398438
2018-02-22,93.38999938964844,91.30999755859375,91.43000030517578,92.7699966430664,20365000.0,89.6578598022461
2018-02-23,93.48999786376953,91.76000213623047,92.87999725341797,92.88999938964844,12791500.0,89.77383422851562
2018-02-26,93.80000305175781,92.22000122070312,92.9000015258789,93.12000274658203,14699300.0,89.99613189697266
2018-02-27,93.72000122070312,91.51000213623047,93.62999725341797,91.5199966430664,13376100.0,88.44979858398438
2018-02-28,92.0999984741211,90.0,92.0,90.01000213623047,14143700.0,86.99046325683594
2018-03-01,90.18000030517578,87.70999908447266,90.16999816894531,89.08000183105469,18909600.0,86.0916519165039
2018-03-02,88.9000015258789,87.23999786376953,87.2699966430664,88.7699966430664,19043400.0,85.79205322265625
2018-03-05,90.5,88.06999969482422,88.13999938964844,89.9800033569336,13383200.0,86.96147155761719
2018-03-06,90.5,88.62999725341797,90.3499984741211,89.05999755859375,11054700.0,86.07232666015625
2018-03-07,88.52999877929688,87.33999633789062,87.9800033569336,87.73999786376953,11453000.0,84.7966079711914
2018-03-08,88.12999725341797,87.33999633789062,87.7699966430664,87.91999816894531,9588700.0,85.47715759277344
2018-03-09,88.72000122070312,87.52999877929688,88.23999786376953,88.72000122070312,9754400.0,86.25493621826172
2018-03-12,89.44000244140625,87.87999725341797,88.69999694824219,88.06999969482422,8474000.0,85.62300109863281
2018-03-13,88.9000015258789,87.9800033569336,88.38999938964844,88.30000305175781,7173000.0,85.84660339355469
2018-03-14,88.98999786376953,87.5,88.51000213623047,87.66999816894531,11040600.0,85.2341079711914
2018-03-15,88.79000091552734,85.9000015258789,87.68000030517578,87.51000213623047,16615200.0,85.07855987548828
2018-03-16,90.08999633789062,87.5,87.72000122070312,89.16999816894531,28396000.0,86.69242858886719
2018-03-19,89.08000183105469,87.0999984741211,88.91000366210938,87.44999694824219,12053400.0,85.02021789550781
2018-03-20,88.1500015258789,87.37000274658203,87.86000061035156,87.94999694824219,8258000.0,85.50631713867188
2018-03-21,89.68000030517578,87.68000030517578,87.88999938964844,88.18000030517578,11836000.0,85.72993469238281
2018-03-22,88.2699966430664,86.98999786376953,87.52999877929688,87.13999938964844,12248200.0,84.71883392333984
2018-03-23,87.69000244140625,85.27999877929688,87.3499984741211,85.41999816894531,10125100.0,83.04662322998047
2018-03-26,87.69000244140625,86.11000061035156,86.22000122070312,87.5,9199800.0,85.0688247680664
2018-03-27,88.04000091552734,85.4800033569336,87.95999908447266,86.05000305175781,6545800.0,83.65912628173828
2018-03-28,88.23999786376953,86.19000244140625,86.26000213623047,87.7699966430664,11576300.0,85.3313217163086
2018-03-29,89.33999633789062,87.7699966430664,87.9000015258789,88.97000122070312,9274600.0,86.49799346923828
2018-04-02,88.23999786376953,84.83999633789062,88.0,85.55000305175781,19128900.0,83.17301177978516
2018-04-03,86.94999694824219,85.55000305175781,86.25,86.80000305175781,9695500.0,84.38827514648438
2018-04-04,87.5,85.44000244140625,85.5999984741211,87.22000122070312,6536600.0,84.7966079711914
2018-04-05,88.3499984741211,87.05000305175781,87.5999984741211,87.80999755859375,6380900.0,85.3702163696289
2018-04-06,87.9000015258789,86.12999725341797,86.83000183105469,86.69000244140625,6350000.0,84.28133392333984
2018-04-09,87.44999694824219,86.23999786376953,86.8499984741211,86.27999877929688,8368100.0,83.88272094726562
2018-04-10,87.0999984741211,85.66000366210938,86.83999633789062,86.44999694824219,9127400.0,84.0479965209961
2018-04-11,86.86000061035156,85.80000305175781,86.0,85.91000366210938,6279000.0,83.52301788330078
2018-04-12,86.83000183105469,85.41000366210938,86.19000244140625,85.43000030517578,6856300.0,83.05634307861328
2018-04-13,86.2699966430664,85.19000244140625,85.88999938964844,86.0199966430664,7559200.0,83.62993621826172
2018-04-16,87.6500015258789,86.12000274658203,86.19999694824219,86.83999633789062,7020700.0,84.42715454101562
2018-04-17,88.16999816894531,87.41000366210938,87.4800033569336,87.9000015258789,6801900.0,85.45771789550781
2018-04-18,88.55999755859375,87.51000213623047,88.19999694824219,87.56999969482422,5854000.0,85.13687896728516
2018-04-19,88.04000091552734,86.58000183105469,87.41000366210938,87.88999938964844,6588300.0,85.44799041748047
2018-04-20,88.37999725341797,86.66999816894531,87.87000274658203,86.9800033569336,8324900.0,84.56328582763672
2018-04-23,87.08000183105469,86.0199966430664,86.88999938964844,86.0999984741211,7360500.0,83.70773315429688
2018-04-24,86.91000366210938,85.56999969482422,86.7699966430664,86.52999877929688,8469700.0,84.12578582763672
2018-04-25,87.69999694824219,85.88999938964844,86.31999969482422,87.16999816894531,6760400.0,84.74799346923828
2018-04-26,88.31999969482422,86.9000015258789,87.16999816894531,87.94000244140625,5782500.0,85.49661254882812
2018-04-27,87.9000015258789,87.08000183105469,87.87000274658203,87.29000091552734,5651100.0,84.86466217041016
2018-04-30,89.66000366210938,87.91999816894531,87.94000244140625,88.45999908447266,8685900.0,86.00215148925781
2018-05-01,88.01000213623047,86.3499984741211,87.66999816894531,87.41000366210938,6957700.0,84.98133850097656
2018-05-02,87.25,86.16000366210938,87.12999725341797,86.33999633789062,6083000.0,83.9410629272461
2018-05-03,86.29000091552734,85.12000274658203,86.19000244140625,86.2300033569336,6876100.0,83.83412170410156
2018-05-04,88.0999984741211,85.36000061035156,86.0,87.52999877929688,6971500.0,85.0979995727539
2018-05-07,87.5,85.2699966430664,87.48999786376953,85.47000122070312,10783600.0,83.09522247314453
2018-05-08,85.8499984741211,84.91999816894531,85.5199966430664,85.73999786376953,6551400.0,83.35771942138672
2018-05-09,83.68000030517578,82.0,82.55999755859375,83.05999755859375,32265200.0,80.752197265625
2018-05-10,83.7699966430664,82.01000213623047,82.63999938964844,82.69000244140625,15857600.0,80.8989486694336
2018-05-11,83.5199966430664,81.94999694824219,82.69000244140625,83.37999725341797,9934800.0,81.57398986816406
2018-05-14,84.79000091552734,83.6500015258789,83.88999938964844,84.38999938964844,9499200.0,82.56211853027344
2018-05-15,84.87999725341797,83.80000305175781,84.05999755859375,84.5199966430664,9322900.0,82.6893081665039
2018-05-16,86.12999725341797,84.73999786376953,84.87000274658203,86.12999725341797,13733600.0,84.2644271850586
2018-05-17,87.58999633789062,83.8499984741211,87.04000091552734,84.48999786376953,29720700.0,82.65995025634766
2018-05-18,84.44000244140625,83.48999786376953,84.23999786376953,83.63999938964844,12043100.0,81.828369140625
2018-05-21,84.54000091552734,83.81999969482422,84.13999938964844,84.51000213623047,10715700.0,82.67952728271484
2018-05-22,84.80999755859375,83.29000091552734,84.5,83.37000274658203,8067300.0,81.56421661376953
2018-05-23,83.0199966430664,82.16999816894531,82.94999694824219,83.01000213623047,9231000.0,81.2120132446289
2018-05-24,83.0,81.77999877929688,83.0,82.8499984741211,8576200.0,81.05547332763672
2018-05-25,83.33999633789062,82.31999969482422,82.8499984741211,82.45999908447266,5913500.0,80.67391967773438
2018-05-29,82.5199966430664,81.80999755859375,81.95999908447266,82.4000015258789,8428200.0,80.61522674560547
2018-05-30,84.2300033569336,82.26000213623047,82.44999694824219,84.12000274658203,9314100.0,82.2979736328125
2018-05-31,84.30999755859375,82.51000213623047,83.94000244140625,82.54000091552734,11468700.0,80.752197265625
2018-06-01,83.41999816894531,82.8499984741211,83.04000091552734,82.98999786376953,5237900.0,81.19243621826172
2018-06-04,85.5199966430664,83.30000305175781,83.5,85.41999816894531,10922000.0,83.56981658935547
2018-06-05,85.47000122070312,84.25,85.44999694824219,84.62000274658203,8281400.0,82.78714752197266
2018-06-06,85.1500015258789,84.3499984741211,84.94999694824219,84.55999755859375,7362800.0,82.72843933105469
2018-06-07,85.76000213623047,84.69000244140625,84.77999877929688,84.94999694824219,7705700.0,83.1099853515625
2018-06-08,85.19000244140625,84.13999938964844,84.77999877929688,84.36000061035156,7602400.0,82.53276824951172
2018-06-11,84.54000091552734,83.79000091552734,84.41000366210938,84.30000305175781,6252300.0,82.47406768798828
2018-06-12,84.58999633789062,83.47000122070312,84.31999969482422,84.0999984741211,8061700.0,82.27839660644531
2018-06-13,84.37000274658203,83.8499984741211,83.88999938964844,84.08999633789062,6358400.0,82.26861572265625
2018-06-14,84.80999755859375,83.66999816894531,84.22000122070312,83.79000091552734,7517400.0,81.97511291503906
2018-06-15,83.98999786376953,83.05999755859375,83.5,83.69999694824219,12503000.0,81.8870620727539
2018-06-18,83.56999969482422,82.81999969482422,83.05000305175781,83.0,8502300.0,81.20222473144531
2018-06-19,83.62000274658203,82.37000274658203,82.5999984741211,83.61000061035156,9352500.0,81.79902648925781
2018-06-20,83.81999969482422,83.16000366210938,83.70999908447266,83.61000061035156,7966600.0,81.79902648925781
2018-06-21,84.55000305175781,82.9000015258789,83.4000015258789,84.20999908447266,8092000.0,82.38602447509766
2018-06-22,84.8499984741211,84.0999984741211,84.45999908447266,84.81999969482422,10813000.0,82.9828109741211
2018-06-25,86.5999984741211,84.4800033569336,84.58999633789062,86.47000122070312,15939500.0,84.59707641601562
2018-06-26,87.05000305175781,85.76000213623047,86.52999877929688,85.9800033569336,10126200.0,84.11768341064453
2018-06-27,87.48999786376953,85.55000305175781,85.9000015258789,86.88999938964844,10299700.0,85.00797271728516
2018-06-28,87.29000091552734,85.69000244140625,86.8499984741211,85.86000061035156,8467000.0,84.00027465820312
2018-06-29,86.19999694824219,85.5199966430664,85.9000015258789,85.6500015258789,8255600.0,83.79483795166016
2018-07-02,85.94000244140625,83.4000015258789,85.6500015258789,84.0,8125100.0,82.1805648803711
2018-07-03,85.05000305175781,84.08999633789062,84.08999633789062,84.44000244140625,4396200.0,82.61104583740234
2018-07-05,85.58000183105469,84.2699966430664,84.94000244140625,84.56999969482422,5367500.0,82.73822021484375
2018-07-06,84.87000274658203,83.81999969482422,84.19999694824219,84.51000213623047,5613700.0,82.67952728271484
2018-07-09,86.47000122070312,84.7699966430664,85.0,85.93000030517578,6575400.0,84.06877136230469
2018-07-10,87.33000183105469,85.87999725341797,85.93000030517578,87.20999908447266,6048400.0,85.32103729248047
2018-07-11,87.1500015258789,86.38999938964844,87.05999755859375,86.52999877929688,5595900.0,84.65576934814453
2018-07-12,87.41000366210938,86.22000122070312,86.94000244140625,86.5199966430664,4888600.0,84.64598083496094
2018-07-13,87.98999786376953,86.5,86.5199966430664,87.69999694824219,6388600.0,85.8004150390625
2018-07-16,87.72000122070312,86.83000183105469,87.62000274658203,87.63999938964844,4447200.0,85.7417221069336
2018-07-17,88.69999694824219,87.4000015258789,87.4000015258789,88.19000244140625,5911500.0,86.27981567382812
2018-07-18,89.19000244140625,87.94000244140625,88.33000183105469,88.06999969482422,5045500.0,86.16241455078125
2018-07-19,88.4800033569336,87.41000366210938,87.86000061035156,87.72000122070312,4883100.0,85.81999969482422
2018-07-20,88.16999816894531,87.19999694824219,87.4000015258789,88.05999755859375,4815100.0,86.15263366699219
2018-07-23,88.1500015258789,87.37999725341797,87.6500015258789,87.62999725341797,4150000.0,85.73194122314453
2018-07-24,88.5,87.61000061035156,88.12000274658203,87.95999908447266,5589500.0,86.05479431152344
2018-07-25,88.0199966430664,87.11000061035156,87.2699966430664,87.9000015258789,5809100.0,85.99609375
2018-07-26,89.43000030517578,88.18000030517578,88.5,88.2300033569336,6548300.0,86.31895446777344
2018-07-27,88.87999725341797,88.02999877929688,88.63999938964844,88.12999725341797,4679400.0,86.22111511230469
2018-07-30,88.94000244140625,87.88999938964844,88.0,88.87999725341797,6010700.0,86.95486450195312
2018-07-31,89.66000366210938,88.80000305175781,89.0,89.2300033569336,6708100.0,87.29729461669922
2018-08-01,89.12999725341797,87.87999725341797,88.86000061035156,88.23999786376953,5050000.0,86.32872772216797
2018-08-02,88.83999633789062,87.62000274658203,87.94000244140625,88.76000213623047,4306100.0,86.83747100830078
2018-08-03,90.27999877929688,89.0,89.19000244140625,89.5999984741211,5747200.0,87.6592788696289
2018-08-06,89.9800033569336,89.12999725341797,89.30999755859375,89.66999816894531,4651600.0,87.72774505615234
2018-08-07,90.36000061035156,89.6500015258789,89.83000183105469,89.7699966430664,4526700.0,87.8255844116211
2018-08-08,90.2300033569336,89.37000274658203,89.97000122070312,90.05000305175781,5041100.0,88.09952545166016
2018-08-09,89.62999725341797,88.76000213623047,89.45999908447266,89.01000213623047,4725600.0,87.58783721923828
2018-08-10,90.37000274658203,88.6500015258789,88.69999694824219,90.18000030517578,8244900.0,88.7391357421875
2018-08-13,90.54000091552734,89.37000274658203,90.19999694824219,89.63999938964844,5879200.0,88.20777130126953
2018-08-14,91.12000274658203,89.62999725341797,89.63999938964844,90.8499984741211,5836800.0,89.39842987060547
2018-08-15,90.41000366210938,89.66999816894531,90.25,90.22000122070312,8616900.0,88.77849578857422
2018-08-16,100.20999908447266,97.91000366210938,100.11000061035156,98.63999938964844,42631300.0,97.06397247314453
2018-08-17,99.66999816894531,97.61000061035156,97.7699966430664,97.8499984741211,16463300.0,96.28659057617188
2018-08-20,98.29000091552734,95.94999694824219,97.66999816894531,96.0,12679300.0,94.46614837646484
2018-08-21,96.36000061035156,95.36000061035156,95.95999908447266,96.08000183105469,10531300.0,94.54487609863281
2018-08-22,96.8499984741211,95.2300033569336,96.19999694824219,95.66999816894531,7765700.0,94.14142608642578
2018-08-23,95.86000061035156,95.05999755859375,95.5,95.18000030517578,6096400.0,93.65924835205078
2018-08-24,95.66000366210938,94.3499984741211,95.08999633789062,94.94999694824219,8594300.0,93.43292236328125
2018-08-27,95.61000061035156,94.29000091552734,95.26000213623047,94.54000091552734,7040300.0,93.02947235107422
2018-08-28,96.3499984741211,94.52999877929688,94.7699966430664,96.06999969482422,9983000.0,94.5350341796875
2018-08-29,96.83000183105469,95.52999877929688,96.27999877929688,95.63999938964844,7862800.0,94.11190795898438
2018-08-30,96.5,95.44999694824219,95.5,96.0999984741211,7058700.0,94.5645523071289
2018-08-31,96.44000244140625,95.11000061035156,96.19000244140625,95.86000061035156,6324700.0,94.32838439941406
2018-09-04,96.2699966430664,95.23999786376953,95.80000305175781,95.36000061035156,8280700.0,93.83638000488281
2018-09-05,96.83000183105469,95.36000061035156,95.66999816894531,96.62000274658203,9474600.0,95.07624816894531
2018-09-06,96.72000122070312,96.01000213623047,96.52999877929688,96.44999694824219,6150800.0,94.90896606445312
2018-09-07,96.4800033569336,95.63999938964844,95.80000305175781,95.83000183105469,6672400.0,94.29886627197266
2018-09-10,97.19000244140625,96.08999633789062,96.11000061035156,96.9000015258789,8332600.0,95.35176849365234
2018-09-11,97.66000366210938,96.48999786376953,97.2699966430664,96.63999938964844,6463500.0,95.0959243774414
2018-09-12,96.73999786376953,95.93000030517578,96.26000213623047,95.97000122070312,5900000.0,94.43663024902344
2018-09-13,95.62000274658203,94.91000366210938,95.31999969482422,95.12000274658203,7652900.0,93.6002197265625
2018-09-14,94.83999633789062,94.3499984741211,94.52999877929688,94.58999633789062,6319400.0,93.07867431640625
2018-09-17,95.4800033569336,94.37000274658203,94.75,94.81999969482422,5329800.0,93.30500793457031
2018-09-18,95.58999633789062,94.1500015258789,94.45999908447266,95.43000030517578,6759800.0,93.9052505493164
2018-09-19,95.88999938964844,94.87999725341797,95.56999969482422,95.23999786376953,5675100.0,93.71829223632812
2018-09-20,95.79000091552734,94.94999694824219,95.3499984741211,95.75,5552300.0,94.22013854980469
2018-09-21,96.29000091552734,95.62999725341797,95.91999816894531,95.9000015258789,9530100.0,94.36775207519531
2018-09-24,96.0,94.86000061035156,95.44000244140625,94.91999816894531,5337000.0,93.40339660644531
2018-09-25,96.5199966430664,94.98999786376953,95.98999786376953,95.0999984741211,6193200.0,93.58053588867188
2018-09-26,95.58999633789062,94.5199966430664,95.0999984741211,94.58999633789062,5918600.0,93.07867431640625
2018-09-27,94.95999908447266,93.81999969482422,94.19000244140625,94.12999725341797,5363400.0,92.62602233886719
2018-09-28,94.37000274658203,93.69000244140625,94.27999877929688,93.91000366210938,6306300.0,92.4095458984375
2018-10-01,94.66000366210938,94.04000091552734,94.29000091552734,94.4000015258789,4994300.0,92.89170837402344
2018-10-02,95.61000061035156,93.8499984741211,93.93000030517578,95.1500015258789,7754600.0,93.6297378540039
2018-10-03,95.54000091552734,94.04000091552734,95.5,94.06999969482422,6327400.0,92.56698608398438
2018-10-04,94.5,93.19999694824219,94.06999969482422,94.20999908447266,6045300.0,92.70475006103516
2018-10-05,94.19000244140625,92.88999938964844,93.86000061035156,93.30999755859375,6693400.0,91.81912994384766
2018-10-08,94.93000030517578,93.0199966430664,93.25,94.69000244140625,5762600.0,93.17708587646484
2018-10-09,97.73999786376953,95.19000244140625,95.63999938964844,97.08000183105469,11598900.0,95.52889251708984
2018-10-10,97.8499984741211,95.69999694824219,96.5999984741211,95.76000213623047,9002800.0,94.22998046875
2018-10-11,96.29000091552734,93.5999984741211,95.80999755859375,93.91999816894531,9926500.0,92.41938018798828
2018-10-12,95.16999816894531,93.66999816894531,94.76000213623047,94.80999755859375,8553900.0,93.29515838623047
2018-10-15,94.98999786376953,93.81999969482422,94.5,93.81999969482422,8305500.0,92.32098388671875
2018-10-16,96.06999969482422,94.33999633789062,94.69999694824219,95.80999755859375,11241700.0,94.27919006347656
2018-10-17,96.62000274658203,94.9000015258789,95.18000030517578,96.55999755859375,9539400.0,95.01719665527344
2018-10-18,97.25,95.73999786376953,96.4000015258789,96.16999816894531,11398400.0,94.63343811035156
2018-10-19,97.6500015258789,96.0,96.0,97.1500015258789,8950700.0,95.5977783203125
2018-10-22,97.58000183105469,96.73999786376953,97.33999633789062,97.13999938964844,7122900.0,95.58793640136719
2018-10-23,97.98999786376953,96.11000061035156,96.5,97.80000305175781,9405800.0,96.23739624023438
2018-10-24,99.16999816894531,97.27999877929688,97.5,97.55999755859375,10364700.0,96.001220703125
2018-10-25,99.4800033569336,97.0,98.01000213623047,99.18000030517578,10737100.0,97.59534454345703
2018-10-26,99.66999816894531,98.0199966430664,98.80999755859375,98.94000244140625,14925600.0,97.35918426513672
2018-10-29,101.7300033569336,99.08999633789062,99.51000213623047,99.80000305175781,12706100.0,98.20543670654297
2018-10-30,102.5999984741211,100.05999755859375,100.20999908447266,102.41999816894531,12708500.0,100.7835693359375
2018-10-31,102.48999786376953,100.12000274658203,102.48999786376953,100.27999877929688,12354900.0,98.67776489257812
2018-11-01,101.16999816894531,99.72000122070312,99.95999908447266,100.58000183105469,7735100.0,98.97296905517578
2018-11-02,101.56999969482422,100.30999755859375,100.87999725341797,101.33999633789062,7303200.0,99.7208251953125
2018-11-05,103.16999816894531,100.62999725341797,101.19000244140625,102.91000366210938,7616800.0,101.26573944091797
2018-11-06,103.44000244140625,102.05000305175781,102.54000091552734,103.33000183105469,6368700.0,101.67903137207031
2018-11-07,104.47000122070312,103.05000305175781,103.66000366210938,104.31999969482422,8672600.0,102.6532211303711
2018-11-08,105.26000213623047,104.02999877929688,104.33000183105469,104.87999725341797,5961400.0,103.20426177978516
2018-11-09,105.9000015258789,104.80999755859375,105.0,105.55999755859375,8450400.0,103.87339782714844
2018-11-12,106.20999908447266,103.6500015258789,105.5,103.87000274658203,8943100.0,102.21040344238281
2018-11-13,104.1500015258789,102.54000091552734,103.66999816894531,102.94000244140625,7956700.0,101.29527282714844
2018-11-14,103.1500015258789,101.01000213623047,103.0,101.52999877929688,10481900.0,99.90779113769531
2018-11-15,102.80000305175781,98.62000274658203,102.31999969482422,99.54000091552734,16082600.0,97.9495849609375
2018-11-16,99.41999816894531,96.91999816894531,98.81999969482422,97.69000244140625,14235200.0,96.129150390625
2018-11-19,98.25,96.43000030517578,97.94000244140625,96.77999877929688,9214400.0,95.23368835449219
2018-11-20,95.19999694824219,93.5999984741211,94.9800033569336,94.16000366210938,12620600.0,92.65555572509766
2018-11-21,94.91999816894531,93.30999755859375,94.36000061035156,94.16999816894531,9350900.0,92.66539001464844
2018-11-23,95.55000305175781,94.12999725341797,94.12999725341797,95.0999984741211,4890000.0,93.58053588867188
2018-11-26,96.06999969482422,94.73999786376953,95.69000244140625,95.1500015258789,10034600.0,93.6297378540039
2018-11-27,95.54000091552734,94.41000366210938,94.98999786376953,95.04000091552734,9042300.0,93.521484375
2018-11-28,97.62000274658203,95.05000305175781,95.44999694824219,97.45999908447266,10070800.0,95.90282440185547
2018-11-29,97.83000183105469,96.73999786376953,97.0199966430664,97.29000091552734,6241300.0,95.73554229736328
2018-11-30,98.43000030517578,97.06999969482422,97.4000015258789,97.6500015258789,10664000.0,96.08979034423828
2018-12-03,99.58999633789062,97.66999816894531,98.0199966430664,98.75,9082100.0,97.17221069335938
2018-12-04,98.95999908447266,95.61000061035156,98.25,95.80999755859375,10426300.0,94.27919006347656
2018-12-06,95.41000366210938,93.0999984741211,94.94000244140625,94.7699966430664,10367200.0,93.76470184326172
2018-12-07,95.12999725341797,92.44999694824219,94.5,93.19000244140625,8496500.0,92.20146179199219
2018-12-10,94.25,92.33999633789062,93.55999755859375,93.94000244140625,7276900.0,92.94351196289062
2018-12-11,94.48999786376953,93.25,94.25,93.8499984741211,6452500.0,92.85446166992188
2018-12-12,94.30000305175781,93.05999755859375,94.30000305175781,93.11000061035156,9639200.0,92.122314453125
2018-12-13,93.68000030517578,92.43000030517578,93.25,92.95999908447266,8042300.0,91.97390747070312
2018-12-14,92.55999755859375,91.56999969482422,92.05000305175781,91.8499984741211,11493600.0,90.87567901611328
2018-12-17,92.01000213623047,90.16000366210938,91.22000122070312,90.7699966430664,9001800.0,89.80713653564453
2018-12-18,91.26000213623047,90.27999877929688,90.80000305175781,91.08000183105469,9606700.0,90.11384582519531
2018-12-19,93.0,90.25,91.29000091552734,90.55000305175781,12231500.0,89.58946990966797
2018-12-20,90.11000061035156,86.13999938964844,90.11000061035156,87.27999877929688,16373800.0,86.35415649414062
2018-12-21,89.47000122070312,86.80000305175781,86.87000274658203,87.12999725341797,14921500.0,86.20574951171875
2018-12-24,87.56999969482422,85.77999877929688,86.54000091552734,85.81999969482422,6110300.0,84.9096450805664
2018-12-26,90.41999816894531,86.30000305175781,86.41999816894531,90.41000366210938,10028300.0,89.45095825195312
2018-12-27,91.61000061035156,88.44000244140625,89.75,91.58999633789062,9881500.0,90.61843872070312
2018-12-28,93.47000122070312,91.6500015258789,92.06999969482422,92.12999725341797,9874000.0,91.1527099609375
2018-12-31,93.38999938964844,92.25,92.66999816894531,93.1500015258789,7005800.0,92.1618881225586
2019-01-02,93.6500015258789,91.63999938964844,91.63999938964844,93.33999633789062,8152700.0,92.34986877441406
2019-01-03,94.70999908447266,92.69999694824219,93.20999908447266,92.86000061035156,8266700.0,91.87496185302734
2019-01-04,93.66000366210938,92.69000244140625,93.20999908447266,93.44000244140625,8029100.0,92.44881439208984
2019-01-07,95.16999816894531,93.18000030517578,93.62000274658203,94.54000091552734,7789700.0,93.53713989257812
2019-01-08,95.76000213623047,93.91000366210938,95.05999755859375,95.19999694824219,7200900.0,94.19013977050781
2019-01-09,96.13999938964844,94.7699966430664,95.70999908447266,94.88999938964844,6272300.0,93.88343048095703
2019-01-10,94.9800033569336,93.12000274658203,93.87999725341797,94.95999908447266,9396300.0,93.95269012451172
2019-01-11,95.29000091552734,94.55000305175781,94.98999786376953,94.83999633789062,5394600.0,93.8339614868164
2019-01-14,95.44999694824219,94.27999877929688,94.4800033569336,94.94999694824219,7085100.0,93.94278717041016
2019-01-15,96.5999984741211,95.37999725341797,95.47000122070312,96.25,7058200.0,95.22900390625
2019-01-16,96.86000061035156,95.83000183105469,95.93000030517578,96.3499984741211,5410000.0,95.32794189453125
2019-01-17,97.20999908447266,96.16000366210938,96.31999969482422,96.73999786376953,5614500.0,95.71380615234375
2019-01-18,98.19999694824219,96.8499984741211,96.94999694824219,97.7300033569336,6120600.0,96.69330596923828
2019-01-22,98.43000030517578,96.77999877929688,97.1500015258789,97.48999786376953,8063200.0,96.45584869384766
2019-01-23,99.3499984741211,97.52999877929688,98.87000274658203,98.70999908447266,8345800.0,97.66290283203125
2019-01-24,98.45999908447266,96.43000030517578,98.19999694824219,98.36000061035156,7609700.0,97.3166275024414
2019-01-25,98.91000366210938,96.75,98.75,96.94000244140625,7218200.0,95.91168212890625
2019-01-28,97.06999969482422,96.08000183105469,96.52999877929688,97.05999755859375,5875800.0,96.03041076660156
2019-01-29,97.16000366210938,96.51000213623047,96.7699966430664,96.70999908447266,5253400.0,95.68412780761719
2019-01-30,96.80000305175781,94.26000213623047,96.68000030517578,94.80000305175781,11849300.0,93.79438781738281
2019-01-31,96.87000274658203,94.62999725341797,94.62999725341797,95.83000183105469,14723000.0,94.81346130371094
2019-02-01,96.0,93.11000061035156,95.91999816894531,93.86000061035156,12591900.0,92.8643569946289
2019-02-04,94.7699966430664,93.3499984741211,93.86000061035156,94.7699966430664,7268600.0,93.76470184326172
2019-02-05,95.94000244140625,95.0199966430664,95.25,95.5999984741211,6099900.0,94.58589172363281
2019-02-06,96.01000213623047,95.22000122070312,95.43000030517578,95.63999938964844,4264900.0,94.62548065185547
2019-02-07,96.81999969482422,95.0,95.11000061035156,96.7300033569336,7010100.0,95.70391845703125
2019-02-08,96.69000244140625,95.13999938964844,96.33999633789062,95.58000183105469,6169200.0,94.56610870361328
2019-02-11,96.3499984741211,95.63999938964844,95.6500015258789,96.19999694824219,5542800.0,95.17953491210938
2019-02-12,97.16999816894531,96.5,96.81999969482422,96.97000122070312,5881300.0,95.94136810302734
2019-02-13,98.0,97.08999633789062,97.30000305175781,97.94000244140625,5458500.0,96.90108489990234
2019-02-14,99.19999694824219,97.0199966430664,97.68000030517578,98.5199966430664,7200800.0,97.47492218017578
2019-02-15,100.0,98.86000061035156,98.9800033569336,99.98999786376953,9481000.0,98.92932891845703
2019-02-19,104.18000030517578,102.06999969482422,102.37999725341797,102.19999694824219,20697300.0,101.11588287353516
2019-02-20,102.33999633789062,98.6500015258789,101.80999755859375,99.87999725341797,17631800.0,98.82049560546875
2019-02-21,99.91999816894531,98.91000366210938,99.66000366210938,99.38999938964844,6413200.0,98.335693359375
2019-02-22,100.16000366210938,99.13999938964844,99.81999969482422,99.55000305175781,8086900.0,98.49400329589844
2019-02-25,100.12999725341797,99.05000305175781,100.12000274658203,99.12000274658203,9235000.0,98.06855773925781
2019-02-26,99.05999755859375,97.87000274658203,99.0199966430664,98.69000244140625,8488100.0,97.64311981201172
2019-02-27,98.38999938964844,97.58999633789062,98.12000274658203,98.11000061035156,7902300.0,97.06927490234375
2019-02-28,99.47000122070312,97.7699966430664,98.11000061035156,98.98999786376953,11375900.0,97.93993377685547
2019-03-01,99.55999755859375,97.12000274658203,99.47000122070312,97.93000030517578,10352500.0,96.89118957519531
2019-03-04,98.58999633789062,97.37000274658203,98.12000274658203,97.8499984741211,7683800.0,96.81202697753906
2019-03-05,99.19000244140625,98.08999633789062,98.12999725341797,98.33999633789062,6119300.0,97.29683685302734
2019-03-06,99.0,97.86000061035156,98.2699966430664,98.26000213623047,4696600.0,97.21768188476562
2019-03-07,98.19999694824219,97.23999786376953,97.70999908447266,97.44999694824219,6016500.0,96.41627502441406
2019-03-08,98.41999816894531,97.0,97.55000305175781,97.58999633789062,5659000.0,96.5547866821289
2019-03-11,98.58000183105469,97.81999969482422,98.04000091552734,98.4800033569336,5345300.0,97.43535614013672
2019-03-12,98.73999786376953,98.05000305175781,98.52999877929688,98.37000274658203,5070500.0,97.32652282714844
2019-03-13,99.3499984741211,98.38999938964844,98.69999694824219,99.02999877929688,5482300.0,97.9795150756836
2019-03-14,98.43000030517578,97.58999633789062,98.41000366210938,98.22000122070312,4925800.0,97.70099639892578
2019-03-15,98.51000213623047,97.5999984741211,98.27999877929688,98.41999816894531,14600000.0,97.89993286132812
2019-03-18,99.7699966430664,98.26000213623047,98.30000305175781,99.66000366210938,5770100.0,99.13338470458984
2019-03-19,100.48999786376953,99.56999969482422,99.98999786376953,99.8499984741211,5414400.0,99.32238006591797
2019-03-20,99.55000305175781,98.54000091552734,99.19999694824219,98.63999938964844,6323100.0,98.1187744140625
2019-03-21,99.12999725341797,98.0999984741211,98.25,99.05999755859375,6551000.0,98.53655242919922
2019-03-22,99.52999877929688,97.94000244140625,98.58000183105469,98.27999877929688,6708100.0,97.76067352294922
2019-03-25,98.62000274658203,97.62999725341797,97.80000305175781,98.16999816894531,5407400.0,97.65125274658203
2019-03-26,98.8499984741211,98.02999877929688,98.36000061035156,98.31999969482422,4945900.0,97.80046081542969
2019-03-27,98.86000061035156,95.0,98.13999938964844,97.20999908447266,8471200.0,96.69632720947266
2019-03-28,97.87000274658203,96.52999877929688,97.58999633789062,97.12999725341797,8054300.0,96.61675262451172
2019-03-29,97.66999816894531,97.04000091552734,97.58999633789062,97.52999877929688,7439900.0,97.01464080810547
2019-04-01,98.36000061035156,97.55999755859375,97.97000122070312,97.81999969482422,8505800.0,97.30310821533203
2019-04-02,98.30999755859375,96.9000015258789,97.76000213623047,96.94000244140625,6274000.0,96.4277572631836
2019-04-03,97.4000015258789,96.79000091552734,97.12000274658203,97.19000244140625,5687500.0,96.67643737792969
2019-04-04,98.27999877929688,97.23999786376953,97.25,98.11000061035156,4026300.0,97.5915756225586
2019-04-05,99.19999694824219,98.16000366210938,98.25,98.83000183105469,4656000.0,98.30776977539062
2019-04-08,99.25,98.26000213623047,98.44999694824219,99.2300033569336,5422400.0,98.70565795898438
2019-04-09,99.2300033569336,98.1500015258789,98.80000305175781,98.69000244140625,4367500.0,98.16851043701172
2019-04-10,99.72000122070312,98.5,98.51000213623047,99.5999984741211,4091100.0,99.07369995117188
2019-04-11,100.83000183105469,99.47000122070312,99.69999694824219,100.80000305175781,5606900.0,100.26736450195312
2019-04-12,102.0199966430664,101.0,101.0,101.55999755859375,5162000.0,101.0233383178711
2019-04-15,102.91000366210938,101.26000213623047,101.30000305175781,102.43000030517578,5111900.0,101.88874816894531
2019-04-16,103.38999938964844,102.54000091552734,102.88999938964844,102.93000030517578,4828400.0,102.3861083984375
2019-04-17,103.4000015258789,102.41000366210938,103.0,103.16000366210938,3729200.0,102.6148910522461
2019-04-18,103.80000305175781,102.88999938964844,103.11000061035156,103.18000030517578,3727800.0,102.63478088378906
2019-04-22,103.54000091552734,102.16999816894531,102.77999877929688,102.37000274658203,5079400.0,101.82906341552734
2019-04-23,103.29000091552734,101.94000244140625,102.52999877929688,103.06999969482422,5050800.0,102.5253677368164
2019-04-24,103.8499984741211,103.08999633789062,103.13999938964844,103.52999877929688,4697800.0,102.9829330444336
2019-04-25,104.1500015258789,102.83000183105469,103.23999786376953,103.5199966430664,3961100.0,102.97298431396484
2019-04-26,102.33999633789062,99.66000366210938,100.44999694824219,101.52999877929688,8107700.0,100.99349975585938
2019-04-29,102.0,100.77999877929688,101.87999725341797,101.55999755859375,6379700.0,101.0233383178711
2019-04-30,102.91999816894531,101.44999694824219,101.7699966430664,102.83999633789062,6133600.0,102.29657745361328
2019-05-01,102.80999755859375,101.27999877929688,102.7699966430664,101.36000061035156,5337200.0,100.82440185546875
2019-05-02,102.05999755859375,100.23999786376953,101.43000030517578,101.1500015258789,5007000.0,100.61550903320312
2019-05-03,102.75,101.80000305175781,102.31999969482422,102.08000183105469,5316900.0,101.54059600830078
