Date,High,Low,Open,Close,Volume,Adj Close
2017-05-03,83.06999969482422,81.91000366210938,81.97000122070312,82.69999694824219,10289000.0,75.48375701904297
2017-05-04,82.36000061035156,81.4000015258789,82.29000091552734,81.63999938964844,16164500.0,74.51625061035156
2017-05-05,82.23999786376953,81.61000061035156,81.62999725341797,82.0199966430664,10213000.0,74.86309814453125
2017-05-08,82.94000244140625,82.0,82.0,82.88999938964844,8097100.0,75.65718078613281
2017-05-09,83.0,82.16000366210938,82.95999908447266,82.30999755859375,8647100.0,75.12777709960938
2017-05-10,82.37000274658203,81.6500015258789,82.12000274658203,81.91000366210938,9520300.0,75.46869659423828
2017-05-11,82.70999908447266,82.0999984741211,82.58999633789062,82.61000061035156,10047300.0,76.1136474609375
2017-05-12,82.70999908447266,82.25,82.38999938964844,82.55000305175781,7480200.0,76.0583724975586
2017-05-15,83.18000030517578,82.6500015258789,83.0,82.80000305175781,10881500.0,76.28870391845703
2017-05-16,83.2300033569336,82.44999694824219,82.9000015258789,82.55000305175781,9574200.0,76.0583724975586
2017-05-17,83.04000091552734,81.95999908447266,82.55000305175781,81.98999786376953,11151100.0,75.54239654541016
2017-05-18,82.1500015258789,81.41999816894531,81.7699966430664,81.75,9905800.0,75.3212661743164
2017-05-19,82.08999633789062,81.69000244140625,82.0,81.93000030517578,13028500.0,75.48712921142578
2017-05-22,82.33000183105469,81.93000030517578,82.11000061035156,82.29000091552734,9218700.0,75.81880950927734
2017-05-23,82.88999938964844,82.23999786376953,82.31999969482422,82.58000183105469,6857200.0,76.08601379394531
2017-05-24,82.54000091552734,82.01000213623047,82.41999816894531,82.29000091552734,8136000.0,75.81880950927734
2017-05-25,82.70999908447266,81.5199966430664,82.33000183105469,81.75,12370900.0,75.3212661743164
2017-05-26,81.80000305175781,80.83000183105469,81.61000061035156,81.55000305175781,8227100.0,75.13700103759766
2017-05-30,81.33999633789062,81.04000091552734,81.27999877929688,81.0999984741211,8973600.0,74.72238159179688
2017-05-31,80.94999694824219,80.47000122070312,80.94000244140625,80.5,13572300.0,74.16956329345703
2017-06-01,80.9000015258789,80.19000244140625,80.37000274658203,80.69999694824219,9884100.0,74.35383605957031
2017-06-02,80.68000030517578,79.26000213623047,80.58999633789062,79.5,21687300.0,73.24821472167969
2017-06-05,80.38999938964844,79.4000015258789,79.44000244140625,80.12000274658203,11527100.0,73.8194580078125
2017-06-06,81.31999969482422,80.22000122070312,80.30000305175781,81.20999908447266,12208600.0,74.82374572753906
2017-06-07,81.4000015258789,80.33999633789062,81.05000305175781,80.91000366210938,13096500.0,74.54733276367188
2017-06-08,81.08000183105469,80.48999786376953,80.91000366210938,80.62000274658203,11720700.0,74.28014373779297
2017-06-09,82.13999938964844,80.69000244140625,81.1500015258789,82.12999725341797,13553900.0,75.67139434814453
2017-06-12,83.69000244140625,82.12999725341797,82.12999725341797,82.93000030517578,18172900.0,76.4084701538086
2017-06-13,83.2699966430664,82.56999969482422,82.8499984741211,82.95999908447266,12175500.0,76.43611907958984
2017-06-14,82.81999969482422,81.55999755859375,82.80999755859375,82.06999969482422,13714000.0,75.61610412597656
2017-06-15,82.4000015258789,81.58000183105469,81.77999877929688,82.26000213623047,11862600.0,75.79116821289062
2017-06-16,83.54000091552734,82.19999694824219,82.61000061035156,83.48999786376953,39726100.0,76.92444610595703
2017-06-19,83.48999786376953,82.55000305175781,83.48999786376953,82.76000213623047,10445700.0,76.25184631347656
2017-06-20,82.47000122070312,81.41000366210938,82.06999969482422,82.30999755859375,13232600.0,75.83721923828125
2017-06-21,82.62999725341797,81.13999938964844,82.04000091552734,81.44000244140625,11422300.0,75.03565216064453
2017-06-22,81.58000183105469,80.9000015258789,81.44999694824219,81.08000183105469,8139900.0,74.7039566040039
2017-06-23,81.69000244140625,80.76000213623047,80.8499984741211,81.61000061035156,10611200.0,75.19229125976562
2017-06-26,81.75,80.91000366210938,81.56999969482422,81.23999786376953,7718700.0,74.85137176513672
2017-06-27,81.7300033569336,81.11000061035156,81.44999694824219,81.11000061035156,9221600.0,74.7315902709961
2017-06-28,81.76000213623047,81.19000244140625,81.41000366210938,81.52999877929688,9189700.0,75.11857604980469
2017-06-29,81.83999633789062,80.41000366210938,81.37000274658203,80.69999694824219,20525100.0,74.35383605957031
2017-06-30,81.23999786376953,80.69999694824219,81.08000183105469,80.7300033569336,14000600.0,74.38150024414062
2017-07-03,82.48999786376953,80.72000122070312,80.79000091552734,82.0999984741211,8422300.0,75.64373779296875
2017-07-05,81.68000030517578,80.5199966430664,81.68000030517578,80.8499984741211,9830800.0,74.49205017089844
2017-07-06,81.08000183105469,80.08999633789062,80.86000061035156,80.12000274658203,9822400.0,73.8194580078125
2017-07-07,80.5999984741211,79.80999755859375,80.19999694824219,80.22000122070312,10777800.0,73.91159057617188
2017-07-10,80.41000366210938,79.95999908447266,80.0,80.16000366210938,6338300.0,73.85631561279297
2017-07-11,80.75,80.04000091552734,80.33000183105469,80.5999984741211,9681100.0,74.26171875
2017-07-12,81.5199966430664,80.75,81.19000244140625,80.95999908447266,7974000.0,74.5934066772461
2017-07-13,81.08999633789062,80.7300033569336,80.97000122070312,80.97000122070312,5582300.0,74.60260772705078
2017-07-14,81.41000366210938,80.7699966430664,81.0,81.27999877929688,7497200.0,74.88822937011719
2017-07-17,81.43000030517578,80.83000183105469,81.0,80.86000061035156,7914700.0,74.50126647949219
2017-07-18,81.08000183105469,80.41000366210938,81.0199966430664,80.5999984741211,8046100.0,74.26171875
2017-07-19,80.87000274658203,80.2699966430664,80.44000244140625,80.8499984741211,9393200.0,74.49205017089844
2017-07-20,81.48999786376953,80.75,80.97000122070312,80.86000061035156,9681000.0,74.50126647949219
2017-07-21,80.83999633789062,80.0,80.6500015258789,80.12000274658203,12268600.0,73.8194580078125
2017-07-24,80.22000122070312,79.76000213623047,80.05999755859375,79.87000274658203,9403000.0,73.58911895751953
2017-07-25,81.05000305175781,80.2699966430664,80.7699966430664,80.2699966430664,11465300.0,73.95765686035156
2017-07-26,80.9000015258789,80.19999694824219,80.58000183105469,80.37000274658203,10465100.0,74.04978942871094
2017-07-27,80.87999725341797,79.9000015258789,80.23999786376953,80.83000183105469,11149700.0,74.47361755371094
2017-07-28,79.91999816894531,78.2699966430664,79.6500015258789,79.5999984741211,22800800.0,73.34033966064453
2017-07-31,80.38999938964844,79.5999984741211,79.83000183105469,80.04000091552734,12820200.0,73.7457504272461
2017-08-01,80.54000091552734,79.97000122070312,80.16000366210938,80.16999816894531,10421200.0,73.86552429199219
2017-08-02,80.63999938964844,79.80000305175781,79.9000015258789,80.5999984741211,10410100.0,74.26171875
2017-08-03,80.81999969482422,80.30000305175781,80.33999633789062,80.48999786376953,10136700.0,74.16035461425781
2017-08-04,80.55999755859375,80.05000305175781,80.44000244140625,80.20999908447266,8292200.0,73.90237426757812
2017-08-07,80.16999816894531,79.86000061035156,80.16999816894531,80.16000366210938,7893800.0,73.85631561279297
2017-08-08,80.22000122070312,79.83000183105469,80.0199966430664,79.95999908447266,9028400.0,73.67203521728516
2017-08-09,80.3499984741211,79.77999877929688,80.25,80.20999908447266,8087100.0,73.90237426757812
2017-08-10,79.77999877929688,78.91000366210938,79.76000213623047,78.97000122070312,12580300.0,73.46514129638672
2017-08-11,79.25,78.19999694824219,79.20999908447266,78.20999908447266,10192400.0,72.75811767578125
2017-08-14,78.79000091552734,78.12000274658203,78.62000274658203,78.2300033569336,8862500.0,72.77671813964844
2017-08-15,78.25,77.68000030517578,78.12000274658203,78.04000091552734,10350900.0,72.59996795654297
2017-08-16,78.16999816894531,77.30999755859375,78.04000091552734,77.47000122070312,9117100.0,72.0697021484375
2017-08-17,77.27999877929688,76.20999908447266,77.26000213623047,76.26000213623047,13400400.0,70.94405364990234
2017-08-18,77.11000061035156,76.05000305175781,76.18000030517578,76.63999938964844,14324300.0,71.29756164550781
2017-08-21,76.62000274658203,76.08000183105469,76.47000122070312,76.37999725341797,10084900.0,71.05567932128906
2017-08-22,77.33000183105469,76.52999877929688,76.55000305175781,76.73999786376953,9503600.0,71.3906021118164
2017-08-23,77.01000213623047,76.47000122070312,76.69999694824219,76.61000061035156,7054300.0,71.26964569091797
2017-08-24,76.6500015258789,76.19999694824219,76.5,76.33000183105469,8678300.0,71.00917053222656
2017-08-25,77.12999725341797,76.43000030517578,76.55999755859375,76.72000122070312,6844900.0,71.37198638916016
2017-08-28,76.94000244140625,76.26000213623047,76.9000015258789,76.47000122070312,8229700.0,71.13941192626953
2017-08-29,76.48999786376953,76.08000183105469,76.20999908447266,76.44999694824219,7060400.0,71.12079620361328
2017-08-30,76.44999694824219,76.05999755859375,76.23999786376953,76.0999984741211,8218000.0,70.79519653320312
2017-08-31,76.48999786376953,76.05000305175781,76.2699966430664,76.33000183105469,15641700.0,71.00917053222656
2017-09-01,76.8499984741211,76.31999969482422,76.37000274658203,76.56999969482422,7361100.0,71.23243713378906
2017-09-05,77.36000061035156,76.61000061035156,76.63999938964844,77.18000030517578,12784800.0,71.79991912841797
2017-09-06,79.22000122070312,77.58000183105469,77.88999938964844,78.77999877929688,18574400.0,73.28839111328125
2017-09-07,79.33000183105469,78.61000061035156,79.0199966430664,79.02999877929688,9836400.0,73.52095794677734
2017-09-08,79.04000091552734,78.62999725341797,79.01000213623047,78.81999969482422,8436000.0,73.32559967041016
2017-09-11,79.41999816894531,78.9000015258789,79.41000366210938,79.25,12955800.0,73.72562408447266
2017-09-12,79.69000244140625,79.23999786376953,79.4000015258789,79.5,7644400.0,73.95819854736328
2017-09-13,79.7699966430664,79.37999725341797,79.5,79.7699966430664,8369700.0,74.2093734741211
2017-09-14,80.2300033569336,79.7699966430664,79.8499984741211,80.08999633789062,9072600.0,74.50706481933594
2017-09-15,80.20999908447266,79.55000305175781,80.12000274658203,80.06999969482422,16043700.0,74.48845672607422
2017-09-18,80.13999938964844,79.69999694824219,79.79000091552734,80.08999633789062,8594400.0,74.50706481933594
2017-09-19,80.38999938964844,79.98999786376953,80.05999755859375,80.22000122070312,9277100.0,74.62800598144531
2017-09-20,80.66000366210938,80.26000213623047,80.27999877929688,80.55000305175781,10606900.0,74.93501281738281
2017-09-21,80.52999877929688,79.76000213623047,80.48999786376953,79.88999938964844,11984200.0,74.32101440429688
2017-09-22,80.30000305175781,79.66999816894531,79.72000122070312,79.91999816894531,10205800.0,74.34891510009766
2017-09-25,81.0,79.9800033569336,80.02999877929688,80.9800033569336,10496600.0,75.33502960205078
2017-09-26,81.0,80.55999755859375,80.70999908447266,80.88999938964844,8755100.0,75.25131225585938
2017-09-27,81.44999694824219,80.79000091552734,80.88999938964844,81.43000030517578,9724500.0,75.75365447998047
2017-09-28,82.44999694824219,81.55999755859375,81.62999725341797,82.19000244140625,15581700.0,76.46068572998047
2017-09-29,82.05999755859375,81.58000183105469,81.94000244140625,81.9800033569336,9944000.0,76.26532745361328
2017-10-02,81.81999969482422,81.25,81.30000305175781,81.62999725341797,6777900.0,75.93971252441406
2017-10-03,81.97000122070312,81.30000305175781,81.41000366210938,81.76000213623047,6082000.0,76.0606460571289
2017-10-04,81.87000274658203,81.44999694824219,81.80000305175781,81.79000091552734,6357100.0,76.08855438232422
2017-10-05,82.23999786376953,81.58999633789062,81.72000122070312,82.0199966430664,7375900.0,76.30252838134766
2017-10-06,81.88999938964844,81.36000061035156,81.7699966430664,81.70999908447266,6070600.0,76.0141372680664
2017-10-09,82.18000030517578,81.76000213623047,81.83999633789062,82.02999877929688,7489900.0,76.31182861328125
2017-10-10,82.73999786376953,82.08999633789062,82.33999633789062,82.26000213623047,7218500.0,76.52579498291016
2017-10-11,82.73999786376953,82.13999938964844,82.16000366210938,82.5999984741211,7023700.0,76.84209442138672
2017-10-12,82.5,82.16999816894531,82.30999755859375,82.43000030517578,6647500.0,76.68395233154297
2017-10-13,83.08000183105469,82.36000061035156,82.7300033569336,82.41000366210938,7180000.0,76.66534423828125
2017-10-16,82.94999694824219,82.54000091552734,82.69999694824219,82.80999755859375,5734000.0,77.03746032714844
2017-10-17,82.97000122070312,82.54000091552734,82.62999725341797,82.95999908447266,6444100.0,77.177001953125
2017-10-18,83.38999938964844,82.54000091552734,82.95999908447266,82.76000213623047,6367100.0,76.9909439086914
2017-10-19,83.05000305175781,82.33000183105469,82.3499984741211,82.73999786376953,7945500.0,76.97233581542969
2017-10-20,83.12999725341797,82.62000274658203,82.8499984741211,83.11000061035156,9574100.0,77.31655883789062
2017-10-23,83.76000213623047,83.04000091552734,83.1500015258789,83.23999786376953,9829900.0,77.43749237060547
2017-10-24,83.80999755859375,83.30999755859375,83.55000305175781,83.47000122070312,7551200.0,77.65145874023438
2017-10-25,83.7300033569336,82.94999694824219,83.44999694824219,83.16999816894531,9153300.0,77.37236785888672
2017-10-26,83.6500015258789,83.11000061035156,83.37000274658203,83.47000122070312,9154500.0,77.65145874023438
2017-10-27,84.23999786376953,82.01000213623047,83.0,83.70999908447266,14866200.0,77.87471771240234
2017-10-30,83.94999694824219,83.41000366210938,83.70999908447266,83.54000091552734,7811100.0,77.71656799316406
2017-10-31,83.68000030517578,83.16999816894531,83.6500015258789,83.3499984741211,9754200.0,77.5398178100586
2017-11-01,83.94000244140625,83.26000213623047,83.38999938964844,83.87000274658203,9430000.0,78.02356719970703
2017-11-02,83.70999908447266,82.91000366210938,83.5999984741211,83.52999877929688,7775500.0,77.70726013183594
2017-11-03,83.63999938964844,83.16000366210938,83.41999816894531,83.18000030517578,6903500.0,77.38166809082031
2017-11-06,83.87000274658203,83.05999755859375,83.30000305175781,83.75,8979100.0,77.91193389892578
2017-11-07,83.81999969482422,83.02999877929688,83.73999786376953,83.58000183105469,8471800.0,77.75379180908203
2017-11-08,83.5,82.86000061035156,83.36000061035156,83.47000122070312,8691600.0,77.65145874023438
2017-11-09,84.13999938964844,83.08000183105469,83.30000305175781,83.97000122070312,10528800.0,78.1166000366211
2017-11-10,83.08000183105469,82.41999816894531,83.01000213623047,82.94000244140625,8693700.0,77.87248229980469
2017-11-13,83.08999633789062,82.5999984741211,82.6500015258789,82.88999938964844,6720400.0,77.8255386352539
2017-11-14,82.75,82.08999633789062,82.41999816894531,82.23999786376953,9251700.0,77.21524047851562
2017-11-15,82.08999633789062,81.1500015258789,81.75,81.20999908447266,9663600.0,76.2481918334961
2017-11-16,80.8499984741211,80.1500015258789,80.44000244140625,80.55999755859375,10527200.0,75.63790130615234
2017-11-17,80.66000366210938,80.16000366210938,80.31999969482422,80.23999786376953,9536400.0,75.33744812011719
2017-11-20,80.63999938964844,80.01000213623047,80.2300033569336,80.55000305175781,8468600.0,75.6285171508789
2017-11-21,81.25,80.63999938964844,80.69000244140625,80.87000274658203,8838400.0,75.928955078125
2017-11-22,81.41000366210938,81.05000305175781,81.16000366210938,81.0999984741211,7941600.0,76.14490509033203
2017-11-24,81.69999694824219,81.22000122070312,81.44000244140625,81.41999816894531,3851300.0,76.44535827636719
2017-11-27,81.4000015258789,81.0199966430664,81.31999969482422,81.11000061035156,9127500.0,76.15428924560547
2017-11-28,82.0,81.30999755859375,81.41000366210938,81.66999816894531,9794600.0,76.68006896972656
2017-11-29,82.30999755859375,81.4800033569336,81.6500015258789,82.2699966430664,9725000.0,77.24341583251953
2017-11-30,83.4000015258789,82.41000366210938,82.44999694824219,83.29000091552734,18592700.0,78.20109558105469
2017-12-01,84.12999725341797,82.41000366210938,83.44000244140625,83.45999908447266,13779300.0,78.36071014404297
2017-12-04,84.18000030517578,83.0,83.20999908447266,83.56999969482422,12597700.0,78.4639892578125
2017-12-05,83.7699966430664,82.70999908447266,83.41000366210938,82.88999938964844,9357200.0,77.8255386352539
2017-12-06,83.19999694824219,82.20999908447266,82.8499984741211,82.27999877929688,13398900.0,77.25279998779297
2017-12-07,82.62000274658203,82.16999816894531,82.4000015258789,82.55000305175781,11359600.0,77.50631713867188
2017-12-08,82.9000015258789,82.26000213623047,82.48999786376953,82.66000366210938,11988600.0,77.6095962524414
2017-12-11,83.25,82.73999786376953,83.04000091552734,83.02999877929688,8760700.0,77.95698547363281
2017-12-12,83.37999725341797,82.69999694824219,82.88999938964844,82.76000213623047,11307000.0,77.70348358154297
2017-12-13,83.30000305175781,82.4800033569336,82.61000061035156,83.12000274658203,10172700.0,78.04148864746094
2017-12-14,83.33000183105469,82.88999938964844,83.02999877929688,82.9000015258789,9492400.0,77.8349380493164
2017-12-15,83.27999877929688,82.87000274658203,83.16000366210938,83.02999877929688,26582300.0,77.95698547363281
2017-12-18,83.66999816894531,82.91000366210938,83.18000030517578,82.94000244140625,9363500.0,77.87248229980469
2017-12-19,83.16999816894531,82.33000183105469,83.02999877929688,82.44000244140625,10285100.0,77.40303039550781
2017-12-20,83.13999938964844,82.5199966430664,82.5999984741211,82.87000274658203,10620300.0,77.80675506591797
2017-12-21,84.2699966430664,82.95999908447266,83.3499984741211,83.8499984741211,13578100.0,78.72688293457031
2017-12-22,84.0199966430664,83.5999984741211,83.87999725341797,83.97000122070312,10065900.0,78.83955383300781
2017-12-26,84.36000061035156,83.9000015258789,83.95999908447266,83.9800033569336,4777200.0,78.84895324707031
2017-12-27,84.0999984741211,83.73999786376953,83.98999786376953,83.9000015258789,7000600.0,78.77383422851562
2017-12-28,84.05000305175781,83.80000305175781,83.9800033569336,84.0199966430664,7495300.0,78.8864974975586
2017-12-29,84.19999694824219,83.63999938964844,84.0,83.63999938964844,8463500.0,78.52971649169922
2018-01-02,85.19999694824219,83.66000366210938,83.81999969482422,85.02999877929688,11469300.0,79.83479309082031
2018-01-03,86.97000122070312,84.81999969482422,85.16000366210938,86.69999694824219,13957700.0,81.40274810791016
2018-01-04,87.22000122070312,86.43000030517578,86.79000091552734,86.81999969482422,10863000.0,81.51542663574219
2018-01-05,86.87999725341797,85.70999908447266,86.75,86.75,11047600.0,81.44969940185547
2018-01-08,87.1500015258789,86.5999984741211,86.69999694824219,87.13999938964844,10927100.0,81.81586456298828
2018-01-09,87.1500015258789,86.6500015258789,86.94000244140625,86.7699966430664,8131600.0,81.46846771240234
2018-01-10,87.19000244140625,85.9800033569336,87.0,86.08000183105469,10822300.0,80.82063293457031
2018-01-11,87.37000274658203,85.93000030517578,86.36000061035156,86.93000030517578,14366000.0,81.61869812011719
2018-01-12,87.98999786376953,87.18000030517578,87.19999694824219,87.5199966430664,9804900.0,82.17266082763672
2018-01-16,87.76000213623047,86.5999984741211,87.73999786376953,86.97000122070312,10882800.0,81.65625762939453
2018-01-17,88.20999908447266,86.93000030517578,87.19999694824219,88.0,10546000.0,82.62332916259766
2018-01-18,88.19000244140625,87.33999633789062,87.7699966430664,87.43000030517578,9223700.0,82.08815002441406
2018-01-19,87.76000213623047,86.61000061035156,87.56999969482422,87.1500015258789,13090000.0,81.82525634765625
2018-01-22,88.29000091552734,87.05000305175781,87.16999816894531,88.25,10270400.0,82.8580551147461
2018-01-23,88.45999908447266,87.73999786376953,88.25,88.30000305175781,10281800.0,82.90499877929688
2018-01-24,88.91999816894531,88.01000213623047,88.48999786376953,88.52999877929688,10316100.0,83.12093353271484
2018-01-25,88.87000274658203,88.19999694824219,88.55000305175781,88.37000274658203,11271900.0,82.9707260131836
2018-01-26,89.0,88.47000122070312,88.63999938964844,89.0,10514400.0,83.56222534179688
2018-01-29,89.30000305175781,87.94999694824219,88.58999633789062,88.01000213623047,9315700.0,82.6327133178711
2018-01-30,88.37999725341797,86.77999877929688,87.54000091552734,86.77999877929688,12408000.0,81.47786712646484
2018-01-31,87.47000122070312,86.33000183105469,86.55999755859375,87.30000305175781,14404700.0,81.96609497070312
2018-02-01,89.25,87.3499984741211,87.5,89.06999969482422,17971000.0,83.6279525756836
2018-02-02,86.01000213623047,83.0,85.12999725341797,84.52999877929688,29822100.0,79.36534118652344
2018-02-05,83.98999786376953,78.12999725341797,83.27999877929688,79.72000122070312,30452700.0,74.84921264648438
2018-02-06,80.3499984741211,76.9000015258789,78.51000213623047,78.3499984741211,36262800.0,73.56291961669922
2018-02-07,79.41000366210938,76.91999816894531,78.44000244140625,76.94000244140625,21994500.0,72.23908233642578
2018-02-08,77.58000183105469,76.02999877929688,77.44000244140625,76.06999969482422,25650800.0,71.42223358154297
2018-02-09,76.4800033569336,73.9000015258789,76.25,75.77999877929688,29491600.0,71.87751007080078
2018-02-12,77.62000274658203,75.83999633789062,77.05000305175781,76.41999816894531,19340400.0,72.48455810546875
2018-02-13,76.75,75.7300033569336,76.0999984741211,76.30000305175781,11926600.0,72.3707275390625
2018-02-14,76.66000366210938,75.16999816894531,75.79000091552734,76.45999908447266,17188400.0,72.52249145507812
2018-02-15,76.69999694824219,75.44999694824219,76.62000274658203,76.20999908447266,14432400.0,72.28536987304688
2018-02-16,77.12000274658203,75.8499984741211,76.1500015258789,76.54000091552734,13722400.0,72.59838104248047
2018-02-20,77.47000122070312,75.45999908447266,76.47000122070312,75.75,13387300.0,71.84906005859375
2018-02-21,76.44000244140625,74.87000274658203,75.81999969482422,74.88999938964844,11715000.0,71.03334045410156
2018-02-22,76.83999633789062,75.19000244140625,75.30000305175781,75.86000061035156,14020200.0,71.95339965820312
2018-02-23,77.62000274658203,75.94999694824219,76.08999633789062,77.52999877929688,13378800.0,73.53739929199219
2018-02-26,78.93000030517578,77.55999755859375,77.73999786376953,78.83999633789062,16940400.0,74.77992248535156
2018-02-27,79.87000274658203,77.5,79.0,77.5,14629500.0,73.5089340209961
2018-02-28,78.25,75.69999694824219,78.16000366210938,75.73999786376953,17087800.0,71.83956909179688
2018-03-01,76.68000030517578,74.86000061035156,75.52999877929688,75.19999694824219,15696700.0,71.32737731933594
2018-03-02,75.87000274658203,74.4800033569336,74.88999938964844,75.55000305175781,15630300.0,71.65936279296875
2018-03-05,76.55999755859375,75.12000274658203,75.2300033569336,76.2699966430664,14891000.0,72.34227752685547
2018-03-06,76.9800033569336,75.86000061035156,76.66999816894531,76.18000030517578,10754300.0,72.25691223144531
2018-03-07,75.23999786376953,73.55999755859375,75.0,74.26000213623047,27255500.0,70.43578338623047
2018-03-08,74.7699966430664,73.69000244140625,74.5,74.12000274658203,19299800.0,70.3030014038086
2018-03-09,75.05999755859375,74.20999908447266,74.81999969482422,74.55999755859375,19714100.0,70.7203369140625
2018-03-12,75.58000183105469,74.69000244140625,74.87000274658203,75.23999786376953,14226700.0,71.36531829833984
2018-03-13,75.81999969482422,74.25,75.33000183105469,74.52999877929688,13739700.0,70.69187927246094
2018-03-14,74.79000091552734,73.52999877929688,74.63999938964844,73.5999984741211,14820700.0,69.80977630615234
2018-03-15,75.0,74.0999984741211,74.3499984741211,74.41999816894531,15640600.0,70.5875473022461
2018-03-16,75.12000274658203,74.36000061035156,74.36000061035156,75.12000274658203,32109700.0,71.25149536132812
2018-03-19,75.01000213623047,73.86000061035156,75.0,74.1500015258789,12744800.0,70.33145141601562
2018-03-20,74.69999694824219,73.94999694824219,74.22000122070312,73.98999786376953,13003200.0,70.17970275878906
2018-03-21,75.63999938964844,73.9800033569336,74.2300033569336,75.04000091552734,14813800.0,71.17562103271484
2018-03-22,74.69999694824219,73.38999938964844,74.41999816894531,73.5,17737000.0,69.71492767333984
2018-03-23,74.20999908447266,72.66999816894531,73.80999755859375,72.88999938964844,20157300.0,69.13633728027344
2018-03-26,74.1500015258789,72.75,73.6500015258789,74.0,15032700.0,70.18917846679688
2018-03-27,74.88999938964844,73.27999877929688,74.0,73.69999694824219,15821900.0,69.90462493896484
2018-03-28,74.01000213623047,72.77999877929688,73.73999786376953,72.80999755859375,18163900.0,69.06045532226562
2018-03-29,74.88999938964844,73.26000213623047,73.33000183105469,74.61000061035156,14882900.0,70.76776123046875
2018-04-02,74.4000015258789,72.16000366210938,74.2699966430664,73.22000122070312,17891100.0,69.44934844970703
2018-04-03,75.13999938964844,73.0999984741211,73.44999694824219,75.0199966430664,15999200.0,71.15664672851562
2018-04-04,75.05999755859375,73.44000244140625,74.05000305175781,74.87000274658203,13122200.0,71.0143814086914
2018-04-05,76.31999969482422,75.0199966430664,75.05999755859375,76.0199966430664,14200000.0,72.10514831542969
2018-04-06,76.12000274658203,74.22000122070312,75.63999938964844,74.87000274658203,14299600.0,71.0143814086914
2018-04-09,75.79000091552734,74.80000305175781,75.22000122070312,74.87000274658203,11103100.0,71.0143814086914
2018-04-10,77.7699966430664,76.05999755859375,76.08000183105469,77.06999969482422,19006100.0,73.10108184814453
2018-04-11,78.04000091552734,76.75,77.11000061035156,77.43000030517578,13734000.0,73.44254302978516
2018-04-12,78.13999938964844,77.01000213623047,77.86000061035156,77.22000122070312,13270400.0,73.24335479736328
2018-04-13,78.19000244140625,77.5999984741211,77.80000305175781,77.83999633789062,10925000.0,73.83142852783203
2018-04-16,79.08000183105469,77.70999908447266,78.12000274658203,78.54000091552734,10743600.0,74.49537658691406
2018-04-17,78.76000213623047,78.04000091552734,78.54000091552734,78.33000183105469,9340700.0,74.29619598388672
2018-04-18,79.76000213623047,78.94000244140625,79.04000091552734,79.22000122070312,12061400.0,75.1403579711914
2018-04-19,79.81999969482422,78.80999755859375,79.31999969482422,79.41999816894531,11291500.0,75.3300552368164
2018-04-20,79.4000015258789,78.33000183105469,79.31999969482422,79.0,12072200.0,74.93169403076172
2018-04-23,79.5999984741211,78.75,78.91999816894531,79.56999969482422,11729800.0,75.47233581542969
2018-04-24,79.93000030517578,77.97000122070312,79.80000305175781,78.3499984741211,14102000.0,74.31515502929688
2018-04-25,79.62000274658203,77.48999786376953,78.19999694824219,79.5,13867500.0,75.40593719482422
2018-04-26,80.9000015258789,79.52999877929688,79.5999984741211,80.86000061035156,14554400.0,76.6958999633789
2018-04-27,78.6500015258789,76.4800033569336,76.94999694824219,77.79000091552734,16346800.0,73.78400421142578
2018-04-30,78.55999755859375,77.73999786376953,77.91000366210938,77.75,15028800.0,73.74605560302734
2018-05-01,77.26000213623047,75.9800033569336,77.26000213623047,76.94999694824219,16231000.0,72.98725891113281
2018-05-02,77.2300033569336,76.30000305175781,76.44999694824219,76.80000305175781,13883700.0,72.8449935913086
2018-05-03,76.61000061035156,75.4000015258789,76.38999938964844,76.54000091552734,12243100.0,72.59838104248047
2018-05-04,77.22000122070312,75.94000244140625,76.12999725341797,76.9000015258789,9887200.0,72.93983459472656
2018-05-07,79.08000183105469,77.4000015258789,77.73999786376953,77.73999786376953,15071500.0,73.736572265625
2018-05-08,78.16000366210938,76.37000274658203,77.80000305175781,78.08999633789062,17430400.0,74.06855010986328
2018-05-09,80.23999786376953,78.94999694824219,78.9800033569336,79.93000030517578,17142100.0,75.81379699707031
2018-05-10,81.79000091552734,80.5,80.63999938964844,81.72000122070312,17710300.0,77.5116195678711
2018-05-11,81.97000122070312,80.91000366210938,81.18000030517578,81.27999877929688,14751000.0,77.87570190429688
2018-05-14,82.31999969482422,81.61000061035156,81.69999694824219,81.83000183105469,11852100.0,78.40267181396484
2018-05-15,82.02999877929688,81.4000015258789,81.8499984741211,81.79000091552734,12595700.0,78.36434173583984
2018-05-16,82.05000305175781,81.16999816894531,81.76000213623047,82.0199966430664,9570000.0,78.58470153808594
2018-05-17,82.27999877929688,81.44000244140625,82.19999694824219,81.87999725341797,11224100.0,78.45056915283203
2018-05-18,81.80000305175781,81.26000213623047,81.55000305175781,81.30000305175781,10030900.0,77.89486694335938
2018-05-21,82.3499984741211,81.5199966430664,81.7300033569336,82.27999877929688,8822400.0,78.83381652832031
2018-05-22,82.6500015258789,81.3499984741211,82.44000244140625,81.63999938964844,10753400.0,78.22062683105469
2018-05-23,82.2300033569336,80.56999969482422,80.94999694824219,82.1500015258789,15140900.0,78.70925903320312
2018-05-24,81.36000061035156,79.94999694824219,81.3499984741211,80.2699966430664,13360500.0,76.90799713134766
2018-05-25,79.33000183105469,78.08999633789062,79.27999877929688,78.70999908447266,14562000.0,75.41334533691406
2018-05-29,78.7300033569336,77.52999877929688,78.1500015258789,78.41999816894531,14644800.0,75.13549041748047
2018-05-30,81.66000366210938,79.22000122070312,79.25,81.5,16627500.0,78.08648681640625
2018-05-31,81.55000305175781,80.69000244140625,80.80999755859375,81.23999786376953,15803100.0,77.83737182617188
2018-06-01,82.3499984741211,81.55000305175781,81.87000274658203,81.83000183105469,9906100.0,78.40267181396484
2018-06-04,82.52999877929688,80.80999755859375,82.05000305175781,80.97000122070312,10954700.0,77.57868194580078
2018-06-05,81.6500015258789,80.41000366210938,80.58999633789062,80.68000030517578,12059300.0,77.30082702636719
2018-06-06,82.08999633789062,80.87000274658203,81.4800033569336,82.05999755859375,11603300.0,78.62303161621094
2018-06-07,83.29000091552734,82.55999755859375,82.7300033569336,82.87999725341797,13502500.0,79.40868377685547
2018-06-08,83.66000366210938,82.5,83.11000061035156,83.5999984741211,14350400.0,80.09852600097656
2018-06-11,83.79000091552734,82.93000030517578,83.72000122070312,83.0999984741211,10831600.0,79.61946868896484
2018-06-12,83.75,82.31999969482422,83.11000061035156,82.41999816894531,12351800.0,78.96795654296875
2018-06-13,82.5999984741211,81.47000122070312,82.44000244140625,81.51000213623047,12049300.0,78.0960693359375
2018-06-14,82.30000305175781,81.5,81.94000244140625,81.88999938964844,11477300.0,78.46015167236328
2018-06-15,81.81999969482422,80.51000213623047,81.72000122070312,80.66000366210938,23797500.0,77.28166961669922
2018-06-18,81.37999725341797,80.30000305175781,80.4000015258789,80.81999969482422,9192600.0,77.43496704101562
2018-06-19,80.95999908447266,79.70999908447266,79.88999938964844,80.69999694824219,8759700.0,77.31999206542969
2018-06-20,81.12999725341797,80.2699966430664,80.8499984741211,80.44999694824219,8917700.0,77.08045959472656
2018-06-21,80.37999725341797,79.33000183105469,80.0199966430664,79.69000244140625,10990700.0,76.352294921875
2018-06-22,81.94000244140625,80.91999816894531,81.16000366210938,81.37999725341797,16012200.0,77.97151184082031
2018-06-25,81.23999786376953,79.30000305175781,80.77999877929688,79.73999786376953,10557200.0,76.40019226074219
2018-06-26,81.01000213623047,79.97000122070312,80.1500015258789,80.63999938964844,10382800.0,77.26250457763672
2018-06-27,82.4800033569336,81.05999755859375,81.05999755859375,81.70999908447266,12725900.0,78.28768920898438
2018-06-28,82.06999969482422,81.02999877929688,81.7300033569336,81.97000122070312,9390700.0,78.53679656982422
2018-06-29,83.54000091552734,82.29000091552734,82.44999694824219,82.7300033569336,17323200.0,79.26496887207031
2018-07-02,82.12999725341797,81.31999969482422,81.88999938964844,81.76000213623047,9998300.0,78.33560180664062
2018-07-03,83.44999694824219,82.08000183105469,82.58000183105469,82.23999786376953,7197300.0,78.79549407958984
2018-07-05,82.7699966430664,82.05000305175781,82.58999633789062,82.30999755859375,9035700.0,78.86255645751953
2018-07-06,82.69999694824219,81.66000366210938,81.95999908447266,82.33000183105469,7637100.0,78.88172912597656
2018-07-09,83.12999725341797,82.55999755859375,82.80999755859375,82.9000015258789,7158600.0,79.42784881591797
2018-07-10,84.12000274658203,83.51000213623047,83.69999694824219,83.66000366210938,8806200.0,80.15602111816406
2018-07-11,83.52999877929688,82.02999877929688,83.02999877929688,82.58999633789062,10405300.0,79.13082885742188
2018-07-12,83.23999786376953,82.30999755859375,83.01000213623047,82.69000244140625,9762200.0,79.22665405273438
2018-07-13,83.75,82.55999755859375,82.68000030517578,83.30999755859375,8720000.0,79.8206787109375
2018-07-16,82.79000091552734,82.0,82.5199966430664,82.48999786376953,8306900.0,79.0350112915039
2018-07-17,82.75,82.04000091552734,82.26000213623047,82.30999755859375,7373300.0,78.86255645751953
2018-07-18,82.31999969482422,81.48999786376953,81.80000305175781,82.22000122070312,8711900.0,78.77632904052734
2018-07-19,82.62000274658203,81.72000122070312,82.19999694824219,82.01000213623047,8659100.0,78.57512664794922
2018-07-20,81.93000030517578,81.25,81.72000122070312,81.4000015258789,9196300.0,77.99067687988281
2018-07-23,82.0,81.18000030517578,81.94999694824219,81.4000015258789,8425900.0,77.99067687988281
2018-07-24,83.0199966430664,81.4800033569336,81.5199966430664,83.01000213623047,11121000.0,79.53324127197266
2018-07-25,83.73999786376953,82.51000213623047,83.01000213623047,83.58999633789062,9523600.0,80.08894348144531
2018-07-26,84.4000015258789,83.37000274658203,83.83000183105469,84.23999786376953,13210100.0,80.71173095703125
2018-07-27,82.37999725341797,80.80999755859375,80.97000122070312,81.91999816894531,18220800.0,78.4888916015625
2018-07-30,82.12999725341797,80.70999908447266,82.12999725341797,81.73999786376953,11282800.0,78.3164291381836
2018-07-31,82.1500015258789,81.44000244140625,81.63999938964844,81.51000213623047,11716800.0,78.0960693359375
2018-08-01,80.93000030517578,80.22000122070312,80.88999938964844,80.38999938964844,8936300.0,77.02297973632812
2018-08-02,80.26000213623047,79.44999694824219,79.88999938964844,79.91000366210938,8364300.0,76.5630874633789
2018-08-03,80.30000305175781,79.62999725341797,79.97000122070312,80.19999694824219,7811100.0,76.84093475341797
2018-08-06,80.43000030517578,79.73999786376953,80.25,80.18000030517578,10041800.0,76.82176971435547
2018-08-07,81.58999633789062,80.30999755859375,80.91000366210938,81.2699966430664,10698100.0,77.86611938476562
2018-08-08,81.2300033569336,80.3499984741211,81.0199966430664,80.7300033569336,7275000.0,77.34874725341797
2018-08-09,80.91000366210938,80.11000061035156,80.7300033569336,80.31999969482422,9826800.0,76.9559097290039
2018-08-10,79.5199966430664,78.86000061035156,79.51000213623047,79.41999816894531,12954300.0,76.87846374511719
2018-08-13,79.75,78.43000030517578,79.44999694824219,78.55999755859375,10308500.0,76.04598999023438
2018-08-14,79.06999969482422,78.08000183105469,78.98999786376953,78.30999755859375,8005900.0,75.80399322509766
2018-08-15,77.9000015258789,76.51000213623047,77.77999877929688,76.94000244140625,16307800.0,74.47783660888672
2018-08-16,78.0999984741211,77.19999694824219,77.27999877929688,78.0,11519900.0,75.50390625
2018-08-17,78.48999786376953,77.80000305175781,78.33999633789062,78.26000213623047,10178400.0,75.7555923461914
2018-08-20,79.0,78.16999816894531,78.26000213623047,78.80999755859375,8152100.0,76.28797912597656
2018-08-21,79.58000183105469,78.66999816894531,79.05000305175781,78.83000183105469,9192200.0,76.3073501586914
2018-08-22,80.05000305175781,79.0199966430664,79.11000061035156,79.95999908447266,10098200.0,77.40118408203125
2018-08-23,79.62999725341797,78.9000015258789,79.55999755859375,79.08000183105469,7203900.0,76.54934692382812
2018-08-24,80.05000305175781,79.41999816894531,79.5199966430664,79.62000274658203,6545200.0,77.07206726074219
2018-08-27,80.47000122070312,79.86000061035156,79.91000366210938,80.4000015258789,6671900.0,77.82711029052734
2018-08-28,80.81999969482422,80.19999694824219,80.58000183105469,80.27999877929688,8823400.0,77.71094512939453
2018-08-29,81.04000091552734,80.0999984741211,80.44000244140625,80.86000061035156,8004800.0,78.27239227294922
2018-08-30,80.77999877929688,80.12000274658203,80.44999694824219,80.51000213623047,7450900.0,77.93358612060547
2018-08-31,80.45999908447266,79.7699966430664,80.23999786376953,80.16999816894531,10700000.0,77.60446166992188
2018-09-04,80.69000244140625,79.80999755859375,80.41000366210938,80.29000091552734,8855000.0,77.72062683105469
2018-09-05,81.43000030517578,79.5999984741211,79.9000015258789,81.36000061035156,13878400.0,78.75638580322266
2018-09-06,81.63999938964844,80.33999633789062,81.11000061035156,80.45999908447266,13320600.0,77.88517761230469
2018-09-07,81.93000030517578,79.81999969482422,80.1500015258789,81.83000183105469,16417800.0,79.21134948730469
2018-09-10,82.73999786376953,81.66000366210938,82.23999786376953,81.70999908447266,10817900.0,79.09517669677734
2018-09-11,83.19000244140625,81.62999725341797,81.95999908447266,82.86000061035156,11891900.0,80.20838165283203
2018-09-12,83.77999877929688,82.87000274658203,83.25,83.12999725341797,11556300.0,80.46974182128906
2018-09-13,83.25,82.01000213623047,83.1500015258789,82.31999969482422,11162700.0,79.68566131591797
2018-09-14,83.1500015258789,82.2699966430664,82.41999816894531,82.91999816894531,9442600.0,80.2664566040039
2018-09-17,83.61000061035156,82.98999786376953,83.0,83.41000366210938,8403300.0,80.74079132080078
2018-09-18,84.12999725341797,83.44999694824219,83.9000015258789,83.62999725341797,9219900.0,80.9537353515625
2018-09-19,84.7699966430664,83.63999938964844,83.63999938964844,84.62999725341797,10413600.0,81.92173767089844
2018-09-20,85.33999633789062,84.54000091552734,84.86000061035156,84.81999969482422,11198200.0,82.10565185546875
2018-09-21,85.43000030517578,84.5199966430664,85.01000213623047,85.16999816894531,26639400.0,82.4444580078125
2018-09-24,87.08999633789062,85.72000122070312,85.79000091552734,86.5999984741211,13549500.0,83.82869720458984
2018-09-25,87.36000061035156,86.37000274658203,87.02999877929688,86.5,12200700.0,83.73190307617188
2018-09-26,86.5,85.69000244140625,86.0199966430664,85.77999877929688,10275500.0,83.03494262695312
2018-09-27,86.37999725341797,85.58999633789062,86.08999633789062,85.7699966430664,7895400.0,83.02526092529297
2018-09-28,85.93000030517578,84.98999786376953,85.25,85.0199966430664,9884900.0,82.29925537109375
2018-10-01,86.02999877929688,85.26000213623047,85.3499984741211,85.80999755859375,8566900.0,83.06398010253906
2018-10-02,86.66999816894531,85.62000274658203,85.80000305175781,86.45999908447266,8453100.0,83.69317626953125
2018-10-03,86.88999938964844,85.9800033569336,86.51000213623047,86.1500015258789,10206700.0,83.39309692382812
2018-10-04,86.08000183105469,85.25,85.5,85.58000183105469,10204600.0,82.84134674072266
2018-10-05,85.69999694824219,84.93000030517578,85.30999755859375,85.33999633789062,9217400.0,82.60901641845703
2018-10-08,86.30999755859375,84.6500015258789,84.79000091552734,86.12999725341797,13242400.0,83.37374114990234
2018-10-09,86.87999725341797,85.73999786376953,86.37999725341797,86.51000213623047,10177900.0,83.7415771484375
2018-10-10,86.81999969482422,84.5,86.7300033569336,84.5199966430664,16573400.0,81.81525421142578
2018-10-11,84.16999816894531,81.16999816894531,83.94000244140625,81.5999984741211,20320100.0,78.98870849609375
2018-10-12,82.23999786376953,80.2699966430664,82.12999725341797,81.37999725341797,15216300.0,78.77574157714844
2018-10-15,81.73999786376953,80.81999969482422,81.37999725341797,80.81999969482422,10558800.0,78.2336654663086
2018-10-16,81.2699966430664,80.01000213623047,80.51000213623047,81.19999694824219,9781800.0,78.60149383544922
2018-10-17,81.5199966430664,80.33999633789062,80.94000244140625,81.5,12247700.0,78.89191436767578
2018-10-18,82.47000122070312,81.19999694824219,81.19999694824219,81.8499984741211,17448600.0,79.23069763183594
2018-10-19,82.45999908447266,81.51000213623047,81.66000366210938,81.97000122070312,12098700.0,79.34686279296875
2018-10-22,82.18000030517578,80.63999938964844,82.0,81.1500015258789,9474100.0,78.55310821533203
2018-10-23,80.45999908447266,78.72000122070312,80.05999755859375,79.83999633789062,15465100.0,77.28502655029297
2018-10-24,80.26000213623047,77.55000305175781,80.12999725341797,77.62000274658203,16085700.0,75.13607788085938
2018-10-25,79.05000305175781,77.73999786376953,78.48999786376953,78.30999755859375,12315500.0,75.80399322509766
2018-10-26,78.41000366210938,76.95999908447266,77.87000274658203,77.52999877929688,18160100.0,75.0489501953125
2018-10-29,78.43000030517578,76.22000122070312,78.06999969482422,77.05000305175781,15707000.0,74.58431243896484
2018-10-30,79.02999877929688,77.41999816894531,77.62000274658203,78.77999877929688,17758200.0,76.25894165039062
2018-10-31,80.3499984741211,78.9000015258789,79.33999633789062,79.68000030517578,16629100.0,77.13014221191406
2018-11-01,80.75,79.30000305175781,79.83000183105469,80.66999816894531,14159300.0,78.08846282958984
2018-11-02,82.44999694824219,80.2300033569336,81.76000213623047,81.94999694824219,19350400.0,79.32749938964844
2018-11-05,82.87000274658203,81.44000244140625,82.5,81.63999938964844,15815000.0,79.02742767333984
2018-11-06,82.0999984741211,81.3499984741211,81.73999786376953,81.98999786376953,9063200.0,79.36621856689453
2018-11-07,83.13999938964844,81.66000366210938,82.20999908447266,83.02999877929688,12699800.0,80.3729476928711
2018-11-08,83.75,81.54000091552734,83.12999725341797,81.70999908447266,16865500.0,79.09517669677734
2018-11-09,81.4000015258789,79.69000244140625,80.26000213623047,80.87000274658203,15070100.0,79.07563018798828
2018-11-12,81.7300033569336,79.7300033569336,81.66000366210938,79.83000183105469,11906600.0,78.05870819091797
2018-11-13,79.8499984741211,77.63999938964844,79.80000305175781,78.0,15530200.0,76.2693099975586
2018-11-14,79.08999633789062,76.75,78.86000061035156,77.38999938964844,18552100.0,75.67284393310547
2018-11-15,78.19000244140625,75.91000366210938,76.66999816894531,78.19000244140625,18976000.0,76.45509338378906
2018-11-16,79.19000244140625,78.0999984741211,78.37000274658203,78.95999908447266,13704900.0,77.2080078125
2018-11-19,79.36000061035156,78.43000030517578,78.45999908447266,79.22000122070312,9430800.0,77.46224212646484
2018-11-20,78.9000015258789,76.37000274658203,78.41999816894531,76.97000122070312,15533700.0,75.26216125488281
2018-11-21,78.37999725341797,77.26000213623047,77.43000030517578,77.55999755859375,9685300.0,75.83907318115234
2018-11-23,76.19999694824219,74.69999694824219,76.05000305175781,75.48999786376953,10875400.0,73.81500244140625
2018-11-26,77.31999969482422,76.12000274658203,76.23999786376953,76.9800033569336,13741100.0,75.2719497680664
2018-11-27,77.44999694824219,76.4000015258789,76.56999969482422,77.05000305175781,10344500.0,75.34039306640625
2018-11-28,78.44999694824219,76.83999633789062,77.04000091552734,78.44999694824219,11482100.0,76.70932006835938
2018-11-29,79.52999877929688,78.19000244140625,78.22000122070312,79.05999755859375,10255200.0,77.3057861328125
2018-11-30,79.5999984741211,78.31999969482422,78.44999694824219,79.5,14040100.0,77.73603057861328
2018-12-03,81.45999908447266,80.13999938964844,80.23999786376953,81.22000122070312,19415100.0,79.4178695678711
2018-12-04,81.94999694824219,79.3499984741211,81.37999725341797,79.43000030517578,18540700.0,77.66758728027344
2018-12-06,78.44000244140625,76.91999816894531,78.0,78.38999938964844,23218100.0,76.65065002441406
2018-12-07,80.36000061035156,77.33000183105469,79.38999938964844,77.63999938964844,16224700.0,75.91729736328125
2018-12-10,77.86000061035156,74.80000305175781,77.86000061035156,76.54000091552734,17946200.0,74.84170532226562
2018-12-11,77.80000305175781,75.68000030517578,77.69999694824219,76.68000030517578,15742400.0,74.97859954833984
2018-12-12,78.19999694824219,76.0199966430664,78.04000091552734,76.0199966430664,14559800.0,74.33323669433594
2018-12-13,77.22000122070312,75.94999694824219,76.02999877929688,76.9800033569336,13749700.0,75.2719497680664
2018-12-14,76.87000274658203,75.08999633789062,76.72000122070312,75.58000183105469,12669300.0,73.90300750732422
2018-12-17,75.5999984741211,73.4800033569336,75.26000213623047,74.04000091552734,15464100.0,72.39717864990234
2018-12-18,73.86000061035156,71.62000274658203,73.62999725341797,72.0,18681200.0,70.4024429321289
2018-12-19,73.2699966430664,70.30000305175781,72.44999694824219,70.77999877929688,21679600.0,69.20951080322266
2018-12-20,70.66000366210938,68.05000305175781,70.08999633789062,68.62999725341797,28723700.0,67.10721588134766
2018-12-21,70.37000274658203,67.66999816894531,68.13999938964844,68.12000274658203,47287300.0,66.60853576660156
2018-12-24,67.52999877929688,65.44000244140625,66.87000274658203,65.51000213623047,14262800.0,64.05644226074219
2018-12-26,68.66000366210938,64.6500015258789,66.18000030517578,68.63999938964844,24887700.0,67.11699676513672
2018-12-27,68.94000244140625,66.08000183105469,67.73999786376953,68.94000244140625,22077000.0,67.41033935546875
2018-12-28,69.58000183105469,67.81999969482422,69.18000030517578,68.16999816894531,19710600.0,66.65741729736328
2018-12-31,69.1500015258789,67.66000366210938,68.31999969482422,68.19000244140625,15807000.0,66.6769790649414
2019-01-02,69.87000274658203,67.26000213623047,67.3499984741211,69.69000244140625,16727200.0,68.14369201660156
2019-01-03,70.25,68.36000061035156,70.0,68.62000274658203,13812000.0,67.0974349975586
2019-01-04,71.2699966430664,69.36000061035156,69.63999938964844,71.1500015258789,16043600.0,69.57129669189453
2019-01-07,72.0999984741211,70.73999786376953,71.25,71.5199966430664,10844200.0,69.93309020996094
2019-01-08,72.58999633789062,71.94000244140625,72.54000091552734,72.04000091552734,11439000.0,70.4415512084961
2019-01-09,72.5999984741211,71.6500015258789,72.5999984741211,72.41999816894531,13473500.0,70.81311798095703
2019-01-10,72.08000183105469,71.12000274658203,72.06999969482422,72.05000305175781,13151100.0,70.45133209228516
2019-01-11,71.88999938964844,71.06999969482422,71.8499984741211,71.72000122070312,9790100.0,70.12865447998047
2019-01-14,71.77999877929688,71.12000274658203,71.20999908447266,71.62999725341797,11012400.0,70.04064178466797
2019-01-15,72.36000061035156,71.31999969482422,71.94999694824219,71.66999816894531,10298300.0,70.07976531982422
2019-01-16,72.37999725341797,71.30999755859375,71.41999816894531,71.63999938964844,12595600.0,70.05043029785156
2019-01-17,72.33999633789062,70.9000015258789,71.19000244140625,72.12999725341797,10141700.0,70.52955627441406
2019-01-18,73.29000091552734,72.12999725341797,73.2699966430664,72.98999786376953,15759200.0,71.37046813964844
2019-01-22,72.70999908447266,71.68000030517578,72.38999938964844,71.88999938964844,15035600.0,70.29487609863281
2019-01-23,72.30000305175781,70.93000030517578,72.01000213623047,71.30000305175781,13187200.0,69.71797180175781
2019-01-24,71.97000122070312,70.63999938964844,71.0999984741211,71.4000015258789,11272500.0,69.81575012207031
2019-01-25,72.2699966430664,71.54000091552734,72.06999969482422,71.72000122070312,8996200.0,70.12865447998047
2019-01-28,71.27999877929688,70.37000274658203,71.0199966430664,71.23999786376953,13678400.0,69.6593017578125
2019-01-29,72.19000244140625,71.4800033569336,71.69999694824219,71.51000213623047,10513200.0,69.9233169555664
2019-01-30,72.56999969482422,71.51000213623047,71.7699966430664,72.29000091552734,11524700.0,70.6860122680664
2019-01-31,73.48999786376953,72.0199966430664,72.29000091552734,73.27999877929688,19876700.0,71.65403747558594
2019-02-01,76.48999786376953,74.31999969482422,74.91999816894531,75.91999816894531,22968700.0,74.23545837402344
2019-02-04,75.76000213623047,74.4000015258789,75.76000213623047,74.81999969482422,15483800.0,73.15986633300781
2019-02-05,75.63999938964844,75.01000213623047,75.18000030517578,75.58999633789062,12786700.0,73.91278076171875
2019-02-06,75.7699966430664,75.12999725341797,75.58000183105469,75.26000213623047,10866900.0,73.5901107788086
2019-02-07,75.19000244140625,73.9000015258789,74.94999694824219,74.68000030517578,14418900.0,73.02297973632812
2019-02-08,74.06999969482422,72.7300033569336,73.76000213623047,73.9800033569336,11959500.0,73.14161682128906
2019-02-11,74.22000122070312,73.4000015258789,73.87999725341797,74.0999984741211,10434800.0,73.26025390625
2019-02-12,75.44999694824219,74.81999969482422,75.08000183105469,75.4000015258789,12599200.0,74.54552459716797
2019-02-13,76.54000091552734,75.51000213623047,75.58000183105469,76.25,13214600.0,75.38589477539062
2019-02-14,76.6500015258789,75.70999908447266,76.26000213623047,76.2699966430664,12772900.0,75.4056625366211
2019-02-15,77.76000213623047,76.75,76.94000244140625,77.70999908447266,14330300.0,76.829345703125
2019-02-19,78.4800033569336,77.44999694824219,77.55999755859375,78.2300033569336,13551500.0,77.34345245361328
2019-02-20,78.80999755859375,78.0,78.30000305175781,78.52999877929688,12633100.0,77.64005279541016
2019-02-21,78.66000366210938,77.61000061035156,78.20999908447266,77.81999969482422,10266000.0,76.93810272216797
2019-02-22,78.94999694824219,77.62000274658203,78.70999908447266,78.41999816894531,9519300.0,77.53129577636719
2019-02-25,78.8499984741211,78.19999694824219,78.43000030517578,78.5,9274400.0,77.61038970947266
2019-02-26,79.12999725341797,78.38999938964844,78.68000030517578,78.66000366210938,10990600.0,77.76858520507812
2019-02-27,79.75,78.66000366210938,78.87999725341797,79.47000122070312,12398200.0,78.56940460205078
2019-02-28,79.75,78.70999908447266,79.44999694824219,79.02999877929688,14597900.0,78.13438415527344
2019-03-01,80.0,79.02999877929688,79.37999725341797,80.0,15419400.0,79.09339141845703
2019-03-04,80.55000305175781,79.01000213623047,80.23999786376953,80.30999755859375,18089900.0,79.3998794555664
2019-03-05,80.4000015258789,79.75,80.12000274658203,80.19000244140625,13745500.0,79.28124237060547
2019-03-06,79.37999725341797,77.86000061035156,78.8499984741211,79.27999877929688,18633600.0,78.38155364990234
2019-03-07,80.26000213623047,79.31999969482422,79.55000305175781,80.16000366210938,16472700.0,79.2515869140625
2019-03-08,79.31999969482422,78.25,78.88999938964844,79.01000213623047,16211300.0,78.11461639404297
2019-03-11,80.29000091552734,79.6500015258789,79.9800033569336,79.77999877929688,11060900.0,78.87588500976562
2019-03-12,80.58000183105469,79.88999938964844,80.11000061035156,80.0,11320000.0,79.09339141845703
2019-03-13,80.76000213623047,80.19999694824219,80.58999633789062,80.70999908447266,10260200.0,79.79534912109375
2019-03-14,80.91000366210938,80.3499984741211,80.80000305175781,80.44000244140625,9976700.0,79.52841186523438
2019-03-15,80.55000305175781,80.0999984741211,80.18000030517578,80.1500015258789,25316400.0,79.24169921875
2019-03-18,81.25,80.44000244140625,80.44000244140625,81.08000183105469,9840600.0,80.1611557006836
2019-03-19,82.0,80.63999938964844,81.58000183105469,80.87000274658203,13936500.0,79.95353698730469
2019-03-20,81.91999816894531,80.55999755859375,80.75,81.31999969482422,13133600.0,80.3984375
2019-03-21,81.88999938964844,80.80000305175781,80.80999755859375,81.79000091552734,10117000.0,80.86311340332031
2019-03-22,81.44000244140625,80.30000305175781,81.2300033569336,80.4800033569336,12497700.0,79.56795501708984
2019-03-25,80.44000244140625,79.58999633789062,80.0,79.91999816894531,11320400.0,79.01429748535156
2019-03-26,81.2699966430664,80.18000030517578,80.33000183105469,80.95999908447266,9472800.0,80.04251098632812
2019-03-27,81.30999755859375,79.81999969482422,80.97000122070312,80.33999633789062,7258700.0,79.42953491210938
2019-03-28,80.79000091552734,80.0199966430664,80.02999877929688,80.73999786376953,7412300.0,79.82500457763672
2019-03-29,81.4800033569336,80.4800033569336,81.33000183105469,80.80000305175781,10889200.0,79.88433074951172
2019-04-01,81.77999877929688,81.08000183105469,81.2300033569336,81.7300033569336,10816400.0,80.80379486083984
2019-04-02,81.94999694824219,81.11000061035156,81.75,81.37999725341797,7646000.0,80.45775604248047
2019-04-03,81.7699966430664,80.61000061035156,81.7699966430664,80.9000015258789,8562900.0,79.98320007324219
2019-04-04,82.08000183105469,80.7699966430664,81.12000274658203,82.05000305175781,9360600.0,81.12016296386719
2019-04-05,82.52999877929688,81.94999694824219,82.1500015258789,82.48999786376953,10059100.0,81.55517578125
2019-04-08,83.19999694824219,82.58999633789062,82.66999816894531,83.0,9108200.0,82.05939483642578
2019-04-09,82.58000183105469,81.73999786376953,82.5199966430664,81.93000030517578,8561600.0,81.00152587890625
2019-04-10,82.08000183105469,81.41000366210938,81.91999816894531,81.55999755859375,10324300.0,80.63571166992188
2019-04-11,82.06999969482422,81.0199966430664,81.54000091552734,81.94999694824219,9115100.0,81.02129364013672
2019-04-12,82.80999755859375,80.58000183105469,82.80999755859375,80.91999816894531,16638700.0,80.00296783447266
2019-04-15,81.05999755859375,80.5199966430664,80.88999938964844,80.6500015258789,8536100.0,79.73603057861328
2019-04-16,81.3499984741211,80.69000244140625,80.80999755859375,81.19999694824219,7005700.0,80.27979278564453
2019-04-17,81.69999694824219,81.08000183105469,81.55000305175781,81.43000030517578,8311400.0,80.50718688964844
2019-04-18,81.83000183105469,81.06999969482422,81.55999755859375,81.12999725341797,9493900.0,80.21058654785156
2019-04-22,83.22000122070312,81.63999938964844,81.87000274658203,82.9000015258789,10770600.0,81.96053314208984
2019-04-23,83.48999786376953,82.68000030517578,83.19000244140625,83.37999725341797,10595100.0,82.43508911132812
2019-04-24,83.08000183105469,81.7300033569336,83.01000213623047,81.76000213623047,11684000.0,80.83345031738281
2019-04-25,82.83999633789062,81.4000015258789,81.6500015258789,82.22000122070312,11135000.0,81.28823852539062
2019-04-26,80.62999725341797,79.55999755859375,80.2699966430664,80.48999786376953,18053500.0,79.57784271240234
2019-04-29,80.37999725341797,79.66000366210938,80.12000274658203,79.97000122070312,10023700.0,79.06373596191406
2019-04-30,80.52999877929688,79.93000030517578,80.37000274658203,80.27999877929688,13721500.0,79.3702163696289
2019-05-01,80.26000213623047,78.62000274658203,79.94000244140625,78.66999816894531,13909800.0,77.7784652709961
2019-05-02,78.5,77.23999786376953,78.27999877929688,77.29000091552734,15360400.0,76.41410827636719
2019-05-03,78.20999908447266,77.44000244140625,77.79000091552734,77.47000122070312,12180700.0,76.5920639038086
